<?xml version="1.0" encoding="UTF-8"?>
<schema xmlns="http://purl.oclc.org/dsdl/schematron" queryBinding="xslt2">
   <title>Schematron file for transaction ELGA CDA Dokument eMedikation Rezept (1.2.40.0.34.77.4.50 2013-12-08T00:00:00)</title>
   <ns uri="urn:hl7-org:v3" prefix="hl7"/>
   <ns uri="urn:hl7-org:v3" prefix="cda"/>
   <ns uri="http://www.w3.org/2001/XMLSchema-instance" prefix="xsi"/>
   <ns uri="http://www.w3.org/2001/XMLSchema" prefix="xs"/>
   <!-- Add extra namespaces -->
   <ns uri="urn:ihe:pharm:medication" prefix="pharm"/>
   <ns uri="http://www.w3.org/XML/1998/namespace" prefix="xml"/>
   <!-- Include realm specific schematron -->
   <include href="include/check-CDA-tables.AT.sch"/>
   <!-- Include datatype abstract schematrons -->
   <pattern>
      <include href="include/DTr1_AD.sch"/>
      <include href="include/DTr1_AD.CA.sch"/>
      <include href="include/DTr1_AD.CA.BASIC.sch"/>
      <include href="include/DTr1_AD.DE.sch"/>
      <include href="include/DTr1_AD.EPSOS.sch"/>
      <include href="include/DTr1_AD.IPS.sch"/>
      <include href="include/DTr1_AD.NL.sch"/>
      <include href="include/DTr1_ADXP.sch"/>
      <include href="include/DTr1_ANY.sch"/>
      <include href="include/DTr1_BIN.sch"/>
      <include href="include/DTr1_BL.sch"/>
      <include href="include/DTr1_BN.sch"/>
      <include href="include/DTr1_BXIT_IVL_PQ.sch"/>
      <include href="include/DTr1_CD.sch"/>
      <include href="include/DTr1_CD.EPSOS.sch"/>
      <include href="include/DTr1_CD.IPS.sch"/>
      <include href="include/DTr1_CD.SDTC.sch"/>
      <include href="include/DTr1_CE.sch"/>
      <include href="include/DTr1_CE.EPSOS.sch"/>
      <include href="include/DTr1_CE.IPS.sch"/>
      <include href="include/DTr1_CO.sch"/>
      <include href="include/DTr1_CO.EPSOS.sch"/>
      <include href="include/DTr1_CR.sch"/>
      <include href="include/DTr1_CS.sch"/>
      <include href="include/DTr1_CS.LANG.sch"/>
      <include href="include/DTr1_CV.sch"/>
      <include href="include/DTr1_CV.EPSOS.sch"/>
      <include href="include/DTr1_CV.IPS.sch"/>
      <include href="include/DTr1_ED.sch"/>
      <include href="include/DTr1_EIVL.event.sch"/>
      <include href="include/DTr1_EIVL_TS.sch"/>
      <include href="include/DTr1_EN.sch"/>
      <include href="include/DTr1_ENXP.sch"/>
      <include href="include/DTr1_hl7nl-INT.sch"/>
      <include href="include/DTr1_hl7nl-IVL_QTY.sch"/>
      <include href="include/DTr1_hl7nl-IVL_TS.sch"/>
      <include href="include/DTr1_hl7nl-PIVL_TS.sch"/>
      <include href="include/DTr1_hl7nl-PQ.sch"/>
      <include href="include/DTr1_hl7nl-QSET_QTY.sch"/>
      <include href="include/DTr1_hl7nl-RTO.sch"/>
      <include href="include/DTr1_hl7nl-TS.sch"/>
      <include href="include/DTr1_II.sch"/>
      <include href="include/DTr1_II.AT.ATU.sch"/>
      <include href="include/DTr1_II.AT.BLZ.sch"/>
      <include href="include/DTr1_II.AT.DVR.sch"/>
      <include href="include/DTr1_II.AT.KTONR.sch"/>
      <include href="include/DTr1_II.EPSOS.sch"/>
      <include href="include/DTr1_II.NL.AGB.sch"/>
      <include href="include/DTr1_II.NL.BIG.sch"/>
      <include href="include/DTr1_II.NL.BSN.sch"/>
      <include href="include/DTr1_II.NL.URA.sch"/>
      <include href="include/DTr1_II.NL.UZI.sch"/>
      <include href="include/DTr1_INT.sch"/>
      <include href="include/DTr1_INT.NONNEG.sch"/>
      <include href="include/DTr1_INT.POS.sch"/>
      <include href="include/DTr1_IVL_INT.sch"/>
      <include href="include/DTr1_IVL_MO.sch"/>
      <include href="include/DTr1_IVL_PQ.sch"/>
      <include href="include/DTr1_IVL_REAL.sch"/>
      <include href="include/DTr1_IVL_TS.sch"/>
      <include href="include/DTr1_IVL_TS.CH.TZ.sch"/>
      <include href="include/DTr1_IVL_TS.EPSOS.TZ.sch"/>
      <include href="include/DTr1_IVL_TS.EPSOS.TZ.OPT.sch"/>
      <include href="include/DTr1_IVL_TS.IPS.TZ.sch"/>
      <include href="include/DTr1_IVXB_INT.sch"/>
      <include href="include/DTr1_IVXB_MO.sch"/>
      <include href="include/DTr1_IVXB_PQ.sch"/>
      <include href="include/DTr1_IVXB_REAL.sch"/>
      <include href="include/DTr1_IVXB_TS.sch"/>
      <include href="include/DTr1_MO.sch"/>
      <include href="include/DTr1_ON.sch"/>
      <include href="include/DTr1_PIVL_TS.sch"/>
      <include href="include/DTr1_PN.sch"/>
      <include href="include/DTr1_PN.CA.sch"/>
      <include href="include/DTr1_PN.NL.sch"/>
      <include href="include/DTr1_PQ.sch"/>
      <include href="include/DTr1_PQR.sch"/>
      <include href="include/DTr1_QTY.sch"/>
      <include href="include/DTr1_REAL.sch"/>
      <include href="include/DTr1_REAL.NONNEG.sch"/>
      <include href="include/DTr1_REAL.POS.sch"/>
      <include href="include/DTr1_RTO.sch"/>
      <include href="include/DTr1_RTO_PQ_PQ.sch"/>
      <include href="include/DTr1_RTO_QTY_QTY.sch"/>
      <include href="include/DTr1_SC.sch"/>
      <include href="include/DTr1_SD.TEXT.sch"/>
      <include href="include/DTr1_ST.sch"/>
      <include href="include/DTr1_SXCM_INT.sch"/>
      <include href="include/DTr1_SXCM_MO.sch"/>
      <include href="include/DTr1_SXCM_PQ.sch"/>
      <include href="include/DTr1_SXCM_REAL.sch"/>
      <include href="include/DTr1_SXCM_TS.sch"/>
      <include href="include/DTr1_SXPR_TS.sch"/>
      <include href="include/DTr1_TEL.sch"/>
      <include href="include/DTr1_TEL.AT.sch"/>
      <include href="include/DTr1_TEL.CA.EMAIL.sch"/>
      <include href="include/DTr1_TEL.CA.PHONE.sch"/>
      <include href="include/DTr1_TEL.EPSOS.sch"/>
      <include href="include/DTr1_TEL.IPS.sch"/>
      <include href="include/DTr1_TEL.NL.EXTENDED.sch"/>
      <include href="include/DTr1_thumbnail.sch"/>
      <include href="include/DTr1_TN.sch"/>
      <include href="include/DTr1_TS.sch"/>
      <include href="include/DTr1_TS.AT.TZ.sch"/>
      <include href="include/DTr1_TS.CH.TZ.sch"/>
      <include href="include/DTr1_TS.DATE.sch"/>
      <include href="include/DTr1_TS.DATE.FULL.sch"/>
      <include href="include/DTr1_TS.DATE.MIN.sch"/>
      <include href="include/DTr1_TS.DATETIME.MIN.sch"/>
      <include href="include/DTr1_TS.DATETIMETZ.MIN.sch"/>
      <include href="include/DTr1_TS.EPSOS.TZ.sch"/>
      <include href="include/DTr1_TS.EPSOS.TZ.OPT.sch"/>
      <include href="include/DTr1_TS.IPS.TZ.sch"/>
      <include href="include/DTr1_URL.sch"/>
      <include href="include/DTr1_URL.NL.EXTENDED.sch"/>
   </pattern>

   <!-- Include the project schematrons related to scenario cdaempr -->

   <!-- CDARezept -->
   <pattern>
      <title>ELGA CDA Dokument eMedikation Rezept</title>
      <rule context="/">
         <assert role="warning"
                 test="descendant-or-self::hl7:ClinicalDocument[hl7:templateId[@root = '1.2.40.0.34.11.1'] and hl7:templateId[@root = '1.2.40.0.34.11.8.1'] and hl7:templateId[@root = '1.3.6.1.4.1.19376.1.9.1.1.1'] and hl7:templateId[@root = '1.3.6.1.4.1.19376.1.5.3.1.1.1'] and hl7:templateId[@root = '1.2.40.0.34.11.8.0.3']]"
                 see="http://elga.art-decor.org/elga-html-20200130T133330/tmp-1.2.40.0.34.11.10005-2014-01-31T000000.html">(CDARezept): Instance is expected to have the following element: descendant-or-self::hl7:ClinicalDocument[hl7:templateId[@root = '1.2.40.0.34.11.1'] and hl7:templateId[@root = '1.2.40.0.34.11.8.1'] and hl7:templateId[@root = '1.3.6.1.4.1.19376.1.9.1.1.1'] and hl7:templateId[@root = '1.3.6.1.4.1.19376.1.5.3.1.1.1'] and hl7:templateId[@root = '1.2.40.0.34.11.8.0.3']]</assert>
      </rule>
   </pattern>
   <include href="include/1.2.40.0.34.11.10005-2014-01-31T000000.sch"/>
   <include href="include/1.2.40.0.34.11.10005-2014-01-31T000000-closed.sch"/>


   <!-- Create phases for more targeted validation on large instances -->
   <phase id="AllExceptClosed">
      <active pattern="template-1.2.40.0.34.11.10005-2014-01-31T000000"/>
      <active pattern="template-1.2.40.0.34.11.8.1-2014-01-31T000000"/>
      <active pattern="template-1.2.40.0.34.11.8.1.2.1-2014-01-31T000000"/>
      <active pattern="template-1.2.40.0.34.11.8.1.3.1-2014-09-01T000000"/>
   </phase>
   <phase id="CDARezept">
      <active pattern="template-1.2.40.0.34.11.10005-2014-01-31T000000"/>
   </phase>
   <phase id="CDARezept-closed">
      <active pattern="template-1.2.40.0.34.11.10005-2014-01-31T000000-closed"/>
   </phase>
   <phase id="eMedikationRezept-20140131T000000">
      <active pattern="template-1.2.40.0.34.11.8.1-2014-01-31T000000"/>
   </phase>
   <phase id="RezeptSection">
      <active pattern="template-1.2.40.0.34.11.8.1.2.1-2014-01-31T000000"/>
   </phase>
   <phase id="MedikationVerordnungEntryemed-20140901T000000">
      <active pattern="template-1.2.40.0.34.11.8.1.3.1-2014-09-01T000000"/>
   </phase>

   <!-- Include schematrons from templates with explicit * or ** context (but no representing templates), only those used in scenario template -->

   <!-- eMedikationRezept -->
   <include href="include/1.2.40.0.34.11.8.1-2014-01-31T000000.sch"/>
   <!-- RezeptSection -->
   <include href="include/1.2.40.0.34.11.8.1.2.1-2014-01-31T000000.sch"/>
   <!-- MedikationVerordnungEntryemed -->
   <include href="include/1.2.40.0.34.11.8.1.3.1-2014-09-01T000000.sch"/>

</schema>
