{
    "resourceType": "Bundle",
    "type": "searchset",
    "timestamp": "2020-05-18T13:30:02Z",
    "entry": [
        {
            "resource": {
                "resourceType": "DocumentReference",
                "status": "current",
                "content": [
                    {
                        "attachment": {
                            "contentType": "application/fhir+json", 
                            "data": "base64encodedComposition" //base 64 encoded composition, see example/Composition_Complete_Immunizationstate.jsonc
                        }
                    }
                ]
            }
        }
    ]
}