{
    "resourceType": "Bundle",
    "type": "transaction-response",
    "timestamp": "2020-05-18T13:30:02Z",
    "entry": [
        {
            "response": {
                "status": "201"
            }
        }
    ]
}