code,name,urnoid,org-id-urnoid,diffcontenttype,phc-contenttype,prescription-contenttype
1,KOLLAB Bereich,1,1,0,na,na
1.2.40.0.34.3.9.114,ehealth-eImpfpass,1,1,0,na,na
1.2.40.0.34.3.9.104,Salzburg,0,1,1,34131-3,na
1.2.40.0.34.3.9.109,A1,0,0,0,na,na
1.2.40.0.34.3.9.107,eMedikation,1,0,1,na,52471-0
1.2.40.0.34.3.9.103,Steiermark,,,,,
1.2.40.0.34.3.9.105,Oberösterreich,,,,,
,Niederösterreich,,,,,
1.2.40.0.34.3.9.106,Kärnten,,,,,
1.2.40.0.34.3.9.111,Vorarlberg,,,,,
1.2.40.0.34.3.9.112,Burgenland,,,,,
 1.2.40.0.34.3.9.102,Tirol,,,,,
,Wien,,,,,
1.2.40.0.34.3.9.110,Health-net-ad,,,,,
