<?xml version="1.0" encoding="UTF-8"?>
<!--
Template derived pattern
===========================================
ID: 1.2.40.0.34.6.0.11.3.1
Name: Immunization Entry
Description: Enthält die Dokumentation einer einzelnen Impfung (einzelne Gabe eines Impfstoffes). Wird die  Nachtragung  einer Impfung dokumentiert,  MUSS  dies durch das Element participant/@typeCode = "ENT" gekennzeichnet sein (M [1..1]).
-->
<pattern xmlns="http://purl.oclc.org/dsdl/schematron" id="template-1.2.40.0.34.6.0.11.3.1-2019-01-16T161257-closed">
    <title>Immunization Entry</title>

   <!-- Checking undefined contents for template/element @isClosed="true". Match context that we did not already match -->
    <rule context="*[hl7:substanceAdministration[hl7:templateId[@root = '1.2.40.0.34.6.0.11.3.1'] and hl7:templateId[@root = '2.16.840.1.113883.10.20.1.24'] and hl7:templateId[@root = '1.3.6.1.4.1.19376.1.5.3.1.4.12']]]/*[not(@xsi:nil = 'true')][not(self::hl7:substanceAdministration[hl7:templateId[@root = '1.2.40.0.34.6.0.11.3.1'] and hl7:templateId[@root = '2.16.840.1.113883.10.20.1.24'] and hl7:templateId[@root = '1.3.6.1.4.1.19376.1.5.3.1.4.12']])]" id="d245561e3279-true-d402193e0">
        <assert role="error" see="http://art-decor.org/art-decor/decor-templates--elgaimpf-?id=1.2.40.0.34.6.0.11.3.1" test="not(.)">(atcdabbr_entry_Immunization)/d245561e3279-true-d402193e0: '<value-of select="name(..)"/>' ist als geschlossen definiert und dieses Element '<name/>' ist nicht erlaubt oder nicht mit diesem Inhalt erlaubt. Dies kann templateId, code oder id betreffen. Erwartet:  hl7:substanceAdministration[hl7:templateId[@root = '1.2.40.0.34.6.0.11.3.1'] and hl7:templateId[@root = '2.16.840.1.113883.10.20.1.24'] and hl7:templateId[@root = '1.3.6.1.4.1.19376.1.5.3.1.4.12']] (rule-reference: d245561e3279-true-d402193e0)</assert>
    </rule>

   <!-- Checking undefined contents for template/element @isClosed="true". Match context that we did not already match -->
    <rule context="*[hl7:substanceAdministration[hl7:templateId[@root = '1.2.40.0.34.6.0.11.3.1'] and hl7:templateId[@root = '2.16.840.1.113883.10.20.1.24'] and hl7:templateId[@root = '1.3.6.1.4.1.19376.1.5.3.1.4.12']]]/hl7:substanceAdministration[hl7:templateId[@root = '1.2.40.0.34.6.0.11.3.1'] and hl7:templateId[@root = '2.16.840.1.113883.10.20.1.24'] and hl7:templateId[@root = '1.3.6.1.4.1.19376.1.5.3.1.4.12']]/*[not(@xsi:nil = 'true')][not(self::hl7:templateId[@root = '1.2.40.0.34.6.0.11.3.1'] | self::hl7:templateId[@root = '2.16.840.1.113883.10.20.1.24'] | self::hl7:templateId[@root = '1.3.6.1.4.1.19376.1.5.3.1.4.12'] | self::hl7:id[not(@nullFlavor)] | self::hl7:code[(@code = 'IMMUNIZ' and @codeSystem = '2.16.840.1.113883.5.4')] | self::hl7:text | self::hl7:statusCode[@code = 'completed'] | self::hl7:effectiveTime[not(@nullFlavor)] | self::hl7:effectiveTime[@nullFlavor='UNK'] | self::hl7:routeCode[@nullFlavor = 'NA'] | self::hl7:approachSiteCode[@nullFlavor = 'NA'] | self::hl7:doseQuantity[not(hl7:low|hl7:high|@nullFlavor)] | self::hl7:doseQuantity[@nullFlavor='UNK'] | self::hl7:consumable[hl7:manufacturedProduct/hl7:templateId[@root='1.2.40.0.34.6.0.11.9.32']] | self::hl7:consumable[hl7:manufacturedProduct/hl7:templateId[@root='1.2.40.0.34.6.0.11.9.31']] | self::hl7:performer[hl7:templateId[@root = '1.2.40.0.34.6.0.11.9.21']] | self::hl7:author[hl7:assignedAuthor] | self::hl7:participant[hl7:templateId[@root='1.2.40.0.34.6.0.11.9.14']] | self::hl7:entryRelationship[hl7:observation[hl7:templateId[@root = '1.2.40.0.34.6.0.11.3.2']]] | self::hl7:entryRelationship[hl7:act[hl7:templateId[@root = '1.2.40.0.34.6.0.11.3.5']]] | self::hl7:reference[hl7:externalDocument[hl7:templateId[@root = '1.2.40.0.34.6.0.11.3.14']]] | self::hl7:precondition[hl7:criterion[hl7:templateId[@root = '1.2.40.0.34.6.0.11.3.10']]])]" id="d245561e3477-true-d402690e0">
        <assert role="error" see="http://art-decor.org/art-decor/decor-templates--elgaimpf-?id=1.2.40.0.34.6.0.11.3.1" test="not(.)">(atcdabbr_entry_Immunization)/d245561e3477-true-d402690e0: '<value-of select="name(..)"/>' ist als geschlossen definiert und dieses Element '<name/>' ist nicht erlaubt oder nicht mit diesem Inhalt erlaubt. Dies kann templateId, code oder id betreffen. Erwartet:  hl7:templateId[@root = '1.2.40.0.34.6.0.11.3.1'] | hl7:templateId[@root = '2.16.840.1.113883.10.20.1.24'] | hl7:templateId[@root = '1.3.6.1.4.1.19376.1.5.3.1.4.12'] | hl7:id[not(@nullFlavor)] | hl7:code[(@code = 'IMMUNIZ' and @codeSystem = '2.16.840.1.113883.5.4')] | hl7:text | hl7:statusCode[@code = 'completed'] | hl7:effectiveTime[not(@nullFlavor)] | hl7:effectiveTime[@nullFlavor='UNK'] | hl7:routeCode[@nullFlavor = 'NA'] | hl7:approachSiteCode[@nullFlavor = 'NA'] | hl7:doseQuantity[not(hl7:low|hl7:high|@nullFlavor)] | hl7:doseQuantity[@nullFlavor='UNK'] | hl7:consumable[hl7:manufacturedProduct/hl7:templateId[@root='1.2.40.0.34.6.0.11.9.32']] | hl7:consumable[hl7:manufacturedProduct/hl7:templateId[@root='1.2.40.0.34.6.0.11.9.31']] | hl7:performer[hl7:templateId[@root = '1.2.40.0.34.6.0.11.9.21']] | hl7:author[hl7:assignedAuthor] | hl7:participant[hl7:templateId[@root='1.2.40.0.34.6.0.11.9.14']] | hl7:entryRelationship[hl7:observation[hl7:templateId[@root = '1.2.40.0.34.6.0.11.3.2']]] | hl7:entryRelationship[hl7:act[hl7:templateId[@root = '1.2.40.0.34.6.0.11.3.5']]] | hl7:reference[hl7:externalDocument[hl7:templateId[@root = '1.2.40.0.34.6.0.11.3.14']]] | hl7:precondition[hl7:criterion[hl7:templateId[@root = '1.2.40.0.34.6.0.11.3.10']]] (rule-reference: d245561e3477-true-d402690e0)</assert>
    </rule>

   <!-- Checking undefined contents for template/element @isClosed="true". Match context that we did not already match -->
    <rule context="*[hl7:substanceAdministration[hl7:templateId[@root = '1.2.40.0.34.6.0.11.3.1'] and hl7:templateId[@root = '2.16.840.1.113883.10.20.1.24'] and hl7:templateId[@root = '1.3.6.1.4.1.19376.1.5.3.1.4.12']]]/hl7:substanceAdministration[hl7:templateId[@root = '1.2.40.0.34.6.0.11.3.1'] and hl7:templateId[@root = '2.16.840.1.113883.10.20.1.24'] and hl7:templateId[@root = '1.3.6.1.4.1.19376.1.5.3.1.4.12']]/hl7:text/*[not(@xsi:nil = 'true')][not(self::hl7:reference[not(@nullFlavor)])]" id="d402718e37-true-d402729e0">
        <assert role="error" see="http://art-decor.org/art-decor/decor-templates--elgaimpf-?id=1.2.40.0.34.6.0.11.9.1" test="not(.)">(atcdabrr_other_NarrativeTextReference)/d402718e37-true-d402729e0: '<value-of select="name(..)"/>' ist als geschlossen definiert und dieses Element '<name/>' ist nicht erlaubt oder nicht mit diesem Inhalt erlaubt. Dies kann templateId, code oder id betreffen. Erwartet:  hl7:reference[not(@nullFlavor)] (rule-reference: d402718e37-true-d402729e0)</assert>
    </rule>

   <!-- Checking undefined contents for template/element @isClosed="true". Match context that we did not already match -->
    <rule context="*[hl7:substanceAdministration[hl7:templateId[@root = '1.2.40.0.34.6.0.11.3.1'] and hl7:templateId[@root = '2.16.840.1.113883.10.20.1.24'] and hl7:templateId[@root = '1.3.6.1.4.1.19376.1.5.3.1.4.12']]]/hl7:substanceAdministration[hl7:templateId[@root = '1.2.40.0.34.6.0.11.3.1'] and hl7:templateId[@root = '2.16.840.1.113883.10.20.1.24'] and hl7:templateId[@root = '1.3.6.1.4.1.19376.1.5.3.1.4.12']]/hl7:doseQuantity[not(hl7:low|hl7:high|@nullFlavor)]/*[not(@xsi:nil = 'true')][not(self::hl7:low | self::hl7:center | self::hl7:width | self::hl7:high)]" id="d245561e3618-true-d402776e0">
        <assert role="error" see="http://art-decor.org/art-decor/decor-templates--elgaimpf-?id=1.2.40.0.34.6.0.11.3.1" test="not(.)">(atcdabbr_entry_Immunization)/d245561e3618-true-d402776e0: '<value-of select="name(..)"/>' ist als geschlossen definiert und dieses Element '<name/>' ist nicht erlaubt oder nicht mit diesem Inhalt erlaubt. Dies kann templateId, code oder id betreffen. Erwartet:  hl7:low | hl7:center | hl7:width | hl7:high (rule-reference: d245561e3618-true-d402776e0)</assert>
    </rule>

   <!-- Checking undefined contents for template/element @isClosed="true". Match context that we did not already match -->
    <rule context="*[hl7:substanceAdministration[hl7:templateId[@root = '1.2.40.0.34.6.0.11.3.1'] and hl7:templateId[@root = '2.16.840.1.113883.10.20.1.24'] and hl7:templateId[@root = '1.3.6.1.4.1.19376.1.5.3.1.4.12']]]/hl7:substanceAdministration[hl7:templateId[@root = '1.2.40.0.34.6.0.11.3.1'] and hl7:templateId[@root = '2.16.840.1.113883.10.20.1.24'] and hl7:templateId[@root = '1.3.6.1.4.1.19376.1.5.3.1.4.12']]/hl7:consumable[hl7:manufacturedProduct/hl7:templateId[@root='1.2.40.0.34.6.0.11.9.32']]/*[not(@xsi:nil = 'true')][not(self::hl7:manufacturedProduct[hl7:templateId[@root = '1.2.40.0.34.6.0.11.9.32'] and hl7:templateId[@root = '1.3.6.1.4.1.19376.1.5.3.1.4.7.2'] and hl7:templateId[@root = '2.16.840.1.113883.10.20.1.53']])]" id="d245561e3697-true-d402854e0">
        <assert role="error" see="http://art-decor.org/art-decor/decor-templates--elgaimpf-?id=1.2.40.0.34.6.0.11.3.1" test="not(.)">(atcdabbr_entry_Immunization)/d245561e3697-true-d402854e0: '<value-of select="name(..)"/>' ist als geschlossen definiert und dieses Element '<name/>' ist nicht erlaubt oder nicht mit diesem Inhalt erlaubt. Dies kann templateId, code oder id betreffen. Erwartet:  hl7:manufacturedProduct[hl7:templateId[@root = '1.2.40.0.34.6.0.11.9.32'] and hl7:templateId[@root = '1.3.6.1.4.1.19376.1.5.3.1.4.7.2'] and hl7:templateId[@root = '2.16.840.1.113883.10.20.1.53']] (rule-reference: d245561e3697-true-d402854e0)</assert>
    </rule>

   <!-- Checking undefined contents for template/element @isClosed="true". Match context that we did not already match -->
    <rule context="*[hl7:substanceAdministration[hl7:templateId[@root = '1.2.40.0.34.6.0.11.3.1'] and hl7:templateId[@root = '2.16.840.1.113883.10.20.1.24'] and hl7:templateId[@root = '1.3.6.1.4.1.19376.1.5.3.1.4.12']]]/hl7:substanceAdministration[hl7:templateId[@root = '1.2.40.0.34.6.0.11.3.1'] and hl7:templateId[@root = '2.16.840.1.113883.10.20.1.24'] and hl7:templateId[@root = '1.3.6.1.4.1.19376.1.5.3.1.4.12']]/hl7:consumable[hl7:manufacturedProduct/hl7:templateId[@root='1.2.40.0.34.6.0.11.9.32']]/hl7:manufacturedProduct[hl7:templateId[@root = '1.2.40.0.34.6.0.11.9.32'] and hl7:templateId[@root = '1.3.6.1.4.1.19376.1.5.3.1.4.7.2'] and hl7:templateId[@root = '2.16.840.1.113883.10.20.1.53']]/*[not(@xsi:nil = 'true')][not(self::hl7:templateId[@root = '1.2.40.0.34.6.0.11.9.32'] | self::hl7:templateId[@root = '1.3.6.1.4.1.19376.1.5.3.1.4.7.2'] | self::hl7:templateId[@root = '2.16.840.1.113883.10.20.1.53'] | self::hl7:id[not(@nullFlavor)] | self::hl7:manufacturedMaterial[hl7:templateId[@root = '1.3.6.1.4.1.19376.1.9.1.3.1']] | self::hl7:manufacturerOrganization)]" id="d402799e10-true-d402959e0">
        <assert role="error" see="http://art-decor.org/art-decor/decor-templates--elgaimpf-?id=1.2.40.0.34.6.0.11.3.1" test="not(.)">(atcdabbr_entry_Immunization)/d402799e10-true-d402959e0: '<value-of select="name(..)"/>' ist als geschlossen definiert und dieses Element '<name/>' ist nicht erlaubt oder nicht mit diesem Inhalt erlaubt. Dies kann templateId, code oder id betreffen. Erwartet:  hl7:templateId[@root = '1.2.40.0.34.6.0.11.9.32'] | hl7:templateId[@root = '1.3.6.1.4.1.19376.1.5.3.1.4.7.2'] | hl7:templateId[@root = '2.16.840.1.113883.10.20.1.53'] | hl7:id[not(@nullFlavor)] | hl7:manufacturedMaterial[hl7:templateId[@root = '1.3.6.1.4.1.19376.1.9.1.3.1']] | hl7:manufacturerOrganization (rule-reference: d402799e10-true-d402959e0)</assert>
    </rule>

   <!-- Checking undefined contents for template/element @isClosed="true". Match context that we did not already match -->
    <rule context="*[hl7:substanceAdministration[hl7:templateId[@root = '1.2.40.0.34.6.0.11.3.1'] and hl7:templateId[@root = '2.16.840.1.113883.10.20.1.24'] and hl7:templateId[@root = '1.3.6.1.4.1.19376.1.5.3.1.4.12']]]/hl7:substanceAdministration[hl7:templateId[@root = '1.2.40.0.34.6.0.11.3.1'] and hl7:templateId[@root = '2.16.840.1.113883.10.20.1.24'] and hl7:templateId[@root = '1.3.6.1.4.1.19376.1.5.3.1.4.12']]/hl7:consumable[hl7:manufacturedProduct/hl7:templateId[@root='1.2.40.0.34.6.0.11.9.32']]/hl7:manufacturedProduct[hl7:templateId[@root = '1.2.40.0.34.6.0.11.9.32'] and hl7:templateId[@root = '1.3.6.1.4.1.19376.1.5.3.1.4.7.2'] and hl7:templateId[@root = '2.16.840.1.113883.10.20.1.53']]/hl7:manufacturedMaterial[hl7:templateId[@root = '1.3.6.1.4.1.19376.1.9.1.3.1']]/*[not(@xsi:nil = 'true')][not(self::hl7:templateId[@root = '1.3.6.1.4.1.19376.1.9.1.3.1'] | self::hl7:code[concat(@code, @codeSystem) = doc('include/voc-1.2.40.0.34.6.0.10.14-DYNAMIC.xml')//valueSet[1]/conceptList/concept/concat(@code, @codeSystem) or concat(@code, @codeSystem) = doc('include/voc-1.2.40.0.34.6.0.10.10-DYNAMIC.xml')//valueSet[1]/conceptList/concept/concat(@code, @codeSystem) or @nullFlavor] | self::hl7:name | self::hl7:lotNumberText[not(@nullFlavor)] | self::hl7:lotNumberText[@nullFlavor='NA'] | self::hl7:lotNumberText[@nullFlavor='UNK'] | self::pharm:ingredient[pharm:ingredient])]" id="d402799e50-true-d403025e0">
        <assert role="error" see="http://art-decor.org/art-decor/decor-templates--elgaimpf-?id=1.2.40.0.34.6.0.11.3.1" test="not(.)">(atcdabbr_entry_Immunization)/d402799e50-true-d403025e0: '<value-of select="name(..)"/>' ist als geschlossen definiert und dieses Element '<name/>' ist nicht erlaubt oder nicht mit diesem Inhalt erlaubt. Dies kann templateId, code oder id betreffen. Erwartet:  hl7:templateId[@root = '1.3.6.1.4.1.19376.1.9.1.3.1'] | hl7:code[concat(@code, @codeSystem) = doc('include/voc-1.2.40.0.34.6.0.10.14-DYNAMIC.xml')//valueSet[1]/conceptList/concept/concat(@code, @codeSystem) or concat(@code, @codeSystem) = doc('include/voc-1.2.40.0.34.6.0.10.10-DYNAMIC.xml')//valueSet[1]/conceptList/concept/concat(@code, @codeSystem) or @nullFlavor] | hl7:name | hl7:lotNumberText[not(@nullFlavor)] | hl7:lotNumberText[@nullFlavor='NA'] | hl7:lotNumberText[@nullFlavor='UNK'] | pharm:ingredient[pharm:ingredient] (rule-reference: d402799e50-true-d403025e0)</assert>
    </rule>

   <!-- Checking undefined contents for template/element @isClosed="true". Match context that we did not already match -->
    <rule context="*[hl7:substanceAdministration[hl7:templateId[@root = '1.2.40.0.34.6.0.11.3.1'] and hl7:templateId[@root = '2.16.840.1.113883.10.20.1.24'] and hl7:templateId[@root = '1.3.6.1.4.1.19376.1.5.3.1.4.12']]]/hl7:substanceAdministration[hl7:templateId[@root = '1.2.40.0.34.6.0.11.3.1'] and hl7:templateId[@root = '2.16.840.1.113883.10.20.1.24'] and hl7:templateId[@root = '1.3.6.1.4.1.19376.1.5.3.1.4.12']]/hl7:consumable[hl7:manufacturedProduct/hl7:templateId[@root='1.2.40.0.34.6.0.11.9.32']]/hl7:manufacturedProduct[hl7:templateId[@root = '1.2.40.0.34.6.0.11.9.32'] and hl7:templateId[@root = '1.3.6.1.4.1.19376.1.5.3.1.4.7.2'] and hl7:templateId[@root = '2.16.840.1.113883.10.20.1.53']]/hl7:manufacturedMaterial[hl7:templateId[@root = '1.3.6.1.4.1.19376.1.9.1.3.1']]/hl7:code[concat(@code, @codeSystem) = doc('include/voc-1.2.40.0.34.6.0.10.14-DYNAMIC.xml')//valueSet[1]/conceptList/concept/concat(@code, @codeSystem) or concat(@code, @codeSystem) = doc('include/voc-1.2.40.0.34.6.0.10.10-DYNAMIC.xml')//valueSet[1]/conceptList/concept/concat(@code, @codeSystem) or @nullFlavor]/*[not(@xsi:nil = 'true')][not(self::hl7:originalText | self::hl7:translation)]" id="d402799e64-true-d403055e0">
        <assert role="error" see="http://art-decor.org/art-decor/decor-templates--elgaimpf-?id=1.2.40.0.34.6.0.11.3.1" test="not(.)">(atcdabbr_entry_Immunization)/d402799e64-true-d403055e0: '<value-of select="name(..)"/>' ist als geschlossen definiert und dieses Element '<name/>' ist nicht erlaubt oder nicht mit diesem Inhalt erlaubt. Dies kann templateId, code oder id betreffen. Erwartet:  hl7:originalText | hl7:translation (rule-reference: d402799e64-true-d403055e0)</assert>
    </rule>

   <!-- Checking undefined contents for template/element @isClosed="true". Match context that we did not already match -->
    <rule context="*[hl7:substanceAdministration[hl7:templateId[@root = '1.2.40.0.34.6.0.11.3.1'] and hl7:templateId[@root = '2.16.840.1.113883.10.20.1.24'] and hl7:templateId[@root = '1.3.6.1.4.1.19376.1.5.3.1.4.12']]]/hl7:substanceAdministration[hl7:templateId[@root = '1.2.40.0.34.6.0.11.3.1'] and hl7:templateId[@root = '2.16.840.1.113883.10.20.1.24'] and hl7:templateId[@root = '1.3.6.1.4.1.19376.1.5.3.1.4.12']]/hl7:consumable[hl7:manufacturedProduct/hl7:templateId[@root='1.2.40.0.34.6.0.11.9.32']]/hl7:manufacturedProduct[hl7:templateId[@root = '1.2.40.0.34.6.0.11.9.32'] and hl7:templateId[@root = '1.3.6.1.4.1.19376.1.5.3.1.4.7.2'] and hl7:templateId[@root = '2.16.840.1.113883.10.20.1.53']]/hl7:manufacturedMaterial[hl7:templateId[@root = '1.3.6.1.4.1.19376.1.9.1.3.1']]/hl7:code[concat(@code, @codeSystem) = doc('include/voc-1.2.40.0.34.6.0.10.14-DYNAMIC.xml')//valueSet[1]/conceptList/concept/concat(@code, @codeSystem) or concat(@code, @codeSystem) = doc('include/voc-1.2.40.0.34.6.0.10.10-DYNAMIC.xml')//valueSet[1]/conceptList/concept/concat(@code, @codeSystem) or @nullFlavor]/hl7:originalText/*[not(@xsi:nil = 'true')][not(self::hl7:reference[not(@nullFlavor)])]" id="d403059e10-true-d403070e0">
        <assert role="error" see="http://art-decor.org/art-decor/decor-templates--elgaimpf-?id=1.2.40.0.34.6.0.11.9.2" test="not(.)">(atcdabbr_other_OriginalTextReference)/d403059e10-true-d403070e0: '<value-of select="name(..)"/>' ist als geschlossen definiert und dieses Element '<name/>' ist nicht erlaubt oder nicht mit diesem Inhalt erlaubt. Dies kann templateId, code oder id betreffen. Erwartet:  hl7:reference[not(@nullFlavor)] (rule-reference: d403059e10-true-d403070e0)</assert>
    </rule>

   <!-- Checking undefined contents for template/element @isClosed="true". Match context that we did not already match -->
    <rule context="*[hl7:substanceAdministration[hl7:templateId[@root = '1.2.40.0.34.6.0.11.3.1'] and hl7:templateId[@root = '2.16.840.1.113883.10.20.1.24'] and hl7:templateId[@root = '1.3.6.1.4.1.19376.1.5.3.1.4.12']]]/hl7:substanceAdministration[hl7:templateId[@root = '1.2.40.0.34.6.0.11.3.1'] and hl7:templateId[@root = '2.16.840.1.113883.10.20.1.24'] and hl7:templateId[@root = '1.3.6.1.4.1.19376.1.5.3.1.4.12']]/hl7:consumable[hl7:manufacturedProduct/hl7:templateId[@root='1.2.40.0.34.6.0.11.9.32']]/hl7:manufacturedProduct[hl7:templateId[@root = '1.2.40.0.34.6.0.11.9.32'] and hl7:templateId[@root = '1.3.6.1.4.1.19376.1.5.3.1.4.7.2'] and hl7:templateId[@root = '2.16.840.1.113883.10.20.1.53']]/hl7:manufacturedMaterial[hl7:templateId[@root = '1.3.6.1.4.1.19376.1.9.1.3.1']]/pharm:ingredient[pharm:ingredient]/*[not(@xsi:nil = 'true')][not(self::pharm:ingredient[not(@nullFlavor)])]" id="d402799e185-true-d403101e0">
        <assert role="error" see="http://art-decor.org/art-decor/decor-templates--elgaimpf-?id=1.2.40.0.34.6.0.11.3.1" test="not(.)">(atcdabbr_entry_Immunization)/d402799e185-true-d403101e0: '<value-of select="name(..)"/>' ist als geschlossen definiert und dieses Element '<name/>' ist nicht erlaubt oder nicht mit diesem Inhalt erlaubt. Dies kann templateId, code oder id betreffen. Erwartet:  pharm:ingredient[not(@nullFlavor)] (rule-reference: d402799e185-true-d403101e0)</assert>
    </rule>

   <!-- Checking undefined contents for template/element @isClosed="true". Match context that we did not already match -->
    <rule context="*[hl7:substanceAdministration[hl7:templateId[@root = '1.2.40.0.34.6.0.11.3.1'] and hl7:templateId[@root = '2.16.840.1.113883.10.20.1.24'] and hl7:templateId[@root = '1.3.6.1.4.1.19376.1.5.3.1.4.12']]]/hl7:substanceAdministration[hl7:templateId[@root = '1.2.40.0.34.6.0.11.3.1'] and hl7:templateId[@root = '2.16.840.1.113883.10.20.1.24'] and hl7:templateId[@root = '1.3.6.1.4.1.19376.1.5.3.1.4.12']]/hl7:consumable[hl7:manufacturedProduct/hl7:templateId[@root='1.2.40.0.34.6.0.11.9.32']]/hl7:manufacturedProduct[hl7:templateId[@root = '1.2.40.0.34.6.0.11.9.32'] and hl7:templateId[@root = '1.3.6.1.4.1.19376.1.5.3.1.4.7.2'] and hl7:templateId[@root = '2.16.840.1.113883.10.20.1.53']]/hl7:manufacturedMaterial[hl7:templateId[@root = '1.3.6.1.4.1.19376.1.9.1.3.1']]/pharm:ingredient[pharm:ingredient]/pharm:ingredient[not(@nullFlavor)]/*[not(@xsi:nil = 'true')][not(self::pharm:code[@codeSystem = '2.16.840.1.113883.6.73' or @codeSystem = '1.2.40.0.34.5.156' or @nullFlavor] | self::pharm:name)]" id="d402799e192-true-d403121e0">
        <assert role="error" see="http://art-decor.org/art-decor/decor-templates--elgaimpf-?id=1.2.40.0.34.6.0.11.3.1" test="not(.)">(atcdabbr_entry_Immunization)/d402799e192-true-d403121e0: '<value-of select="name(..)"/>' ist als geschlossen definiert und dieses Element '<name/>' ist nicht erlaubt oder nicht mit diesem Inhalt erlaubt. Dies kann templateId, code oder id betreffen. Erwartet:  pharm:code[@codeSystem = '2.16.840.1.113883.6.73' or @codeSystem = '1.2.40.0.34.5.156' or @nullFlavor] | pharm:name (rule-reference: d402799e192-true-d403121e0)</assert>
    </rule>

   <!-- Checking undefined contents for template/element @isClosed="true". Match context that we did not already match -->
    <rule context="*[hl7:substanceAdministration[hl7:templateId[@root = '1.2.40.0.34.6.0.11.3.1'] and hl7:templateId[@root = '2.16.840.1.113883.10.20.1.24'] and hl7:templateId[@root = '1.3.6.1.4.1.19376.1.5.3.1.4.12']]]/hl7:substanceAdministration[hl7:templateId[@root = '1.2.40.0.34.6.0.11.3.1'] and hl7:templateId[@root = '2.16.840.1.113883.10.20.1.24'] and hl7:templateId[@root = '1.3.6.1.4.1.19376.1.5.3.1.4.12']]/hl7:consumable[hl7:manufacturedProduct/hl7:templateId[@root='1.2.40.0.34.6.0.11.9.32']]/hl7:manufacturedProduct[hl7:templateId[@root = '1.2.40.0.34.6.0.11.9.32'] and hl7:templateId[@root = '1.3.6.1.4.1.19376.1.5.3.1.4.7.2'] and hl7:templateId[@root = '2.16.840.1.113883.10.20.1.53']]/hl7:manufacturedMaterial[hl7:templateId[@root = '1.3.6.1.4.1.19376.1.9.1.3.1']]/pharm:ingredient[pharm:ingredient]/pharm:ingredient[not(@nullFlavor)]/pharm:code[@codeSystem = '2.16.840.1.113883.6.73' or @codeSystem = '1.2.40.0.34.5.156' or @nullFlavor]/*[not(@xsi:nil = 'true')][not(self::hl7:originalText | self::hl7:translation)]" id="d402799e201-true-d403140e0">
        <assert role="error" see="http://art-decor.org/art-decor/decor-templates--elgaimpf-?id=1.2.40.0.34.6.0.11.3.1" test="not(.)">(atcdabbr_entry_Immunization)/d402799e201-true-d403140e0: '<value-of select="name(..)"/>' ist als geschlossen definiert und dieses Element '<name/>' ist nicht erlaubt oder nicht mit diesem Inhalt erlaubt. Dies kann templateId, code oder id betreffen. Erwartet:  hl7:originalText | hl7:translation (rule-reference: d402799e201-true-d403140e0)</assert>
    </rule>

   <!-- Checking undefined contents for template/element @isClosed="true". Match context that we did not already match -->
    <rule context="*[hl7:substanceAdministration[hl7:templateId[@root = '1.2.40.0.34.6.0.11.3.1'] and hl7:templateId[@root = '2.16.840.1.113883.10.20.1.24'] and hl7:templateId[@root = '1.3.6.1.4.1.19376.1.5.3.1.4.12']]]/hl7:substanceAdministration[hl7:templateId[@root = '1.2.40.0.34.6.0.11.3.1'] and hl7:templateId[@root = '2.16.840.1.113883.10.20.1.24'] and hl7:templateId[@root = '1.3.6.1.4.1.19376.1.5.3.1.4.12']]/hl7:consumable[hl7:manufacturedProduct/hl7:templateId[@root='1.2.40.0.34.6.0.11.9.32']]/hl7:manufacturedProduct[hl7:templateId[@root = '1.2.40.0.34.6.0.11.9.32'] and hl7:templateId[@root = '1.3.6.1.4.1.19376.1.5.3.1.4.7.2'] and hl7:templateId[@root = '2.16.840.1.113883.10.20.1.53']]/hl7:manufacturerOrganization/*[not(@xsi:nil = 'true')][not(self::hl7:id[not(@nullFlavor)] | self::hl7:name[not(@nullFlavor)] | self::hl7:telecom[not(@nullFlavor)] | self::hl7:addr[not(@nullFlavor)])]" id="d402799e241-true-d403182e0">
        <assert role="error" see="http://art-decor.org/art-decor/decor-templates--elgaimpf-?id=1.2.40.0.34.6.0.11.3.1" test="not(.)">(atcdabbr_entry_Immunization)/d402799e241-true-d403182e0: '<value-of select="name(..)"/>' ist als geschlossen definiert und dieses Element '<name/>' ist nicht erlaubt oder nicht mit diesem Inhalt erlaubt. Dies kann templateId, code oder id betreffen. Erwartet:  hl7:id[not(@nullFlavor)] | hl7:name[not(@nullFlavor)] | hl7:telecom[not(@nullFlavor)] | hl7:addr[not(@nullFlavor)] (rule-reference: d402799e241-true-d403182e0)</assert>
    </rule>

   <!-- Checking undefined contents for template/element @isClosed="true". Match context that we did not already match -->
    <rule context="*[hl7:substanceAdministration[hl7:templateId[@root = '1.2.40.0.34.6.0.11.3.1'] and hl7:templateId[@root = '2.16.840.1.113883.10.20.1.24'] and hl7:templateId[@root = '1.3.6.1.4.1.19376.1.5.3.1.4.12']]]/hl7:substanceAdministration[hl7:templateId[@root = '1.2.40.0.34.6.0.11.3.1'] and hl7:templateId[@root = '2.16.840.1.113883.10.20.1.24'] and hl7:templateId[@root = '1.3.6.1.4.1.19376.1.5.3.1.4.12']]/hl7:consumable[hl7:manufacturedProduct/hl7:templateId[@root='1.2.40.0.34.6.0.11.9.32']]/hl7:manufacturedProduct[hl7:templateId[@root = '1.2.40.0.34.6.0.11.9.32'] and hl7:templateId[@root = '1.3.6.1.4.1.19376.1.5.3.1.4.7.2'] and hl7:templateId[@root = '2.16.840.1.113883.10.20.1.53']]/hl7:manufacturerOrganization/hl7:addr[not(@nullFlavor)]/*[not(@xsi:nil = 'true')][not(self::hl7:streetAddressLine | self::hl7:streetName | self::hl7:houseNumber | self::hl7:postalCode[not(@nullFlavor)] | self::hl7:city[not(@nullFlavor)] | self::hl7:state | self::hl7:country[not(@nullFlavor)] | self::hl7:additionalLocator)]" id="d403157e46-true-d403239e0">
        <assert role="error" see="http://art-decor.org/art-decor/decor-templates--elgaimpf-?id=1.2.40.0.34.6.0.11.3.1" test="not(.)">(atcdabbr_entry_Immunization)/d403157e46-true-d403239e0: '<value-of select="name(..)"/>' ist als geschlossen definiert und dieses Element '<name/>' ist nicht erlaubt oder nicht mit diesem Inhalt erlaubt. Dies kann templateId, code oder id betreffen. Erwartet:  hl7:streetAddressLine | hl7:streetName | hl7:houseNumber | hl7:postalCode[not(@nullFlavor)] | hl7:city[not(@nullFlavor)] | hl7:state | hl7:country[not(@nullFlavor)] | hl7:additionalLocator (rule-reference: d403157e46-true-d403239e0)</assert>
    </rule>

   <!-- Checking undefined contents for template/element @isClosed="true". Match context that we did not already match -->
    <rule context="*[hl7:substanceAdministration[hl7:templateId[@root = '1.2.40.0.34.6.0.11.3.1'] and hl7:templateId[@root = '2.16.840.1.113883.10.20.1.24'] and hl7:templateId[@root = '1.3.6.1.4.1.19376.1.5.3.1.4.12']]]/hl7:substanceAdministration[hl7:templateId[@root = '1.2.40.0.34.6.0.11.3.1'] and hl7:templateId[@root = '2.16.840.1.113883.10.20.1.24'] and hl7:templateId[@root = '1.3.6.1.4.1.19376.1.5.3.1.4.12']]/hl7:consumable[hl7:manufacturedProduct/hl7:templateId[@root='1.2.40.0.34.6.0.11.9.31']]/*[not(@xsi:nil = 'true')][not(self::hl7:manufacturedProduct[hl7:templateId[@root = '1.2.40.0.34.6.0.11.9.31'] and hl7:templateId[@root = '2.16.840.1.113883.10.20.1.53'] and hl7:templateId[@root = '1.3.6.1.4.1.19376.1.5.3.1.4.7.2']])]" id="d245561e3707-true-d403291e0">
        <assert role="error" see="http://art-decor.org/art-decor/decor-templates--elgaimpf-?id=1.2.40.0.34.6.0.11.3.1" test="not(.)">(atcdabbr_entry_Immunization)/d245561e3707-true-d403291e0: '<value-of select="name(..)"/>' ist als geschlossen definiert und dieses Element '<name/>' ist nicht erlaubt oder nicht mit diesem Inhalt erlaubt. Dies kann templateId, code oder id betreffen. Erwartet:  hl7:manufacturedProduct[hl7:templateId[@root = '1.2.40.0.34.6.0.11.9.31'] and hl7:templateId[@root = '2.16.840.1.113883.10.20.1.53'] and hl7:templateId[@root = '1.3.6.1.4.1.19376.1.5.3.1.4.7.2']] (rule-reference: d245561e3707-true-d403291e0)</assert>
    </rule>

   <!-- Checking undefined contents for template/element @isClosed="true". Match context that we did not already match -->
    <rule context="*[hl7:substanceAdministration[hl7:templateId[@root = '1.2.40.0.34.6.0.11.3.1'] and hl7:templateId[@root = '2.16.840.1.113883.10.20.1.24'] and hl7:templateId[@root = '1.3.6.1.4.1.19376.1.5.3.1.4.12']]]/hl7:substanceAdministration[hl7:templateId[@root = '1.2.40.0.34.6.0.11.3.1'] and hl7:templateId[@root = '2.16.840.1.113883.10.20.1.24'] and hl7:templateId[@root = '1.3.6.1.4.1.19376.1.5.3.1.4.12']]/hl7:consumable[hl7:manufacturedProduct/hl7:templateId[@root='1.2.40.0.34.6.0.11.9.31']]/hl7:manufacturedProduct[hl7:templateId[@root = '1.2.40.0.34.6.0.11.9.31'] and hl7:templateId[@root = '2.16.840.1.113883.10.20.1.53'] and hl7:templateId[@root = '1.3.6.1.4.1.19376.1.5.3.1.4.7.2']]/*[not(@xsi:nil = 'true')][not(self::hl7:templateId[@root = '1.2.40.0.34.6.0.11.9.31'] | self::hl7:templateId[@root = '2.16.840.1.113883.10.20.1.53'] | self::hl7:templateId[@root = '1.3.6.1.4.1.19376.1.5.3.1.4.7.2'] | self::hl7:manufacturedMaterial[not(@nullFlavor)][hl7:code[@nullFlavor = 'NA']])]" id="d403276e5-true-d403328e0">
        <assert role="error" see="http://art-decor.org/art-decor/decor-templates--elgaimpf-?id=1.2.40.0.34.6.0.11.3.1" test="not(.)">(atcdabbr_entry_Immunization)/d403276e5-true-d403328e0: '<value-of select="name(..)"/>' ist als geschlossen definiert und dieses Element '<name/>' ist nicht erlaubt oder nicht mit diesem Inhalt erlaubt. Dies kann templateId, code oder id betreffen. Erwartet:  hl7:templateId[@root = '1.2.40.0.34.6.0.11.9.31'] | hl7:templateId[@root = '2.16.840.1.113883.10.20.1.53'] | hl7:templateId[@root = '1.3.6.1.4.1.19376.1.5.3.1.4.7.2'] | hl7:manufacturedMaterial[not(@nullFlavor)][hl7:code[@nullFlavor = 'NA']] (rule-reference: d403276e5-true-d403328e0)</assert>
    </rule>

   <!-- Checking undefined contents for template/element @isClosed="true". Match context that we did not already match -->
    <rule context="*[hl7:substanceAdministration[hl7:templateId[@root = '1.2.40.0.34.6.0.11.3.1'] and hl7:templateId[@root = '2.16.840.1.113883.10.20.1.24'] and hl7:templateId[@root = '1.3.6.1.4.1.19376.1.5.3.1.4.12']]]/hl7:substanceAdministration[hl7:templateId[@root = '1.2.40.0.34.6.0.11.3.1'] and hl7:templateId[@root = '2.16.840.1.113883.10.20.1.24'] and hl7:templateId[@root = '1.3.6.1.4.1.19376.1.5.3.1.4.12']]/hl7:consumable[hl7:manufacturedProduct/hl7:templateId[@root='1.2.40.0.34.6.0.11.9.31']]/hl7:manufacturedProduct[hl7:templateId[@root = '1.2.40.0.34.6.0.11.9.31'] and hl7:templateId[@root = '2.16.840.1.113883.10.20.1.53'] and hl7:templateId[@root = '1.3.6.1.4.1.19376.1.5.3.1.4.7.2']]/hl7:manufacturedMaterial[not(@nullFlavor)][hl7:code[@nullFlavor = 'NA']]/*[not(@xsi:nil = 'true')][not(self::hl7:code[@nullFlavor = 'NA'])]" id="d403276e33-true-d403356e0">
        <assert role="error" see="http://art-decor.org/art-decor/decor-templates--elgaimpf-?id=1.2.40.0.34.6.0.11.3.1" test="not(.)">(atcdabbr_entry_Immunization)/d403276e33-true-d403356e0: '<value-of select="name(..)"/>' ist als geschlossen definiert und dieses Element '<name/>' ist nicht erlaubt oder nicht mit diesem Inhalt erlaubt. Dies kann templateId, code oder id betreffen. Erwartet:  hl7:code[@nullFlavor = 'NA'] (rule-reference: d403276e33-true-d403356e0)</assert>
    </rule>

   <!-- Checking undefined contents for template/element @isClosed="true". Match context that we did not already match -->
    <rule context="*[hl7:substanceAdministration[hl7:templateId[@root = '1.2.40.0.34.6.0.11.3.1'] and hl7:templateId[@root = '2.16.840.1.113883.10.20.1.24'] and hl7:templateId[@root = '1.3.6.1.4.1.19376.1.5.3.1.4.12']]]/hl7:substanceAdministration[hl7:templateId[@root = '1.2.40.0.34.6.0.11.3.1'] and hl7:templateId[@root = '2.16.840.1.113883.10.20.1.24'] and hl7:templateId[@root = '1.3.6.1.4.1.19376.1.5.3.1.4.12']]/hl7:performer[hl7:templateId[@root = '1.2.40.0.34.6.0.11.9.21']]/*[not(@xsi:nil = 'true')][not(self::hl7:templateId[@root = '1.2.40.0.34.6.0.11.9.21'] | self::hl7:time | self::hl7:assignedEntity[not(@nullFlavor)])]" id="d245561e3713-true-d403494e0">
        <assert role="error" see="http://art-decor.org/art-decor/decor-templates--elgaimpf-?id=1.2.40.0.34.6.0.11.3.1" test="not(.)">(atcdabbr_entry_Immunization)/d245561e3713-true-d403494e0: '<value-of select="name(..)"/>' ist als geschlossen definiert und dieses Element '<name/>' ist nicht erlaubt oder nicht mit diesem Inhalt erlaubt. Dies kann templateId, code oder id betreffen. Erwartet:  hl7:templateId[@root = '1.2.40.0.34.6.0.11.9.21'] | hl7:time | hl7:assignedEntity[not(@nullFlavor)] (rule-reference: d245561e3713-true-d403494e0)</assert>
    </rule>

   <!-- Checking undefined contents for template/element @isClosed="true". Match context that we did not already match -->
    <rule context="*[hl7:substanceAdministration[hl7:templateId[@root = '1.2.40.0.34.6.0.11.3.1'] and hl7:templateId[@root = '2.16.840.1.113883.10.20.1.24'] and hl7:templateId[@root = '1.3.6.1.4.1.19376.1.5.3.1.4.12']]]/hl7:substanceAdministration[hl7:templateId[@root = '1.2.40.0.34.6.0.11.3.1'] and hl7:templateId[@root = '2.16.840.1.113883.10.20.1.24'] and hl7:templateId[@root = '1.3.6.1.4.1.19376.1.5.3.1.4.12']]/hl7:performer[hl7:templateId[@root = '1.2.40.0.34.6.0.11.9.21']]/hl7:assignedEntity[not(@nullFlavor)]/*[not(@xsi:nil = 'true')][not(self::hl7:id[not(@nullFlavor)] | self::hl7:id[@nullFlavor='NI'] | self::hl7:id[@nullFlavor='UNK'] | self::hl7:code[concat(@code, @codeSystem) = doc('include/voc-1.2.40.0.34.6.0.10.11-DYNAMIC.xml')//valueSet[1]/conceptList/concept/concat(@code, @codeSystem)] | self::hl7:code[@nullFlavor='UNK'] | self::hl7:addr[not(@nullFlavor)] | self::hl7:addr[@nullFlavor = 'UNK'] | self::hl7:telecom[not(@nullFlavor)] | self::hl7:assignedPerson | self::hl7:assignedPerson | self::hl7:representedOrganization)]" id="d403365e45-true-d403605e0">
        <assert role="error" see="http://art-decor.org/art-decor/decor-templates--elgaimpf-?id=1.2.40.0.34.6.0.11.3.1" test="not(.)">(atcdabbr_entry_Immunization)/d403365e45-true-d403605e0: '<value-of select="name(..)"/>' ist als geschlossen definiert und dieses Element '<name/>' ist nicht erlaubt oder nicht mit diesem Inhalt erlaubt. Dies kann templateId, code oder id betreffen. Erwartet:  hl7:id[not(@nullFlavor)] | hl7:id[@nullFlavor='NI'] | hl7:id[@nullFlavor='UNK'] | hl7:code[concat(@code, @codeSystem) = doc('include/voc-1.2.40.0.34.6.0.10.11-DYNAMIC.xml')//valueSet[1]/conceptList/concept/concat(@code, @codeSystem)] | hl7:code[@nullFlavor='UNK'] | hl7:addr[not(@nullFlavor)] | hl7:addr[@nullFlavor = 'UNK'] | hl7:telecom[not(@nullFlavor)] | hl7:assignedPerson | hl7:assignedPerson | hl7:representedOrganization (rule-reference: d403365e45-true-d403605e0)</assert>
    </rule>

   <!-- Checking undefined contents for template/element @isClosed="true". Match context that we did not already match -->
    <rule context="*[hl7:substanceAdministration[hl7:templateId[@root = '1.2.40.0.34.6.0.11.3.1'] and hl7:templateId[@root = '2.16.840.1.113883.10.20.1.24'] and hl7:templateId[@root = '1.3.6.1.4.1.19376.1.5.3.1.4.12']]]/hl7:substanceAdministration[hl7:templateId[@root = '1.2.40.0.34.6.0.11.3.1'] and hl7:templateId[@root = '2.16.840.1.113883.10.20.1.24'] and hl7:templateId[@root = '1.3.6.1.4.1.19376.1.5.3.1.4.12']]/hl7:performer[hl7:templateId[@root = '1.2.40.0.34.6.0.11.9.21']]/hl7:assignedEntity[not(@nullFlavor)]/hl7:addr[not(@nullFlavor)]/*[not(@xsi:nil = 'true')][not(self::hl7:streetAddressLine | self::hl7:streetName | self::hl7:houseNumber | self::hl7:postalCode | self::hl7:city | self::hl7:state | self::hl7:country | self::hl7:additionalLocator)]" id="d403365e93-true-d403669e0">
        <assert role="error" see="http://art-decor.org/art-decor/decor-templates--elgaimpf-?id=1.2.40.0.34.6.0.11.3.1" test="not(.)">(atcdabbr_entry_Immunization)/d403365e93-true-d403669e0: '<value-of select="name(..)"/>' ist als geschlossen definiert und dieses Element '<name/>' ist nicht erlaubt oder nicht mit diesem Inhalt erlaubt. Dies kann templateId, code oder id betreffen. Erwartet:  hl7:streetAddressLine | hl7:streetName | hl7:houseNumber | hl7:postalCode | hl7:city | hl7:state | hl7:country | hl7:additionalLocator (rule-reference: d403365e93-true-d403669e0)</assert>
    </rule>

   <!-- Checking undefined contents for template/element @isClosed="true". Match context that we did not already match -->
    <rule context="*[hl7:substanceAdministration[hl7:templateId[@root = '1.2.40.0.34.6.0.11.3.1'] and hl7:templateId[@root = '2.16.840.1.113883.10.20.1.24'] and hl7:templateId[@root = '1.3.6.1.4.1.19376.1.5.3.1.4.12']]]/hl7:substanceAdministration[hl7:templateId[@root = '1.2.40.0.34.6.0.11.3.1'] and hl7:templateId[@root = '2.16.840.1.113883.10.20.1.24'] and hl7:templateId[@root = '1.3.6.1.4.1.19376.1.5.3.1.4.12']]/hl7:performer[hl7:templateId[@root = '1.2.40.0.34.6.0.11.9.21']]/hl7:assignedEntity[not(@nullFlavor)]/hl7:assignedPerson/*[not(@xsi:nil = 'true')][not(self::hl7:name[not(@nullFlavor)])]" id="d403365e132-true-d403723e0">
        <assert role="error" see="http://art-decor.org/art-decor/decor-templates--elgaimpf-?id=1.2.40.0.34.6.0.11.3.1" test="not(.)">(atcdabbr_entry_Immunization)/d403365e132-true-d403723e0: '<value-of select="name(..)"/>' ist als geschlossen definiert und dieses Element '<name/>' ist nicht erlaubt oder nicht mit diesem Inhalt erlaubt. Dies kann templateId, code oder id betreffen. Erwartet:  hl7:name[not(@nullFlavor)] (rule-reference: d403365e132-true-d403723e0)</assert>
    </rule>

   <!-- Checking undefined contents for template/element @isClosed="true". Match context that we did not already match -->
    <rule context="*[hl7:substanceAdministration[hl7:templateId[@root = '1.2.40.0.34.6.0.11.3.1'] and hl7:templateId[@root = '2.16.840.1.113883.10.20.1.24'] and hl7:templateId[@root = '1.3.6.1.4.1.19376.1.5.3.1.4.12']]]/hl7:substanceAdministration[hl7:templateId[@root = '1.2.40.0.34.6.0.11.3.1'] and hl7:templateId[@root = '2.16.840.1.113883.10.20.1.24'] and hl7:templateId[@root = '1.3.6.1.4.1.19376.1.5.3.1.4.12']]/hl7:performer[hl7:templateId[@root = '1.2.40.0.34.6.0.11.9.21']]/hl7:assignedEntity[not(@nullFlavor)]/hl7:assignedPerson/*[not(@xsi:nil = 'true')][not(self::hl7:name[not(@nullFlavor)])]" id="d403365e139-true-d403743e0">
        <assert role="error" see="http://art-decor.org/art-decor/decor-templates--elgaimpf-?id=1.2.40.0.34.6.0.11.3.1" test="not(.)">(atcdabbr_entry_Immunization)/d403365e139-true-d403743e0: '<value-of select="name(..)"/>' ist als geschlossen definiert und dieses Element '<name/>' ist nicht erlaubt oder nicht mit diesem Inhalt erlaubt. Dies kann templateId, code oder id betreffen. Erwartet:  hl7:name[not(@nullFlavor)] (rule-reference: d403365e139-true-d403743e0)</assert>
    </rule>

   <!-- Checking undefined contents for template/element @isClosed="true". Match context that we did not already match -->
    <rule context="*[hl7:substanceAdministration[hl7:templateId[@root = '1.2.40.0.34.6.0.11.3.1'] and hl7:templateId[@root = '2.16.840.1.113883.10.20.1.24'] and hl7:templateId[@root = '1.3.6.1.4.1.19376.1.5.3.1.4.12']]]/hl7:substanceAdministration[hl7:templateId[@root = '1.2.40.0.34.6.0.11.3.1'] and hl7:templateId[@root = '2.16.840.1.113883.10.20.1.24'] and hl7:templateId[@root = '1.3.6.1.4.1.19376.1.5.3.1.4.12']]/hl7:performer[hl7:templateId[@root = '1.2.40.0.34.6.0.11.9.21']]/hl7:assignedEntity[not(@nullFlavor)]/hl7:assignedPerson/hl7:name[not(@nullFlavor)]/*[not(@xsi:nil = 'true')][not(self::hl7:prefix | self::hl7:family[not(@nullFlavor)] | self::hl7:given[not(@nullFlavor)] | self::hl7:suffix)]" id="d403732e10-true-d403771e0">
        <assert role="error" see="http://art-decor.org/art-decor/decor-templates--elgaimpf-?id=1.2.40.0.34.6.0.11.3.1" test="not(.)">(atcdabbr_entry_Immunization)/d403732e10-true-d403771e0: '<value-of select="name(..)"/>' ist als geschlossen definiert und dieses Element '<name/>' ist nicht erlaubt oder nicht mit diesem Inhalt erlaubt. Dies kann templateId, code oder id betreffen. Erwartet:  hl7:prefix | hl7:family[not(@nullFlavor)] | hl7:given[not(@nullFlavor)] | hl7:suffix (rule-reference: d403732e10-true-d403771e0)</assert>
    </rule>

   <!-- Checking undefined contents for template/element @isClosed="true". Match context that we did not already match -->
    <rule context="*[hl7:substanceAdministration[hl7:templateId[@root = '1.2.40.0.34.6.0.11.3.1'] and hl7:templateId[@root = '2.16.840.1.113883.10.20.1.24'] and hl7:templateId[@root = '1.3.6.1.4.1.19376.1.5.3.1.4.12']]]/hl7:substanceAdministration[hl7:templateId[@root = '1.2.40.0.34.6.0.11.3.1'] and hl7:templateId[@root = '2.16.840.1.113883.10.20.1.24'] and hl7:templateId[@root = '1.3.6.1.4.1.19376.1.5.3.1.4.12']]/hl7:performer[hl7:templateId[@root = '1.2.40.0.34.6.0.11.9.21']]/hl7:assignedEntity[not(@nullFlavor)]/hl7:representedOrganization/*[not(@xsi:nil = 'true')][not(self::hl7:id[not(@nullFlavor)] | self::hl7:name[not(@nullFlavor)] | self::hl7:telecom[not(@nullFlavor)] | self::hl7:addr[not(@nullFlavor)])]" id="d403365e147-true-d403817e0">
        <assert role="error" see="http://art-decor.org/art-decor/decor-templates--elgaimpf-?id=1.2.40.0.34.6.0.11.3.1" test="not(.)">(atcdabbr_entry_Immunization)/d403365e147-true-d403817e0: '<value-of select="name(..)"/>' ist als geschlossen definiert und dieses Element '<name/>' ist nicht erlaubt oder nicht mit diesem Inhalt erlaubt. Dies kann templateId, code oder id betreffen. Erwartet:  hl7:id[not(@nullFlavor)] | hl7:name[not(@nullFlavor)] | hl7:telecom[not(@nullFlavor)] | hl7:addr[not(@nullFlavor)] (rule-reference: d403365e147-true-d403817e0)</assert>
    </rule>

   <!-- Checking undefined contents for template/element @isClosed="true". Match context that we did not already match -->
    <rule context="*[hl7:substanceAdministration[hl7:templateId[@root = '1.2.40.0.34.6.0.11.3.1'] and hl7:templateId[@root = '2.16.840.1.113883.10.20.1.24'] and hl7:templateId[@root = '1.3.6.1.4.1.19376.1.5.3.1.4.12']]]/hl7:substanceAdministration[hl7:templateId[@root = '1.2.40.0.34.6.0.11.3.1'] and hl7:templateId[@root = '2.16.840.1.113883.10.20.1.24'] and hl7:templateId[@root = '1.3.6.1.4.1.19376.1.5.3.1.4.12']]/hl7:performer[hl7:templateId[@root = '1.2.40.0.34.6.0.11.9.21']]/hl7:assignedEntity[not(@nullFlavor)]/hl7:representedOrganization/hl7:addr[not(@nullFlavor)]/*[not(@xsi:nil = 'true')][not(self::hl7:streetAddressLine | self::hl7:streetName | self::hl7:houseNumber | self::hl7:postalCode | self::hl7:city | self::hl7:state | self::hl7:country | self::hl7:additionalLocator)]" id="d403792e35-true-d403874e0">
        <assert role="error" see="http://art-decor.org/art-decor/decor-templates--elgaimpf-?id=1.2.40.0.34.6.0.11.3.1" test="not(.)">(atcdabbr_entry_Immunization)/d403792e35-true-d403874e0: '<value-of select="name(..)"/>' ist als geschlossen definiert und dieses Element '<name/>' ist nicht erlaubt oder nicht mit diesem Inhalt erlaubt. Dies kann templateId, code oder id betreffen. Erwartet:  hl7:streetAddressLine | hl7:streetName | hl7:houseNumber | hl7:postalCode | hl7:city | hl7:state | hl7:country | hl7:additionalLocator (rule-reference: d403792e35-true-d403874e0)</assert>
    </rule>

   <!-- Checking undefined contents for template/element @isClosed="true". Match context that we did not already match -->
    <rule context="*[hl7:substanceAdministration[hl7:templateId[@root = '1.2.40.0.34.6.0.11.3.1'] and hl7:templateId[@root = '2.16.840.1.113883.10.20.1.24'] and hl7:templateId[@root = '1.3.6.1.4.1.19376.1.5.3.1.4.12']]]/hl7:substanceAdministration[hl7:templateId[@root = '1.2.40.0.34.6.0.11.3.1'] and hl7:templateId[@root = '2.16.840.1.113883.10.20.1.24'] and hl7:templateId[@root = '1.3.6.1.4.1.19376.1.5.3.1.4.12']]/hl7:author[hl7:assignedAuthor]/*[not(@xsi:nil = 'true')][not(self::hl7:time[not(@nullFlavor)] | self::hl7:time[@nullFlavor='UNK'] | self::hl7:assignedAuthor)]" id="d245561e3750-true-d404030e0">
        <assert role="error" see="http://art-decor.org/art-decor/decor-templates--elgaimpf-?id=1.2.40.0.34.6.0.11.3.1" test="not(.)">(atcdabbr_entry_Immunization)/d245561e3750-true-d404030e0: '<value-of select="name(..)"/>' ist als geschlossen definiert und dieses Element '<name/>' ist nicht erlaubt oder nicht mit diesem Inhalt erlaubt. Dies kann templateId, code oder id betreffen. Erwartet:  hl7:time[not(@nullFlavor)] | hl7:time[@nullFlavor='UNK'] | hl7:assignedAuthor (rule-reference: d245561e3750-true-d404030e0)</assert>
    </rule>

   <!-- Checking undefined contents for template/element @isClosed="true". Match context that we did not already match -->
    <rule context="*[hl7:substanceAdministration[hl7:templateId[@root = '1.2.40.0.34.6.0.11.3.1'] and hl7:templateId[@root = '2.16.840.1.113883.10.20.1.24'] and hl7:templateId[@root = '1.3.6.1.4.1.19376.1.5.3.1.4.12']]]/hl7:substanceAdministration[hl7:templateId[@root = '1.2.40.0.34.6.0.11.3.1'] and hl7:templateId[@root = '2.16.840.1.113883.10.20.1.24'] and hl7:templateId[@root = '1.3.6.1.4.1.19376.1.5.3.1.4.12']]/hl7:author[hl7:assignedAuthor]/hl7:assignedAuthor/*[not(@xsi:nil = 'true')][not(self::hl7:id[not(@nullFlavor)] | self::hl7:id[@nullFlavor='UNK'] | self::hl7:code[not(@nullFlavor)] | self::hl7:addr[not(@nullFlavor)] | self::hl7:telecom[not(@nullFlavor)] | self::hl7:assignedPerson | self::hl7:assignedAuthoringDevice | self::hl7:representedOrganization)]" id="d403911e47-true-d404133e0">
        <assert role="error" see="http://art-decor.org/art-decor/decor-templates--elgaimpf-?id=1.2.40.0.34.6.0.11.3.1" test="not(.)">(atcdabbr_entry_Immunization)/d403911e47-true-d404133e0: '<value-of select="name(..)"/>' ist als geschlossen definiert und dieses Element '<name/>' ist nicht erlaubt oder nicht mit diesem Inhalt erlaubt. Dies kann templateId, code oder id betreffen. Erwartet:  hl7:id[not(@nullFlavor)] | hl7:id[@nullFlavor='UNK'] | hl7:code[not(@nullFlavor)] | hl7:addr[not(@nullFlavor)] | hl7:telecom[not(@nullFlavor)] | hl7:assignedPerson | hl7:assignedAuthoringDevice | hl7:representedOrganization (rule-reference: d403911e47-true-d404133e0)</assert>
    </rule>

   <!-- Checking undefined contents for template/element @isClosed="true". Match context that we did not already match -->
    <rule context="*[hl7:substanceAdministration[hl7:templateId[@root = '1.2.40.0.34.6.0.11.3.1'] and hl7:templateId[@root = '2.16.840.1.113883.10.20.1.24'] and hl7:templateId[@root = '1.3.6.1.4.1.19376.1.5.3.1.4.12']]]/hl7:substanceAdministration[hl7:templateId[@root = '1.2.40.0.34.6.0.11.3.1'] and hl7:templateId[@root = '2.16.840.1.113883.10.20.1.24'] and hl7:templateId[@root = '1.3.6.1.4.1.19376.1.5.3.1.4.12']]/hl7:author[hl7:assignedAuthor]/hl7:assignedAuthor/hl7:addr[not(@nullFlavor)]/*[not(@xsi:nil = 'true')][not(self::hl7:streetAddressLine | self::hl7:streetName | self::hl7:houseNumber | self::hl7:postalCode[not(@nullFlavor)] | self::hl7:city[not(@nullFlavor)] | self::hl7:state | self::hl7:country[not(@nullFlavor)] | self::hl7:additionalLocator)]" id="d403911e68-true-d404188e0">
        <assert role="error" see="http://art-decor.org/art-decor/decor-templates--elgaimpf-?id=1.2.40.0.34.6.0.11.3.1" test="not(.)">(atcdabbr_entry_Immunization)/d403911e68-true-d404188e0: '<value-of select="name(..)"/>' ist als geschlossen definiert und dieses Element '<name/>' ist nicht erlaubt oder nicht mit diesem Inhalt erlaubt. Dies kann templateId, code oder id betreffen. Erwartet:  hl7:streetAddressLine | hl7:streetName | hl7:houseNumber | hl7:postalCode[not(@nullFlavor)] | hl7:city[not(@nullFlavor)] | hl7:state | hl7:country[not(@nullFlavor)] | hl7:additionalLocator (rule-reference: d403911e68-true-d404188e0)</assert>
    </rule>

   <!-- Checking undefined contents for template/element @isClosed="true". Match context that we did not already match -->
    <rule context="*[hl7:substanceAdministration[hl7:templateId[@root = '1.2.40.0.34.6.0.11.3.1'] and hl7:templateId[@root = '2.16.840.1.113883.10.20.1.24'] and hl7:templateId[@root = '1.3.6.1.4.1.19376.1.5.3.1.4.12']]]/hl7:substanceAdministration[hl7:templateId[@root = '1.2.40.0.34.6.0.11.3.1'] and hl7:templateId[@root = '2.16.840.1.113883.10.20.1.24'] and hl7:templateId[@root = '1.3.6.1.4.1.19376.1.5.3.1.4.12']]/hl7:author[hl7:assignedAuthor]/hl7:assignedAuthor/hl7:assignedPerson/*[not(@xsi:nil = 'true')][not(self::hl7:name[not(@nullFlavor)] | self::hl7:name[@nullFlavor='UNK'] | self::hl7:name[@nullFlavor='MSK'])]" id="d403911e90-true-d404235e0">
        <assert role="error" see="http://art-decor.org/art-decor/decor-templates--elgaimpf-?id=1.2.40.0.34.6.0.11.3.1" test="not(.)">(atcdabbr_entry_Immunization)/d403911e90-true-d404235e0: '<value-of select="name(..)"/>' ist als geschlossen definiert und dieses Element '<name/>' ist nicht erlaubt oder nicht mit diesem Inhalt erlaubt. Dies kann templateId, code oder id betreffen. Erwartet:  hl7:name[not(@nullFlavor)] | hl7:name[@nullFlavor='UNK'] | hl7:name[@nullFlavor='MSK'] (rule-reference: d403911e90-true-d404235e0)</assert>
    </rule>

   <!-- Checking undefined contents for template/element @isClosed="true". Match context that we did not already match -->
    <rule context="*[hl7:substanceAdministration[hl7:templateId[@root = '1.2.40.0.34.6.0.11.3.1'] and hl7:templateId[@root = '2.16.840.1.113883.10.20.1.24'] and hl7:templateId[@root = '1.3.6.1.4.1.19376.1.5.3.1.4.12']]]/hl7:substanceAdministration[hl7:templateId[@root = '1.2.40.0.34.6.0.11.3.1'] and hl7:templateId[@root = '2.16.840.1.113883.10.20.1.24'] and hl7:templateId[@root = '1.3.6.1.4.1.19376.1.5.3.1.4.12']]/hl7:author[hl7:assignedAuthor]/hl7:assignedAuthor/hl7:assignedPerson/hl7:name[not(@nullFlavor)]/*[not(@xsi:nil = 'true')][not(self::hl7:prefix | self::hl7:family[not(@nullFlavor)] | self::hl7:given[not(@nullFlavor)] | self::hl7:suffix)]" id="d404239e62-true-d404267e0">
        <assert role="error" see="http://art-decor.org/art-decor/decor-templates--elgaimpf-?id=1.2.40.0.34.6.0.11.9.6" test="not(.)">(atcdabbr_other_PersonNameCompilationG2)/d404239e62-true-d404267e0: '<value-of select="name(..)"/>' ist als geschlossen definiert und dieses Element '<name/>' ist nicht erlaubt oder nicht mit diesem Inhalt erlaubt. Dies kann templateId, code oder id betreffen. Erwartet:  hl7:prefix | hl7:family[not(@nullFlavor)] | hl7:given[not(@nullFlavor)] | hl7:suffix (rule-reference: d404239e62-true-d404267e0)</assert>
    </rule>

   <!-- Checking undefined contents for template/element @isClosed="true". Match context that we did not already match -->
    <rule context="*[hl7:substanceAdministration[hl7:templateId[@root = '1.2.40.0.34.6.0.11.3.1'] and hl7:templateId[@root = '2.16.840.1.113883.10.20.1.24'] and hl7:templateId[@root = '1.3.6.1.4.1.19376.1.5.3.1.4.12']]]/hl7:substanceAdministration[hl7:templateId[@root = '1.2.40.0.34.6.0.11.3.1'] and hl7:templateId[@root = '2.16.840.1.113883.10.20.1.24'] and hl7:templateId[@root = '1.3.6.1.4.1.19376.1.5.3.1.4.12']]/hl7:author[hl7:assignedAuthor]/hl7:assignedAuthor/hl7:assignedAuthoringDevice/*[not(@xsi:nil = 'true')][not(self::hl7:manufacturerModelName[not(@nullFlavor)] | self::hl7:softwareName[not(@nullFlavor)])]" id="d403911e101-true-d404308e0">
        <assert role="error" see="http://art-decor.org/art-decor/decor-templates--elgaimpf-?id=1.2.40.0.34.6.0.11.3.1" test="not(.)">(atcdabbr_entry_Immunization)/d403911e101-true-d404308e0: '<value-of select="name(..)"/>' ist als geschlossen definiert und dieses Element '<name/>' ist nicht erlaubt oder nicht mit diesem Inhalt erlaubt. Dies kann templateId, code oder id betreffen. Erwartet:  hl7:manufacturerModelName[not(@nullFlavor)] | hl7:softwareName[not(@nullFlavor)] (rule-reference: d403911e101-true-d404308e0)</assert>
    </rule>

   <!-- Checking undefined contents for template/element @isClosed="true". Match context that we did not already match -->
    <rule context="*[hl7:substanceAdministration[hl7:templateId[@root = '1.2.40.0.34.6.0.11.3.1'] and hl7:templateId[@root = '2.16.840.1.113883.10.20.1.24'] and hl7:templateId[@root = '1.3.6.1.4.1.19376.1.5.3.1.4.12']]]/hl7:substanceAdministration[hl7:templateId[@root = '1.2.40.0.34.6.0.11.3.1'] and hl7:templateId[@root = '2.16.840.1.113883.10.20.1.24'] and hl7:templateId[@root = '1.3.6.1.4.1.19376.1.5.3.1.4.12']]/hl7:author[hl7:assignedAuthor]/hl7:assignedAuthor/hl7:representedOrganization/*[not(@xsi:nil = 'true')][not(self::hl7:id[not(@nullFlavor)] | self::hl7:name[not(@nullFlavor)] | self::hl7:telecom[not(@nullFlavor)] | self::hl7:addr[not(@nullFlavor)])]" id="d403911e108-true-d404350e0">
        <assert role="error" see="http://art-decor.org/art-decor/decor-templates--elgaimpf-?id=1.2.40.0.34.6.0.11.3.1" test="not(.)">(atcdabbr_entry_Immunization)/d403911e108-true-d404350e0: '<value-of select="name(..)"/>' ist als geschlossen definiert und dieses Element '<name/>' ist nicht erlaubt oder nicht mit diesem Inhalt erlaubt. Dies kann templateId, code oder id betreffen. Erwartet:  hl7:id[not(@nullFlavor)] | hl7:name[not(@nullFlavor)] | hl7:telecom[not(@nullFlavor)] | hl7:addr[not(@nullFlavor)] (rule-reference: d403911e108-true-d404350e0)</assert>
    </rule>

   <!-- Checking undefined contents for template/element @isClosed="true". Match context that we did not already match -->
    <rule context="*[hl7:substanceAdministration[hl7:templateId[@root = '1.2.40.0.34.6.0.11.3.1'] and hl7:templateId[@root = '2.16.840.1.113883.10.20.1.24'] and hl7:templateId[@root = '1.3.6.1.4.1.19376.1.5.3.1.4.12']]]/hl7:substanceAdministration[hl7:templateId[@root = '1.2.40.0.34.6.0.11.3.1'] and hl7:templateId[@root = '2.16.840.1.113883.10.20.1.24'] and hl7:templateId[@root = '1.3.6.1.4.1.19376.1.5.3.1.4.12']]/hl7:author[hl7:assignedAuthor]/hl7:assignedAuthor/hl7:representedOrganization/hl7:addr[not(@nullFlavor)]/*[not(@xsi:nil = 'true')][not(self::hl7:streetAddressLine | self::hl7:streetName | self::hl7:houseNumber | self::hl7:postalCode[not(@nullFlavor)] | self::hl7:city[not(@nullFlavor)] | self::hl7:state | self::hl7:country[not(@nullFlavor)] | self::hl7:additionalLocator)]" id="d404321e60-true-d404409e0">
        <assert role="error" see="http://art-decor.org/art-decor/decor-templates--elgaimpf-?id=1.2.40.0.34.6.0.11.3.1" test="not(.)">(atcdabbr_entry_Immunization)/d404321e60-true-d404409e0: '<value-of select="name(..)"/>' ist als geschlossen definiert und dieses Element '<name/>' ist nicht erlaubt oder nicht mit diesem Inhalt erlaubt. Dies kann templateId, code oder id betreffen. Erwartet:  hl7:streetAddressLine | hl7:streetName | hl7:houseNumber | hl7:postalCode[not(@nullFlavor)] | hl7:city[not(@nullFlavor)] | hl7:state | hl7:country[not(@nullFlavor)] | hl7:additionalLocator (rule-reference: d404321e60-true-d404409e0)</assert>
    </rule>

   <!-- Checking undefined contents for template/element @isClosed="true". Match context that we did not already match -->
    <rule context="*[hl7:substanceAdministration[hl7:templateId[@root = '1.2.40.0.34.6.0.11.3.1'] and hl7:templateId[@root = '2.16.840.1.113883.10.20.1.24'] and hl7:templateId[@root = '1.3.6.1.4.1.19376.1.5.3.1.4.12']]]/hl7:substanceAdministration[hl7:templateId[@root = '1.2.40.0.34.6.0.11.3.1'] and hl7:templateId[@root = '2.16.840.1.113883.10.20.1.24'] and hl7:templateId[@root = '1.3.6.1.4.1.19376.1.5.3.1.4.12']]/hl7:participant[hl7:templateId[@root='1.2.40.0.34.6.0.11.9.14']]/*[not(@xsi:nil = 'true')][not(self::hl7:templateId[@root='1.2.40.0.34.6.0.11.9.14'][not(@nullFlavor)] | self::hl7:time | self::hl7:participantRole[not(@nullFlavor)])]" id="d245561e3776-true-d404509e0">
        <assert role="error" see="http://art-decor.org/art-decor/decor-templates--elgaimpf-?id=1.2.40.0.34.6.0.11.3.1" test="not(.)">(atcdabbr_entry_Immunization)/d245561e3776-true-d404509e0: '<value-of select="name(..)"/>' ist als geschlossen definiert und dieses Element '<name/>' ist nicht erlaubt oder nicht mit diesem Inhalt erlaubt. Dies kann templateId, code oder id betreffen. Erwartet:  hl7:templateId[@root='1.2.40.0.34.6.0.11.9.14'][not(@nullFlavor)] | hl7:time | hl7:participantRole[not(@nullFlavor)] (rule-reference: d245561e3776-true-d404509e0)</assert>
    </rule>

   <!-- Checking undefined contents for template/element @isClosed="true". Match context that we did not already match -->
    <rule context="*[hl7:substanceAdministration[hl7:templateId[@root = '1.2.40.0.34.6.0.11.3.1'] and hl7:templateId[@root = '2.16.840.1.113883.10.20.1.24'] and hl7:templateId[@root = '1.3.6.1.4.1.19376.1.5.3.1.4.12']]]/hl7:substanceAdministration[hl7:templateId[@root = '1.2.40.0.34.6.0.11.3.1'] and hl7:templateId[@root = '2.16.840.1.113883.10.20.1.24'] and hl7:templateId[@root = '1.3.6.1.4.1.19376.1.5.3.1.4.12']]/hl7:participant[hl7:templateId[@root='1.2.40.0.34.6.0.11.9.14']]/hl7:participantRole[not(@nullFlavor)]/*[not(@xsi:nil = 'true')][not(self::hl7:id[not(@nullFlavor)] | self::hl7:id[@nullFlavor='NI'] | self::hl7:id[@nullFlavor='UNK'] | self::hl7:addr[not(@nullFlavor)] | self::hl7:telecom[not(@nullFlavor)] | self::hl7:playingDevice | self::hl7:playingEntity)]" id="d404446e81-true-d404548e0">
        <assert role="error" see="http://art-decor.org/art-decor/decor-templates--elgaimpf-?id=1.2.40.0.34.6.0.11.3.1" test="not(.)">(atcdabbr_entry_Immunization)/d404446e81-true-d404548e0: '<value-of select="name(..)"/>' ist als geschlossen definiert und dieses Element '<name/>' ist nicht erlaubt oder nicht mit diesem Inhalt erlaubt. Dies kann templateId, code oder id betreffen. Erwartet:  hl7:id[not(@nullFlavor)] | hl7:id[@nullFlavor='NI'] | hl7:id[@nullFlavor='UNK'] | hl7:addr[not(@nullFlavor)] | hl7:telecom[not(@nullFlavor)] | hl7:playingDevice | hl7:playingEntity (rule-reference: d404446e81-true-d404548e0)</assert>
    </rule>

   <!-- Checking undefined contents for template/element @isClosed="true". Match context that we did not already match -->
    <rule context="*[hl7:substanceAdministration[hl7:templateId[@root = '1.2.40.0.34.6.0.11.3.1'] and hl7:templateId[@root = '2.16.840.1.113883.10.20.1.24'] and hl7:templateId[@root = '1.3.6.1.4.1.19376.1.5.3.1.4.12']]]/hl7:substanceAdministration[hl7:templateId[@root = '1.2.40.0.34.6.0.11.3.1'] and hl7:templateId[@root = '2.16.840.1.113883.10.20.1.24'] and hl7:templateId[@root = '1.3.6.1.4.1.19376.1.5.3.1.4.12']]/hl7:participant[hl7:templateId[@root='1.2.40.0.34.6.0.11.9.14']]/hl7:participantRole[not(@nullFlavor)]/hl7:addr[not(@nullFlavor)]/*[not(@xsi:nil = 'true')][not(self::hl7:streetAddressLine | self::hl7:streetName | self::hl7:houseNumber | self::hl7:postalCode[not(@nullFlavor)] | self::hl7:city[not(@nullFlavor)] | self::hl7:state | self::hl7:country[not(@nullFlavor)] | self::hl7:additionalLocator)]" id="d404446e94-true-d404603e0">
        <assert role="error" see="http://art-decor.org/art-decor/decor-templates--elgaimpf-?id=1.2.40.0.34.6.0.11.3.1" test="not(.)">(atcdabbr_entry_Immunization)/d404446e94-true-d404603e0: '<value-of select="name(..)"/>' ist als geschlossen definiert und dieses Element '<name/>' ist nicht erlaubt oder nicht mit diesem Inhalt erlaubt. Dies kann templateId, code oder id betreffen. Erwartet:  hl7:streetAddressLine | hl7:streetName | hl7:houseNumber | hl7:postalCode[not(@nullFlavor)] | hl7:city[not(@nullFlavor)] | hl7:state | hl7:country[not(@nullFlavor)] | hl7:additionalLocator (rule-reference: d404446e94-true-d404603e0)</assert>
    </rule>

   <!-- Checking undefined contents for template/element @isClosed="true". Match context that we did not already match -->
    <rule context="*[hl7:substanceAdministration[hl7:templateId[@root = '1.2.40.0.34.6.0.11.3.1'] and hl7:templateId[@root = '2.16.840.1.113883.10.20.1.24'] and hl7:templateId[@root = '1.3.6.1.4.1.19376.1.5.3.1.4.12']]]/hl7:substanceAdministration[hl7:templateId[@root = '1.2.40.0.34.6.0.11.3.1'] and hl7:templateId[@root = '2.16.840.1.113883.10.20.1.24'] and hl7:templateId[@root = '1.3.6.1.4.1.19376.1.5.3.1.4.12']]/hl7:participant[hl7:templateId[@root='1.2.40.0.34.6.0.11.9.14']]/hl7:participantRole[not(@nullFlavor)]/hl7:playingDevice/*[not(@xsi:nil = 'true')][not(self::hl7:manufacturerModelName[not(@nullFlavor)] | self::hl7:softwareName[not(@nullFlavor)])]" id="d404446e109-true-d404658e0">
        <assert role="error" see="http://art-decor.org/art-decor/decor-templates--elgaimpf-?id=1.2.40.0.34.6.0.11.3.1" test="not(.)">(atcdabbr_entry_Immunization)/d404446e109-true-d404658e0: '<value-of select="name(..)"/>' ist als geschlossen definiert und dieses Element '<name/>' ist nicht erlaubt oder nicht mit diesem Inhalt erlaubt. Dies kann templateId, code oder id betreffen. Erwartet:  hl7:manufacturerModelName[not(@nullFlavor)] | hl7:softwareName[not(@nullFlavor)] (rule-reference: d404446e109-true-d404658e0)</assert>
    </rule>

   <!-- Checking undefined contents for template/element @isClosed="true". Match context that we did not already match -->
    <rule context="*[hl7:substanceAdministration[hl7:templateId[@root = '1.2.40.0.34.6.0.11.3.1'] and hl7:templateId[@root = '2.16.840.1.113883.10.20.1.24'] and hl7:templateId[@root = '1.3.6.1.4.1.19376.1.5.3.1.4.12']]]/hl7:substanceAdministration[hl7:templateId[@root = '1.2.40.0.34.6.0.11.3.1'] and hl7:templateId[@root = '2.16.840.1.113883.10.20.1.24'] and hl7:templateId[@root = '1.3.6.1.4.1.19376.1.5.3.1.4.12']]/hl7:participant[hl7:templateId[@root='1.2.40.0.34.6.0.11.9.14']]/hl7:participantRole[not(@nullFlavor)]/hl7:playingEntity/*[not(@xsi:nil = 'true')][not(self::hl7:name[not(@nullFlavor)])]" id="d404446e110-true-d404679e0">
        <assert role="error" see="http://art-decor.org/art-decor/decor-templates--elgaimpf-?id=1.2.40.0.34.6.0.11.3.1" test="not(.)">(atcdabbr_entry_Immunization)/d404446e110-true-d404679e0: '<value-of select="name(..)"/>' ist als geschlossen definiert und dieses Element '<name/>' ist nicht erlaubt oder nicht mit diesem Inhalt erlaubt. Dies kann templateId, code oder id betreffen. Erwartet:  hl7:name[not(@nullFlavor)] (rule-reference: d404446e110-true-d404679e0)</assert>
    </rule>

   <!-- Checking undefined contents for template/element @isClosed="true". Match context that we did not already match -->
    <rule context="*[hl7:substanceAdministration[hl7:templateId[@root = '1.2.40.0.34.6.0.11.3.1'] and hl7:templateId[@root = '2.16.840.1.113883.10.20.1.24'] and hl7:templateId[@root = '1.3.6.1.4.1.19376.1.5.3.1.4.12']]]/hl7:substanceAdministration[hl7:templateId[@root = '1.2.40.0.34.6.0.11.3.1'] and hl7:templateId[@root = '2.16.840.1.113883.10.20.1.24'] and hl7:templateId[@root = '1.3.6.1.4.1.19376.1.5.3.1.4.12']]/hl7:participant[hl7:templateId[@root='1.2.40.0.34.6.0.11.9.14']]/hl7:participantRole[not(@nullFlavor)]/hl7:playingEntity/hl7:name[not(@nullFlavor)]/*[not(@xsi:nil = 'true')][not(self::hl7:prefix | self::hl7:family[not(@nullFlavor)] | self::hl7:given[not(@nullFlavor)] | self::hl7:suffix)]" id="d404446e113-true-d404707e0">
        <assert role="error" see="http://art-decor.org/art-decor/decor-templates--elgaimpf-?id=1.2.40.0.34.6.0.11.3.1" test="not(.)">(atcdabbr_entry_Immunization)/d404446e113-true-d404707e0: '<value-of select="name(..)"/>' ist als geschlossen definiert und dieses Element '<name/>' ist nicht erlaubt oder nicht mit diesem Inhalt erlaubt. Dies kann templateId, code oder id betreffen. Erwartet:  hl7:prefix | hl7:family[not(@nullFlavor)] | hl7:given[not(@nullFlavor)] | hl7:suffix (rule-reference: d404446e113-true-d404707e0)</assert>
    </rule>

   <!-- Checking undefined contents for template/element @isClosed="true". Match context that we did not already match -->
    <rule context="*[hl7:substanceAdministration[hl7:templateId[@root = '1.2.40.0.34.6.0.11.3.1'] and hl7:templateId[@root = '2.16.840.1.113883.10.20.1.24'] and hl7:templateId[@root = '1.3.6.1.4.1.19376.1.5.3.1.4.12']]]/hl7:substanceAdministration[hl7:templateId[@root = '1.2.40.0.34.6.0.11.3.1'] and hl7:templateId[@root = '2.16.840.1.113883.10.20.1.24'] and hl7:templateId[@root = '1.3.6.1.4.1.19376.1.5.3.1.4.12']]/hl7:entryRelationship[hl7:observation[hl7:templateId[@root = '1.2.40.0.34.6.0.11.3.2']]]/*[not(@xsi:nil = 'true')][not(self::hl7:observation[hl7:templateId[@root = '1.2.40.0.34.6.0.11.3.2']])]" id="d245561e3830-true-d404750e0">
        <assert role="error" see="http://art-decor.org/art-decor/decor-templates--elgaimpf-?id=1.2.40.0.34.6.0.11.3.1" test="not(.)">(atcdabbr_entry_Immunization)/d245561e3830-true-d404750e0: '<value-of select="name(..)"/>' ist als geschlossen definiert und dieses Element '<name/>' ist nicht erlaubt oder nicht mit diesem Inhalt erlaubt. Dies kann templateId, code oder id betreffen. Erwartet:  hl7:observation[hl7:templateId[@root = '1.2.40.0.34.6.0.11.3.2']] (rule-reference: d245561e3830-true-d404750e0)</assert>
    </rule>

   <!-- Checking undefined contents for template/element @isClosed="true". Match context that we did not already match -->
    <rule context="*[hl7:substanceAdministration[hl7:templateId[@root = '1.2.40.0.34.6.0.11.3.1'] and hl7:templateId[@root = '2.16.840.1.113883.10.20.1.24'] and hl7:templateId[@root = '1.3.6.1.4.1.19376.1.5.3.1.4.12']]]/hl7:substanceAdministration[hl7:templateId[@root = '1.2.40.0.34.6.0.11.3.1'] and hl7:templateId[@root = '2.16.840.1.113883.10.20.1.24'] and hl7:templateId[@root = '1.3.6.1.4.1.19376.1.5.3.1.4.12']]/hl7:entryRelationship[hl7:observation[hl7:templateId[@root = '1.2.40.0.34.6.0.11.3.2']]]/hl7:observation[hl7:templateId[@root = '1.2.40.0.34.6.0.11.3.2']]/*[not(@xsi:nil = 'true')][not(self::hl7:templateId[@root = '1.2.40.0.34.6.0.11.3.2'] | self::hl7:id | self::hl7:code[concat(@code, @codeSystem) = doc('include/voc-1.2.40.0.34.6.0.10.4-DYNAMIC.xml')//valueSet[1]/conceptList/concept/concat(@code, @codeSystem)] | self::hl7:text | self::hl7:statusCode[@code = 'completed' or @code = doc('include/voc-2.16.840.1.113883.1.11.20025-DYNAMIC.xml')//valueSet[1]/conceptList/*/@code])]" id="d404728e14-true-d404799e0">
        <assert role="error" see="http://art-decor.org/art-decor/decor-templates--elgaimpf-?id=1.2.40.0.34.6.0.11.3.1" test="not(.)">(atcdabbr_entry_Immunization)/d404728e14-true-d404799e0: '<value-of select="name(..)"/>' ist als geschlossen definiert und dieses Element '<name/>' ist nicht erlaubt oder nicht mit diesem Inhalt erlaubt. Dies kann templateId, code oder id betreffen. Erwartet:  hl7:templateId[@root = '1.2.40.0.34.6.0.11.3.2'] | hl7:id | hl7:code[concat(@code, @codeSystem) = doc('include/voc-1.2.40.0.34.6.0.10.4-DYNAMIC.xml')//valueSet[1]/conceptList/concept/concat(@code, @codeSystem)] | hl7:text | hl7:statusCode[@code = 'completed' or @code = doc('include/voc-2.16.840.1.113883.1.11.20025-DYNAMIC.xml')//valueSet[1]/conceptList/*/@code] (rule-reference: d404728e14-true-d404799e0)</assert>
    </rule>

   <!-- Checking undefined contents for template/element @isClosed="true". Match context that we did not already match -->
    <rule context="*[hl7:substanceAdministration[hl7:templateId[@root = '1.2.40.0.34.6.0.11.3.1'] and hl7:templateId[@root = '2.16.840.1.113883.10.20.1.24'] and hl7:templateId[@root = '1.3.6.1.4.1.19376.1.5.3.1.4.12']]]/hl7:substanceAdministration[hl7:templateId[@root = '1.2.40.0.34.6.0.11.3.1'] and hl7:templateId[@root = '2.16.840.1.113883.10.20.1.24'] and hl7:templateId[@root = '1.3.6.1.4.1.19376.1.5.3.1.4.12']]/hl7:entryRelationship[hl7:observation[hl7:templateId[@root = '1.2.40.0.34.6.0.11.3.2']]]/hl7:observation[hl7:templateId[@root = '1.2.40.0.34.6.0.11.3.2']]/hl7:text/*[not(@xsi:nil = 'true')][not(self::hl7:reference[not(@nullFlavor)])]" id="d404819e37-true-d404830e0">
        <assert role="error" see="http://art-decor.org/art-decor/decor-templates--elgaimpf-?id=1.2.40.0.34.6.0.11.9.1" test="not(.)">(atcdabrr_other_NarrativeTextReference)/d404819e37-true-d404830e0: '<value-of select="name(..)"/>' ist als geschlossen definiert und dieses Element '<name/>' ist nicht erlaubt oder nicht mit diesem Inhalt erlaubt. Dies kann templateId, code oder id betreffen. Erwartet:  hl7:reference[not(@nullFlavor)] (rule-reference: d404819e37-true-d404830e0)</assert>
    </rule>

   <!-- Checking undefined contents for template/element @isClosed="true". Match context that we did not already match -->
    <rule context="*[hl7:substanceAdministration[hl7:templateId[@root = '1.2.40.0.34.6.0.11.3.1'] and hl7:templateId[@root = '2.16.840.1.113883.10.20.1.24'] and hl7:templateId[@root = '1.3.6.1.4.1.19376.1.5.3.1.4.12']]]/hl7:substanceAdministration[hl7:templateId[@root = '1.2.40.0.34.6.0.11.3.1'] and hl7:templateId[@root = '2.16.840.1.113883.10.20.1.24'] and hl7:templateId[@root = '1.3.6.1.4.1.19376.1.5.3.1.4.12']]/hl7:entryRelationship[hl7:act[hl7:templateId[@root = '1.2.40.0.34.6.0.11.3.5']]]/*[not(@xsi:nil = 'true')][not(self::hl7:act[hl7:templateId[@root = '1.2.40.0.34.6.0.11.3.5']])]" id="d245561e3843-true-d404860e0">
        <assert role="error" see="http://art-decor.org/art-decor/decor-templates--elgaimpf-?id=1.2.40.0.34.6.0.11.3.1" test="not(.)">(atcdabbr_entry_Immunization)/d245561e3843-true-d404860e0: '<value-of select="name(..)"/>' ist als geschlossen definiert und dieses Element '<name/>' ist nicht erlaubt oder nicht mit diesem Inhalt erlaubt. Dies kann templateId, code oder id betreffen. Erwartet:  hl7:act[hl7:templateId[@root = '1.2.40.0.34.6.0.11.3.5']] (rule-reference: d245561e3843-true-d404860e0)</assert>
    </rule>

   <!-- Checking undefined contents for template/element @isClosed="true". Match context that we did not already match -->
    <rule context="*[hl7:substanceAdministration[hl7:templateId[@root = '1.2.40.0.34.6.0.11.3.1'] and hl7:templateId[@root = '2.16.840.1.113883.10.20.1.24'] and hl7:templateId[@root = '1.3.6.1.4.1.19376.1.5.3.1.4.12']]]/hl7:substanceAdministration[hl7:templateId[@root = '1.2.40.0.34.6.0.11.3.1'] and hl7:templateId[@root = '2.16.840.1.113883.10.20.1.24'] and hl7:templateId[@root = '1.3.6.1.4.1.19376.1.5.3.1.4.12']]/hl7:entryRelationship[hl7:act[hl7:templateId[@root = '1.2.40.0.34.6.0.11.3.5']]]/hl7:act[hl7:templateId[@root = '1.2.40.0.34.6.0.11.3.5']]/*[not(@xsi:nil = 'true')][not(self::hl7:templateId[@root = '1.2.40.0.34.6.0.11.3.5'] | self::hl7:id[not(@nullFlavor)] | self::hl7:code[(@code = 'PAY' and @codeSystem = '2.16.840.1.113883.5.4')] | self::hl7:statusCode[not(@nullFlavor)] | self::hl7:effectiveTime[not(@nullFlavor)] | self::hl7:effectiveTime[@nullFlavor='UNK'])]" id="d404846e39-true-d404885e0">
        <assert role="error" see="http://art-decor.org/art-decor/decor-templates--elgaimpf-?id=1.2.40.0.34.6.0.11.3.1" test="not(.)">(atcdabbr_entry_Immunization)/d404846e39-true-d404885e0: '<value-of select="name(..)"/>' ist als geschlossen definiert und dieses Element '<name/>' ist nicht erlaubt oder nicht mit diesem Inhalt erlaubt. Dies kann templateId, code oder id betreffen. Erwartet:  hl7:templateId[@root = '1.2.40.0.34.6.0.11.3.5'] | hl7:id[not(@nullFlavor)] | hl7:code[(@code = 'PAY' and @codeSystem = '2.16.840.1.113883.5.4')] | hl7:statusCode[not(@nullFlavor)] | hl7:effectiveTime[not(@nullFlavor)] | hl7:effectiveTime[@nullFlavor='UNK'] (rule-reference: d404846e39-true-d404885e0)</assert>
    </rule>

   <!-- Checking undefined contents for template/element @isClosed="true". Match context that we did not already match -->
    <rule context="*[hl7:substanceAdministration[hl7:templateId[@root = '1.2.40.0.34.6.0.11.3.1'] and hl7:templateId[@root = '2.16.840.1.113883.10.20.1.24'] and hl7:templateId[@root = '1.3.6.1.4.1.19376.1.5.3.1.4.12']]]/hl7:substanceAdministration[hl7:templateId[@root = '1.2.40.0.34.6.0.11.3.1'] and hl7:templateId[@root = '2.16.840.1.113883.10.20.1.24'] and hl7:templateId[@root = '1.3.6.1.4.1.19376.1.5.3.1.4.12']]/hl7:entryRelationship[hl7:act[hl7:templateId[@root = '1.2.40.0.34.6.0.11.3.5']]]/hl7:act[hl7:templateId[@root = '1.2.40.0.34.6.0.11.3.5']]/hl7:code[(@code = 'PAY' and @codeSystem = '2.16.840.1.113883.5.4')]/*[not(@xsi:nil = 'true')][not(self::hl7:qualifier[hl7:value[concat(@code, @codeSystem) = doc('include/voc-1.2.40.0.34.6.0.10.7-DYNAMIC.xml')//valueSet[1]/conceptList/concept/concat(@code, @codeSystem)]])]" id="d404846e57-true-d404912e0">
        <assert role="error" see="http://art-decor.org/art-decor/decor-templates--elgaimpf-?id=1.2.40.0.34.6.0.11.3.1" test="not(.)">(atcdabbr_entry_Immunization)/d404846e57-true-d404912e0: '<value-of select="name(..)"/>' ist als geschlossen definiert und dieses Element '<name/>' ist nicht erlaubt oder nicht mit diesem Inhalt erlaubt. Dies kann templateId, code oder id betreffen. Erwartet:  hl7:qualifier[hl7:value[concat(@code, @codeSystem) = doc('include/voc-1.2.40.0.34.6.0.10.7-DYNAMIC.xml')//valueSet[1]/conceptList/concept/concat(@code, @codeSystem)]] (rule-reference: d404846e57-true-d404912e0)</assert>
    </rule>

   <!-- Checking undefined contents for template/element @isClosed="true". Match context that we did not already match -->
    <rule context="*[hl7:substanceAdministration[hl7:templateId[@root = '1.2.40.0.34.6.0.11.3.1'] and hl7:templateId[@root = '2.16.840.1.113883.10.20.1.24'] and hl7:templateId[@root = '1.3.6.1.4.1.19376.1.5.3.1.4.12']]]/hl7:substanceAdministration[hl7:templateId[@root = '1.2.40.0.34.6.0.11.3.1'] and hl7:templateId[@root = '2.16.840.1.113883.10.20.1.24'] and hl7:templateId[@root = '1.3.6.1.4.1.19376.1.5.3.1.4.12']]/hl7:entryRelationship[hl7:act[hl7:templateId[@root = '1.2.40.0.34.6.0.11.3.5']]]/hl7:act[hl7:templateId[@root = '1.2.40.0.34.6.0.11.3.5']]/hl7:code[(@code = 'PAY' and @codeSystem = '2.16.840.1.113883.5.4')]/hl7:qualifier[hl7:value[concat(@code, @codeSystem) = doc('include/voc-1.2.40.0.34.6.0.10.7-DYNAMIC.xml')//valueSet[1]/conceptList/concept/concat(@code, @codeSystem)]]/*[not(@xsi:nil = 'true')][not(self::hl7:value[concat(@code, @codeSystem) = doc('include/voc-1.2.40.0.34.6.0.10.7-DYNAMIC.xml')//valueSet[1]/conceptList/concept/concat(@code, @codeSystem)])]" id="d404846e61-true-d404934e0">
        <assert role="error" see="http://art-decor.org/art-decor/decor-templates--elgaimpf-?id=1.2.40.0.34.6.0.11.3.1" test="not(.)">(atcdabbr_entry_Immunization)/d404846e61-true-d404934e0: '<value-of select="name(..)"/>' ist als geschlossen definiert und dieses Element '<name/>' ist nicht erlaubt oder nicht mit diesem Inhalt erlaubt. Dies kann templateId, code oder id betreffen. Erwartet:  hl7:value[concat(@code, @codeSystem) = doc('include/voc-1.2.40.0.34.6.0.10.7-DYNAMIC.xml')//valueSet[1]/conceptList/concept/concat(@code, @codeSystem)] (rule-reference: d404846e61-true-d404934e0)</assert>
    </rule>

   <!-- Checking undefined contents for template/element @isClosed="true". Match context that we did not already match -->
    <rule context="*[hl7:substanceAdministration[hl7:templateId[@root = '1.2.40.0.34.6.0.11.3.1'] and hl7:templateId[@root = '2.16.840.1.113883.10.20.1.24'] and hl7:templateId[@root = '1.3.6.1.4.1.19376.1.5.3.1.4.12']]]/hl7:substanceAdministration[hl7:templateId[@root = '1.2.40.0.34.6.0.11.3.1'] and hl7:templateId[@root = '2.16.840.1.113883.10.20.1.24'] and hl7:templateId[@root = '1.3.6.1.4.1.19376.1.5.3.1.4.12']]/hl7:reference[hl7:externalDocument[hl7:templateId[@root = '1.2.40.0.34.6.0.11.3.14']]]/*[not(@xsi:nil = 'true')][not(self::hl7:externalDocument[hl7:templateId[@root = '1.2.40.0.34.6.0.11.3.14']])]" id="d245561e3880-true-d404974e0">
        <assert role="error" see="http://art-decor.org/art-decor/decor-templates--elgaimpf-?id=1.2.40.0.34.6.0.11.3.1" test="not(.)">(atcdabbr_entry_Immunization)/d245561e3880-true-d404974e0: '<value-of select="name(..)"/>' ist als geschlossen definiert und dieses Element '<name/>' ist nicht erlaubt oder nicht mit diesem Inhalt erlaubt. Dies kann templateId, code oder id betreffen. Erwartet:  hl7:externalDocument[hl7:templateId[@root = '1.2.40.0.34.6.0.11.3.14']] (rule-reference: d245561e3880-true-d404974e0)</assert>
    </rule>

   <!-- Checking undefined contents for template/element @isClosed="true". Match context that we did not already match -->
    <rule context="*[hl7:substanceAdministration[hl7:templateId[@root = '1.2.40.0.34.6.0.11.3.1'] and hl7:templateId[@root = '2.16.840.1.113883.10.20.1.24'] and hl7:templateId[@root = '1.3.6.1.4.1.19376.1.5.3.1.4.12']]]/hl7:substanceAdministration[hl7:templateId[@root = '1.2.40.0.34.6.0.11.3.1'] and hl7:templateId[@root = '2.16.840.1.113883.10.20.1.24'] and hl7:templateId[@root = '1.3.6.1.4.1.19376.1.5.3.1.4.12']]/hl7:reference[hl7:externalDocument[hl7:templateId[@root = '1.2.40.0.34.6.0.11.3.14']]]/hl7:externalDocument[hl7:templateId[@root = '1.2.40.0.34.6.0.11.3.14']]/*[not(@xsi:nil = 'true')][not(self::hl7:templateId[@root = '1.2.40.0.34.6.0.11.3.14'] | self::hl7:id[not(@nullFlavor)] | self::hl7:code | self::hl7:text | self::hl7:setId[not(@nullFlavor)] | self::hl7:versionNumber[not(@nullFlavor)])]" id="d404952e26-true-d405006e0">
        <assert role="error" see="http://art-decor.org/art-decor/decor-templates--elgaimpf-?id=1.2.40.0.34.6.0.11.3.1" test="not(.)">(atcdabbr_entry_Immunization)/d404952e26-true-d405006e0: '<value-of select="name(..)"/>' ist als geschlossen definiert und dieses Element '<name/>' ist nicht erlaubt oder nicht mit diesem Inhalt erlaubt. Dies kann templateId, code oder id betreffen. Erwartet:  hl7:templateId[@root = '1.2.40.0.34.6.0.11.3.14'] | hl7:id[not(@nullFlavor)] | hl7:code | hl7:text | hl7:setId[not(@nullFlavor)] | hl7:versionNumber[not(@nullFlavor)] (rule-reference: d404952e26-true-d405006e0)</assert>
    </rule>

   <!-- Checking undefined contents for template/element @isClosed="true". Match context that we did not already match -->
    <rule context="*[hl7:substanceAdministration[hl7:templateId[@root = '1.2.40.0.34.6.0.11.3.1'] and hl7:templateId[@root = '2.16.840.1.113883.10.20.1.24'] and hl7:templateId[@root = '1.3.6.1.4.1.19376.1.5.3.1.4.12']]]/hl7:substanceAdministration[hl7:templateId[@root = '1.2.40.0.34.6.0.11.3.1'] and hl7:templateId[@root = '2.16.840.1.113883.10.20.1.24'] and hl7:templateId[@root = '1.3.6.1.4.1.19376.1.5.3.1.4.12']]/hl7:reference[hl7:externalDocument[hl7:templateId[@root = '1.2.40.0.34.6.0.11.3.14']]]/hl7:externalDocument[hl7:templateId[@root = '1.2.40.0.34.6.0.11.3.14']]/hl7:text/*[not(@xsi:nil = 'true')][not(self::hl7:reference[not(@nullFlavor)])]" id="d405023e37-true-d405034e0">
        <assert role="error" see="http://art-decor.org/art-decor/decor-templates--elgaimpf-?id=1.2.40.0.34.6.0.11.9.1" test="not(.)">(atcdabrr_other_NarrativeTextReference)/d405023e37-true-d405034e0: '<value-of select="name(..)"/>' ist als geschlossen definiert und dieses Element '<name/>' ist nicht erlaubt oder nicht mit diesem Inhalt erlaubt. Dies kann templateId, code oder id betreffen. Erwartet:  hl7:reference[not(@nullFlavor)] (rule-reference: d405023e37-true-d405034e0)</assert>
    </rule>

   <!-- Checking undefined contents for template/element @isClosed="true". Match context that we did not already match -->
    <rule context="*[hl7:substanceAdministration[hl7:templateId[@root = '1.2.40.0.34.6.0.11.3.1'] and hl7:templateId[@root = '2.16.840.1.113883.10.20.1.24'] and hl7:templateId[@root = '1.3.6.1.4.1.19376.1.5.3.1.4.12']]]/hl7:substanceAdministration[hl7:templateId[@root = '1.2.40.0.34.6.0.11.3.1'] and hl7:templateId[@root = '2.16.840.1.113883.10.20.1.24'] and hl7:templateId[@root = '1.3.6.1.4.1.19376.1.5.3.1.4.12']]/hl7:precondition[hl7:criterion[hl7:templateId[@root = '1.2.40.0.34.6.0.11.3.10']]]/*[not(@xsi:nil = 'true')][not(self::hl7:criterion[hl7:templateId[@root = '1.2.40.0.34.6.0.11.3.10']])]" id="d245561e3906-true-d405075e0">
        <assert role="error" see="http://art-decor.org/art-decor/decor-templates--elgaimpf-?id=1.2.40.0.34.6.0.11.3.1" test="not(.)">(atcdabbr_entry_Immunization)/d245561e3906-true-d405075e0: '<value-of select="name(..)"/>' ist als geschlossen definiert und dieses Element '<name/>' ist nicht erlaubt oder nicht mit diesem Inhalt erlaubt. Dies kann templateId, code oder id betreffen. Erwartet:  hl7:criterion[hl7:templateId[@root = '1.2.40.0.34.6.0.11.3.10']] (rule-reference: d245561e3906-true-d405075e0)</assert>
    </rule>

   <!-- Checking undefined contents for template/element @isClosed="true". Match context that we did not already match -->
    <rule context="*[hl7:substanceAdministration[hl7:templateId[@root = '1.2.40.0.34.6.0.11.3.1'] and hl7:templateId[@root = '2.16.840.1.113883.10.20.1.24'] and hl7:templateId[@root = '1.3.6.1.4.1.19376.1.5.3.1.4.12']]]/hl7:substanceAdministration[hl7:templateId[@root = '1.2.40.0.34.6.0.11.3.1'] and hl7:templateId[@root = '2.16.840.1.113883.10.20.1.24'] and hl7:templateId[@root = '1.3.6.1.4.1.19376.1.5.3.1.4.12']]/hl7:precondition[hl7:criterion[hl7:templateId[@root = '1.2.40.0.34.6.0.11.3.10']]]/hl7:criterion[hl7:templateId[@root = '1.2.40.0.34.6.0.11.3.10']]/*[not(@xsi:nil = 'true')][not(self::hl7:templateId[@root = '1.2.40.0.34.6.0.11.3.10'] | self::hl7:code[concat(@code, @codeSystem) = doc('include/voc-1.2.40.0.34.6.0.10.5-DYNAMIC.xml')//valueSet[1]/conceptList/concept/concat(@code, @codeSystem)] | self::hl7:code[@nullFlavor='NI'] | self::hl7:text | self::hl7:value[not(@nullFlavor)] | self::hl7:value[@nullFlavor='UNK'] | self::hl7:value[@nullFlavor='NAV'] | self::hl7:value[@nullFlavor='NA'])]" id="d405047e10-true-d405104e0">
        <assert role="error" see="http://art-decor.org/art-decor/decor-templates--elgaimpf-?id=1.2.40.0.34.6.0.11.3.1" test="not(.)">(atcdabbr_entry_Immunization)/d405047e10-true-d405104e0: '<value-of select="name(..)"/>' ist als geschlossen definiert und dieses Element '<name/>' ist nicht erlaubt oder nicht mit diesem Inhalt erlaubt. Dies kann templateId, code oder id betreffen. Erwartet:  hl7:templateId[@root = '1.2.40.0.34.6.0.11.3.10'] | hl7:code[concat(@code, @codeSystem) = doc('include/voc-1.2.40.0.34.6.0.10.5-DYNAMIC.xml')//valueSet[1]/conceptList/concept/concat(@code, @codeSystem)] | hl7:code[@nullFlavor='NI'] | hl7:text | hl7:value[not(@nullFlavor)] | hl7:value[@nullFlavor='UNK'] | hl7:value[@nullFlavor='NAV'] | hl7:value[@nullFlavor='NA'] (rule-reference: d405047e10-true-d405104e0)</assert>
    </rule>

   <!-- Checking undefined contents for template/element @isClosed="true". Match context that we did not already match -->
    <rule context="*[hl7:substanceAdministration[hl7:templateId[@root = '1.2.40.0.34.6.0.11.3.1'] and hl7:templateId[@root = '2.16.840.1.113883.10.20.1.24'] and hl7:templateId[@root = '1.3.6.1.4.1.19376.1.5.3.1.4.12']]]/hl7:substanceAdministration[hl7:templateId[@root = '1.2.40.0.34.6.0.11.3.1'] and hl7:templateId[@root = '2.16.840.1.113883.10.20.1.24'] and hl7:templateId[@root = '1.3.6.1.4.1.19376.1.5.3.1.4.12']]/hl7:precondition[hl7:criterion[hl7:templateId[@root = '1.2.40.0.34.6.0.11.3.10']]]/hl7:criterion[hl7:templateId[@root = '1.2.40.0.34.6.0.11.3.10']]/hl7:text/*[not(@xsi:nil = 'true')][not(self::hl7:reference[not(@nullFlavor)])]" id="d405122e37-true-d405133e0">
        <assert role="error" see="http://art-decor.org/art-decor/decor-templates--elgaimpf-?id=1.2.40.0.34.6.0.11.9.1" test="not(.)">(atcdabrr_other_NarrativeTextReference)/d405122e37-true-d405133e0: '<value-of select="name(..)"/>' ist als geschlossen definiert und dieses Element '<name/>' ist nicht erlaubt oder nicht mit diesem Inhalt erlaubt. Dies kann templateId, code oder id betreffen. Erwartet:  hl7:reference[not(@nullFlavor)] (rule-reference: d405122e37-true-d405133e0)</assert>
    </rule>

   <!-- Checking undefined contents for template/element @isClosed="true". Match context that we did not already match -->
    <rule context="*[hl7:substanceAdministration[hl7:templateId[@root = '1.2.40.0.34.6.0.11.3.1'] and hl7:templateId[@root = '2.16.840.1.113883.10.20.1.24'] and hl7:templateId[@root = '1.3.6.1.4.1.19376.1.5.3.1.4.12']]]/hl7:substanceAdministration[hl7:templateId[@root = '1.2.40.0.34.6.0.11.3.1'] and hl7:templateId[@root = '2.16.840.1.113883.10.20.1.24'] and hl7:templateId[@root = '1.3.6.1.4.1.19376.1.5.3.1.4.12']]/hl7:precondition[hl7:criterion[hl7:templateId[@root = '1.2.40.0.34.6.0.11.3.10']]]/hl7:criterion[hl7:templateId[@root = '1.2.40.0.34.6.0.11.3.10']]/hl7:value[not(@nullFlavor)]/*[not(@xsi:nil = 'true')][not(self::hl7:originalText)]" id="d405047e94-true-d405147e0">
        <assert role="error" see="http://art-decor.org/art-decor/decor-templates--elgaimpf-?id=1.2.40.0.34.6.0.11.3.1" test="not(.)">(atcdabbr_entry_Immunization)/d405047e94-true-d405147e0: '<value-of select="name(..)"/>' ist als geschlossen definiert und dieses Element '<name/>' ist nicht erlaubt oder nicht mit diesem Inhalt erlaubt. Dies kann templateId, code oder id betreffen. Erwartet:  hl7:originalText (rule-reference: d405047e94-true-d405147e0)</assert>
    </rule>

   <!-- Checking undefined contents for template/element @isClosed="true". Match context that we did not already match -->
    <rule context="*[hl7:substanceAdministration[hl7:templateId[@root = '1.2.40.0.34.6.0.11.3.1'] and hl7:templateId[@root = '2.16.840.1.113883.10.20.1.24'] and hl7:templateId[@root = '1.3.6.1.4.1.19376.1.5.3.1.4.12']]]/hl7:substanceAdministration[hl7:templateId[@root = '1.2.40.0.34.6.0.11.3.1'] and hl7:templateId[@root = '2.16.840.1.113883.10.20.1.24'] and hl7:templateId[@root = '1.3.6.1.4.1.19376.1.5.3.1.4.12']]/hl7:precondition[hl7:criterion[hl7:templateId[@root = '1.2.40.0.34.6.0.11.3.10']]]/hl7:criterion[hl7:templateId[@root = '1.2.40.0.34.6.0.11.3.10']]/hl7:value[not(@nullFlavor)]/hl7:originalText/*[not(@xsi:nil = 'true')][not(self::hl7:reference[not(@nullFlavor)])]" id="d405151e10-true-d405162e0">
        <assert role="error" see="http://art-decor.org/art-decor/decor-templates--elgaimpf-?id=1.2.40.0.34.6.0.11.9.2" test="not(.)">(atcdabbr_other_OriginalTextReference)/d405151e10-true-d405162e0: '<value-of select="name(..)"/>' ist als geschlossen definiert und dieses Element '<name/>' ist nicht erlaubt oder nicht mit diesem Inhalt erlaubt. Dies kann templateId, code oder id betreffen. Erwartet:  hl7:reference[not(@nullFlavor)] (rule-reference: d405151e10-true-d405162e0)</assert>
    </rule>
</pattern>