<?xml version="1.0" encoding="UTF-8"?>
<!--
Template derived pattern
===========================================
ID: 1.2.40.0.34.6.0.11.3.19
Name: Eingebettetes Objekt Entry
Description: 
-->
<pattern xmlns="http://purl.oclc.org/dsdl/schematron" id="template-1.2.40.0.34.6.0.11.3.19-2019-05-29T115907-closed">
    <title>Eingebettetes Objekt Entry</title>

   <!-- Checking undefined contents for template/element @isClosed="true". Match context that we did not already match -->
    <rule context="*[hl7:observationMedia[hl7:templateId[@root = '1.2.40.0.34.6.0.11.3.19']]]/*[not(@xsi:nil = 'true')][not(self::hl7:observationMedia[hl7:templateId[@root = '1.2.40.0.34.6.0.11.3.19']])]" id="d245561e4625-true-d439087e0">
        <assert role="error" see="http://art-decor.org/art-decor/decor-templates--elgaimpf-?id=1.2.40.0.34.6.0.11.3.19" test="not(.)">(atcdabbr_entry_EingebettetesObjektEntry)/d245561e4625-true-d439087e0: '<value-of select="name(..)"/>' ist als geschlossen definiert und dieses Element '<name/>' ist nicht erlaubt oder nicht mit diesem Inhalt erlaubt. Dies kann templateId, code oder id betreffen. Erwartet:  hl7:observationMedia[hl7:templateId[@root = '1.2.40.0.34.6.0.11.3.19']] (rule-reference: d245561e4625-true-d439087e0)</assert>
    </rule>

   <!-- Checking undefined contents for template/element @isClosed="true". Match context that we did not already match -->
    <rule context="*[hl7:observationMedia[hl7:templateId[@root = '1.2.40.0.34.6.0.11.3.19']]]/hl7:observationMedia[hl7:templateId[@root = '1.2.40.0.34.6.0.11.3.19']]/*[not(@xsi:nil = 'true')][not(self::hl7:templateId[@root = '1.2.40.0.34.6.0.11.3.19'] | self::hl7:value[not(@nullFlavor)] | self::hl7:performer[hl7:templateId[@root = '1.2.40.0.34.6.0.11.9.17']] | self::hl7:author[hl7:assignedAuthor] | self::hl7:informant | self::hl7:participant[@typeCode][hl7:participantRole])]" id="d245561e4650-true-d439589e0">
        <assert role="error" see="http://art-decor.org/art-decor/decor-templates--elgaimpf-?id=1.2.40.0.34.6.0.11.3.19" test="not(.)">(atcdabbr_entry_EingebettetesObjektEntry)/d245561e4650-true-d439589e0: '<value-of select="name(..)"/>' ist als geschlossen definiert und dieses Element '<name/>' ist nicht erlaubt oder nicht mit diesem Inhalt erlaubt. Dies kann templateId, code oder id betreffen. Erwartet:  hl7:templateId[@root = '1.2.40.0.34.6.0.11.3.19'] | hl7:value[not(@nullFlavor)] | hl7:performer[hl7:templateId[@root = '1.2.40.0.34.6.0.11.9.17']] | hl7:author[hl7:assignedAuthor] | hl7:informant | hl7:participant[@typeCode][hl7:participantRole] (rule-reference: d245561e4650-true-d439589e0)</assert>
    </rule>

   <!-- Checking undefined contents for template/element @isClosed="true". Match context that we did not already match -->
    <rule context="*[hl7:observationMedia[hl7:templateId[@root = '1.2.40.0.34.6.0.11.3.19']]]/hl7:observationMedia[hl7:templateId[@root = '1.2.40.0.34.6.0.11.3.19']]/hl7:performer[hl7:templateId[@root = '1.2.40.0.34.6.0.11.9.17']]/*[not(@xsi:nil = 'true')][not(self::hl7:templateId[@root = '1.2.40.0.34.6.0.11.9.17'] | self::hl7:time | self::hl7:assignedEntity[not(@nullFlavor)])]" id="d245561e4680-true-d439747e0">
        <assert role="error" see="http://art-decor.org/art-decor/decor-templates--elgaimpf-?id=1.2.40.0.34.6.0.11.3.19" test="not(.)">(atcdabbr_entry_EingebettetesObjektEntry)/d245561e4680-true-d439747e0: '<value-of select="name(..)"/>' ist als geschlossen definiert und dieses Element '<name/>' ist nicht erlaubt oder nicht mit diesem Inhalt erlaubt. Dies kann templateId, code oder id betreffen. Erwartet:  hl7:templateId[@root = '1.2.40.0.34.6.0.11.9.17'] | hl7:time | hl7:assignedEntity[not(@nullFlavor)] (rule-reference: d245561e4680-true-d439747e0)</assert>
    </rule>

   <!-- Checking undefined contents for template/element @isClosed="true". Match context that we did not already match -->
    <rule context="*[hl7:observationMedia[hl7:templateId[@root = '1.2.40.0.34.6.0.11.3.19']]]/hl7:observationMedia[hl7:templateId[@root = '1.2.40.0.34.6.0.11.3.19']]/hl7:performer[hl7:templateId[@root = '1.2.40.0.34.6.0.11.9.17']]/hl7:assignedEntity[not(@nullFlavor)]/*[not(@xsi:nil = 'true')][not(self::hl7:id[not(@nullFlavor)] | self::hl7:id[@nullFlavor='NI'] | self::hl7:id[@nullFlavor='UNK'] | self::hl7:code | self::hl7:addr | self::hl7:telecom | self::hl7:assignedPerson | self::hl7:assignedPerson | self::hl7:representedOrganization)]" id="d439603e8-true-d439853e0">
        <assert role="error" see="http://art-decor.org/art-decor/decor-templates--elgaimpf-?id=1.2.40.0.34.6.0.11.3.19" test="not(.)">(atcdabbr_entry_EingebettetesObjektEntry)/d439603e8-true-d439853e0: '<value-of select="name(..)"/>' ist als geschlossen definiert und dieses Element '<name/>' ist nicht erlaubt oder nicht mit diesem Inhalt erlaubt. Dies kann templateId, code oder id betreffen. Erwartet:  hl7:id[not(@nullFlavor)] | hl7:id[@nullFlavor='NI'] | hl7:id[@nullFlavor='UNK'] | hl7:code | hl7:addr | hl7:telecom | hl7:assignedPerson | hl7:assignedPerson | hl7:representedOrganization (rule-reference: d439603e8-true-d439853e0)</assert>
    </rule>

   <!-- Checking undefined contents for template/element @isClosed="true". Match context that we did not already match -->
    <rule context="*[hl7:observationMedia[hl7:templateId[@root = '1.2.40.0.34.6.0.11.3.19']]]/hl7:observationMedia[hl7:templateId[@root = '1.2.40.0.34.6.0.11.3.19']]/hl7:performer[hl7:templateId[@root = '1.2.40.0.34.6.0.11.9.17']]/hl7:assignedEntity[not(@nullFlavor)]/hl7:addr/*[not(@xsi:nil = 'true')][not(self::hl7:streetAddressLine | self::hl7:streetName | self::hl7:houseNumber | self::hl7:postalCode | self::hl7:city | self::hl7:state | self::hl7:country | self::hl7:additionalLocator)]" id="d439857e47-true-d439920e0">
        <assert role="error" see="http://art-decor.org/art-decor/decor-templates--elgaimpf-?id=1.2.40.0.34.6.0.11.3.19" test="not(.)">(atcdabbr_entry_EingebettetesObjektEntry)/d439857e47-true-d439920e0: '<value-of select="name(..)"/>' ist als geschlossen definiert und dieses Element '<name/>' ist nicht erlaubt oder nicht mit diesem Inhalt erlaubt. Dies kann templateId, code oder id betreffen. Erwartet:  hl7:streetAddressLine | hl7:streetName | hl7:houseNumber | hl7:postalCode | hl7:city | hl7:state | hl7:country | hl7:additionalLocator (rule-reference: d439857e47-true-d439920e0)</assert>
    </rule>

   <!-- Checking undefined contents for template/element @isClosed="true". Match context that we did not already match -->
    <rule context="*[hl7:observationMedia[hl7:templateId[@root = '1.2.40.0.34.6.0.11.3.19']]]/hl7:observationMedia[hl7:templateId[@root = '1.2.40.0.34.6.0.11.3.19']]/hl7:performer[hl7:templateId[@root = '1.2.40.0.34.6.0.11.9.17']]/hl7:assignedEntity[not(@nullFlavor)]/hl7:assignedPerson/*[not(@xsi:nil = 'true')][not(self::hl7:name[not(@nullFlavor)])]" id="d439857e87-true-d439985e0">
        <assert role="error" see="http://art-decor.org/art-decor/decor-templates--elgaimpf-?id=1.2.40.0.34.6.0.11.9.16" test="not(.)">( atcdabbr_other_AssignedEntityBody)/d439857e87-true-d439985e0: '<value-of select="name(..)"/>' ist als geschlossen definiert und dieses Element '<name/>' ist nicht erlaubt oder nicht mit diesem Inhalt erlaubt. Dies kann templateId, code oder id betreffen. Erwartet:  hl7:name[not(@nullFlavor)] (rule-reference: d439857e87-true-d439985e0)</assert>
    </rule>

   <!-- Checking undefined contents for template/element @isClosed="true". Match context that we did not already match -->
    <rule context="*[hl7:observationMedia[hl7:templateId[@root = '1.2.40.0.34.6.0.11.3.19']]]/hl7:observationMedia[hl7:templateId[@root = '1.2.40.0.34.6.0.11.3.19']]/hl7:performer[hl7:templateId[@root = '1.2.40.0.34.6.0.11.9.17']]/hl7:assignedEntity[not(@nullFlavor)]/hl7:assignedPerson/*[not(@xsi:nil = 'true')][not(self::hl7:name[not(@nullFlavor)])]" id="d439857e94-true-d440005e0">
        <assert role="error" see="http://art-decor.org/art-decor/decor-templates--elgaimpf-?id=1.2.40.0.34.6.0.11.9.16" test="not(.)">( atcdabbr_other_AssignedEntityBody)/d439857e94-true-d440005e0: '<value-of select="name(..)"/>' ist als geschlossen definiert und dieses Element '<name/>' ist nicht erlaubt oder nicht mit diesem Inhalt erlaubt. Dies kann templateId, code oder id betreffen. Erwartet:  hl7:name[not(@nullFlavor)] (rule-reference: d439857e94-true-d440005e0)</assert>
    </rule>

   <!-- Checking undefined contents for template/element @isClosed="true". Match context that we did not already match -->
    <rule context="*[hl7:observationMedia[hl7:templateId[@root = '1.2.40.0.34.6.0.11.3.19']]]/hl7:observationMedia[hl7:templateId[@root = '1.2.40.0.34.6.0.11.3.19']]/hl7:performer[hl7:templateId[@root = '1.2.40.0.34.6.0.11.9.17']]/hl7:assignedEntity[not(@nullFlavor)]/hl7:assignedPerson/hl7:name[not(@nullFlavor)]/*[not(@xsi:nil = 'true')][not(self::hl7:prefix | self::hl7:family[not(@nullFlavor)] | self::hl7:given[not(@nullFlavor)] | self::hl7:suffix)]" id="d439994e10-true-d440033e0">
        <assert role="error" see="http://art-decor.org/art-decor/decor-templates--elgaimpf-?id=1.2.40.0.34.6.0.11.9.16" test="not(.)">( atcdabbr_other_AssignedEntityBody)/d439994e10-true-d440033e0: '<value-of select="name(..)"/>' ist als geschlossen definiert und dieses Element '<name/>' ist nicht erlaubt oder nicht mit diesem Inhalt erlaubt. Dies kann templateId, code oder id betreffen. Erwartet:  hl7:prefix | hl7:family[not(@nullFlavor)] | hl7:given[not(@nullFlavor)] | hl7:suffix (rule-reference: d439994e10-true-d440033e0)</assert>
    </rule>

   <!-- Checking undefined contents for template/element @isClosed="true". Match context that we did not already match -->
    <rule context="*[hl7:observationMedia[hl7:templateId[@root = '1.2.40.0.34.6.0.11.3.19']]]/hl7:observationMedia[hl7:templateId[@root = '1.2.40.0.34.6.0.11.3.19']]/hl7:performer[hl7:templateId[@root = '1.2.40.0.34.6.0.11.9.17']]/hl7:assignedEntity[not(@nullFlavor)]/hl7:representedOrganization/*[not(@xsi:nil = 'true')][not(self::hl7:id[not(@nullFlavor)] | self::hl7:name[not(@nullFlavor)] | self::hl7:telecom[not(@nullFlavor)] | self::hl7:addr[not(@nullFlavor)])]" id="d439857e102-true-d440079e0">
        <assert role="error" see="http://art-decor.org/art-decor/decor-templates--elgaimpf-?id=1.2.40.0.34.6.0.11.3.19" test="not(.)">(atcdabbr_entry_EingebettetesObjektEntry)/d439857e102-true-d440079e0: '<value-of select="name(..)"/>' ist als geschlossen definiert und dieses Element '<name/>' ist nicht erlaubt oder nicht mit diesem Inhalt erlaubt. Dies kann templateId, code oder id betreffen. Erwartet:  hl7:id[not(@nullFlavor)] | hl7:name[not(@nullFlavor)] | hl7:telecom[not(@nullFlavor)] | hl7:addr[not(@nullFlavor)] (rule-reference: d439857e102-true-d440079e0)</assert>
    </rule>

   <!-- Checking undefined contents for template/element @isClosed="true". Match context that we did not already match -->
    <rule context="*[hl7:observationMedia[hl7:templateId[@root = '1.2.40.0.34.6.0.11.3.19']]]/hl7:observationMedia[hl7:templateId[@root = '1.2.40.0.34.6.0.11.3.19']]/hl7:performer[hl7:templateId[@root = '1.2.40.0.34.6.0.11.9.17']]/hl7:assignedEntity[not(@nullFlavor)]/hl7:representedOrganization/hl7:addr[not(@nullFlavor)]/*[not(@xsi:nil = 'true')][not(self::hl7:streetAddressLine | self::hl7:streetName | self::hl7:houseNumber | self::hl7:postalCode | self::hl7:city | self::hl7:state | self::hl7:country | self::hl7:additionalLocator)]" id="d440054e36-true-d440136e0">
        <assert role="error" see="http://art-decor.org/art-decor/decor-templates--elgaimpf-?id=1.2.40.0.34.6.0.11.3.19" test="not(.)">(atcdabbr_entry_EingebettetesObjektEntry)/d440054e36-true-d440136e0: '<value-of select="name(..)"/>' ist als geschlossen definiert und dieses Element '<name/>' ist nicht erlaubt oder nicht mit diesem Inhalt erlaubt. Dies kann templateId, code oder id betreffen. Erwartet:  hl7:streetAddressLine | hl7:streetName | hl7:houseNumber | hl7:postalCode | hl7:city | hl7:state | hl7:country | hl7:additionalLocator (rule-reference: d440054e36-true-d440136e0)</assert>
    </rule>

   <!-- Checking undefined contents for template/element @isClosed="true". Match context that we did not already match -->
    <rule context="*[hl7:observationMedia[hl7:templateId[@root = '1.2.40.0.34.6.0.11.3.19']]]/hl7:observationMedia[hl7:templateId[@root = '1.2.40.0.34.6.0.11.3.19']]/hl7:author[hl7:assignedAuthor]/*[not(@xsi:nil = 'true')][not(self::hl7:functionCode | self::hl7:time[not(@nullFlavor)] | self::hl7:time[@nullFlavor='UNK'] | self::hl7:assignedAuthor)]" id="d245561e4681-true-d440297e0">
        <assert role="error" see="http://art-decor.org/art-decor/decor-templates--elgaimpf-?id=1.2.40.0.34.6.0.11.3.19" test="not(.)">(atcdabbr_entry_EingebettetesObjektEntry)/d245561e4681-true-d440297e0: '<value-of select="name(..)"/>' ist als geschlossen definiert und dieses Element '<name/>' ist nicht erlaubt oder nicht mit diesem Inhalt erlaubt. Dies kann templateId, code oder id betreffen. Erwartet:  hl7:functionCode | hl7:time[not(@nullFlavor)] | hl7:time[@nullFlavor='UNK'] | hl7:assignedAuthor (rule-reference: d245561e4681-true-d440297e0)</assert>
    </rule>

   <!-- Checking undefined contents for template/element @isClosed="true". Match context that we did not already match -->
    <rule context="*[hl7:observationMedia[hl7:templateId[@root = '1.2.40.0.34.6.0.11.3.19']]]/hl7:observationMedia[hl7:templateId[@root = '1.2.40.0.34.6.0.11.3.19']]/hl7:author[hl7:assignedAuthor]/hl7:assignedAuthor/*[not(@xsi:nil = 'true')][not(self::hl7:id[not(@nullFlavor)] | self::hl7:id[@nullFlavor='UNK'] | self::hl7:code[not(@nullFlavor)] | self::hl7:addr[not(@nullFlavor)] | self::hl7:telecom[not(@nullFlavor)] | self::hl7:assignedPerson | self::hl7:assignedAuthoringDevice | self::hl7:representedOrganization)]" id="d440173e24-true-d440404e0">
        <assert role="error" see="http://art-decor.org/art-decor/decor-templates--elgaimpf-?id=1.2.40.0.34.6.0.11.3.19" test="not(.)">(atcdabbr_entry_EingebettetesObjektEntry)/d440173e24-true-d440404e0: '<value-of select="name(..)"/>' ist als geschlossen definiert und dieses Element '<name/>' ist nicht erlaubt oder nicht mit diesem Inhalt erlaubt. Dies kann templateId, code oder id betreffen. Erwartet:  hl7:id[not(@nullFlavor)] | hl7:id[@nullFlavor='UNK'] | hl7:code[not(@nullFlavor)] | hl7:addr[not(@nullFlavor)] | hl7:telecom[not(@nullFlavor)] | hl7:assignedPerson | hl7:assignedAuthoringDevice | hl7:representedOrganization (rule-reference: d440173e24-true-d440404e0)</assert>
    </rule>

   <!-- Checking undefined contents for template/element @isClosed="true". Match context that we did not already match -->
    <rule context="*[hl7:observationMedia[hl7:templateId[@root = '1.2.40.0.34.6.0.11.3.19']]]/hl7:observationMedia[hl7:templateId[@root = '1.2.40.0.34.6.0.11.3.19']]/hl7:author[hl7:assignedAuthor]/hl7:assignedAuthor/hl7:addr[not(@nullFlavor)]/*[not(@xsi:nil = 'true')][not(self::hl7:streetAddressLine | self::hl7:streetName | self::hl7:houseNumber | self::hl7:postalCode[not(@nullFlavor)] | self::hl7:city[not(@nullFlavor)] | self::hl7:state | self::hl7:country[not(@nullFlavor)] | self::hl7:additionalLocator)]" id="d440173e32-true-d440459e0">
        <assert role="error" see="http://art-decor.org/art-decor/decor-templates--elgaimpf-?id=1.2.40.0.34.6.0.11.3.19" test="not(.)">(atcdabbr_entry_EingebettetesObjektEntry)/d440173e32-true-d440459e0: '<value-of select="name(..)"/>' ist als geschlossen definiert und dieses Element '<name/>' ist nicht erlaubt oder nicht mit diesem Inhalt erlaubt. Dies kann templateId, code oder id betreffen. Erwartet:  hl7:streetAddressLine | hl7:streetName | hl7:houseNumber | hl7:postalCode[not(@nullFlavor)] | hl7:city[not(@nullFlavor)] | hl7:state | hl7:country[not(@nullFlavor)] | hl7:additionalLocator (rule-reference: d440173e32-true-d440459e0)</assert>
    </rule>

   <!-- Checking undefined contents for template/element @isClosed="true". Match context that we did not already match -->
    <rule context="*[hl7:observationMedia[hl7:templateId[@root = '1.2.40.0.34.6.0.11.3.19']]]/hl7:observationMedia[hl7:templateId[@root = '1.2.40.0.34.6.0.11.3.19']]/hl7:author[hl7:assignedAuthor]/hl7:assignedAuthor/hl7:assignedPerson/*[not(@xsi:nil = 'true')][not(self::hl7:name[not(@nullFlavor)] | self::hl7:name[@nullFlavor='UNK'] | self::hl7:name[@nullFlavor='MSK'])]" id="d440173e54-true-d440506e0">
        <assert role="error" see="http://art-decor.org/art-decor/decor-templates--elgaimpf-?id=1.2.40.0.34.6.0.11.3.19" test="not(.)">(atcdabbr_entry_EingebettetesObjektEntry)/d440173e54-true-d440506e0: '<value-of select="name(..)"/>' ist als geschlossen definiert und dieses Element '<name/>' ist nicht erlaubt oder nicht mit diesem Inhalt erlaubt. Dies kann templateId, code oder id betreffen. Erwartet:  hl7:name[not(@nullFlavor)] | hl7:name[@nullFlavor='UNK'] | hl7:name[@nullFlavor='MSK'] (rule-reference: d440173e54-true-d440506e0)</assert>
    </rule>

   <!-- Checking undefined contents for template/element @isClosed="true". Match context that we did not already match -->
    <rule context="*[hl7:observationMedia[hl7:templateId[@root = '1.2.40.0.34.6.0.11.3.19']]]/hl7:observationMedia[hl7:templateId[@root = '1.2.40.0.34.6.0.11.3.19']]/hl7:author[hl7:assignedAuthor]/hl7:assignedAuthor/hl7:assignedPerson/hl7:name[not(@nullFlavor)]/*[not(@xsi:nil = 'true')][not(self::hl7:prefix | self::hl7:family[not(@nullFlavor)] | self::hl7:given[not(@nullFlavor)] | self::hl7:suffix)]" id="d440510e62-true-d440538e0">
        <assert role="error" see="http://art-decor.org/art-decor/decor-templates--elgaimpf-?id=1.2.40.0.34.6.0.11.9.6" test="not(.)">(atcdabbr_other_PersonNameCompilationG2)/d440510e62-true-d440538e0: '<value-of select="name(..)"/>' ist als geschlossen definiert und dieses Element '<name/>' ist nicht erlaubt oder nicht mit diesem Inhalt erlaubt. Dies kann templateId, code oder id betreffen. Erwartet:  hl7:prefix | hl7:family[not(@nullFlavor)] | hl7:given[not(@nullFlavor)] | hl7:suffix (rule-reference: d440510e62-true-d440538e0)</assert>
    </rule>

   <!-- Checking undefined contents for template/element @isClosed="true". Match context that we did not already match -->
    <rule context="*[hl7:observationMedia[hl7:templateId[@root = '1.2.40.0.34.6.0.11.3.19']]]/hl7:observationMedia[hl7:templateId[@root = '1.2.40.0.34.6.0.11.3.19']]/hl7:author[hl7:assignedAuthor]/hl7:assignedAuthor/hl7:assignedAuthoringDevice/*[not(@xsi:nil = 'true')][not(self::hl7:manufacturerModelName[not(@nullFlavor)] | self::hl7:softwareName[not(@nullFlavor)])]" id="d440173e65-true-d440579e0">
        <assert role="error" see="http://art-decor.org/art-decor/decor-templates--elgaimpf-?id=1.2.40.0.34.6.0.11.3.19" test="not(.)">(atcdabbr_entry_EingebettetesObjektEntry)/d440173e65-true-d440579e0: '<value-of select="name(..)"/>' ist als geschlossen definiert und dieses Element '<name/>' ist nicht erlaubt oder nicht mit diesem Inhalt erlaubt. Dies kann templateId, code oder id betreffen. Erwartet:  hl7:manufacturerModelName[not(@nullFlavor)] | hl7:softwareName[not(@nullFlavor)] (rule-reference: d440173e65-true-d440579e0)</assert>
    </rule>

   <!-- Checking undefined contents for template/element @isClosed="true". Match context that we did not already match -->
    <rule context="*[hl7:observationMedia[hl7:templateId[@root = '1.2.40.0.34.6.0.11.3.19']]]/hl7:observationMedia[hl7:templateId[@root = '1.2.40.0.34.6.0.11.3.19']]/hl7:author[hl7:assignedAuthor]/hl7:assignedAuthor/hl7:representedOrganization/*[not(@xsi:nil = 'true')][not(self::hl7:id[not(@nullFlavor)] | self::hl7:name[not(@nullFlavor)] | self::hl7:telecom[not(@nullFlavor)] | self::hl7:addr[not(@nullFlavor)])]" id="d440173e72-true-d440621e0">
        <assert role="error" see="http://art-decor.org/art-decor/decor-templates--elgaimpf-?id=1.2.40.0.34.6.0.11.3.19" test="not(.)">(atcdabbr_entry_EingebettetesObjektEntry)/d440173e72-true-d440621e0: '<value-of select="name(..)"/>' ist als geschlossen definiert und dieses Element '<name/>' ist nicht erlaubt oder nicht mit diesem Inhalt erlaubt. Dies kann templateId, code oder id betreffen. Erwartet:  hl7:id[not(@nullFlavor)] | hl7:name[not(@nullFlavor)] | hl7:telecom[not(@nullFlavor)] | hl7:addr[not(@nullFlavor)] (rule-reference: d440173e72-true-d440621e0)</assert>
    </rule>

   <!-- Checking undefined contents for template/element @isClosed="true". Match context that we did not already match -->
    <rule context="*[hl7:observationMedia[hl7:templateId[@root = '1.2.40.0.34.6.0.11.3.19']]]/hl7:observationMedia[hl7:templateId[@root = '1.2.40.0.34.6.0.11.3.19']]/hl7:author[hl7:assignedAuthor]/hl7:assignedAuthor/hl7:representedOrganization/hl7:addr[not(@nullFlavor)]/*[not(@xsi:nil = 'true')][not(self::hl7:streetAddressLine | self::hl7:streetName | self::hl7:houseNumber | self::hl7:postalCode[not(@nullFlavor)] | self::hl7:city[not(@nullFlavor)] | self::hl7:state | self::hl7:country[not(@nullFlavor)] | self::hl7:additionalLocator)]" id="d440592e43-true-d440680e0">
        <assert role="error" see="http://art-decor.org/art-decor/decor-templates--elgaimpf-?id=1.2.40.0.34.6.0.11.3.19" test="not(.)">(atcdabbr_entry_EingebettetesObjektEntry)/d440592e43-true-d440680e0: '<value-of select="name(..)"/>' ist als geschlossen definiert und dieses Element '<name/>' ist nicht erlaubt oder nicht mit diesem Inhalt erlaubt. Dies kann templateId, code oder id betreffen. Erwartet:  hl7:streetAddressLine | hl7:streetName | hl7:houseNumber | hl7:postalCode[not(@nullFlavor)] | hl7:city[not(@nullFlavor)] | hl7:state | hl7:country[not(@nullFlavor)] | hl7:additionalLocator (rule-reference: d440592e43-true-d440680e0)</assert>
    </rule>

   <!-- Checking undefined contents for template/element @isClosed="true". Match context that we did not already match -->
    <rule context="*[hl7:observationMedia[hl7:templateId[@root = '1.2.40.0.34.6.0.11.3.19']]]/hl7:observationMedia[hl7:templateId[@root = '1.2.40.0.34.6.0.11.3.19']]/hl7:informant/*[not(@xsi:nil = 'true')][not(self::hl7:assignedEntity | self::hl7:relatedEntity)]" id="d245561e4682-true-d440843e0">
        <assert role="error" see="http://art-decor.org/art-decor/decor-templates--elgaimpf-?id=1.2.40.0.34.6.0.11.3.19" test="not(.)">(atcdabbr_entry_EingebettetesObjektEntry)/d245561e4682-true-d440843e0: '<value-of select="name(..)"/>' ist als geschlossen definiert und dieses Element '<name/>' ist nicht erlaubt oder nicht mit diesem Inhalt erlaubt. Dies kann templateId, code oder id betreffen. Erwartet:  hl7:assignedEntity | hl7:relatedEntity (rule-reference: d245561e4682-true-d440843e0)</assert>
    </rule>

   <!-- Checking undefined contents for template/element @isClosed="true". Match context that we did not already match -->
    <rule context="*[hl7:observationMedia[hl7:templateId[@root = '1.2.40.0.34.6.0.11.3.19']]]/hl7:observationMedia[hl7:templateId[@root = '1.2.40.0.34.6.0.11.3.19']]/hl7:informant/hl7:assignedEntity/*[not(@xsi:nil = 'true')][not(self::hl7:id[not(@nullFlavor)] | self::hl7:id[@nullFlavor='NI'] | self::hl7:id[@nullFlavor='UNK'] | self::hl7:code | self::hl7:addr | self::hl7:telecom | self::hl7:assignedPerson | self::hl7:assignedPerson | self::hl7:representedOrganization)]" id="d440717e4-true-d440977e0">
        <assert role="error" see="http://art-decor.org/art-decor/decor-templates--elgaimpf-?id=1.2.40.0.34.6.0.11.3.19" test="not(.)">(atcdabbr_entry_EingebettetesObjektEntry)/d440717e4-true-d440977e0: '<value-of select="name(..)"/>' ist als geschlossen definiert und dieses Element '<name/>' ist nicht erlaubt oder nicht mit diesem Inhalt erlaubt. Dies kann templateId, code oder id betreffen. Erwartet:  hl7:id[not(@nullFlavor)] | hl7:id[@nullFlavor='NI'] | hl7:id[@nullFlavor='UNK'] | hl7:code | hl7:addr | hl7:telecom | hl7:assignedPerson | hl7:assignedPerson | hl7:representedOrganization (rule-reference: d440717e4-true-d440977e0)</assert>
    </rule>

   <!-- Checking undefined contents for template/element @isClosed="true". Match context that we did not already match -->
    <rule context="*[hl7:observationMedia[hl7:templateId[@root = '1.2.40.0.34.6.0.11.3.19']]]/hl7:observationMedia[hl7:templateId[@root = '1.2.40.0.34.6.0.11.3.19']]/hl7:informant/hl7:assignedEntity/hl7:addr/*[not(@xsi:nil = 'true')][not(self::hl7:streetAddressLine | self::hl7:streetName | self::hl7:houseNumber | self::hl7:postalCode | self::hl7:city | self::hl7:state | self::hl7:country | self::hl7:additionalLocator)]" id="d440848e26-true-d441038e0">
        <assert role="error" see="http://art-decor.org/art-decor/decor-templates--elgaimpf-?id=1.2.40.0.34.6.0.11.3.19" test="not(.)">(atcdabbr_entry_EingebettetesObjektEntry)/d440848e26-true-d441038e0: '<value-of select="name(..)"/>' ist als geschlossen definiert und dieses Element '<name/>' ist nicht erlaubt oder nicht mit diesem Inhalt erlaubt. Dies kann templateId, code oder id betreffen. Erwartet:  hl7:streetAddressLine | hl7:streetName | hl7:houseNumber | hl7:postalCode | hl7:city | hl7:state | hl7:country | hl7:additionalLocator (rule-reference: d440848e26-true-d441038e0)</assert>
    </rule>

   <!-- Checking undefined contents for template/element @isClosed="true". Match context that we did not already match -->
    <rule context="*[hl7:observationMedia[hl7:templateId[@root = '1.2.40.0.34.6.0.11.3.19']]]/hl7:observationMedia[hl7:templateId[@root = '1.2.40.0.34.6.0.11.3.19']]/hl7:informant/hl7:assignedEntity/hl7:assignedPerson/*[not(@xsi:nil = 'true')][not(self::hl7:name[not(@nullFlavor)])]" id="d440848e66-true-d441090e0">
        <assert role="error" see="http://art-decor.org/art-decor/decor-templates--elgaimpf-?id=1.2.40.0.34.6.0.11.3.19" test="not(.)">(atcdabbr_entry_EingebettetesObjektEntry)/d440848e66-true-d441090e0: '<value-of select="name(..)"/>' ist als geschlossen definiert und dieses Element '<name/>' ist nicht erlaubt oder nicht mit diesem Inhalt erlaubt. Dies kann templateId, code oder id betreffen. Erwartet:  hl7:name[not(@nullFlavor)] (rule-reference: d440848e66-true-d441090e0)</assert>
    </rule>

   <!-- Checking undefined contents for template/element @isClosed="true". Match context that we did not already match -->
    <rule context="*[hl7:observationMedia[hl7:templateId[@root = '1.2.40.0.34.6.0.11.3.19']]]/hl7:observationMedia[hl7:templateId[@root = '1.2.40.0.34.6.0.11.3.19']]/hl7:informant/hl7:assignedEntity/hl7:assignedPerson/*[not(@xsi:nil = 'true')][not(self::hl7:name[not(@nullFlavor)])]" id="d440848e73-true-d441110e0">
        <assert role="error" see="http://art-decor.org/art-decor/decor-templates--elgaimpf-?id=1.2.40.0.34.6.0.11.3.19" test="not(.)">(atcdabbr_entry_EingebettetesObjektEntry)/d440848e73-true-d441110e0: '<value-of select="name(..)"/>' ist als geschlossen definiert und dieses Element '<name/>' ist nicht erlaubt oder nicht mit diesem Inhalt erlaubt. Dies kann templateId, code oder id betreffen. Erwartet:  hl7:name[not(@nullFlavor)] (rule-reference: d440848e73-true-d441110e0)</assert>
    </rule>

   <!-- Checking undefined contents for template/element @isClosed="true". Match context that we did not already match -->
    <rule context="*[hl7:observationMedia[hl7:templateId[@root = '1.2.40.0.34.6.0.11.3.19']]]/hl7:observationMedia[hl7:templateId[@root = '1.2.40.0.34.6.0.11.3.19']]/hl7:informant/hl7:assignedEntity/hl7:assignedPerson/hl7:name[not(@nullFlavor)]/*[not(@xsi:nil = 'true')][not(self::hl7:prefix | self::hl7:family[not(@nullFlavor)] | self::hl7:given[not(@nullFlavor)] | self::hl7:suffix)]" id="d441099e10-true-d441138e0">
        <assert role="error" see="http://art-decor.org/art-decor/decor-templates--elgaimpf-?id=1.2.40.0.34.6.0.11.3.19" test="not(.)">(atcdabbr_entry_EingebettetesObjektEntry)/d441099e10-true-d441138e0: '<value-of select="name(..)"/>' ist als geschlossen definiert und dieses Element '<name/>' ist nicht erlaubt oder nicht mit diesem Inhalt erlaubt. Dies kann templateId, code oder id betreffen. Erwartet:  hl7:prefix | hl7:family[not(@nullFlavor)] | hl7:given[not(@nullFlavor)] | hl7:suffix (rule-reference: d441099e10-true-d441138e0)</assert>
    </rule>

   <!-- Checking undefined contents for template/element @isClosed="true". Match context that we did not already match -->
    <rule context="*[hl7:observationMedia[hl7:templateId[@root = '1.2.40.0.34.6.0.11.3.19']]]/hl7:observationMedia[hl7:templateId[@root = '1.2.40.0.34.6.0.11.3.19']]/hl7:informant/hl7:assignedEntity/hl7:representedOrganization/*[not(@xsi:nil = 'true')][not(self::hl7:id[not(@nullFlavor)] | self::hl7:name[not(@nullFlavor)] | self::hl7:telecom[not(@nullFlavor)] | self::hl7:addr[not(@nullFlavor)])]" id="d440848e81-true-d441184e0">
        <assert role="error" see="http://art-decor.org/art-decor/decor-templates--elgaimpf-?id=1.2.40.0.34.6.0.11.3.19" test="not(.)">(atcdabbr_entry_EingebettetesObjektEntry)/d440848e81-true-d441184e0: '<value-of select="name(..)"/>' ist als geschlossen definiert und dieses Element '<name/>' ist nicht erlaubt oder nicht mit diesem Inhalt erlaubt. Dies kann templateId, code oder id betreffen. Erwartet:  hl7:id[not(@nullFlavor)] | hl7:name[not(@nullFlavor)] | hl7:telecom[not(@nullFlavor)] | hl7:addr[not(@nullFlavor)] (rule-reference: d440848e81-true-d441184e0)</assert>
    </rule>

   <!-- Checking undefined contents for template/element @isClosed="true". Match context that we did not already match -->
    <rule context="*[hl7:observationMedia[hl7:templateId[@root = '1.2.40.0.34.6.0.11.3.19']]]/hl7:observationMedia[hl7:templateId[@root = '1.2.40.0.34.6.0.11.3.19']]/hl7:informant/hl7:assignedEntity/hl7:representedOrganization/hl7:addr[not(@nullFlavor)]/*[not(@xsi:nil = 'true')][not(self::hl7:streetAddressLine | self::hl7:streetName | self::hl7:houseNumber | self::hl7:postalCode | self::hl7:city | self::hl7:state | self::hl7:country | self::hl7:additionalLocator)]" id="d441159e36-true-d441241e0">
        <assert role="error" see="http://art-decor.org/art-decor/decor-templates--elgaimpf-?id=1.2.40.0.34.6.0.11.3.19" test="not(.)">(atcdabbr_entry_EingebettetesObjektEntry)/d441159e36-true-d441241e0: '<value-of select="name(..)"/>' ist als geschlossen definiert und dieses Element '<name/>' ist nicht erlaubt oder nicht mit diesem Inhalt erlaubt. Dies kann templateId, code oder id betreffen. Erwartet:  hl7:streetAddressLine | hl7:streetName | hl7:houseNumber | hl7:postalCode | hl7:city | hl7:state | hl7:country | hl7:additionalLocator (rule-reference: d441159e36-true-d441241e0)</assert>
    </rule>

   <!-- Checking undefined contents for template/element @isClosed="true". Match context that we did not already match -->
    <rule context="*[hl7:observationMedia[hl7:templateId[@root = '1.2.40.0.34.6.0.11.3.19']]]/hl7:observationMedia[hl7:templateId[@root = '1.2.40.0.34.6.0.11.3.19']]/hl7:informant/hl7:relatedEntity/*[not(@xsi:nil = 'true')][not(self::hl7:code[not(@nullFlavor)] | self::hl7:addr[not(@nullFlavor)] | self::hl7:telecom[not(@nullFlavor)] | self::hl7:relatedPerson)]" id="d440717e5-true-d441309e0">
        <assert role="error" see="http://art-decor.org/art-decor/decor-templates--elgaimpf-?id=1.2.40.0.34.6.0.11.3.19" test="not(.)">(atcdabbr_entry_EingebettetesObjektEntry)/d440717e5-true-d441309e0: '<value-of select="name(..)"/>' ist als geschlossen definiert und dieses Element '<name/>' ist nicht erlaubt oder nicht mit diesem Inhalt erlaubt. Dies kann templateId, code oder id betreffen. Erwartet:  hl7:code[not(@nullFlavor)] | hl7:addr[not(@nullFlavor)] | hl7:telecom[not(@nullFlavor)] | hl7:relatedPerson (rule-reference: d440717e5-true-d441309e0)</assert>
    </rule>

   <!-- Checking undefined contents for template/element @isClosed="true". Match context that we did not already match -->
    <rule context="*[hl7:observationMedia[hl7:templateId[@root = '1.2.40.0.34.6.0.11.3.19']]]/hl7:observationMedia[hl7:templateId[@root = '1.2.40.0.34.6.0.11.3.19']]/hl7:informant/hl7:relatedEntity/hl7:addr[not(@nullFlavor)]/*[not(@xsi:nil = 'true')][not(self::hl7:streetAddressLine | self::hl7:streetName | self::hl7:houseNumber | self::hl7:postalCode | self::hl7:city | self::hl7:state | self::hl7:country | self::hl7:additionalLocator)]" id="d440717e8-true-d441360e0">
        <assert role="error" see="http://art-decor.org/art-decor/decor-templates--elgaimpf-?id=1.2.40.0.34.6.0.11.3.19" test="not(.)">(atcdabbr_entry_EingebettetesObjektEntry)/d440717e8-true-d441360e0: '<value-of select="name(..)"/>' ist als geschlossen definiert und dieses Element '<name/>' ist nicht erlaubt oder nicht mit diesem Inhalt erlaubt. Dies kann templateId, code oder id betreffen. Erwartet:  hl7:streetAddressLine | hl7:streetName | hl7:houseNumber | hl7:postalCode | hl7:city | hl7:state | hl7:country | hl7:additionalLocator (rule-reference: d440717e8-true-d441360e0)</assert>
    </rule>

   <!-- Checking undefined contents for template/element @isClosed="true". Match context that we did not already match -->
    <rule context="*[hl7:observationMedia[hl7:templateId[@root = '1.2.40.0.34.6.0.11.3.19']]]/hl7:observationMedia[hl7:templateId[@root = '1.2.40.0.34.6.0.11.3.19']]/hl7:informant/hl7:relatedEntity/hl7:relatedPerson/*[not(@xsi:nil = 'true')][not(self::hl7:name[not(@nullFlavor)] | self::hl7:name[@nullFlavor='UNK'] | self::hl7:name[@nullFlavor='MSK'])]" id="d440717e10-true-d441405e0">
        <assert role="error" see="http://art-decor.org/art-decor/decor-templates--elgaimpf-?id=1.2.40.0.34.6.0.11.3.19" test="not(.)">(atcdabbr_entry_EingebettetesObjektEntry)/d440717e10-true-d441405e0: '<value-of select="name(..)"/>' ist als geschlossen definiert und dieses Element '<name/>' ist nicht erlaubt oder nicht mit diesem Inhalt erlaubt. Dies kann templateId, code oder id betreffen. Erwartet:  hl7:name[not(@nullFlavor)] | hl7:name[@nullFlavor='UNK'] | hl7:name[@nullFlavor='MSK'] (rule-reference: d440717e10-true-d441405e0)</assert>
    </rule>

   <!-- Checking undefined contents for template/element @isClosed="true". Match context that we did not already match -->
    <rule context="*[hl7:observationMedia[hl7:templateId[@root = '1.2.40.0.34.6.0.11.3.19']]]/hl7:observationMedia[hl7:templateId[@root = '1.2.40.0.34.6.0.11.3.19']]/hl7:informant/hl7:relatedEntity/hl7:relatedPerson/hl7:name[not(@nullFlavor)]/*[not(@xsi:nil = 'true')][not(self::hl7:prefix | self::hl7:family[not(@nullFlavor)] | self::hl7:given[not(@nullFlavor)] | self::hl7:suffix)]" id="d441399e7-true-d441431e0">
        <assert role="error" see="http://art-decor.org/art-decor/decor-templates--elgaimpf-?id=1.2.40.0.34.6.0.11.3.19" test="not(.)">(atcdabbr_entry_EingebettetesObjektEntry)/d441399e7-true-d441431e0: '<value-of select="name(..)"/>' ist als geschlossen definiert und dieses Element '<name/>' ist nicht erlaubt oder nicht mit diesem Inhalt erlaubt. Dies kann templateId, code oder id betreffen. Erwartet:  hl7:prefix | hl7:family[not(@nullFlavor)] | hl7:given[not(@nullFlavor)] | hl7:suffix (rule-reference: d441399e7-true-d441431e0)</assert>
    </rule>

   <!-- Checking undefined contents for template/element @isClosed="true". Match context that we did not already match -->
    <rule context="*[hl7:observationMedia[hl7:templateId[@root = '1.2.40.0.34.6.0.11.3.19']]]/hl7:observationMedia[hl7:templateId[@root = '1.2.40.0.34.6.0.11.3.19']]/hl7:participant[@typeCode][hl7:participantRole]/*[not(@xsi:nil = 'true')][not(self::hl7:time | self::hl7:awarenessCode[concat(@code, @codeSystem) = doc('include/voc-2.16.840.1.113883.1.11.10310-DYNAMIC.xml')//valueSet[1]/conceptList/concept/concat(@code, @codeSystem) or @nullFlavor] | self::hl7:participantRole)]" id="d245561e4683-true-d441552e0">
        <assert role="error" see="http://art-decor.org/art-decor/decor-templates--elgaimpf-?id=1.2.40.0.34.6.0.11.3.19" test="not(.)">(atcdabbr_entry_EingebettetesObjektEntry)/d245561e4683-true-d441552e0: '<value-of select="name(..)"/>' ist als geschlossen definiert und dieses Element '<name/>' ist nicht erlaubt oder nicht mit diesem Inhalt erlaubt. Dies kann templateId, code oder id betreffen. Erwartet:  hl7:time | hl7:awarenessCode[concat(@code, @codeSystem) = doc('include/voc-2.16.840.1.113883.1.11.10310-DYNAMIC.xml')//valueSet[1]/conceptList/concept/concat(@code, @codeSystem) or @nullFlavor] | hl7:participantRole (rule-reference: d245561e4683-true-d441552e0)</assert>
    </rule>

   <!-- Checking undefined contents for template/element @isClosed="true". Match context that we did not already match -->
    <rule context="*[hl7:observationMedia[hl7:templateId[@root = '1.2.40.0.34.6.0.11.3.19']]]/hl7:observationMedia[hl7:templateId[@root = '1.2.40.0.34.6.0.11.3.19']]/hl7:participant[@typeCode][hl7:participantRole]/hl7:participantRole/*[not(@xsi:nil = 'true')][not(self::hl7:id | self::hl7:code | self::hl7:addr | self::hl7:telecom | self::hl7:playingDevice | self::hl7:playingEntity | self::hl7:scopingEntity)]" id="d441456e7-true-d441657e0">
        <assert role="error" see="http://art-decor.org/art-decor/decor-templates--elgaimpf-?id=1.2.40.0.34.6.0.11.3.19" test="not(.)">(atcdabbr_entry_EingebettetesObjektEntry)/d441456e7-true-d441657e0: '<value-of select="name(..)"/>' ist als geschlossen definiert und dieses Element '<name/>' ist nicht erlaubt oder nicht mit diesem Inhalt erlaubt. Dies kann templateId, code oder id betreffen. Erwartet:  hl7:id | hl7:code | hl7:addr | hl7:telecom | hl7:playingDevice | hl7:playingEntity | hl7:scopingEntity (rule-reference: d441456e7-true-d441657e0)</assert>
    </rule>

   <!-- Checking undefined contents for template/element @isClosed="true". Match context that we did not already match -->
    <rule context="*[hl7:observationMedia[hl7:templateId[@root = '1.2.40.0.34.6.0.11.3.19']]]/hl7:observationMedia[hl7:templateId[@root = '1.2.40.0.34.6.0.11.3.19']]/hl7:participant[@typeCode][hl7:participantRole]/hl7:participantRole/hl7:addr/*[not(@xsi:nil = 'true')][not(self::hl7:streetAddressLine | self::hl7:streetName | self::hl7:houseNumber | self::hl7:postalCode[not(@nullFlavor)] | self::hl7:city[not(@nullFlavor)] | self::hl7:state | self::hl7:country[not(@nullFlavor)] | self::hl7:additionalLocator)]" id="d441456e12-true-d441716e0">
        <assert role="error" see="http://art-decor.org/art-decor/decor-templates--elgaimpf-?id=1.2.40.0.34.6.0.11.3.19" test="not(.)">(atcdabbr_entry_EingebettetesObjektEntry)/d441456e12-true-d441716e0: '<value-of select="name(..)"/>' ist als geschlossen definiert und dieses Element '<name/>' ist nicht erlaubt oder nicht mit diesem Inhalt erlaubt. Dies kann templateId, code oder id betreffen. Erwartet:  hl7:streetAddressLine | hl7:streetName | hl7:houseNumber | hl7:postalCode[not(@nullFlavor)] | hl7:city[not(@nullFlavor)] | hl7:state | hl7:country[not(@nullFlavor)] | hl7:additionalLocator (rule-reference: d441456e12-true-d441716e0)</assert>
    </rule>

   <!-- Checking undefined contents for template/element @isClosed="true". Match context that we did not already match -->
    <rule context="*[hl7:observationMedia[hl7:templateId[@root = '1.2.40.0.34.6.0.11.3.19']]]/hl7:observationMedia[hl7:templateId[@root = '1.2.40.0.34.6.0.11.3.19']]/hl7:participant[@typeCode][hl7:participantRole]/hl7:participantRole/hl7:playingDevice/*[not(@xsi:nil = 'true')][not(self::hl7:code[@codeSystem = doc('include/voc-2.16.840.1.113883.1.11.16040-DYNAMIC.xml')//valueSet[1]/completeCodeSystem/@codeSystem or concat(@code, @codeSystem) = doc('include/voc-2.16.840.1.113883.1.11.16040-DYNAMIC.xml')//valueSet[1]/conceptList/concept/concat(@code, @codeSystem) or @nullFlavor] | self::hl7:manufacturerModelName | self::hl7:softwareName)]" id="d441456e38-true-d441784e0">
        <assert role="error" see="http://art-decor.org/art-decor/decor-templates--elgaimpf-?id=1.2.40.0.34.6.0.11.3.19" test="not(.)">(atcdabbr_entry_EingebettetesObjektEntry)/d441456e38-true-d441784e0: '<value-of select="name(..)"/>' ist als geschlossen definiert und dieses Element '<name/>' ist nicht erlaubt oder nicht mit diesem Inhalt erlaubt. Dies kann templateId, code oder id betreffen. Erwartet:  hl7:code[@codeSystem = doc('include/voc-2.16.840.1.113883.1.11.16040-DYNAMIC.xml')//valueSet[1]/completeCodeSystem/@codeSystem or concat(@code, @codeSystem) = doc('include/voc-2.16.840.1.113883.1.11.16040-DYNAMIC.xml')//valueSet[1]/conceptList/concept/concat(@code, @codeSystem) or @nullFlavor] | hl7:manufacturerModelName | hl7:softwareName (rule-reference: d441456e38-true-d441784e0)</assert>
    </rule>

   <!-- Checking undefined contents for template/element @isClosed="true". Match context that we did not already match -->
    <rule context="*[hl7:observationMedia[hl7:templateId[@root = '1.2.40.0.34.6.0.11.3.19']]]/hl7:observationMedia[hl7:templateId[@root = '1.2.40.0.34.6.0.11.3.19']]/hl7:participant[@typeCode][hl7:participantRole]/hl7:participantRole/hl7:playingEntity/*[not(@xsi:nil = 'true')][not(self::hl7:code[@codeSystem = doc('include/voc-2.16.840.1.113883.1.11.16040-DYNAMIC.xml')//valueSet[1]/completeCodeSystem/@codeSystem or concat(@code, @codeSystem) = doc('include/voc-2.16.840.1.113883.1.11.16040-DYNAMIC.xml')//valueSet[1]/conceptList/concept/concat(@code, @codeSystem) or @nullFlavor] | self::hl7:quantity | self::hl7:name | self::sdtc:birthTime | self::hl7:desc)]" id="d441456e39-true-d441841e0">
        <assert role="error" see="http://art-decor.org/art-decor/decor-templates--elgaimpf-?id=1.2.40.0.34.6.0.11.3.19" test="not(.)">(atcdabbr_entry_EingebettetesObjektEntry)/d441456e39-true-d441841e0: '<value-of select="name(..)"/>' ist als geschlossen definiert und dieses Element '<name/>' ist nicht erlaubt oder nicht mit diesem Inhalt erlaubt. Dies kann templateId, code oder id betreffen. Erwartet:  hl7:code[@codeSystem = doc('include/voc-2.16.840.1.113883.1.11.16040-DYNAMIC.xml')//valueSet[1]/completeCodeSystem/@codeSystem or concat(@code, @codeSystem) = doc('include/voc-2.16.840.1.113883.1.11.16040-DYNAMIC.xml')//valueSet[1]/conceptList/concept/concat(@code, @codeSystem) or @nullFlavor] | hl7:quantity | hl7:name | sdtc:birthTime | hl7:desc (rule-reference: d441456e39-true-d441841e0)</assert>
    </rule>

   <!-- Checking undefined contents for template/element @isClosed="true". Match context that we did not already match -->
    <rule context="*[hl7:observationMedia[hl7:templateId[@root = '1.2.40.0.34.6.0.11.3.19']]]/hl7:observationMedia[hl7:templateId[@root = '1.2.40.0.34.6.0.11.3.19']]/hl7:participant[@typeCode][hl7:participantRole]/hl7:participantRole/hl7:scopingEntity/*[not(@xsi:nil = 'true')][not(self::hl7:id | self::hl7:code[@codeSystem = doc('include/voc-2.16.840.1.113883.1.11.16040-DYNAMIC.xml')//valueSet[1]/completeCodeSystem/@codeSystem or concat(@code, @codeSystem) = doc('include/voc-2.16.840.1.113883.1.11.16040-DYNAMIC.xml')//valueSet[1]/conceptList/concept/concat(@code, @codeSystem) or @nullFlavor] | self::hl7:desc)]" id="d441456e40-true-d441893e0">
        <assert role="error" see="http://art-decor.org/art-decor/decor-templates--elgaimpf-?id=1.2.40.0.34.6.0.11.3.19" test="not(.)">(atcdabbr_entry_EingebettetesObjektEntry)/d441456e40-true-d441893e0: '<value-of select="name(..)"/>' ist als geschlossen definiert und dieses Element '<name/>' ist nicht erlaubt oder nicht mit diesem Inhalt erlaubt. Dies kann templateId, code oder id betreffen. Erwartet:  hl7:id | hl7:code[@codeSystem = doc('include/voc-2.16.840.1.113883.1.11.16040-DYNAMIC.xml')//valueSet[1]/completeCodeSystem/@codeSystem or concat(@code, @codeSystem) = doc('include/voc-2.16.840.1.113883.1.11.16040-DYNAMIC.xml')//valueSet[1]/conceptList/concept/concat(@code, @codeSystem) or @nullFlavor] | hl7:desc (rule-reference: d441456e40-true-d441893e0)</assert>
    </rule>
</pattern>