<?xml version="1.0" encoding="UTF-8"?>
<!--
Template derived pattern
===========================================
ID: 1.2.40.0.34.6.0.11.2.4
Name: Expositionsrisiko Personengruppen - kodiert
Description: 
-->
<pattern xmlns="http://purl.oclc.org/dsdl/schematron" id="template-1.2.40.0.34.6.0.11.2.4-2019-04-24T141817-closed">
    <title>Expositionsrisiko Personengruppen - kodiert</title>

   <!-- Checking undefined contents for template/element @isClosed="true". Match context that we did not already match -->
    <rule context="*[hl7:section[hl7:templateId[@root = '1.2.40.0.34.6.0.11.2.4'] and hl7:templateId[@root = '2.16.840.1.113883.10.20.1.11'] and hl7:templateId[@root = '1.3.6.1.4.1.19376.1.5.3.1.3.6']]]/*[not(@xsi:nil = 'true')][not(self::hl7:section[hl7:templateId[@root = '1.2.40.0.34.6.0.11.2.4'] and hl7:templateId[@root = '2.16.840.1.113883.10.20.1.11'] and hl7:templateId[@root = '1.3.6.1.4.1.19376.1.5.3.1.3.6']])]" id="d245561e2861-true-d369432e0">
        <assert role="error" see="http://art-decor.org/art-decor/decor-templates--elgaimpf-?id=1.2.40.0.34.6.0.11.2.4" test="not(.)">(atcdabrr_section_ExpositionsrisikoPersonengruppenKodiert)/d245561e2861-true-d369432e0: '<value-of select="name(..)"/>' ist als geschlossen definiert und dieses Element '<name/>' ist nicht erlaubt oder nicht mit diesem Inhalt erlaubt. Dies kann templateId, code oder id betreffen. Erwartet:  hl7:section[hl7:templateId[@root = '1.2.40.0.34.6.0.11.2.4'] and hl7:templateId[@root = '2.16.840.1.113883.10.20.1.11'] and hl7:templateId[@root = '1.3.6.1.4.1.19376.1.5.3.1.3.6']] (rule-reference: d245561e2861-true-d369432e0)</assert>
    </rule>

   <!-- Checking undefined contents for template/element @isClosed="true". Match context that we did not already match -->
    <rule context="*[hl7:section[hl7:templateId[@root = '1.2.40.0.34.6.0.11.2.4'] and hl7:templateId[@root = '2.16.840.1.113883.10.20.1.11'] and hl7:templateId[@root = '1.3.6.1.4.1.19376.1.5.3.1.3.6']]]/hl7:section[hl7:templateId[@root = '1.2.40.0.34.6.0.11.2.4'] and hl7:templateId[@root = '2.16.840.1.113883.10.20.1.11'] and hl7:templateId[@root = '1.3.6.1.4.1.19376.1.5.3.1.3.6']]/*[not(@xsi:nil = 'true')][not(self::hl7:templateId[@root = '1.2.40.0.34.6.0.11.2.4'] | self::hl7:templateId[@root = '2.16.840.1.113883.10.20.1.11'] | self::hl7:templateId[@root = '1.3.6.1.4.1.19376.1.5.3.1.3.6'] | self::hl7:id[not(@nullFlavor)] | self::hl7:code[(@code = '11450-4' and @codeSystem = '2.16.840.1.113883.6.1')] | self::hl7:title[not(@nullFlavor)] | self::hl7:text[not(@nullFlavor)] | self::hl7:entry[hl7:act[hl7:templateId[@root = '1.2.40.0.34.6.0.11.3.20'] and hl7:templateId[@root = '2.16.840.1.113883.10.20.1.27'] and hl7:templateId[@root = '1.3.6.1.4.1.19376.1.5.3.1.4.5.1'] and hl7:templateId[@root = '1.3.6.1.4.1.19376.1.5.3.1.4.5.2']]] | self::hl7:component[hl7:section[hl7:templateId[@root = '1.2.40.0.34.6.0.11.2.8']]])]" id="d245561e2900-true-d369802e0">
        <assert role="error" see="http://art-decor.org/art-decor/decor-templates--elgaimpf-?id=1.2.40.0.34.6.0.11.2.4" test="not(.)">(atcdabrr_section_ExpositionsrisikoPersonengruppenKodiert)/d245561e2900-true-d369802e0: '<value-of select="name(..)"/>' ist als geschlossen definiert und dieses Element '<name/>' ist nicht erlaubt oder nicht mit diesem Inhalt erlaubt. Dies kann templateId, code oder id betreffen. Erwartet:  hl7:templateId[@root = '1.2.40.0.34.6.0.11.2.4'] | hl7:templateId[@root = '2.16.840.1.113883.10.20.1.11'] | hl7:templateId[@root = '1.3.6.1.4.1.19376.1.5.3.1.3.6'] | hl7:id[not(@nullFlavor)] | hl7:code[(@code = '11450-4' and @codeSystem = '2.16.840.1.113883.6.1')] | hl7:title[not(@nullFlavor)] | hl7:text[not(@nullFlavor)] | hl7:entry[hl7:act[hl7:templateId[@root = '1.2.40.0.34.6.0.11.3.20'] and hl7:templateId[@root = '2.16.840.1.113883.10.20.1.27'] and hl7:templateId[@root = '1.3.6.1.4.1.19376.1.5.3.1.4.5.1'] and hl7:templateId[@root = '1.3.6.1.4.1.19376.1.5.3.1.4.5.2']]] | hl7:component[hl7:section[hl7:templateId[@root = '1.2.40.0.34.6.0.11.2.8']]] (rule-reference: d245561e2900-true-d369802e0)</assert>
    </rule>

   <!-- Checking undefined contents for template/element @isClosed="true". Match context that we did not already match -->
    <rule context="*[hl7:section[hl7:templateId[@root = '1.2.40.0.34.6.0.11.2.4'] and hl7:templateId[@root = '2.16.840.1.113883.10.20.1.11'] and hl7:templateId[@root = '1.3.6.1.4.1.19376.1.5.3.1.3.6']]]/hl7:section[hl7:templateId[@root = '1.2.40.0.34.6.0.11.2.4'] and hl7:templateId[@root = '2.16.840.1.113883.10.20.1.11'] and hl7:templateId[@root = '1.3.6.1.4.1.19376.1.5.3.1.3.6']]/hl7:entry[hl7:act[hl7:templateId[@root = '1.2.40.0.34.6.0.11.3.20'] and hl7:templateId[@root = '2.16.840.1.113883.10.20.1.27'] and hl7:templateId[@root = '1.3.6.1.4.1.19376.1.5.3.1.4.5.1'] and hl7:templateId[@root = '1.3.6.1.4.1.19376.1.5.3.1.4.5.2']]]/*[not(@xsi:nil = 'true')][not(self::hl7:act[hl7:templateId[@root = '1.2.40.0.34.6.0.11.3.20'] and hl7:templateId[@root = '2.16.840.1.113883.10.20.1.27'] and hl7:templateId[@root = '1.3.6.1.4.1.19376.1.5.3.1.4.5.1'] and hl7:templateId[@root = '1.3.6.1.4.1.19376.1.5.3.1.4.5.2']])]" id="d245561e2935-true-d370015e0">
        <assert role="error" see="http://art-decor.org/art-decor/decor-templates--elgaimpf-?id=1.2.40.0.34.6.0.11.2.4" test="not(.)">(atcdabrr_section_ExpositionsrisikoPersonengruppenKodiert)/d245561e2935-true-d370015e0: '<value-of select="name(..)"/>' ist als geschlossen definiert und dieses Element '<name/>' ist nicht erlaubt oder nicht mit diesem Inhalt erlaubt. Dies kann templateId, code oder id betreffen. Erwartet:  hl7:act[hl7:templateId[@root = '1.2.40.0.34.6.0.11.3.20'] and hl7:templateId[@root = '2.16.840.1.113883.10.20.1.27'] and hl7:templateId[@root = '1.3.6.1.4.1.19376.1.5.3.1.4.5.1'] and hl7:templateId[@root = '1.3.6.1.4.1.19376.1.5.3.1.4.5.2']] (rule-reference: d245561e2935-true-d370015e0)</assert>
    </rule>

   <!-- Checking undefined contents for template/element @isClosed="true". Match context that we did not already match -->
    <rule context="*[hl7:section[hl7:templateId[@root = '1.2.40.0.34.6.0.11.2.4'] and hl7:templateId[@root = '2.16.840.1.113883.10.20.1.11'] and hl7:templateId[@root = '1.3.6.1.4.1.19376.1.5.3.1.3.6']]]/hl7:section[hl7:templateId[@root = '1.2.40.0.34.6.0.11.2.4'] and hl7:templateId[@root = '2.16.840.1.113883.10.20.1.11'] and hl7:templateId[@root = '1.3.6.1.4.1.19376.1.5.3.1.3.6']]/hl7:entry[hl7:act[hl7:templateId[@root = '1.2.40.0.34.6.0.11.3.20'] and hl7:templateId[@root = '2.16.840.1.113883.10.20.1.27'] and hl7:templateId[@root = '1.3.6.1.4.1.19376.1.5.3.1.4.5.1'] and hl7:templateId[@root = '1.3.6.1.4.1.19376.1.5.3.1.4.5.2']]]/hl7:act[hl7:templateId[@root = '1.2.40.0.34.6.0.11.3.20'] and hl7:templateId[@root = '2.16.840.1.113883.10.20.1.27'] and hl7:templateId[@root = '1.3.6.1.4.1.19376.1.5.3.1.4.5.1'] and hl7:templateId[@root = '1.3.6.1.4.1.19376.1.5.3.1.4.5.2']]/*[not(@xsi:nil = 'true')][not(self::hl7:templateId[@root = '1.2.40.0.34.6.0.11.3.20'] | self::hl7:templateId[@root = '2.16.840.1.113883.10.20.1.27'] | self::hl7:templateId[@root = '1.3.6.1.4.1.19376.1.5.3.1.4.5.1'] | self::hl7:templateId[@root = '1.3.6.1.4.1.19376.1.5.3.1.4.5.2'] | self::hl7:id[not(@nullFlavor)] | self::hl7:code[@nullFlavor = 'NA'] | self::hl7:statusCode[@code = 'active' or @code = 'completed'] | self::hl7:effectiveTime[not(@nullFlavor)] | self::hl7:author[hl7:assignedAuthor] | self::hl7:entryRelationship[@typeCode='SUBJ'][not(@nullFlavor)] | self::hl7:reference[hl7:externalDocument[hl7:templateId[@root = '1.2.40.0.34.6.0.11.3.14']]])]" id="d369837e11-true-d370232e0">
        <assert role="error" see="http://art-decor.org/art-decor/decor-templates--elgaimpf-?id=1.2.40.0.34.6.0.11.2.4" test="not(.)">(atcdabrr_section_ExpositionsrisikoPersonengruppenKodiert)/d369837e11-true-d370232e0: '<value-of select="name(..)"/>' ist als geschlossen definiert und dieses Element '<name/>' ist nicht erlaubt oder nicht mit diesem Inhalt erlaubt. Dies kann templateId, code oder id betreffen. Erwartet:  hl7:templateId[@root = '1.2.40.0.34.6.0.11.3.20'] | hl7:templateId[@root = '2.16.840.1.113883.10.20.1.27'] | hl7:templateId[@root = '1.3.6.1.4.1.19376.1.5.3.1.4.5.1'] | hl7:templateId[@root = '1.3.6.1.4.1.19376.1.5.3.1.4.5.2'] | hl7:id[not(@nullFlavor)] | hl7:code[@nullFlavor = 'NA'] | hl7:statusCode[@code = 'active' or @code = 'completed'] | hl7:effectiveTime[not(@nullFlavor)] | hl7:author[hl7:assignedAuthor] | hl7:entryRelationship[@typeCode='SUBJ'][not(@nullFlavor)] | hl7:reference[hl7:externalDocument[hl7:templateId[@root = '1.2.40.0.34.6.0.11.3.14']]] (rule-reference: d369837e11-true-d370232e0)</assert>
    </rule>

   <!-- Checking undefined contents for template/element @isClosed="true". Match context that we did not already match -->
    <rule context="*[hl7:section[hl7:templateId[@root = '1.2.40.0.34.6.0.11.2.4'] and hl7:templateId[@root = '2.16.840.1.113883.10.20.1.11'] and hl7:templateId[@root = '1.3.6.1.4.1.19376.1.5.3.1.3.6']]]/hl7:section[hl7:templateId[@root = '1.2.40.0.34.6.0.11.2.4'] and hl7:templateId[@root = '2.16.840.1.113883.10.20.1.11'] and hl7:templateId[@root = '1.3.6.1.4.1.19376.1.5.3.1.3.6']]/hl7:entry[hl7:act[hl7:templateId[@root = '1.2.40.0.34.6.0.11.3.20'] and hl7:templateId[@root = '2.16.840.1.113883.10.20.1.27'] and hl7:templateId[@root = '1.3.6.1.4.1.19376.1.5.3.1.4.5.1'] and hl7:templateId[@root = '1.3.6.1.4.1.19376.1.5.3.1.4.5.2']]]/hl7:act[hl7:templateId[@root = '1.2.40.0.34.6.0.11.3.20'] and hl7:templateId[@root = '2.16.840.1.113883.10.20.1.27'] and hl7:templateId[@root = '1.3.6.1.4.1.19376.1.5.3.1.4.5.1'] and hl7:templateId[@root = '1.3.6.1.4.1.19376.1.5.3.1.4.5.2']]/hl7:effectiveTime[not(@nullFlavor)]/*[not(@xsi:nil = 'true')][not(self::hl7:low[not(@nullFlavor)] | self::hl7:high)]" id="d369837e54-true-d370283e0">
        <assert role="error" see="http://art-decor.org/art-decor/decor-templates--elgaimpf-?id=1.2.40.0.34.6.0.11.2.4" test="not(.)">(atcdabrr_section_ExpositionsrisikoPersonengruppenKodiert)/d369837e54-true-d370283e0: '<value-of select="name(..)"/>' ist als geschlossen definiert und dieses Element '<name/>' ist nicht erlaubt oder nicht mit diesem Inhalt erlaubt. Dies kann templateId, code oder id betreffen. Erwartet:  hl7:low[not(@nullFlavor)] | hl7:high (rule-reference: d369837e54-true-d370283e0)</assert>
    </rule>

   <!-- Checking undefined contents for template/element @isClosed="true". Match context that we did not already match -->
    <rule context="*[hl7:section[hl7:templateId[@root = '1.2.40.0.34.6.0.11.2.4'] and hl7:templateId[@root = '2.16.840.1.113883.10.20.1.11'] and hl7:templateId[@root = '1.3.6.1.4.1.19376.1.5.3.1.3.6']]]/hl7:section[hl7:templateId[@root = '1.2.40.0.34.6.0.11.2.4'] and hl7:templateId[@root = '2.16.840.1.113883.10.20.1.11'] and hl7:templateId[@root = '1.3.6.1.4.1.19376.1.5.3.1.3.6']]/hl7:entry[hl7:act[hl7:templateId[@root = '1.2.40.0.34.6.0.11.3.20'] and hl7:templateId[@root = '2.16.840.1.113883.10.20.1.27'] and hl7:templateId[@root = '1.3.6.1.4.1.19376.1.5.3.1.4.5.1'] and hl7:templateId[@root = '1.3.6.1.4.1.19376.1.5.3.1.4.5.2']]]/hl7:act[hl7:templateId[@root = '1.2.40.0.34.6.0.11.3.20'] and hl7:templateId[@root = '2.16.840.1.113883.10.20.1.27'] and hl7:templateId[@root = '1.3.6.1.4.1.19376.1.5.3.1.4.5.1'] and hl7:templateId[@root = '1.3.6.1.4.1.19376.1.5.3.1.4.5.2']]/hl7:author[hl7:assignedAuthor]/*[not(@xsi:nil = 'true')][not(self::hl7:time[not(@nullFlavor)] | self::hl7:time[@nullFlavor='UNK'] | self::hl7:assignedAuthor)]" id="d369837e79-true-d370415e0">
        <assert role="error" see="http://art-decor.org/art-decor/decor-templates--elgaimpf-?id=1.2.40.0.34.6.0.11.2.4" test="not(.)">(atcdabrr_section_ExpositionsrisikoPersonengruppenKodiert)/d369837e79-true-d370415e0: '<value-of select="name(..)"/>' ist als geschlossen definiert und dieses Element '<name/>' ist nicht erlaubt oder nicht mit diesem Inhalt erlaubt. Dies kann templateId, code oder id betreffen. Erwartet:  hl7:time[not(@nullFlavor)] | hl7:time[@nullFlavor='UNK'] | hl7:assignedAuthor (rule-reference: d369837e79-true-d370415e0)</assert>
    </rule>

   <!-- Checking undefined contents for template/element @isClosed="true". Match context that we did not already match -->
    <rule context="*[hl7:section[hl7:templateId[@root = '1.2.40.0.34.6.0.11.2.4'] and hl7:templateId[@root = '2.16.840.1.113883.10.20.1.11'] and hl7:templateId[@root = '1.3.6.1.4.1.19376.1.5.3.1.3.6']]]/hl7:section[hl7:templateId[@root = '1.2.40.0.34.6.0.11.2.4'] and hl7:templateId[@root = '2.16.840.1.113883.10.20.1.11'] and hl7:templateId[@root = '1.3.6.1.4.1.19376.1.5.3.1.3.6']]/hl7:entry[hl7:act[hl7:templateId[@root = '1.2.40.0.34.6.0.11.3.20'] and hl7:templateId[@root = '2.16.840.1.113883.10.20.1.27'] and hl7:templateId[@root = '1.3.6.1.4.1.19376.1.5.3.1.4.5.1'] and hl7:templateId[@root = '1.3.6.1.4.1.19376.1.5.3.1.4.5.2']]]/hl7:act[hl7:templateId[@root = '1.2.40.0.34.6.0.11.3.20'] and hl7:templateId[@root = '2.16.840.1.113883.10.20.1.27'] and hl7:templateId[@root = '1.3.6.1.4.1.19376.1.5.3.1.4.5.1'] and hl7:templateId[@root = '1.3.6.1.4.1.19376.1.5.3.1.4.5.2']]/hl7:author[hl7:assignedAuthor]/hl7:assignedAuthor/*[not(@xsi:nil = 'true')][not(self::hl7:id[not(@nullFlavor)] | self::hl7:id[@nullFlavor='UNK'] | self::hl7:code[not(@nullFlavor)] | self::hl7:addr[not(@nullFlavor)] | self::hl7:telecom[not(@nullFlavor)] | self::hl7:assignedPerson | self::hl7:assignedAuthoringDevice | self::hl7:representedOrganization)]" id="d370296e38-true-d370518e0">
        <assert role="error" see="http://art-decor.org/art-decor/decor-templates--elgaimpf-?id=1.2.40.0.34.6.0.11.2.4" test="not(.)">(atcdabrr_section_ExpositionsrisikoPersonengruppenKodiert)/d370296e38-true-d370518e0: '<value-of select="name(..)"/>' ist als geschlossen definiert und dieses Element '<name/>' ist nicht erlaubt oder nicht mit diesem Inhalt erlaubt. Dies kann templateId, code oder id betreffen. Erwartet:  hl7:id[not(@nullFlavor)] | hl7:id[@nullFlavor='UNK'] | hl7:code[not(@nullFlavor)] | hl7:addr[not(@nullFlavor)] | hl7:telecom[not(@nullFlavor)] | hl7:assignedPerson | hl7:assignedAuthoringDevice | hl7:representedOrganization (rule-reference: d370296e38-true-d370518e0)</assert>
    </rule>

   <!-- Checking undefined contents for template/element @isClosed="true". Match context that we did not already match -->
    <rule context="*[hl7:section[hl7:templateId[@root = '1.2.40.0.34.6.0.11.2.4'] and hl7:templateId[@root = '2.16.840.1.113883.10.20.1.11'] and hl7:templateId[@root = '1.3.6.1.4.1.19376.1.5.3.1.3.6']]]/hl7:section[hl7:templateId[@root = '1.2.40.0.34.6.0.11.2.4'] and hl7:templateId[@root = '2.16.840.1.113883.10.20.1.11'] and hl7:templateId[@root = '1.3.6.1.4.1.19376.1.5.3.1.3.6']]/hl7:entry[hl7:act[hl7:templateId[@root = '1.2.40.0.34.6.0.11.3.20'] and hl7:templateId[@root = '2.16.840.1.113883.10.20.1.27'] and hl7:templateId[@root = '1.3.6.1.4.1.19376.1.5.3.1.4.5.1'] and hl7:templateId[@root = '1.3.6.1.4.1.19376.1.5.3.1.4.5.2']]]/hl7:act[hl7:templateId[@root = '1.2.40.0.34.6.0.11.3.20'] and hl7:templateId[@root = '2.16.840.1.113883.10.20.1.27'] and hl7:templateId[@root = '1.3.6.1.4.1.19376.1.5.3.1.4.5.1'] and hl7:templateId[@root = '1.3.6.1.4.1.19376.1.5.3.1.4.5.2']]/hl7:author[hl7:assignedAuthor]/hl7:assignedAuthor/hl7:addr[not(@nullFlavor)]/*[not(@xsi:nil = 'true')][not(self::hl7:streetAddressLine | self::hl7:streetName | self::hl7:houseNumber | self::hl7:postalCode[not(@nullFlavor)] | self::hl7:city[not(@nullFlavor)] | self::hl7:state | self::hl7:country[not(@nullFlavor)] | self::hl7:additionalLocator)]" id="d370296e59-true-d370573e0">
        <assert role="error" see="http://art-decor.org/art-decor/decor-templates--elgaimpf-?id=1.2.40.0.34.6.0.11.2.4" test="not(.)">(atcdabrr_section_ExpositionsrisikoPersonengruppenKodiert)/d370296e59-true-d370573e0: '<value-of select="name(..)"/>' ist als geschlossen definiert und dieses Element '<name/>' ist nicht erlaubt oder nicht mit diesem Inhalt erlaubt. Dies kann templateId, code oder id betreffen. Erwartet:  hl7:streetAddressLine | hl7:streetName | hl7:houseNumber | hl7:postalCode[not(@nullFlavor)] | hl7:city[not(@nullFlavor)] | hl7:state | hl7:country[not(@nullFlavor)] | hl7:additionalLocator (rule-reference: d370296e59-true-d370573e0)</assert>
    </rule>

   <!-- Checking undefined contents for template/element @isClosed="true". Match context that we did not already match -->
    <rule context="*[hl7:section[hl7:templateId[@root = '1.2.40.0.34.6.0.11.2.4'] and hl7:templateId[@root = '2.16.840.1.113883.10.20.1.11'] and hl7:templateId[@root = '1.3.6.1.4.1.19376.1.5.3.1.3.6']]]/hl7:section[hl7:templateId[@root = '1.2.40.0.34.6.0.11.2.4'] and hl7:templateId[@root = '2.16.840.1.113883.10.20.1.11'] and hl7:templateId[@root = '1.3.6.1.4.1.19376.1.5.3.1.3.6']]/hl7:entry[hl7:act[hl7:templateId[@root = '1.2.40.0.34.6.0.11.3.20'] and hl7:templateId[@root = '2.16.840.1.113883.10.20.1.27'] and hl7:templateId[@root = '1.3.6.1.4.1.19376.1.5.3.1.4.5.1'] and hl7:templateId[@root = '1.3.6.1.4.1.19376.1.5.3.1.4.5.2']]]/hl7:act[hl7:templateId[@root = '1.2.40.0.34.6.0.11.3.20'] and hl7:templateId[@root = '2.16.840.1.113883.10.20.1.27'] and hl7:templateId[@root = '1.3.6.1.4.1.19376.1.5.3.1.4.5.1'] and hl7:templateId[@root = '1.3.6.1.4.1.19376.1.5.3.1.4.5.2']]/hl7:author[hl7:assignedAuthor]/hl7:assignedAuthor/hl7:assignedPerson/*[not(@xsi:nil = 'true')][not(self::hl7:name[not(@nullFlavor)] | self::hl7:name[@nullFlavor='UNK'] | self::hl7:name[@nullFlavor='MSK'])]" id="d370296e81-true-d370620e0">
        <assert role="error" see="http://art-decor.org/art-decor/decor-templates--elgaimpf-?id=1.2.40.0.34.6.0.11.2.4" test="not(.)">(atcdabrr_section_ExpositionsrisikoPersonengruppenKodiert)/d370296e81-true-d370620e0: '<value-of select="name(..)"/>' ist als geschlossen definiert und dieses Element '<name/>' ist nicht erlaubt oder nicht mit diesem Inhalt erlaubt. Dies kann templateId, code oder id betreffen. Erwartet:  hl7:name[not(@nullFlavor)] | hl7:name[@nullFlavor='UNK'] | hl7:name[@nullFlavor='MSK'] (rule-reference: d370296e81-true-d370620e0)</assert>
    </rule>

   <!-- Checking undefined contents for template/element @isClosed="true". Match context that we did not already match -->
    <rule context="*[hl7:section[hl7:templateId[@root = '1.2.40.0.34.6.0.11.2.4'] and hl7:templateId[@root = '2.16.840.1.113883.10.20.1.11'] and hl7:templateId[@root = '1.3.6.1.4.1.19376.1.5.3.1.3.6']]]/hl7:section[hl7:templateId[@root = '1.2.40.0.34.6.0.11.2.4'] and hl7:templateId[@root = '2.16.840.1.113883.10.20.1.11'] and hl7:templateId[@root = '1.3.6.1.4.1.19376.1.5.3.1.3.6']]/hl7:entry[hl7:act[hl7:templateId[@root = '1.2.40.0.34.6.0.11.3.20'] and hl7:templateId[@root = '2.16.840.1.113883.10.20.1.27'] and hl7:templateId[@root = '1.3.6.1.4.1.19376.1.5.3.1.4.5.1'] and hl7:templateId[@root = '1.3.6.1.4.1.19376.1.5.3.1.4.5.2']]]/hl7:act[hl7:templateId[@root = '1.2.40.0.34.6.0.11.3.20'] and hl7:templateId[@root = '2.16.840.1.113883.10.20.1.27'] and hl7:templateId[@root = '1.3.6.1.4.1.19376.1.5.3.1.4.5.1'] and hl7:templateId[@root = '1.3.6.1.4.1.19376.1.5.3.1.4.5.2']]/hl7:author[hl7:assignedAuthor]/hl7:assignedAuthor/hl7:assignedPerson/hl7:name[not(@nullFlavor)]/*[not(@xsi:nil = 'true')][not(self::hl7:prefix | self::hl7:family[not(@nullFlavor)] | self::hl7:given[not(@nullFlavor)] | self::hl7:suffix)]" id="d370624e62-true-d370652e0">
        <assert role="error" see="http://art-decor.org/art-decor/decor-templates--elgaimpf-?id=1.2.40.0.34.6.0.11.9.6" test="not(.)">(atcdabbr_other_PersonNameCompilationG2)/d370624e62-true-d370652e0: '<value-of select="name(..)"/>' ist als geschlossen definiert und dieses Element '<name/>' ist nicht erlaubt oder nicht mit diesem Inhalt erlaubt. Dies kann templateId, code oder id betreffen. Erwartet:  hl7:prefix | hl7:family[not(@nullFlavor)] | hl7:given[not(@nullFlavor)] | hl7:suffix (rule-reference: d370624e62-true-d370652e0)</assert>
    </rule>

   <!-- Checking undefined contents for template/element @isClosed="true". Match context that we did not already match -->
    <rule context="*[hl7:section[hl7:templateId[@root = '1.2.40.0.34.6.0.11.2.4'] and hl7:templateId[@root = '2.16.840.1.113883.10.20.1.11'] and hl7:templateId[@root = '1.3.6.1.4.1.19376.1.5.3.1.3.6']]]/hl7:section[hl7:templateId[@root = '1.2.40.0.34.6.0.11.2.4'] and hl7:templateId[@root = '2.16.840.1.113883.10.20.1.11'] and hl7:templateId[@root = '1.3.6.1.4.1.19376.1.5.3.1.3.6']]/hl7:entry[hl7:act[hl7:templateId[@root = '1.2.40.0.34.6.0.11.3.20'] and hl7:templateId[@root = '2.16.840.1.113883.10.20.1.27'] and hl7:templateId[@root = '1.3.6.1.4.1.19376.1.5.3.1.4.5.1'] and hl7:templateId[@root = '1.3.6.1.4.1.19376.1.5.3.1.4.5.2']]]/hl7:act[hl7:templateId[@root = '1.2.40.0.34.6.0.11.3.20'] and hl7:templateId[@root = '2.16.840.1.113883.10.20.1.27'] and hl7:templateId[@root = '1.3.6.1.4.1.19376.1.5.3.1.4.5.1'] and hl7:templateId[@root = '1.3.6.1.4.1.19376.1.5.3.1.4.5.2']]/hl7:author[hl7:assignedAuthor]/hl7:assignedAuthor/hl7:assignedAuthoringDevice/*[not(@xsi:nil = 'true')][not(self::hl7:manufacturerModelName[not(@nullFlavor)] | self::hl7:softwareName[not(@nullFlavor)])]" id="d370296e92-true-d370693e0">
        <assert role="error" see="http://art-decor.org/art-decor/decor-templates--elgaimpf-?id=1.2.40.0.34.6.0.11.2.4" test="not(.)">(atcdabrr_section_ExpositionsrisikoPersonengruppenKodiert)/d370296e92-true-d370693e0: '<value-of select="name(..)"/>' ist als geschlossen definiert und dieses Element '<name/>' ist nicht erlaubt oder nicht mit diesem Inhalt erlaubt. Dies kann templateId, code oder id betreffen. Erwartet:  hl7:manufacturerModelName[not(@nullFlavor)] | hl7:softwareName[not(@nullFlavor)] (rule-reference: d370296e92-true-d370693e0)</assert>
    </rule>

   <!-- Checking undefined contents for template/element @isClosed="true". Match context that we did not already match -->
    <rule context="*[hl7:section[hl7:templateId[@root = '1.2.40.0.34.6.0.11.2.4'] and hl7:templateId[@root = '2.16.840.1.113883.10.20.1.11'] and hl7:templateId[@root = '1.3.6.1.4.1.19376.1.5.3.1.3.6']]]/hl7:section[hl7:templateId[@root = '1.2.40.0.34.6.0.11.2.4'] and hl7:templateId[@root = '2.16.840.1.113883.10.20.1.11'] and hl7:templateId[@root = '1.3.6.1.4.1.19376.1.5.3.1.3.6']]/hl7:entry[hl7:act[hl7:templateId[@root = '1.2.40.0.34.6.0.11.3.20'] and hl7:templateId[@root = '2.16.840.1.113883.10.20.1.27'] and hl7:templateId[@root = '1.3.6.1.4.1.19376.1.5.3.1.4.5.1'] and hl7:templateId[@root = '1.3.6.1.4.1.19376.1.5.3.1.4.5.2']]]/hl7:act[hl7:templateId[@root = '1.2.40.0.34.6.0.11.3.20'] and hl7:templateId[@root = '2.16.840.1.113883.10.20.1.27'] and hl7:templateId[@root = '1.3.6.1.4.1.19376.1.5.3.1.4.5.1'] and hl7:templateId[@root = '1.3.6.1.4.1.19376.1.5.3.1.4.5.2']]/hl7:author[hl7:assignedAuthor]/hl7:assignedAuthor/hl7:representedOrganization/*[not(@xsi:nil = 'true')][not(self::hl7:id[not(@nullFlavor)] | self::hl7:name[not(@nullFlavor)] | self::hl7:telecom[not(@nullFlavor)] | self::hl7:addr[not(@nullFlavor)])]" id="d370296e99-true-d370735e0">
        <assert role="error" see="http://art-decor.org/art-decor/decor-templates--elgaimpf-?id=1.2.40.0.34.6.0.11.2.4" test="not(.)">(atcdabrr_section_ExpositionsrisikoPersonengruppenKodiert)/d370296e99-true-d370735e0: '<value-of select="name(..)"/>' ist als geschlossen definiert und dieses Element '<name/>' ist nicht erlaubt oder nicht mit diesem Inhalt erlaubt. Dies kann templateId, code oder id betreffen. Erwartet:  hl7:id[not(@nullFlavor)] | hl7:name[not(@nullFlavor)] | hl7:telecom[not(@nullFlavor)] | hl7:addr[not(@nullFlavor)] (rule-reference: d370296e99-true-d370735e0)</assert>
    </rule>

   <!-- Checking undefined contents for template/element @isClosed="true". Match context that we did not already match -->
    <rule context="*[hl7:section[hl7:templateId[@root = '1.2.40.0.34.6.0.11.2.4'] and hl7:templateId[@root = '2.16.840.1.113883.10.20.1.11'] and hl7:templateId[@root = '1.3.6.1.4.1.19376.1.5.3.1.3.6']]]/hl7:section[hl7:templateId[@root = '1.2.40.0.34.6.0.11.2.4'] and hl7:templateId[@root = '2.16.840.1.113883.10.20.1.11'] and hl7:templateId[@root = '1.3.6.1.4.1.19376.1.5.3.1.3.6']]/hl7:entry[hl7:act[hl7:templateId[@root = '1.2.40.0.34.6.0.11.3.20'] and hl7:templateId[@root = '2.16.840.1.113883.10.20.1.27'] and hl7:templateId[@root = '1.3.6.1.4.1.19376.1.5.3.1.4.5.1'] and hl7:templateId[@root = '1.3.6.1.4.1.19376.1.5.3.1.4.5.2']]]/hl7:act[hl7:templateId[@root = '1.2.40.0.34.6.0.11.3.20'] and hl7:templateId[@root = '2.16.840.1.113883.10.20.1.27'] and hl7:templateId[@root = '1.3.6.1.4.1.19376.1.5.3.1.4.5.1'] and hl7:templateId[@root = '1.3.6.1.4.1.19376.1.5.3.1.4.5.2']]/hl7:author[hl7:assignedAuthor]/hl7:assignedAuthor/hl7:representedOrganization/hl7:addr[not(@nullFlavor)]/*[not(@xsi:nil = 'true')][not(self::hl7:streetAddressLine | self::hl7:streetName | self::hl7:houseNumber | self::hl7:postalCode[not(@nullFlavor)] | self::hl7:city[not(@nullFlavor)] | self::hl7:state | self::hl7:country[not(@nullFlavor)] | self::hl7:additionalLocator)]" id="d370706e60-true-d370794e0">
        <assert role="error" see="http://art-decor.org/art-decor/decor-templates--elgaimpf-?id=1.2.40.0.34.6.0.11.2.4" test="not(.)">(atcdabrr_section_ExpositionsrisikoPersonengruppenKodiert)/d370706e60-true-d370794e0: '<value-of select="name(..)"/>' ist als geschlossen definiert und dieses Element '<name/>' ist nicht erlaubt oder nicht mit diesem Inhalt erlaubt. Dies kann templateId, code oder id betreffen. Erwartet:  hl7:streetAddressLine | hl7:streetName | hl7:houseNumber | hl7:postalCode[not(@nullFlavor)] | hl7:city[not(@nullFlavor)] | hl7:state | hl7:country[not(@nullFlavor)] | hl7:additionalLocator (rule-reference: d370706e60-true-d370794e0)</assert>
    </rule>

   <!-- Checking undefined contents for template/element @isClosed="true". Match context that we did not already match -->
    <rule context="*[hl7:section[hl7:templateId[@root = '1.2.40.0.34.6.0.11.2.4'] and hl7:templateId[@root = '2.16.840.1.113883.10.20.1.11'] and hl7:templateId[@root = '1.3.6.1.4.1.19376.1.5.3.1.3.6']]]/hl7:section[hl7:templateId[@root = '1.2.40.0.34.6.0.11.2.4'] and hl7:templateId[@root = '2.16.840.1.113883.10.20.1.11'] and hl7:templateId[@root = '1.3.6.1.4.1.19376.1.5.3.1.3.6']]/hl7:entry[hl7:act[hl7:templateId[@root = '1.2.40.0.34.6.0.11.3.20'] and hl7:templateId[@root = '2.16.840.1.113883.10.20.1.27'] and hl7:templateId[@root = '1.3.6.1.4.1.19376.1.5.3.1.4.5.1'] and hl7:templateId[@root = '1.3.6.1.4.1.19376.1.5.3.1.4.5.2']]]/hl7:act[hl7:templateId[@root = '1.2.40.0.34.6.0.11.3.20'] and hl7:templateId[@root = '2.16.840.1.113883.10.20.1.27'] and hl7:templateId[@root = '1.3.6.1.4.1.19376.1.5.3.1.4.5.1'] and hl7:templateId[@root = '1.3.6.1.4.1.19376.1.5.3.1.4.5.2']]/hl7:entryRelationship[@typeCode='SUBJ'][not(@nullFlavor)]/*[not(@xsi:nil = 'true')][not(self::hl7:observation[hl7:templateId[@root = '1.2.40.0.34.6.0.11.3.21'] and hl7:templateId[@root = '2.16.840.1.113883.10.20.1.28'] and hl7:templateId[@root = '1.3.6.1.4.1.19376.1.5.3.1.4.5']])]" id="d369837e95-true-d370856e0">
        <assert role="error" see="http://art-decor.org/art-decor/decor-templates--elgaimpf-?id=1.2.40.0.34.6.0.11.2.4" test="not(.)">(atcdabrr_section_ExpositionsrisikoPersonengruppenKodiert)/d369837e95-true-d370856e0: '<value-of select="name(..)"/>' ist als geschlossen definiert und dieses Element '<name/>' ist nicht erlaubt oder nicht mit diesem Inhalt erlaubt. Dies kann templateId, code oder id betreffen. Erwartet:  hl7:observation[hl7:templateId[@root = '1.2.40.0.34.6.0.11.3.21'] and hl7:templateId[@root = '2.16.840.1.113883.10.20.1.28'] and hl7:templateId[@root = '1.3.6.1.4.1.19376.1.5.3.1.4.5']] (rule-reference: d369837e95-true-d370856e0)</assert>
    </rule>

   <!-- Checking undefined contents for template/element @isClosed="true". Match context that we did not already match -->
    <rule context="*[hl7:section[hl7:templateId[@root = '1.2.40.0.34.6.0.11.2.4'] and hl7:templateId[@root = '2.16.840.1.113883.10.20.1.11'] and hl7:templateId[@root = '1.3.6.1.4.1.19376.1.5.3.1.3.6']]]/hl7:section[hl7:templateId[@root = '1.2.40.0.34.6.0.11.2.4'] and hl7:templateId[@root = '2.16.840.1.113883.10.20.1.11'] and hl7:templateId[@root = '1.3.6.1.4.1.19376.1.5.3.1.3.6']]/hl7:entry[hl7:act[hl7:templateId[@root = '1.2.40.0.34.6.0.11.3.20'] and hl7:templateId[@root = '2.16.840.1.113883.10.20.1.27'] and hl7:templateId[@root = '1.3.6.1.4.1.19376.1.5.3.1.4.5.1'] and hl7:templateId[@root = '1.3.6.1.4.1.19376.1.5.3.1.4.5.2']]]/hl7:act[hl7:templateId[@root = '1.2.40.0.34.6.0.11.3.20'] and hl7:templateId[@root = '2.16.840.1.113883.10.20.1.27'] and hl7:templateId[@root = '1.3.6.1.4.1.19376.1.5.3.1.4.5.1'] and hl7:templateId[@root = '1.3.6.1.4.1.19376.1.5.3.1.4.5.2']]/hl7:entryRelationship[@typeCode='SUBJ'][not(@nullFlavor)]/hl7:observation[hl7:templateId[@root = '1.2.40.0.34.6.0.11.3.21'] and hl7:templateId[@root = '2.16.840.1.113883.10.20.1.28'] and hl7:templateId[@root = '1.3.6.1.4.1.19376.1.5.3.1.4.5']]/*[not(@xsi:nil = 'true')][not(self::hl7:templateId[@root = '1.2.40.0.34.6.0.11.3.21'] | self::hl7:templateId[@root = '2.16.840.1.113883.10.20.1.28'] | self::hl7:templateId[@root = '1.3.6.1.4.1.19376.1.5.3.1.4.5'] | self::hl7:id[not(@nullFlavor)] | self::hl7:code[(@code = '55607006' and @codeSystem = '2.16.840.1.113883.6.96')] | self::hl7:text | self::hl7:statusCode[@code = 'completed'] | self::hl7:effectiveTime[not(@nullFlavor)] | self::hl7:value[concat(@code, @codeSystem) = doc('include/voc-1.2.40.0.34.6.0.10.15-DYNAMIC.xml')//valueSet[1]/conceptList/concept/concat(@code, @codeSystem)])]" id="d370831e7-true-d370937e0">
        <assert role="error" see="http://art-decor.org/art-decor/decor-templates--elgaimpf-?id=1.2.40.0.34.6.0.11.2.4" test="not(.)">(atcdabrr_section_ExpositionsrisikoPersonengruppenKodiert)/d370831e7-true-d370937e0: '<value-of select="name(..)"/>' ist als geschlossen definiert und dieses Element '<name/>' ist nicht erlaubt oder nicht mit diesem Inhalt erlaubt. Dies kann templateId, code oder id betreffen. Erwartet:  hl7:templateId[@root = '1.2.40.0.34.6.0.11.3.21'] | hl7:templateId[@root = '2.16.840.1.113883.10.20.1.28'] | hl7:templateId[@root = '1.3.6.1.4.1.19376.1.5.3.1.4.5'] | hl7:id[not(@nullFlavor)] | hl7:code[(@code = '55607006' and @codeSystem = '2.16.840.1.113883.6.96')] | hl7:text | hl7:statusCode[@code = 'completed'] | hl7:effectiveTime[not(@nullFlavor)] | hl7:value[concat(@code, @codeSystem) = doc('include/voc-1.2.40.0.34.6.0.10.15-DYNAMIC.xml')//valueSet[1]/conceptList/concept/concat(@code, @codeSystem)] (rule-reference: d370831e7-true-d370937e0)</assert>
    </rule>

   <!-- Checking undefined contents for template/element @isClosed="true". Match context that we did not already match -->
    <rule context="*[hl7:section[hl7:templateId[@root = '1.2.40.0.34.6.0.11.2.4'] and hl7:templateId[@root = '2.16.840.1.113883.10.20.1.11'] and hl7:templateId[@root = '1.3.6.1.4.1.19376.1.5.3.1.3.6']]]/hl7:section[hl7:templateId[@root = '1.2.40.0.34.6.0.11.2.4'] and hl7:templateId[@root = '2.16.840.1.113883.10.20.1.11'] and hl7:templateId[@root = '1.3.6.1.4.1.19376.1.5.3.1.3.6']]/hl7:entry[hl7:act[hl7:templateId[@root = '1.2.40.0.34.6.0.11.3.20'] and hl7:templateId[@root = '2.16.840.1.113883.10.20.1.27'] and hl7:templateId[@root = '1.3.6.1.4.1.19376.1.5.3.1.4.5.1'] and hl7:templateId[@root = '1.3.6.1.4.1.19376.1.5.3.1.4.5.2']]]/hl7:act[hl7:templateId[@root = '1.2.40.0.34.6.0.11.3.20'] and hl7:templateId[@root = '2.16.840.1.113883.10.20.1.27'] and hl7:templateId[@root = '1.3.6.1.4.1.19376.1.5.3.1.4.5.1'] and hl7:templateId[@root = '1.3.6.1.4.1.19376.1.5.3.1.4.5.2']]/hl7:entryRelationship[@typeCode='SUBJ'][not(@nullFlavor)]/hl7:observation[hl7:templateId[@root = '1.2.40.0.34.6.0.11.3.21'] and hl7:templateId[@root = '2.16.840.1.113883.10.20.1.28'] and hl7:templateId[@root = '1.3.6.1.4.1.19376.1.5.3.1.4.5']]/hl7:text/*[not(@xsi:nil = 'true')][not(self::hl7:reference[not(@nullFlavor)])]" id="d370965e37-true-d370976e0">
        <assert role="error" see="http://art-decor.org/art-decor/decor-templates--elgaimpf-?id=1.2.40.0.34.6.0.11.9.1" test="not(.)">(atcdabrr_other_NarrativeTextReference)/d370965e37-true-d370976e0: '<value-of select="name(..)"/>' ist als geschlossen definiert und dieses Element '<name/>' ist nicht erlaubt oder nicht mit diesem Inhalt erlaubt. Dies kann templateId, code oder id betreffen. Erwartet:  hl7:reference[not(@nullFlavor)] (rule-reference: d370965e37-true-d370976e0)</assert>
    </rule>

   <!-- Checking undefined contents for template/element @isClosed="true". Match context that we did not already match -->
    <rule context="*[hl7:section[hl7:templateId[@root = '1.2.40.0.34.6.0.11.2.4'] and hl7:templateId[@root = '2.16.840.1.113883.10.20.1.11'] and hl7:templateId[@root = '1.3.6.1.4.1.19376.1.5.3.1.3.6']]]/hl7:section[hl7:templateId[@root = '1.2.40.0.34.6.0.11.2.4'] and hl7:templateId[@root = '2.16.840.1.113883.10.20.1.11'] and hl7:templateId[@root = '1.3.6.1.4.1.19376.1.5.3.1.3.6']]/hl7:entry[hl7:act[hl7:templateId[@root = '1.2.40.0.34.6.0.11.3.20'] and hl7:templateId[@root = '2.16.840.1.113883.10.20.1.27'] and hl7:templateId[@root = '1.3.6.1.4.1.19376.1.5.3.1.4.5.1'] and hl7:templateId[@root = '1.3.6.1.4.1.19376.1.5.3.1.4.5.2']]]/hl7:act[hl7:templateId[@root = '1.2.40.0.34.6.0.11.3.20'] and hl7:templateId[@root = '2.16.840.1.113883.10.20.1.27'] and hl7:templateId[@root = '1.3.6.1.4.1.19376.1.5.3.1.4.5.1'] and hl7:templateId[@root = '1.3.6.1.4.1.19376.1.5.3.1.4.5.2']]/hl7:entryRelationship[@typeCode='SUBJ'][not(@nullFlavor)]/hl7:observation[hl7:templateId[@root = '1.2.40.0.34.6.0.11.3.21'] and hl7:templateId[@root = '2.16.840.1.113883.10.20.1.28'] and hl7:templateId[@root = '1.3.6.1.4.1.19376.1.5.3.1.4.5']]/hl7:effectiveTime[not(@nullFlavor)]/*[not(@xsi:nil = 'true')][not(self::hl7:low[not(@nullFlavor)] | self::hl7:high)]" id="d370831e47-true-d371003e0">
        <assert role="error" see="http://art-decor.org/art-decor/decor-templates--elgaimpf-?id=1.2.40.0.34.6.0.11.2.4" test="not(.)">(atcdabrr_section_ExpositionsrisikoPersonengruppenKodiert)/d370831e47-true-d371003e0: '<value-of select="name(..)"/>' ist als geschlossen definiert und dieses Element '<name/>' ist nicht erlaubt oder nicht mit diesem Inhalt erlaubt. Dies kann templateId, code oder id betreffen. Erwartet:  hl7:low[not(@nullFlavor)] | hl7:high (rule-reference: d370831e47-true-d371003e0)</assert>
    </rule>

   <!-- Checking undefined contents for template/element @isClosed="true". Match context that we did not already match -->
    <rule context="*[hl7:section[hl7:templateId[@root = '1.2.40.0.34.6.0.11.2.4'] and hl7:templateId[@root = '2.16.840.1.113883.10.20.1.11'] and hl7:templateId[@root = '1.3.6.1.4.1.19376.1.5.3.1.3.6']]]/hl7:section[hl7:templateId[@root = '1.2.40.0.34.6.0.11.2.4'] and hl7:templateId[@root = '2.16.840.1.113883.10.20.1.11'] and hl7:templateId[@root = '1.3.6.1.4.1.19376.1.5.3.1.3.6']]/hl7:entry[hl7:act[hl7:templateId[@root = '1.2.40.0.34.6.0.11.3.20'] and hl7:templateId[@root = '2.16.840.1.113883.10.20.1.27'] and hl7:templateId[@root = '1.3.6.1.4.1.19376.1.5.3.1.4.5.1'] and hl7:templateId[@root = '1.3.6.1.4.1.19376.1.5.3.1.4.5.2']]]/hl7:act[hl7:templateId[@root = '1.2.40.0.34.6.0.11.3.20'] and hl7:templateId[@root = '2.16.840.1.113883.10.20.1.27'] and hl7:templateId[@root = '1.3.6.1.4.1.19376.1.5.3.1.4.5.1'] and hl7:templateId[@root = '1.3.6.1.4.1.19376.1.5.3.1.4.5.2']]/hl7:entryRelationship[@typeCode='SUBJ'][not(@nullFlavor)]/hl7:observation[hl7:templateId[@root = '1.2.40.0.34.6.0.11.3.21'] and hl7:templateId[@root = '2.16.840.1.113883.10.20.1.28'] and hl7:templateId[@root = '1.3.6.1.4.1.19376.1.5.3.1.4.5']]/hl7:value[concat(@code, @codeSystem) = doc('include/voc-1.2.40.0.34.6.0.10.15-DYNAMIC.xml')//valueSet[1]/conceptList/concept/concat(@code, @codeSystem)]/*[not(@xsi:nil = 'true')][not(self::hl7:originalText)]" id="d370831e59-true-d371029e0">
        <assert role="error" see="http://art-decor.org/art-decor/decor-templates--elgaimpf-?id=1.2.40.0.34.6.0.11.2.4" test="not(.)">(atcdabrr_section_ExpositionsrisikoPersonengruppenKodiert)/d370831e59-true-d371029e0: '<value-of select="name(..)"/>' ist als geschlossen definiert und dieses Element '<name/>' ist nicht erlaubt oder nicht mit diesem Inhalt erlaubt. Dies kann templateId, code oder id betreffen. Erwartet:  hl7:originalText (rule-reference: d370831e59-true-d371029e0)</assert>
    </rule>

   <!-- Checking undefined contents for template/element @isClosed="true". Match context that we did not already match -->
    <rule context="*[hl7:section[hl7:templateId[@root = '1.2.40.0.34.6.0.11.2.4'] and hl7:templateId[@root = '2.16.840.1.113883.10.20.1.11'] and hl7:templateId[@root = '1.3.6.1.4.1.19376.1.5.3.1.3.6']]]/hl7:section[hl7:templateId[@root = '1.2.40.0.34.6.0.11.2.4'] and hl7:templateId[@root = '2.16.840.1.113883.10.20.1.11'] and hl7:templateId[@root = '1.3.6.1.4.1.19376.1.5.3.1.3.6']]/hl7:entry[hl7:act[hl7:templateId[@root = '1.2.40.0.34.6.0.11.3.20'] and hl7:templateId[@root = '2.16.840.1.113883.10.20.1.27'] and hl7:templateId[@root = '1.3.6.1.4.1.19376.1.5.3.1.4.5.1'] and hl7:templateId[@root = '1.3.6.1.4.1.19376.1.5.3.1.4.5.2']]]/hl7:act[hl7:templateId[@root = '1.2.40.0.34.6.0.11.3.20'] and hl7:templateId[@root = '2.16.840.1.113883.10.20.1.27'] and hl7:templateId[@root = '1.3.6.1.4.1.19376.1.5.3.1.4.5.1'] and hl7:templateId[@root = '1.3.6.1.4.1.19376.1.5.3.1.4.5.2']]/hl7:entryRelationship[@typeCode='SUBJ'][not(@nullFlavor)]/hl7:observation[hl7:templateId[@root = '1.2.40.0.34.6.0.11.3.21'] and hl7:templateId[@root = '2.16.840.1.113883.10.20.1.28'] and hl7:templateId[@root = '1.3.6.1.4.1.19376.1.5.3.1.4.5']]/hl7:value[concat(@code, @codeSystem) = doc('include/voc-1.2.40.0.34.6.0.10.15-DYNAMIC.xml')//valueSet[1]/conceptList/concept/concat(@code, @codeSystem)]/hl7:originalText/*[not(@xsi:nil = 'true')][not(self::hl7:reference[not(@nullFlavor)])]" id="d371033e10-true-d371044e0">
        <assert role="error" see="http://art-decor.org/art-decor/decor-templates--elgaimpf-?id=1.2.40.0.34.6.0.11.9.2" test="not(.)">(atcdabbr_other_OriginalTextReference)/d371033e10-true-d371044e0: '<value-of select="name(..)"/>' ist als geschlossen definiert und dieses Element '<name/>' ist nicht erlaubt oder nicht mit diesem Inhalt erlaubt. Dies kann templateId, code oder id betreffen. Erwartet:  hl7:reference[not(@nullFlavor)] (rule-reference: d371033e10-true-d371044e0)</assert>
    </rule>

   <!-- Checking undefined contents for template/element @isClosed="true". Match context that we did not already match -->
    <rule context="*[hl7:section[hl7:templateId[@root = '1.2.40.0.34.6.0.11.2.4'] and hl7:templateId[@root = '2.16.840.1.113883.10.20.1.11'] and hl7:templateId[@root = '1.3.6.1.4.1.19376.1.5.3.1.3.6']]]/hl7:section[hl7:templateId[@root = '1.2.40.0.34.6.0.11.2.4'] and hl7:templateId[@root = '2.16.840.1.113883.10.20.1.11'] and hl7:templateId[@root = '1.3.6.1.4.1.19376.1.5.3.1.3.6']]/hl7:entry[hl7:act[hl7:templateId[@root = '1.2.40.0.34.6.0.11.3.20'] and hl7:templateId[@root = '2.16.840.1.113883.10.20.1.27'] and hl7:templateId[@root = '1.3.6.1.4.1.19376.1.5.3.1.4.5.1'] and hl7:templateId[@root = '1.3.6.1.4.1.19376.1.5.3.1.4.5.2']]]/hl7:act[hl7:templateId[@root = '1.2.40.0.34.6.0.11.3.20'] and hl7:templateId[@root = '2.16.840.1.113883.10.20.1.27'] and hl7:templateId[@root = '1.3.6.1.4.1.19376.1.5.3.1.4.5.1'] and hl7:templateId[@root = '1.3.6.1.4.1.19376.1.5.3.1.4.5.2']]/hl7:reference[hl7:externalDocument[hl7:templateId[@root = '1.2.40.0.34.6.0.11.3.14']]]/*[not(@xsi:nil = 'true')][not(self::hl7:externalDocument[hl7:templateId[@root = '1.2.40.0.34.6.0.11.3.14']])]" id="d369837e99-true-d371075e0">
        <assert role="error" see="http://art-decor.org/art-decor/decor-templates--elgaimpf-?id=1.2.40.0.34.6.0.11.2.4" test="not(.)">(atcdabrr_section_ExpositionsrisikoPersonengruppenKodiert)/d369837e99-true-d371075e0: '<value-of select="name(..)"/>' ist als geschlossen definiert und dieses Element '<name/>' ist nicht erlaubt oder nicht mit diesem Inhalt erlaubt. Dies kann templateId, code oder id betreffen. Erwartet:  hl7:externalDocument[hl7:templateId[@root = '1.2.40.0.34.6.0.11.3.14']] (rule-reference: d369837e99-true-d371075e0)</assert>
    </rule>

   <!-- Checking undefined contents for template/element @isClosed="true". Match context that we did not already match -->
    <rule context="*[hl7:section[hl7:templateId[@root = '1.2.40.0.34.6.0.11.2.4'] and hl7:templateId[@root = '2.16.840.1.113883.10.20.1.11'] and hl7:templateId[@root = '1.3.6.1.4.1.19376.1.5.3.1.3.6']]]/hl7:section[hl7:templateId[@root = '1.2.40.0.34.6.0.11.2.4'] and hl7:templateId[@root = '2.16.840.1.113883.10.20.1.11'] and hl7:templateId[@root = '1.3.6.1.4.1.19376.1.5.3.1.3.6']]/hl7:entry[hl7:act[hl7:templateId[@root = '1.2.40.0.34.6.0.11.3.20'] and hl7:templateId[@root = '2.16.840.1.113883.10.20.1.27'] and hl7:templateId[@root = '1.3.6.1.4.1.19376.1.5.3.1.4.5.1'] and hl7:templateId[@root = '1.3.6.1.4.1.19376.1.5.3.1.4.5.2']]]/hl7:act[hl7:templateId[@root = '1.2.40.0.34.6.0.11.3.20'] and hl7:templateId[@root = '2.16.840.1.113883.10.20.1.27'] and hl7:templateId[@root = '1.3.6.1.4.1.19376.1.5.3.1.4.5.1'] and hl7:templateId[@root = '1.3.6.1.4.1.19376.1.5.3.1.4.5.2']]/hl7:reference[hl7:externalDocument[hl7:templateId[@root = '1.2.40.0.34.6.0.11.3.14']]]/hl7:externalDocument[hl7:templateId[@root = '1.2.40.0.34.6.0.11.3.14']]/*[not(@xsi:nil = 'true')][not(self::hl7:templateId[@root = '1.2.40.0.34.6.0.11.3.14'] | self::hl7:id[not(@nullFlavor)] | self::hl7:code | self::hl7:text | self::hl7:setId[not(@nullFlavor)] | self::hl7:versionNumber[not(@nullFlavor)])]" id="d371053e18-true-d371107e0">
        <assert role="error" see="http://art-decor.org/art-decor/decor-templates--elgaimpf-?id=1.2.40.0.34.6.0.11.2.4" test="not(.)">(atcdabrr_section_ExpositionsrisikoPersonengruppenKodiert)/d371053e18-true-d371107e0: '<value-of select="name(..)"/>' ist als geschlossen definiert und dieses Element '<name/>' ist nicht erlaubt oder nicht mit diesem Inhalt erlaubt. Dies kann templateId, code oder id betreffen. Erwartet:  hl7:templateId[@root = '1.2.40.0.34.6.0.11.3.14'] | hl7:id[not(@nullFlavor)] | hl7:code | hl7:text | hl7:setId[not(@nullFlavor)] | hl7:versionNumber[not(@nullFlavor)] (rule-reference: d371053e18-true-d371107e0)</assert>
    </rule>

   <!-- Checking undefined contents for template/element @isClosed="true". Match context that we did not already match -->
    <rule context="*[hl7:section[hl7:templateId[@root = '1.2.40.0.34.6.0.11.2.4'] and hl7:templateId[@root = '2.16.840.1.113883.10.20.1.11'] and hl7:templateId[@root = '1.3.6.1.4.1.19376.1.5.3.1.3.6']]]/hl7:section[hl7:templateId[@root = '1.2.40.0.34.6.0.11.2.4'] and hl7:templateId[@root = '2.16.840.1.113883.10.20.1.11'] and hl7:templateId[@root = '1.3.6.1.4.1.19376.1.5.3.1.3.6']]/hl7:entry[hl7:act[hl7:templateId[@root = '1.2.40.0.34.6.0.11.3.20'] and hl7:templateId[@root = '2.16.840.1.113883.10.20.1.27'] and hl7:templateId[@root = '1.3.6.1.4.1.19376.1.5.3.1.4.5.1'] and hl7:templateId[@root = '1.3.6.1.4.1.19376.1.5.3.1.4.5.2']]]/hl7:act[hl7:templateId[@root = '1.2.40.0.34.6.0.11.3.20'] and hl7:templateId[@root = '2.16.840.1.113883.10.20.1.27'] and hl7:templateId[@root = '1.3.6.1.4.1.19376.1.5.3.1.4.5.1'] and hl7:templateId[@root = '1.3.6.1.4.1.19376.1.5.3.1.4.5.2']]/hl7:reference[hl7:externalDocument[hl7:templateId[@root = '1.2.40.0.34.6.0.11.3.14']]]/hl7:externalDocument[hl7:templateId[@root = '1.2.40.0.34.6.0.11.3.14']]/hl7:text/*[not(@xsi:nil = 'true')][not(self::hl7:reference[not(@nullFlavor)])]" id="d371124e37-true-d371135e0">
        <assert role="error" see="http://art-decor.org/art-decor/decor-templates--elgaimpf-?id=1.2.40.0.34.6.0.11.9.1" test="not(.)">(atcdabrr_other_NarrativeTextReference)/d371124e37-true-d371135e0: '<value-of select="name(..)"/>' ist als geschlossen definiert und dieses Element '<name/>' ist nicht erlaubt oder nicht mit diesem Inhalt erlaubt. Dies kann templateId, code oder id betreffen. Erwartet:  hl7:reference[not(@nullFlavor)] (rule-reference: d371124e37-true-d371135e0)</assert>
    </rule>

   <!-- Checking undefined contents for template/element @isClosed="true". Match context that we did not already match -->
    <rule context="*[hl7:section[hl7:templateId[@root = '1.2.40.0.34.6.0.11.2.4'] and hl7:templateId[@root = '2.16.840.1.113883.10.20.1.11'] and hl7:templateId[@root = '1.3.6.1.4.1.19376.1.5.3.1.3.6']]]/hl7:section[hl7:templateId[@root = '1.2.40.0.34.6.0.11.2.4'] and hl7:templateId[@root = '2.16.840.1.113883.10.20.1.11'] and hl7:templateId[@root = '1.3.6.1.4.1.19376.1.5.3.1.3.6']]/hl7:component[hl7:section[hl7:templateId[@root = '1.2.40.0.34.6.0.11.2.8']]]/*[not(@xsi:nil = 'true')][not(self::hl7:section[hl7:templateId[@root = '1.2.40.0.34.6.0.11.2.8']])]" id="d245561e2941-true-d371435e0">
        <assert role="error" see="http://art-decor.org/art-decor/decor-templates--elgaimpf-?id=1.2.40.0.34.6.0.11.2.4" test="not(.)">(atcdabrr_section_ExpositionsrisikoPersonengruppenKodiert)/d245561e2941-true-d371435e0: '<value-of select="name(..)"/>' ist als geschlossen definiert und dieses Element '<name/>' ist nicht erlaubt oder nicht mit diesem Inhalt erlaubt. Dies kann templateId, code oder id betreffen. Erwartet:  hl7:section[hl7:templateId[@root = '1.2.40.0.34.6.0.11.2.8']] (rule-reference: d245561e2941-true-d371435e0)</assert>
    </rule>

   <!-- Checking undefined contents for template/element @isClosed="true". Match context that we did not already match -->
    <rule context="*[hl7:section[hl7:templateId[@root = '1.2.40.0.34.6.0.11.2.4'] and hl7:templateId[@root = '2.16.840.1.113883.10.20.1.11'] and hl7:templateId[@root = '1.3.6.1.4.1.19376.1.5.3.1.3.6']]]/hl7:section[hl7:templateId[@root = '1.2.40.0.34.6.0.11.2.4'] and hl7:templateId[@root = '2.16.840.1.113883.10.20.1.11'] and hl7:templateId[@root = '1.3.6.1.4.1.19376.1.5.3.1.3.6']]/hl7:component[hl7:section[hl7:templateId[@root = '1.2.40.0.34.6.0.11.2.8']]]/hl7:section[hl7:templateId[@root = '1.2.40.0.34.6.0.11.2.8']]/*[not(@xsi:nil = 'true')][not(self::hl7:templateId[@root = '1.2.40.0.34.6.0.11.2.8'] | self::hl7:id[not(@nullFlavor)] | self::hl7:title[not(@nullFlavor)] | self::hl7:text[not(@nullFlavor)] | self::hl7:languageCode[@code = doc('include/voc-1.2.40.0.34.10.173-DYNAMIC.xml')//valueSet[1]/conceptList/*/@code] | self::hl7:author[hl7:assignedAuthor] | self::hl7:informant)]" id="d371148e7-true-d371756e0">
        <assert role="error" see="http://art-decor.org/art-decor/decor-templates--elgaimpf-?id=1.2.40.0.34.6.0.11.2.4" test="not(.)">(atcdabrr_section_ExpositionsrisikoPersonengruppenKodiert)/d371148e7-true-d371756e0: '<value-of select="name(..)"/>' ist als geschlossen definiert und dieses Element '<name/>' ist nicht erlaubt oder nicht mit diesem Inhalt erlaubt. Dies kann templateId, code oder id betreffen. Erwartet:  hl7:templateId[@root = '1.2.40.0.34.6.0.11.2.8'] | hl7:id[not(@nullFlavor)] | hl7:title[not(@nullFlavor)] | hl7:text[not(@nullFlavor)] | hl7:languageCode[@code = doc('include/voc-1.2.40.0.34.10.173-DYNAMIC.xml')//valueSet[1]/conceptList/*/@code] | hl7:author[hl7:assignedAuthor] | hl7:informant (rule-reference: d371148e7-true-d371756e0)</assert>
    </rule>

   <!-- Checking undefined contents for template/element @isClosed="true". Match context that we did not already match -->
    <rule context="*[hl7:section[hl7:templateId[@root = '1.2.40.0.34.6.0.11.2.4'] and hl7:templateId[@root = '2.16.840.1.113883.10.20.1.11'] and hl7:templateId[@root = '1.3.6.1.4.1.19376.1.5.3.1.3.6']]]/hl7:section[hl7:templateId[@root = '1.2.40.0.34.6.0.11.2.4'] and hl7:templateId[@root = '2.16.840.1.113883.10.20.1.11'] and hl7:templateId[@root = '1.3.6.1.4.1.19376.1.5.3.1.3.6']]/hl7:component[hl7:section[hl7:templateId[@root = '1.2.40.0.34.6.0.11.2.8']]]/hl7:section[hl7:templateId[@root = '1.2.40.0.34.6.0.11.2.8']]/hl7:author[hl7:assignedAuthor]/*[not(@xsi:nil = 'true')][not(self::hl7:functionCode | self::hl7:time[not(@nullFlavor)] | self::hl7:time[@nullFlavor='UNK'] | self::hl7:assignedAuthor)]" id="d371148e28-true-d371907e0">
        <assert role="error" see="http://art-decor.org/art-decor/decor-templates--elgaimpf-?id=1.2.40.0.34.6.0.11.2.4" test="not(.)">(atcdabrr_section_ExpositionsrisikoPersonengruppenKodiert)/d371148e28-true-d371907e0: '<value-of select="name(..)"/>' ist als geschlossen definiert und dieses Element '<name/>' ist nicht erlaubt oder nicht mit diesem Inhalt erlaubt. Dies kann templateId, code oder id betreffen. Erwartet:  hl7:functionCode | hl7:time[not(@nullFlavor)] | hl7:time[@nullFlavor='UNK'] | hl7:assignedAuthor (rule-reference: d371148e28-true-d371907e0)</assert>
    </rule>

   <!-- Checking undefined contents for template/element @isClosed="true". Match context that we did not already match -->
    <rule context="*[hl7:section[hl7:templateId[@root = '1.2.40.0.34.6.0.11.2.4'] and hl7:templateId[@root = '2.16.840.1.113883.10.20.1.11'] and hl7:templateId[@root = '1.3.6.1.4.1.19376.1.5.3.1.3.6']]]/hl7:section[hl7:templateId[@root = '1.2.40.0.34.6.0.11.2.4'] and hl7:templateId[@root = '2.16.840.1.113883.10.20.1.11'] and hl7:templateId[@root = '1.3.6.1.4.1.19376.1.5.3.1.3.6']]/hl7:component[hl7:section[hl7:templateId[@root = '1.2.40.0.34.6.0.11.2.8']]]/hl7:section[hl7:templateId[@root = '1.2.40.0.34.6.0.11.2.8']]/hl7:author[hl7:assignedAuthor]/hl7:assignedAuthor/*[not(@xsi:nil = 'true')][not(self::hl7:id[not(@nullFlavor)] | self::hl7:id[@nullFlavor='UNK'] | self::hl7:code[not(@nullFlavor)] | self::hl7:addr[not(@nullFlavor)] | self::hl7:telecom[not(@nullFlavor)] | self::hl7:assignedPerson | self::hl7:assignedAuthoringDevice | self::hl7:representedOrganization)]" id="d371783e26-true-d372014e0">
        <assert role="error" see="http://art-decor.org/art-decor/decor-templates--elgaimpf-?id=1.2.40.0.34.6.0.11.2.4" test="not(.)">(atcdabrr_section_ExpositionsrisikoPersonengruppenKodiert)/d371783e26-true-d372014e0: '<value-of select="name(..)"/>' ist als geschlossen definiert und dieses Element '<name/>' ist nicht erlaubt oder nicht mit diesem Inhalt erlaubt. Dies kann templateId, code oder id betreffen. Erwartet:  hl7:id[not(@nullFlavor)] | hl7:id[@nullFlavor='UNK'] | hl7:code[not(@nullFlavor)] | hl7:addr[not(@nullFlavor)] | hl7:telecom[not(@nullFlavor)] | hl7:assignedPerson | hl7:assignedAuthoringDevice | hl7:representedOrganization (rule-reference: d371783e26-true-d372014e0)</assert>
    </rule>

   <!-- Checking undefined contents for template/element @isClosed="true". Match context that we did not already match -->
    <rule context="*[hl7:section[hl7:templateId[@root = '1.2.40.0.34.6.0.11.2.4'] and hl7:templateId[@root = '2.16.840.1.113883.10.20.1.11'] and hl7:templateId[@root = '1.3.6.1.4.1.19376.1.5.3.1.3.6']]]/hl7:section[hl7:templateId[@root = '1.2.40.0.34.6.0.11.2.4'] and hl7:templateId[@root = '2.16.840.1.113883.10.20.1.11'] and hl7:templateId[@root = '1.3.6.1.4.1.19376.1.5.3.1.3.6']]/hl7:component[hl7:section[hl7:templateId[@root = '1.2.40.0.34.6.0.11.2.8']]]/hl7:section[hl7:templateId[@root = '1.2.40.0.34.6.0.11.2.8']]/hl7:author[hl7:assignedAuthor]/hl7:assignedAuthor/hl7:addr[not(@nullFlavor)]/*[not(@xsi:nil = 'true')][not(self::hl7:streetAddressLine | self::hl7:streetName | self::hl7:houseNumber | self::hl7:postalCode[not(@nullFlavor)] | self::hl7:city[not(@nullFlavor)] | self::hl7:state | self::hl7:country[not(@nullFlavor)] | self::hl7:additionalLocator)]" id="d371783e34-true-d372069e0">
        <assert role="error" see="http://art-decor.org/art-decor/decor-templates--elgaimpf-?id=1.2.40.0.34.6.0.11.2.4" test="not(.)">(atcdabrr_section_ExpositionsrisikoPersonengruppenKodiert)/d371783e34-true-d372069e0: '<value-of select="name(..)"/>' ist als geschlossen definiert und dieses Element '<name/>' ist nicht erlaubt oder nicht mit diesem Inhalt erlaubt. Dies kann templateId, code oder id betreffen. Erwartet:  hl7:streetAddressLine | hl7:streetName | hl7:houseNumber | hl7:postalCode[not(@nullFlavor)] | hl7:city[not(@nullFlavor)] | hl7:state | hl7:country[not(@nullFlavor)] | hl7:additionalLocator (rule-reference: d371783e34-true-d372069e0)</assert>
    </rule>

   <!-- Checking undefined contents for template/element @isClosed="true". Match context that we did not already match -->
    <rule context="*[hl7:section[hl7:templateId[@root = '1.2.40.0.34.6.0.11.2.4'] and hl7:templateId[@root = '2.16.840.1.113883.10.20.1.11'] and hl7:templateId[@root = '1.3.6.1.4.1.19376.1.5.3.1.3.6']]]/hl7:section[hl7:templateId[@root = '1.2.40.0.34.6.0.11.2.4'] and hl7:templateId[@root = '2.16.840.1.113883.10.20.1.11'] and hl7:templateId[@root = '1.3.6.1.4.1.19376.1.5.3.1.3.6']]/hl7:component[hl7:section[hl7:templateId[@root = '1.2.40.0.34.6.0.11.2.8']]]/hl7:section[hl7:templateId[@root = '1.2.40.0.34.6.0.11.2.8']]/hl7:author[hl7:assignedAuthor]/hl7:assignedAuthor/hl7:assignedPerson/*[not(@xsi:nil = 'true')][not(self::hl7:name[not(@nullFlavor)] | self::hl7:name[@nullFlavor='UNK'] | self::hl7:name[@nullFlavor='MSK'])]" id="d371783e56-true-d372116e0">
        <assert role="error" see="http://art-decor.org/art-decor/decor-templates--elgaimpf-?id=1.2.40.0.34.6.0.11.2.4" test="not(.)">(atcdabrr_section_ExpositionsrisikoPersonengruppenKodiert)/d371783e56-true-d372116e0: '<value-of select="name(..)"/>' ist als geschlossen definiert und dieses Element '<name/>' ist nicht erlaubt oder nicht mit diesem Inhalt erlaubt. Dies kann templateId, code oder id betreffen. Erwartet:  hl7:name[not(@nullFlavor)] | hl7:name[@nullFlavor='UNK'] | hl7:name[@nullFlavor='MSK'] (rule-reference: d371783e56-true-d372116e0)</assert>
    </rule>

   <!-- Checking undefined contents for template/element @isClosed="true". Match context that we did not already match -->
    <rule context="*[hl7:section[hl7:templateId[@root = '1.2.40.0.34.6.0.11.2.4'] and hl7:templateId[@root = '2.16.840.1.113883.10.20.1.11'] and hl7:templateId[@root = '1.3.6.1.4.1.19376.1.5.3.1.3.6']]]/hl7:section[hl7:templateId[@root = '1.2.40.0.34.6.0.11.2.4'] and hl7:templateId[@root = '2.16.840.1.113883.10.20.1.11'] and hl7:templateId[@root = '1.3.6.1.4.1.19376.1.5.3.1.3.6']]/hl7:component[hl7:section[hl7:templateId[@root = '1.2.40.0.34.6.0.11.2.8']]]/hl7:section[hl7:templateId[@root = '1.2.40.0.34.6.0.11.2.8']]/hl7:author[hl7:assignedAuthor]/hl7:assignedAuthor/hl7:assignedPerson/hl7:name[not(@nullFlavor)]/*[not(@xsi:nil = 'true')][not(self::hl7:prefix | self::hl7:family[not(@nullFlavor)] | self::hl7:given[not(@nullFlavor)] | self::hl7:suffix)]" id="d372120e62-true-d372148e0">
        <assert role="error" see="http://art-decor.org/art-decor/decor-templates--elgaimpf-?id=1.2.40.0.34.6.0.11.9.6" test="not(.)">(atcdabbr_other_PersonNameCompilationG2)/d372120e62-true-d372148e0: '<value-of select="name(..)"/>' ist als geschlossen definiert und dieses Element '<name/>' ist nicht erlaubt oder nicht mit diesem Inhalt erlaubt. Dies kann templateId, code oder id betreffen. Erwartet:  hl7:prefix | hl7:family[not(@nullFlavor)] | hl7:given[not(@nullFlavor)] | hl7:suffix (rule-reference: d372120e62-true-d372148e0)</assert>
    </rule>

   <!-- Checking undefined contents for template/element @isClosed="true". Match context that we did not already match -->
    <rule context="*[hl7:section[hl7:templateId[@root = '1.2.40.0.34.6.0.11.2.4'] and hl7:templateId[@root = '2.16.840.1.113883.10.20.1.11'] and hl7:templateId[@root = '1.3.6.1.4.1.19376.1.5.3.1.3.6']]]/hl7:section[hl7:templateId[@root = '1.2.40.0.34.6.0.11.2.4'] and hl7:templateId[@root = '2.16.840.1.113883.10.20.1.11'] and hl7:templateId[@root = '1.3.6.1.4.1.19376.1.5.3.1.3.6']]/hl7:component[hl7:section[hl7:templateId[@root = '1.2.40.0.34.6.0.11.2.8']]]/hl7:section[hl7:templateId[@root = '1.2.40.0.34.6.0.11.2.8']]/hl7:author[hl7:assignedAuthor]/hl7:assignedAuthor/hl7:assignedAuthoringDevice/*[not(@xsi:nil = 'true')][not(self::hl7:manufacturerModelName[not(@nullFlavor)] | self::hl7:softwareName[not(@nullFlavor)])]" id="d371783e67-true-d372189e0">
        <assert role="error" see="http://art-decor.org/art-decor/decor-templates--elgaimpf-?id=1.2.40.0.34.6.0.11.2.4" test="not(.)">(atcdabrr_section_ExpositionsrisikoPersonengruppenKodiert)/d371783e67-true-d372189e0: '<value-of select="name(..)"/>' ist als geschlossen definiert und dieses Element '<name/>' ist nicht erlaubt oder nicht mit diesem Inhalt erlaubt. Dies kann templateId, code oder id betreffen. Erwartet:  hl7:manufacturerModelName[not(@nullFlavor)] | hl7:softwareName[not(@nullFlavor)] (rule-reference: d371783e67-true-d372189e0)</assert>
    </rule>

   <!-- Checking undefined contents for template/element @isClosed="true". Match context that we did not already match -->
    <rule context="*[hl7:section[hl7:templateId[@root = '1.2.40.0.34.6.0.11.2.4'] and hl7:templateId[@root = '2.16.840.1.113883.10.20.1.11'] and hl7:templateId[@root = '1.3.6.1.4.1.19376.1.5.3.1.3.6']]]/hl7:section[hl7:templateId[@root = '1.2.40.0.34.6.0.11.2.4'] and hl7:templateId[@root = '2.16.840.1.113883.10.20.1.11'] and hl7:templateId[@root = '1.3.6.1.4.1.19376.1.5.3.1.3.6']]/hl7:component[hl7:section[hl7:templateId[@root = '1.2.40.0.34.6.0.11.2.8']]]/hl7:section[hl7:templateId[@root = '1.2.40.0.34.6.0.11.2.8']]/hl7:author[hl7:assignedAuthor]/hl7:assignedAuthor/hl7:representedOrganization/*[not(@xsi:nil = 'true')][not(self::hl7:id[not(@nullFlavor)] | self::hl7:name[not(@nullFlavor)] | self::hl7:telecom[not(@nullFlavor)] | self::hl7:addr[not(@nullFlavor)])]" id="d371783e74-true-d372231e0">
        <assert role="error" see="http://art-decor.org/art-decor/decor-templates--elgaimpf-?id=1.2.40.0.34.6.0.11.2.4" test="not(.)">(atcdabrr_section_ExpositionsrisikoPersonengruppenKodiert)/d371783e74-true-d372231e0: '<value-of select="name(..)"/>' ist als geschlossen definiert und dieses Element '<name/>' ist nicht erlaubt oder nicht mit diesem Inhalt erlaubt. Dies kann templateId, code oder id betreffen. Erwartet:  hl7:id[not(@nullFlavor)] | hl7:name[not(@nullFlavor)] | hl7:telecom[not(@nullFlavor)] | hl7:addr[not(@nullFlavor)] (rule-reference: d371783e74-true-d372231e0)</assert>
    </rule>

   <!-- Checking undefined contents for template/element @isClosed="true". Match context that we did not already match -->
    <rule context="*[hl7:section[hl7:templateId[@root = '1.2.40.0.34.6.0.11.2.4'] and hl7:templateId[@root = '2.16.840.1.113883.10.20.1.11'] and hl7:templateId[@root = '1.3.6.1.4.1.19376.1.5.3.1.3.6']]]/hl7:section[hl7:templateId[@root = '1.2.40.0.34.6.0.11.2.4'] and hl7:templateId[@root = '2.16.840.1.113883.10.20.1.11'] and hl7:templateId[@root = '1.3.6.1.4.1.19376.1.5.3.1.3.6']]/hl7:component[hl7:section[hl7:templateId[@root = '1.2.40.0.34.6.0.11.2.8']]]/hl7:section[hl7:templateId[@root = '1.2.40.0.34.6.0.11.2.8']]/hl7:author[hl7:assignedAuthor]/hl7:assignedAuthor/hl7:representedOrganization/hl7:addr[not(@nullFlavor)]/*[not(@xsi:nil = 'true')][not(self::hl7:streetAddressLine | self::hl7:streetName | self::hl7:houseNumber | self::hl7:postalCode[not(@nullFlavor)] | self::hl7:city[not(@nullFlavor)] | self::hl7:state | self::hl7:country[not(@nullFlavor)] | self::hl7:additionalLocator)]" id="d372202e43-true-d372290e0">
        <assert role="error" see="http://art-decor.org/art-decor/decor-templates--elgaimpf-?id=1.2.40.0.34.6.0.11.2.4" test="not(.)">(atcdabrr_section_ExpositionsrisikoPersonengruppenKodiert)/d372202e43-true-d372290e0: '<value-of select="name(..)"/>' ist als geschlossen definiert und dieses Element '<name/>' ist nicht erlaubt oder nicht mit diesem Inhalt erlaubt. Dies kann templateId, code oder id betreffen. Erwartet:  hl7:streetAddressLine | hl7:streetName | hl7:houseNumber | hl7:postalCode[not(@nullFlavor)] | hl7:city[not(@nullFlavor)] | hl7:state | hl7:country[not(@nullFlavor)] | hl7:additionalLocator (rule-reference: d372202e43-true-d372290e0)</assert>
    </rule>

   <!-- Checking undefined contents for template/element @isClosed="true". Match context that we did not already match -->
    <rule context="*[hl7:section[hl7:templateId[@root = '1.2.40.0.34.6.0.11.2.4'] and hl7:templateId[@root = '2.16.840.1.113883.10.20.1.11'] and hl7:templateId[@root = '1.3.6.1.4.1.19376.1.5.3.1.3.6']]]/hl7:section[hl7:templateId[@root = '1.2.40.0.34.6.0.11.2.4'] and hl7:templateId[@root = '2.16.840.1.113883.10.20.1.11'] and hl7:templateId[@root = '1.3.6.1.4.1.19376.1.5.3.1.3.6']]/hl7:component[hl7:section[hl7:templateId[@root = '1.2.40.0.34.6.0.11.2.8']]]/hl7:section[hl7:templateId[@root = '1.2.40.0.34.6.0.11.2.8']]/hl7:informant/*[not(@xsi:nil = 'true')][not(self::hl7:assignedEntity | self::hl7:relatedEntity)]" id="d371148e31-true-d372453e0">
        <assert role="error" see="http://art-decor.org/art-decor/decor-templates--elgaimpf-?id=1.2.40.0.34.6.0.11.2.4" test="not(.)">(atcdabrr_section_ExpositionsrisikoPersonengruppenKodiert)/d371148e31-true-d372453e0: '<value-of select="name(..)"/>' ist als geschlossen definiert und dieses Element '<name/>' ist nicht erlaubt oder nicht mit diesem Inhalt erlaubt. Dies kann templateId, code oder id betreffen. Erwartet:  hl7:assignedEntity | hl7:relatedEntity (rule-reference: d371148e31-true-d372453e0)</assert>
    </rule>

   <!-- Checking undefined contents for template/element @isClosed="true". Match context that we did not already match -->
    <rule context="*[hl7:section[hl7:templateId[@root = '1.2.40.0.34.6.0.11.2.4'] and hl7:templateId[@root = '2.16.840.1.113883.10.20.1.11'] and hl7:templateId[@root = '1.3.6.1.4.1.19376.1.5.3.1.3.6']]]/hl7:section[hl7:templateId[@root = '1.2.40.0.34.6.0.11.2.4'] and hl7:templateId[@root = '2.16.840.1.113883.10.20.1.11'] and hl7:templateId[@root = '1.3.6.1.4.1.19376.1.5.3.1.3.6']]/hl7:component[hl7:section[hl7:templateId[@root = '1.2.40.0.34.6.0.11.2.8']]]/hl7:section[hl7:templateId[@root = '1.2.40.0.34.6.0.11.2.8']]/hl7:informant/hl7:assignedEntity/*[not(@xsi:nil = 'true')][not(self::hl7:id[not(@nullFlavor)] | self::hl7:id[@nullFlavor='NI'] | self::hl7:id[@nullFlavor='UNK'] | self::hl7:code | self::hl7:addr | self::hl7:telecom | self::hl7:assignedPerson | self::hl7:assignedPerson | self::hl7:representedOrganization)]" id="d372327e4-true-d372587e0">
        <assert role="error" see="http://art-decor.org/art-decor/decor-templates--elgaimpf-?id=1.2.40.0.34.6.0.11.2.4" test="not(.)">(atcdabrr_section_ExpositionsrisikoPersonengruppenKodiert)/d372327e4-true-d372587e0: '<value-of select="name(..)"/>' ist als geschlossen definiert und dieses Element '<name/>' ist nicht erlaubt oder nicht mit diesem Inhalt erlaubt. Dies kann templateId, code oder id betreffen. Erwartet:  hl7:id[not(@nullFlavor)] | hl7:id[@nullFlavor='NI'] | hl7:id[@nullFlavor='UNK'] | hl7:code | hl7:addr | hl7:telecom | hl7:assignedPerson | hl7:assignedPerson | hl7:representedOrganization (rule-reference: d372327e4-true-d372587e0)</assert>
    </rule>

   <!-- Checking undefined contents for template/element @isClosed="true". Match context that we did not already match -->
    <rule context="*[hl7:section[hl7:templateId[@root = '1.2.40.0.34.6.0.11.2.4'] and hl7:templateId[@root = '2.16.840.1.113883.10.20.1.11'] and hl7:templateId[@root = '1.3.6.1.4.1.19376.1.5.3.1.3.6']]]/hl7:section[hl7:templateId[@root = '1.2.40.0.34.6.0.11.2.4'] and hl7:templateId[@root = '2.16.840.1.113883.10.20.1.11'] and hl7:templateId[@root = '1.3.6.1.4.1.19376.1.5.3.1.3.6']]/hl7:component[hl7:section[hl7:templateId[@root = '1.2.40.0.34.6.0.11.2.8']]]/hl7:section[hl7:templateId[@root = '1.2.40.0.34.6.0.11.2.8']]/hl7:informant/hl7:assignedEntity/hl7:addr/*[not(@xsi:nil = 'true')][not(self::hl7:streetAddressLine | self::hl7:streetName | self::hl7:houseNumber | self::hl7:postalCode | self::hl7:city | self::hl7:state | self::hl7:country | self::hl7:additionalLocator)]" id="d372458e26-true-d372648e0">
        <assert role="error" see="http://art-decor.org/art-decor/decor-templates--elgaimpf-?id=1.2.40.0.34.6.0.11.2.4" test="not(.)">(atcdabrr_section_ExpositionsrisikoPersonengruppenKodiert)/d372458e26-true-d372648e0: '<value-of select="name(..)"/>' ist als geschlossen definiert und dieses Element '<name/>' ist nicht erlaubt oder nicht mit diesem Inhalt erlaubt. Dies kann templateId, code oder id betreffen. Erwartet:  hl7:streetAddressLine | hl7:streetName | hl7:houseNumber | hl7:postalCode | hl7:city | hl7:state | hl7:country | hl7:additionalLocator (rule-reference: d372458e26-true-d372648e0)</assert>
    </rule>

   <!-- Checking undefined contents for template/element @isClosed="true". Match context that we did not already match -->
    <rule context="*[hl7:section[hl7:templateId[@root = '1.2.40.0.34.6.0.11.2.4'] and hl7:templateId[@root = '2.16.840.1.113883.10.20.1.11'] and hl7:templateId[@root = '1.3.6.1.4.1.19376.1.5.3.1.3.6']]]/hl7:section[hl7:templateId[@root = '1.2.40.0.34.6.0.11.2.4'] and hl7:templateId[@root = '2.16.840.1.113883.10.20.1.11'] and hl7:templateId[@root = '1.3.6.1.4.1.19376.1.5.3.1.3.6']]/hl7:component[hl7:section[hl7:templateId[@root = '1.2.40.0.34.6.0.11.2.8']]]/hl7:section[hl7:templateId[@root = '1.2.40.0.34.6.0.11.2.8']]/hl7:informant/hl7:assignedEntity/hl7:assignedPerson/*[not(@xsi:nil = 'true')][not(self::hl7:name[not(@nullFlavor)])]" id="d372458e66-true-d372700e0">
        <assert role="error" see="http://art-decor.org/art-decor/decor-templates--elgaimpf-?id=1.2.40.0.34.6.0.11.2.4" test="not(.)">(atcdabrr_section_ExpositionsrisikoPersonengruppenKodiert)/d372458e66-true-d372700e0: '<value-of select="name(..)"/>' ist als geschlossen definiert und dieses Element '<name/>' ist nicht erlaubt oder nicht mit diesem Inhalt erlaubt. Dies kann templateId, code oder id betreffen. Erwartet:  hl7:name[not(@nullFlavor)] (rule-reference: d372458e66-true-d372700e0)</assert>
    </rule>

   <!-- Checking undefined contents for template/element @isClosed="true". Match context that we did not already match -->
    <rule context="*[hl7:section[hl7:templateId[@root = '1.2.40.0.34.6.0.11.2.4'] and hl7:templateId[@root = '2.16.840.1.113883.10.20.1.11'] and hl7:templateId[@root = '1.3.6.1.4.1.19376.1.5.3.1.3.6']]]/hl7:section[hl7:templateId[@root = '1.2.40.0.34.6.0.11.2.4'] and hl7:templateId[@root = '2.16.840.1.113883.10.20.1.11'] and hl7:templateId[@root = '1.3.6.1.4.1.19376.1.5.3.1.3.6']]/hl7:component[hl7:section[hl7:templateId[@root = '1.2.40.0.34.6.0.11.2.8']]]/hl7:section[hl7:templateId[@root = '1.2.40.0.34.6.0.11.2.8']]/hl7:informant/hl7:assignedEntity/hl7:assignedPerson/*[not(@xsi:nil = 'true')][not(self::hl7:name[not(@nullFlavor)])]" id="d372458e73-true-d372720e0">
        <assert role="error" see="http://art-decor.org/art-decor/decor-templates--elgaimpf-?id=1.2.40.0.34.6.0.11.2.4" test="not(.)">(atcdabrr_section_ExpositionsrisikoPersonengruppenKodiert)/d372458e73-true-d372720e0: '<value-of select="name(..)"/>' ist als geschlossen definiert und dieses Element '<name/>' ist nicht erlaubt oder nicht mit diesem Inhalt erlaubt. Dies kann templateId, code oder id betreffen. Erwartet:  hl7:name[not(@nullFlavor)] (rule-reference: d372458e73-true-d372720e0)</assert>
    </rule>

   <!-- Checking undefined contents for template/element @isClosed="true". Match context that we did not already match -->
    <rule context="*[hl7:section[hl7:templateId[@root = '1.2.40.0.34.6.0.11.2.4'] and hl7:templateId[@root = '2.16.840.1.113883.10.20.1.11'] and hl7:templateId[@root = '1.3.6.1.4.1.19376.1.5.3.1.3.6']]]/hl7:section[hl7:templateId[@root = '1.2.40.0.34.6.0.11.2.4'] and hl7:templateId[@root = '2.16.840.1.113883.10.20.1.11'] and hl7:templateId[@root = '1.3.6.1.4.1.19376.1.5.3.1.3.6']]/hl7:component[hl7:section[hl7:templateId[@root = '1.2.40.0.34.6.0.11.2.8']]]/hl7:section[hl7:templateId[@root = '1.2.40.0.34.6.0.11.2.8']]/hl7:informant/hl7:assignedEntity/hl7:assignedPerson/hl7:name[not(@nullFlavor)]/*[not(@xsi:nil = 'true')][not(self::hl7:prefix | self::hl7:family[not(@nullFlavor)] | self::hl7:given[not(@nullFlavor)] | self::hl7:suffix)]" id="d372709e10-true-d372748e0">
        <assert role="error" see="http://art-decor.org/art-decor/decor-templates--elgaimpf-?id=1.2.40.0.34.6.0.11.2.4" test="not(.)">(atcdabrr_section_ExpositionsrisikoPersonengruppenKodiert)/d372709e10-true-d372748e0: '<value-of select="name(..)"/>' ist als geschlossen definiert und dieses Element '<name/>' ist nicht erlaubt oder nicht mit diesem Inhalt erlaubt. Dies kann templateId, code oder id betreffen. Erwartet:  hl7:prefix | hl7:family[not(@nullFlavor)] | hl7:given[not(@nullFlavor)] | hl7:suffix (rule-reference: d372709e10-true-d372748e0)</assert>
    </rule>

   <!-- Checking undefined contents for template/element @isClosed="true". Match context that we did not already match -->
    <rule context="*[hl7:section[hl7:templateId[@root = '1.2.40.0.34.6.0.11.2.4'] and hl7:templateId[@root = '2.16.840.1.113883.10.20.1.11'] and hl7:templateId[@root = '1.3.6.1.4.1.19376.1.5.3.1.3.6']]]/hl7:section[hl7:templateId[@root = '1.2.40.0.34.6.0.11.2.4'] and hl7:templateId[@root = '2.16.840.1.113883.10.20.1.11'] and hl7:templateId[@root = '1.3.6.1.4.1.19376.1.5.3.1.3.6']]/hl7:component[hl7:section[hl7:templateId[@root = '1.2.40.0.34.6.0.11.2.8']]]/hl7:section[hl7:templateId[@root = '1.2.40.0.34.6.0.11.2.8']]/hl7:informant/hl7:assignedEntity/hl7:representedOrganization/*[not(@xsi:nil = 'true')][not(self::hl7:id[not(@nullFlavor)] | self::hl7:name[not(@nullFlavor)] | self::hl7:telecom[not(@nullFlavor)] | self::hl7:addr[not(@nullFlavor)])]" id="d372458e81-true-d372794e0">
        <assert role="error" see="http://art-decor.org/art-decor/decor-templates--elgaimpf-?id=1.2.40.0.34.6.0.11.2.4" test="not(.)">(atcdabrr_section_ExpositionsrisikoPersonengruppenKodiert)/d372458e81-true-d372794e0: '<value-of select="name(..)"/>' ist als geschlossen definiert und dieses Element '<name/>' ist nicht erlaubt oder nicht mit diesem Inhalt erlaubt. Dies kann templateId, code oder id betreffen. Erwartet:  hl7:id[not(@nullFlavor)] | hl7:name[not(@nullFlavor)] | hl7:telecom[not(@nullFlavor)] | hl7:addr[not(@nullFlavor)] (rule-reference: d372458e81-true-d372794e0)</assert>
    </rule>

   <!-- Checking undefined contents for template/element @isClosed="true". Match context that we did not already match -->
    <rule context="*[hl7:section[hl7:templateId[@root = '1.2.40.0.34.6.0.11.2.4'] and hl7:templateId[@root = '2.16.840.1.113883.10.20.1.11'] and hl7:templateId[@root = '1.3.6.1.4.1.19376.1.5.3.1.3.6']]]/hl7:section[hl7:templateId[@root = '1.2.40.0.34.6.0.11.2.4'] and hl7:templateId[@root = '2.16.840.1.113883.10.20.1.11'] and hl7:templateId[@root = '1.3.6.1.4.1.19376.1.5.3.1.3.6']]/hl7:component[hl7:section[hl7:templateId[@root = '1.2.40.0.34.6.0.11.2.8']]]/hl7:section[hl7:templateId[@root = '1.2.40.0.34.6.0.11.2.8']]/hl7:informant/hl7:assignedEntity/hl7:representedOrganization/hl7:addr[not(@nullFlavor)]/*[not(@xsi:nil = 'true')][not(self::hl7:streetAddressLine | self::hl7:streetName | self::hl7:houseNumber | self::hl7:postalCode | self::hl7:city | self::hl7:state | self::hl7:country | self::hl7:additionalLocator)]" id="d372769e36-true-d372851e0">
        <assert role="error" see="http://art-decor.org/art-decor/decor-templates--elgaimpf-?id=1.2.40.0.34.6.0.11.2.4" test="not(.)">(atcdabrr_section_ExpositionsrisikoPersonengruppenKodiert)/d372769e36-true-d372851e0: '<value-of select="name(..)"/>' ist als geschlossen definiert und dieses Element '<name/>' ist nicht erlaubt oder nicht mit diesem Inhalt erlaubt. Dies kann templateId, code oder id betreffen. Erwartet:  hl7:streetAddressLine | hl7:streetName | hl7:houseNumber | hl7:postalCode | hl7:city | hl7:state | hl7:country | hl7:additionalLocator (rule-reference: d372769e36-true-d372851e0)</assert>
    </rule>

   <!-- Checking undefined contents for template/element @isClosed="true". Match context that we did not already match -->
    <rule context="*[hl7:section[hl7:templateId[@root = '1.2.40.0.34.6.0.11.2.4'] and hl7:templateId[@root = '2.16.840.1.113883.10.20.1.11'] and hl7:templateId[@root = '1.3.6.1.4.1.19376.1.5.3.1.3.6']]]/hl7:section[hl7:templateId[@root = '1.2.40.0.34.6.0.11.2.4'] and hl7:templateId[@root = '2.16.840.1.113883.10.20.1.11'] and hl7:templateId[@root = '1.3.6.1.4.1.19376.1.5.3.1.3.6']]/hl7:component[hl7:section[hl7:templateId[@root = '1.2.40.0.34.6.0.11.2.8']]]/hl7:section[hl7:templateId[@root = '1.2.40.0.34.6.0.11.2.8']]/hl7:informant/hl7:relatedEntity/*[not(@xsi:nil = 'true')][not(self::hl7:code[not(@nullFlavor)] | self::hl7:addr[not(@nullFlavor)] | self::hl7:telecom[not(@nullFlavor)] | self::hl7:relatedPerson)]" id="d372327e5-true-d372919e0">
        <assert role="error" see="http://art-decor.org/art-decor/decor-templates--elgaimpf-?id=1.2.40.0.34.6.0.11.2.4" test="not(.)">(atcdabrr_section_ExpositionsrisikoPersonengruppenKodiert)/d372327e5-true-d372919e0: '<value-of select="name(..)"/>' ist als geschlossen definiert und dieses Element '<name/>' ist nicht erlaubt oder nicht mit diesem Inhalt erlaubt. Dies kann templateId, code oder id betreffen. Erwartet:  hl7:code[not(@nullFlavor)] | hl7:addr[not(@nullFlavor)] | hl7:telecom[not(@nullFlavor)] | hl7:relatedPerson (rule-reference: d372327e5-true-d372919e0)</assert>
    </rule>

   <!-- Checking undefined contents for template/element @isClosed="true". Match context that we did not already match -->
    <rule context="*[hl7:section[hl7:templateId[@root = '1.2.40.0.34.6.0.11.2.4'] and hl7:templateId[@root = '2.16.840.1.113883.10.20.1.11'] and hl7:templateId[@root = '1.3.6.1.4.1.19376.1.5.3.1.3.6']]]/hl7:section[hl7:templateId[@root = '1.2.40.0.34.6.0.11.2.4'] and hl7:templateId[@root = '2.16.840.1.113883.10.20.1.11'] and hl7:templateId[@root = '1.3.6.1.4.1.19376.1.5.3.1.3.6']]/hl7:component[hl7:section[hl7:templateId[@root = '1.2.40.0.34.6.0.11.2.8']]]/hl7:section[hl7:templateId[@root = '1.2.40.0.34.6.0.11.2.8']]/hl7:informant/hl7:relatedEntity/hl7:addr[not(@nullFlavor)]/*[not(@xsi:nil = 'true')][not(self::hl7:streetAddressLine | self::hl7:streetName | self::hl7:houseNumber | self::hl7:postalCode | self::hl7:city | self::hl7:state | self::hl7:country | self::hl7:additionalLocator)]" id="d372327e8-true-d372970e0">
        <assert role="error" see="http://art-decor.org/art-decor/decor-templates--elgaimpf-?id=1.2.40.0.34.6.0.11.2.4" test="not(.)">(atcdabrr_section_ExpositionsrisikoPersonengruppenKodiert)/d372327e8-true-d372970e0: '<value-of select="name(..)"/>' ist als geschlossen definiert und dieses Element '<name/>' ist nicht erlaubt oder nicht mit diesem Inhalt erlaubt. Dies kann templateId, code oder id betreffen. Erwartet:  hl7:streetAddressLine | hl7:streetName | hl7:houseNumber | hl7:postalCode | hl7:city | hl7:state | hl7:country | hl7:additionalLocator (rule-reference: d372327e8-true-d372970e0)</assert>
    </rule>

   <!-- Checking undefined contents for template/element @isClosed="true". Match context that we did not already match -->
    <rule context="*[hl7:section[hl7:templateId[@root = '1.2.40.0.34.6.0.11.2.4'] and hl7:templateId[@root = '2.16.840.1.113883.10.20.1.11'] and hl7:templateId[@root = '1.3.6.1.4.1.19376.1.5.3.1.3.6']]]/hl7:section[hl7:templateId[@root = '1.2.40.0.34.6.0.11.2.4'] and hl7:templateId[@root = '2.16.840.1.113883.10.20.1.11'] and hl7:templateId[@root = '1.3.6.1.4.1.19376.1.5.3.1.3.6']]/hl7:component[hl7:section[hl7:templateId[@root = '1.2.40.0.34.6.0.11.2.8']]]/hl7:section[hl7:templateId[@root = '1.2.40.0.34.6.0.11.2.8']]/hl7:informant/hl7:relatedEntity/hl7:relatedPerson/*[not(@xsi:nil = 'true')][not(self::hl7:name[not(@nullFlavor)] | self::hl7:name[@nullFlavor='UNK'] | self::hl7:name[@nullFlavor='MSK'])]" id="d372327e10-true-d373015e0">
        <assert role="error" see="http://art-decor.org/art-decor/decor-templates--elgaimpf-?id=1.2.40.0.34.6.0.11.2.4" test="not(.)">(atcdabrr_section_ExpositionsrisikoPersonengruppenKodiert)/d372327e10-true-d373015e0: '<value-of select="name(..)"/>' ist als geschlossen definiert und dieses Element '<name/>' ist nicht erlaubt oder nicht mit diesem Inhalt erlaubt. Dies kann templateId, code oder id betreffen. Erwartet:  hl7:name[not(@nullFlavor)] | hl7:name[@nullFlavor='UNK'] | hl7:name[@nullFlavor='MSK'] (rule-reference: d372327e10-true-d373015e0)</assert>
    </rule>

   <!-- Checking undefined contents for template/element @isClosed="true". Match context that we did not already match -->
    <rule context="*[hl7:section[hl7:templateId[@root = '1.2.40.0.34.6.0.11.2.4'] and hl7:templateId[@root = '2.16.840.1.113883.10.20.1.11'] and hl7:templateId[@root = '1.3.6.1.4.1.19376.1.5.3.1.3.6']]]/hl7:section[hl7:templateId[@root = '1.2.40.0.34.6.0.11.2.4'] and hl7:templateId[@root = '2.16.840.1.113883.10.20.1.11'] and hl7:templateId[@root = '1.3.6.1.4.1.19376.1.5.3.1.3.6']]/hl7:component[hl7:section[hl7:templateId[@root = '1.2.40.0.34.6.0.11.2.8']]]/hl7:section[hl7:templateId[@root = '1.2.40.0.34.6.0.11.2.8']]/hl7:informant/hl7:relatedEntity/hl7:relatedPerson/hl7:name[not(@nullFlavor)]/*[not(@xsi:nil = 'true')][not(self::hl7:prefix | self::hl7:family[not(@nullFlavor)] | self::hl7:given[not(@nullFlavor)] | self::hl7:suffix)]" id="d373009e7-true-d373041e0">
        <assert role="error" see="http://art-decor.org/art-decor/decor-templates--elgaimpf-?id=1.2.40.0.34.6.0.11.2.4" test="not(.)">(atcdabrr_section_ExpositionsrisikoPersonengruppenKodiert)/d373009e7-true-d373041e0: '<value-of select="name(..)"/>' ist als geschlossen definiert und dieses Element '<name/>' ist nicht erlaubt oder nicht mit diesem Inhalt erlaubt. Dies kann templateId, code oder id betreffen. Erwartet:  hl7:prefix | hl7:family[not(@nullFlavor)] | hl7:given[not(@nullFlavor)] | hl7:suffix (rule-reference: d373009e7-true-d373041e0)</assert>
    </rule>
</pattern>