<?xml version="1.0" encoding="UTF-8"?>
<!--
Template derived pattern
===========================================
ID: 1.2.40.0.34.6.0.11.3.16
Name: Antikörper-Bestimmung Laboratory Observation Entry
Description: 
-->
<pattern xmlns="http://purl.oclc.org/dsdl/schematron" id="template-1.2.40.0.34.6.0.11.3.16-2019-08-05T141712-closed">
    <title>Antikörper-Bestimmung Laboratory Observation Entry</title>

   <!-- Checking undefined contents for template/element @isClosed="true". Match context that we did not already match -->
    <rule context="*[hl7:observation[hl7:templateId[@root = '1.2.40.0.34.6.0.11.3.16'] and hl7:templateId[@root = '1.3.6.1.4.1.19376.1.3.1.6']]]/*[not(@xsi:nil = 'true')][not(self::hl7:observation[hl7:templateId[@root = '1.2.40.0.34.6.0.11.3.16'] and hl7:templateId[@root = '1.3.6.1.4.1.19376.1.3.1.6']])]" id="d245561e4343-true-d423650e0">
        <assert role="error" see="http://art-decor.org/art-decor/decor-templates--elgaimpf-?id=1.2.40.0.34.6.0.11.3.16" test="not(.)">(eimpf_entry_AntikoerperBestimmungLaboratoryObservation)/d245561e4343-true-d423650e0: '<value-of select="name(..)"/>' ist als geschlossen definiert und dieses Element '<name/>' ist nicht erlaubt oder nicht mit diesem Inhalt erlaubt. Dies kann templateId, code oder id betreffen. Erwartet:  hl7:observation[hl7:templateId[@root = '1.2.40.0.34.6.0.11.3.16'] and hl7:templateId[@root = '1.3.6.1.4.1.19376.1.3.1.6']] (rule-reference: d245561e4343-true-d423650e0)</assert>
    </rule>

   <!-- Checking undefined contents for template/element @isClosed="true". Match context that we did not already match -->
    <rule context="*[hl7:observation[hl7:templateId[@root = '1.2.40.0.34.6.0.11.3.16'] and hl7:templateId[@root = '1.3.6.1.4.1.19376.1.3.1.6']]]/hl7:observation[hl7:templateId[@root = '1.2.40.0.34.6.0.11.3.16'] and hl7:templateId[@root = '1.3.6.1.4.1.19376.1.3.1.6']]/*[not(@xsi:nil = 'true')][not(self::hl7:templateId[@root = '1.2.40.0.34.6.0.11.3.16'] | self::hl7:templateId[@root = '1.3.6.1.4.1.19376.1.3.1.6'] | self::hl7:id[not(@nullFlavor)] | self::hl7:code[concat(@code, @codeSystem) = doc('include/voc-1.2.40.0.34.6.0.10.13-DYNAMIC.xml')//valueSet[1]/conceptList/concept/concat(@code, @codeSystem)] | self::hl7:text | self::hl7:statusCode[@code = 'completed' or @code = 'aborted'] | self::hl7:effectiveTime[not(@nullFlavor)] | self::hl7:effectiveTime[@nullFlavor='UNK'] | self::hl7:value[@xsi:type='PQ'] | self::hl7:value[@xsi:type='IVL_PQ'] | self::hl7:value[@xsi:type='INT'] | self::hl7:value[@xsi:type='IVL_INT'] | self::hl7:value[@xsi:type='BL'] | self::hl7:value[@xsi:type='ST'] | self::hl7:value[@xsi:type='CV'] | self::hl7:value[@xsi:type='TS'] | self::hl7:value[@xsi:type='CD'] | self::hl7:value[@xsi:type='RTO'] | self::hl7:value[@xsi:type='RTO_QTY_QTY'] | self::hl7:value[@xsi:type='RTO_PQ_PQ'] | self::hl7:interpretationCode[concat(@code, @codeSystem) = doc('include/voc-1.2.40.0.34.10.13-DYNAMIC.xml')//valueSet[1]/conceptList/concept/concat(@code, @codeSystem) or @nullFlavor] | self::hl7:performer[hl7:templateId[@root = '1.2.40.0.34.6.0.11.9.28'] and hl7:templateId[@root = '1.3.6.1.4.1.19376.1.3.3.1.7']] | self::hl7:participant[hl7:templateId[@root = '1.3.6.1.4.1.19376.1.3.3.1.5']] | self::hl7:entryRelationship[hl7:act[hl7:templateId[@root = '1.2.40.0.34.6.0.11.3.11'] and hl7:templateId[@root = '2.16.840.1.113883.10.20.1.40'] and hl7:templateId[@root = '1.3.6.1.4.1.19376.1.5.3.1.4.2']]] | self::hl7:referenceRange[@typeCode = 'REFV'][hl7:observationRange[@classCode = 'OBS'][@moodCode = 'EVN.CRT']])]" id="d245561e4415-true-d424144e0">
        <assert role="error" see="http://art-decor.org/art-decor/decor-templates--elgaimpf-?id=1.2.40.0.34.6.0.11.3.16" test="not(.)">(eimpf_entry_AntikoerperBestimmungLaboratoryObservation)/d245561e4415-true-d424144e0: '<value-of select="name(..)"/>' ist als geschlossen definiert und dieses Element '<name/>' ist nicht erlaubt oder nicht mit diesem Inhalt erlaubt. Dies kann templateId, code oder id betreffen. Erwartet:  hl7:templateId[@root = '1.2.40.0.34.6.0.11.3.16'] | hl7:templateId[@root = '1.3.6.1.4.1.19376.1.3.1.6'] | hl7:id[not(@nullFlavor)] | hl7:code[concat(@code, @codeSystem) = doc('include/voc-1.2.40.0.34.6.0.10.13-DYNAMIC.xml')//valueSet[1]/conceptList/concept/concat(@code, @codeSystem)] | hl7:text | hl7:statusCode[@code = 'completed' or @code = 'aborted'] | hl7:effectiveTime[not(@nullFlavor)] | hl7:effectiveTime[@nullFlavor='UNK'] | hl7:value[@xsi:type='PQ'] | hl7:value[@xsi:type='IVL_PQ'] | hl7:value[@xsi:type='INT'] | hl7:value[@xsi:type='IVL_INT'] | hl7:value[@xsi:type='BL'] | hl7:value[@xsi:type='ST'] | hl7:value[@xsi:type='CV'] | hl7:value[@xsi:type='TS'] | hl7:value[@xsi:type='CD'] | hl7:value[@xsi:type='RTO'] | hl7:value[@xsi:type='RTO_QTY_QTY'] | hl7:value[@xsi:type='RTO_PQ_PQ'] | hl7:interpretationCode[concat(@code, @codeSystem) = doc('include/voc-1.2.40.0.34.10.13-DYNAMIC.xml')//valueSet[1]/conceptList/concept/concat(@code, @codeSystem) or @nullFlavor] | hl7:performer[hl7:templateId[@root = '1.2.40.0.34.6.0.11.9.28'] and hl7:templateId[@root = '1.3.6.1.4.1.19376.1.3.3.1.7']] | hl7:participant[hl7:templateId[@root = '1.3.6.1.4.1.19376.1.3.3.1.5']] | hl7:entryRelationship[hl7:act[hl7:templateId[@root = '1.2.40.0.34.6.0.11.3.11'] and hl7:templateId[@root = '2.16.840.1.113883.10.20.1.40'] and hl7:templateId[@root = '1.3.6.1.4.1.19376.1.5.3.1.4.2']]] | hl7:referenceRange[@typeCode = 'REFV'][hl7:observationRange[@classCode = 'OBS'][@moodCode = 'EVN.CRT']] (rule-reference: d245561e4415-true-d424144e0)</assert>
    </rule>

   <!-- Checking undefined contents for template/element @isClosed="true". Match context that we did not already match -->
    <rule context="*[hl7:observation[hl7:templateId[@root = '1.2.40.0.34.6.0.11.3.16'] and hl7:templateId[@root = '1.3.6.1.4.1.19376.1.3.1.6']]]/hl7:observation[hl7:templateId[@root = '1.2.40.0.34.6.0.11.3.16'] and hl7:templateId[@root = '1.3.6.1.4.1.19376.1.3.1.6']]/hl7:text/*[not(@xsi:nil = 'true')][not(self::hl7:reference[not(@nullFlavor)])]" id="d424167e37-true-d424178e0">
        <assert role="error" see="http://art-decor.org/art-decor/decor-templates--elgaimpf-?id=1.2.40.0.34.6.0.11.9.1" test="not(.)">(atcdabrr_other_NarrativeTextReference)/d424167e37-true-d424178e0: '<value-of select="name(..)"/>' ist als geschlossen definiert und dieses Element '<name/>' ist nicht erlaubt oder nicht mit diesem Inhalt erlaubt. Dies kann templateId, code oder id betreffen. Erwartet:  hl7:reference[not(@nullFlavor)] (rule-reference: d424167e37-true-d424178e0)</assert>
    </rule>

   <!-- Checking undefined contents for template/element @isClosed="true". Match context that we did not already match -->
    <rule context="*[hl7:observation[hl7:templateId[@root = '1.2.40.0.34.6.0.11.3.16'] and hl7:templateId[@root = '1.3.6.1.4.1.19376.1.3.1.6']]]/hl7:observation[hl7:templateId[@root = '1.2.40.0.34.6.0.11.3.16'] and hl7:templateId[@root = '1.3.6.1.4.1.19376.1.3.1.6']]/hl7:value[@xsi:type='PQ']/*[not(@xsi:nil = 'true')][not(self::hl7:translation)]" id="d245561e4474-true-d424202e0">
        <assert role="error" see="http://art-decor.org/art-decor/decor-templates--elgaimpf-?id=1.2.40.0.34.6.0.11.3.16" test="not(.)">(eimpf_entry_AntikoerperBestimmungLaboratoryObservation)/d245561e4474-true-d424202e0: '<value-of select="name(..)"/>' ist als geschlossen definiert und dieses Element '<name/>' ist nicht erlaubt oder nicht mit diesem Inhalt erlaubt. Dies kann templateId, code oder id betreffen. Erwartet:  hl7:translation (rule-reference: d245561e4474-true-d424202e0)</assert>
    </rule>

   <!-- Checking undefined contents for template/element @isClosed="true". Match context that we did not already match -->
    <rule context="*[hl7:observation[hl7:templateId[@root = '1.2.40.0.34.6.0.11.3.16'] and hl7:templateId[@root = '1.3.6.1.4.1.19376.1.3.1.6']]]/hl7:observation[hl7:templateId[@root = '1.2.40.0.34.6.0.11.3.16'] and hl7:templateId[@root = '1.3.6.1.4.1.19376.1.3.1.6']]/hl7:performer[hl7:templateId[@root = '1.2.40.0.34.6.0.11.9.28'] and hl7:templateId[@root = '1.3.6.1.4.1.19376.1.3.3.1.7']]/*[not(@xsi:nil = 'true')][not(self::hl7:templateId[@root = '1.2.40.0.34.6.0.11.9.28'] | self::hl7:templateId[@root = '1.3.6.1.4.1.19376.1.3.3.1.7'] | self::hl7:time[not(@nullFlavor)] | self::hl7:assignedEntity[not(@nullFlavor)])]" id="d245561e4518-true-d424395e0">
        <assert role="error" see="http://art-decor.org/art-decor/decor-templates--elgaimpf-?id=1.2.40.0.34.6.0.11.3.16" test="not(.)">(eimpf_entry_AntikoerperBestimmungLaboratoryObservation)/d245561e4518-true-d424395e0: '<value-of select="name(..)"/>' ist als geschlossen definiert und dieses Element '<name/>' ist nicht erlaubt oder nicht mit diesem Inhalt erlaubt. Dies kann templateId, code oder id betreffen. Erwartet:  hl7:templateId[@root = '1.2.40.0.34.6.0.11.9.28'] | hl7:templateId[@root = '1.3.6.1.4.1.19376.1.3.3.1.7'] | hl7:time[not(@nullFlavor)] | hl7:assignedEntity[not(@nullFlavor)] (rule-reference: d245561e4518-true-d424395e0)</assert>
    </rule>

   <!-- Checking undefined contents for template/element @isClosed="true". Match context that we did not already match -->
    <rule context="*[hl7:observation[hl7:templateId[@root = '1.2.40.0.34.6.0.11.3.16'] and hl7:templateId[@root = '1.3.6.1.4.1.19376.1.3.1.6']]]/hl7:observation[hl7:templateId[@root = '1.2.40.0.34.6.0.11.3.16'] and hl7:templateId[@root = '1.3.6.1.4.1.19376.1.3.1.6']]/hl7:performer[hl7:templateId[@root = '1.2.40.0.34.6.0.11.9.28'] and hl7:templateId[@root = '1.3.6.1.4.1.19376.1.3.3.1.7']]/hl7:assignedEntity[not(@nullFlavor)]/*[not(@xsi:nil = 'true')][not(self::hl7:id[not(@nullFlavor)] | self::hl7:id[@nullFlavor='NI'] | self::hl7:id[@nullFlavor='UNK'] | self::hl7:code[not(@nullFlavor)] | self::hl7:code[@nullFlavor='UNK'] | self::hl7:addr[not(@nullFlavor)] | self::hl7:addr[@nullFlavor='UNK'] | self::hl7:telecom | self::hl7:assignedPerson | self::hl7:assignedPerson | self::hl7:representedOrganization)]" id="d424240e16-true-d424491e0">
        <assert role="error" see="http://art-decor.org/art-decor/decor-templates--elgaimpf-?id=1.2.40.0.34.6.0.11.3.16" test="not(.)">(eimpf_entry_AntikoerperBestimmungLaboratoryObservation)/d424240e16-true-d424491e0: '<value-of select="name(..)"/>' ist als geschlossen definiert und dieses Element '<name/>' ist nicht erlaubt oder nicht mit diesem Inhalt erlaubt. Dies kann templateId, code oder id betreffen. Erwartet:  hl7:id[not(@nullFlavor)] | hl7:id[@nullFlavor='NI'] | hl7:id[@nullFlavor='UNK'] | hl7:code[not(@nullFlavor)] | hl7:code[@nullFlavor='UNK'] | hl7:addr[not(@nullFlavor)] | hl7:addr[@nullFlavor='UNK'] | hl7:telecom | hl7:assignedPerson | hl7:assignedPerson | hl7:representedOrganization (rule-reference: d424240e16-true-d424491e0)</assert>
    </rule>

   <!-- Checking undefined contents for template/element @isClosed="true". Match context that we did not already match -->
    <rule context="*[hl7:observation[hl7:templateId[@root = '1.2.40.0.34.6.0.11.3.16'] and hl7:templateId[@root = '1.3.6.1.4.1.19376.1.3.1.6']]]/hl7:observation[hl7:templateId[@root = '1.2.40.0.34.6.0.11.3.16'] and hl7:templateId[@root = '1.3.6.1.4.1.19376.1.3.1.6']]/hl7:performer[hl7:templateId[@root = '1.2.40.0.34.6.0.11.9.28'] and hl7:templateId[@root = '1.3.6.1.4.1.19376.1.3.3.1.7']]/hl7:assignedEntity[not(@nullFlavor)]/hl7:addr[not(@nullFlavor)]/*[not(@xsi:nil = 'true')][not(self::hl7:streetAddressLine | self::hl7:streetName | self::hl7:houseNumber | self::hl7:postalCode | self::hl7:city | self::hl7:state | self::hl7:country | self::hl7:additionalLocator)]" id="d424495e65-true-d424562e0">
        <assert role="error" see="http://art-decor.org/art-decor/decor-templates--elgaimpf-?id=1.2.40.0.34.6.0.11.9.29" test="not(.)">( atcdabbr_other_AssignedEntityBodyWithNameAddrAndTelecom)/d424495e65-true-d424562e0: '<value-of select="name(..)"/>' ist als geschlossen definiert und dieses Element '<name/>' ist nicht erlaubt oder nicht mit diesem Inhalt erlaubt. Dies kann templateId, code oder id betreffen. Erwartet:  hl7:streetAddressLine | hl7:streetName | hl7:houseNumber | hl7:postalCode | hl7:city | hl7:state | hl7:country | hl7:additionalLocator (rule-reference: d424495e65-true-d424562e0)</assert>
    </rule>

   <!-- Checking undefined contents for template/element @isClosed="true". Match context that we did not already match -->
    <rule context="*[hl7:observation[hl7:templateId[@root = '1.2.40.0.34.6.0.11.3.16'] and hl7:templateId[@root = '1.3.6.1.4.1.19376.1.3.1.6']]]/hl7:observation[hl7:templateId[@root = '1.2.40.0.34.6.0.11.3.16'] and hl7:templateId[@root = '1.3.6.1.4.1.19376.1.3.1.6']]/hl7:performer[hl7:templateId[@root = '1.2.40.0.34.6.0.11.9.28'] and hl7:templateId[@root = '1.3.6.1.4.1.19376.1.3.3.1.7']]/hl7:assignedEntity[not(@nullFlavor)]/hl7:assignedPerson/*[not(@xsi:nil = 'true')][not(self::hl7:name[not(@nullFlavor)])]" id="d424495e102-true-d424629e0">
        <assert role="error" see="http://art-decor.org/art-decor/decor-templates--elgaimpf-?id=1.2.40.0.34.6.0.11.9.29" test="not(.)">( atcdabbr_other_AssignedEntityBodyWithNameAddrAndTelecom)/d424495e102-true-d424629e0: '<value-of select="name(..)"/>' ist als geschlossen definiert und dieses Element '<name/>' ist nicht erlaubt oder nicht mit diesem Inhalt erlaubt. Dies kann templateId, code oder id betreffen. Erwartet:  hl7:name[not(@nullFlavor)] (rule-reference: d424495e102-true-d424629e0)</assert>
    </rule>

   <!-- Checking undefined contents for template/element @isClosed="true". Match context that we did not already match -->
    <rule context="*[hl7:observation[hl7:templateId[@root = '1.2.40.0.34.6.0.11.3.16'] and hl7:templateId[@root = '1.3.6.1.4.1.19376.1.3.1.6']]]/hl7:observation[hl7:templateId[@root = '1.2.40.0.34.6.0.11.3.16'] and hl7:templateId[@root = '1.3.6.1.4.1.19376.1.3.1.6']]/hl7:performer[hl7:templateId[@root = '1.2.40.0.34.6.0.11.9.28'] and hl7:templateId[@root = '1.3.6.1.4.1.19376.1.3.3.1.7']]/hl7:assignedEntity[not(@nullFlavor)]/hl7:assignedPerson/*[not(@xsi:nil = 'true')][not(self::hl7:name[not(@nullFlavor)])]" id="d424495e112-true-d424649e0">
        <assert role="error" see="http://art-decor.org/art-decor/decor-templates--elgaimpf-?id=1.2.40.0.34.6.0.11.9.29" test="not(.)">( atcdabbr_other_AssignedEntityBodyWithNameAddrAndTelecom)/d424495e112-true-d424649e0: '<value-of select="name(..)"/>' ist als geschlossen definiert und dieses Element '<name/>' ist nicht erlaubt oder nicht mit diesem Inhalt erlaubt. Dies kann templateId, code oder id betreffen. Erwartet:  hl7:name[not(@nullFlavor)] (rule-reference: d424495e112-true-d424649e0)</assert>
    </rule>

   <!-- Checking undefined contents for template/element @isClosed="true". Match context that we did not already match -->
    <rule context="*[hl7:observation[hl7:templateId[@root = '1.2.40.0.34.6.0.11.3.16'] and hl7:templateId[@root = '1.3.6.1.4.1.19376.1.3.1.6']]]/hl7:observation[hl7:templateId[@root = '1.2.40.0.34.6.0.11.3.16'] and hl7:templateId[@root = '1.3.6.1.4.1.19376.1.3.1.6']]/hl7:performer[hl7:templateId[@root = '1.2.40.0.34.6.0.11.9.28'] and hl7:templateId[@root = '1.3.6.1.4.1.19376.1.3.3.1.7']]/hl7:assignedEntity[not(@nullFlavor)]/hl7:assignedPerson/hl7:name[not(@nullFlavor)]/*[not(@xsi:nil = 'true')][not(self::hl7:prefix | self::hl7:family[not(@nullFlavor)] | self::hl7:given[not(@nullFlavor)] | self::hl7:suffix)]" id="d424638e11-true-d424677e0">
        <assert role="error" see="http://art-decor.org/art-decor/decor-templates--elgaimpf-?id=1.2.40.0.34.6.0.11.9.29" test="not(.)">( atcdabbr_other_AssignedEntityBodyWithNameAddrAndTelecom)/d424638e11-true-d424677e0: '<value-of select="name(..)"/>' ist als geschlossen definiert und dieses Element '<name/>' ist nicht erlaubt oder nicht mit diesem Inhalt erlaubt. Dies kann templateId, code oder id betreffen. Erwartet:  hl7:prefix | hl7:family[not(@nullFlavor)] | hl7:given[not(@nullFlavor)] | hl7:suffix (rule-reference: d424638e11-true-d424677e0)</assert>
    </rule>

   <!-- Checking undefined contents for template/element @isClosed="true". Match context that we did not already match -->
    <rule context="*[hl7:observation[hl7:templateId[@root = '1.2.40.0.34.6.0.11.3.16'] and hl7:templateId[@root = '1.3.6.1.4.1.19376.1.3.1.6']]]/hl7:observation[hl7:templateId[@root = '1.2.40.0.34.6.0.11.3.16'] and hl7:templateId[@root = '1.3.6.1.4.1.19376.1.3.1.6']]/hl7:performer[hl7:templateId[@root = '1.2.40.0.34.6.0.11.9.28'] and hl7:templateId[@root = '1.3.6.1.4.1.19376.1.3.3.1.7']]/hl7:assignedEntity[not(@nullFlavor)]/hl7:representedOrganization/*[not(@xsi:nil = 'true')][not(self::hl7:id | self::hl7:name[not(@nullFlavor)] | self::hl7:telecom | self::hl7:addr)]" id="d424495e121-true-d424757e0">
        <assert role="error" see="http://art-decor.org/art-decor/decor-templates--elgaimpf-?id=1.2.40.0.34.6.0.11.3.16" test="not(.)">(eimpf_entry_AntikoerperBestimmungLaboratoryObservation)/d424495e121-true-d424757e0: '<value-of select="name(..)"/>' ist als geschlossen definiert und dieses Element '<name/>' ist nicht erlaubt oder nicht mit diesem Inhalt erlaubt. Dies kann templateId, code oder id betreffen. Erwartet:  hl7:id | hl7:name[not(@nullFlavor)] | hl7:telecom | hl7:addr (rule-reference: d424495e121-true-d424757e0)</assert>
    </rule>

   <!-- Checking undefined contents for template/element @isClosed="true". Match context that we did not already match -->
    <rule context="*[hl7:observation[hl7:templateId[@root = '1.2.40.0.34.6.0.11.3.16'] and hl7:templateId[@root = '1.3.6.1.4.1.19376.1.3.1.6']]]/hl7:observation[hl7:templateId[@root = '1.2.40.0.34.6.0.11.3.16'] and hl7:templateId[@root = '1.3.6.1.4.1.19376.1.3.1.6']]/hl7:performer[hl7:templateId[@root = '1.2.40.0.34.6.0.11.9.28'] and hl7:templateId[@root = '1.3.6.1.4.1.19376.1.3.3.1.7']]/hl7:assignedEntity[not(@nullFlavor)]/hl7:representedOrganization/hl7:addr/*[not(@xsi:nil = 'true')][not(self::hl7:streetAddressLine | self::hl7:streetName | self::hl7:houseNumber | self::hl7:postalCode | self::hl7:city | self::hl7:state | self::hl7:country | self::hl7:additionalLocator)]" id="d424698e43-true-d424820e0">
        <assert role="error" see="http://art-decor.org/art-decor/decor-templates--elgaimpf-?id=1.2.40.0.34.6.0.11.3.16" test="not(.)">(eimpf_entry_AntikoerperBestimmungLaboratoryObservation)/d424698e43-true-d424820e0: '<value-of select="name(..)"/>' ist als geschlossen definiert und dieses Element '<name/>' ist nicht erlaubt oder nicht mit diesem Inhalt erlaubt. Dies kann templateId, code oder id betreffen. Erwartet:  hl7:streetAddressLine | hl7:streetName | hl7:houseNumber | hl7:postalCode | hl7:city | hl7:state | hl7:country | hl7:additionalLocator (rule-reference: d424698e43-true-d424820e0)</assert>
    </rule>

   <!-- Checking undefined contents for template/element @isClosed="true". Match context that we did not already match -->
    <rule context="*[hl7:observation[hl7:templateId[@root = '1.2.40.0.34.6.0.11.3.16'] and hl7:templateId[@root = '1.3.6.1.4.1.19376.1.3.1.6']]]/hl7:observation[hl7:templateId[@root = '1.2.40.0.34.6.0.11.3.16'] and hl7:templateId[@root = '1.3.6.1.4.1.19376.1.3.1.6']]/hl7:participant[hl7:templateId[@root = '1.3.6.1.4.1.19376.1.3.3.1.5']]/*[not(@xsi:nil = 'true')][not(self::hl7:templateId[@root = '1.3.6.1.4.1.19376.1.3.3.1.5'] | self::hl7:time | self::hl7:participantRole[hl7:playingEntity])]" id="d245561e4521-true-d424878e0">
        <assert role="error" see="http://art-decor.org/art-decor/decor-templates--elgaimpf-?id=1.2.40.0.34.6.0.11.3.16" test="not(.)">(eimpf_entry_AntikoerperBestimmungLaboratoryObservation)/d245561e4521-true-d424878e0: '<value-of select="name(..)"/>' ist als geschlossen definiert und dieses Element '<name/>' ist nicht erlaubt oder nicht mit diesem Inhalt erlaubt. Dies kann templateId, code oder id betreffen. Erwartet:  hl7:templateId[@root = '1.3.6.1.4.1.19376.1.3.3.1.5'] | hl7:time | hl7:participantRole[hl7:playingEntity] (rule-reference: d245561e4521-true-d424878e0)</assert>
    </rule>

   <!-- Checking undefined contents for template/element @isClosed="true". Match context that we did not already match -->
    <rule context="*[hl7:observation[hl7:templateId[@root = '1.2.40.0.34.6.0.11.3.16'] and hl7:templateId[@root = '1.3.6.1.4.1.19376.1.3.1.6']]]/hl7:observation[hl7:templateId[@root = '1.2.40.0.34.6.0.11.3.16'] and hl7:templateId[@root = '1.3.6.1.4.1.19376.1.3.1.6']]/hl7:participant[hl7:templateId[@root = '1.3.6.1.4.1.19376.1.3.3.1.5']]/hl7:participantRole[hl7:playingEntity]/*[not(@xsi:nil = 'true')][not(self::hl7:id | self::hl7:addr | self::hl7:telecom | self::hl7:playingEntity[not(@nullFlavor)])]" id="d245561e4530-true-d424915e0">
        <assert role="error" see="http://art-decor.org/art-decor/decor-templates--elgaimpf-?id=1.2.40.0.34.6.0.11.3.16" test="not(.)">(eimpf_entry_AntikoerperBestimmungLaboratoryObservation)/d245561e4530-true-d424915e0: '<value-of select="name(..)"/>' ist als geschlossen definiert und dieses Element '<name/>' ist nicht erlaubt oder nicht mit diesem Inhalt erlaubt. Dies kann templateId, code oder id betreffen. Erwartet:  hl7:id | hl7:addr | hl7:telecom | hl7:playingEntity[not(@nullFlavor)] (rule-reference: d245561e4530-true-d424915e0)</assert>
    </rule>

   <!-- Checking undefined contents for template/element @isClosed="true". Match context that we did not already match -->
    <rule context="*[hl7:observation[hl7:templateId[@root = '1.2.40.0.34.6.0.11.3.16'] and hl7:templateId[@root = '1.3.6.1.4.1.19376.1.3.1.6']]]/hl7:observation[hl7:templateId[@root = '1.2.40.0.34.6.0.11.3.16'] and hl7:templateId[@root = '1.3.6.1.4.1.19376.1.3.1.6']]/hl7:participant[hl7:templateId[@root = '1.3.6.1.4.1.19376.1.3.3.1.5']]/hl7:participantRole[hl7:playingEntity]/hl7:playingEntity[not(@nullFlavor)]/*[not(@xsi:nil = 'true')][not(self::hl7:name[not(@nullFlavor)])]" id="d245561e4535-true-d424940e0">
        <assert role="error" see="http://art-decor.org/art-decor/decor-templates--elgaimpf-?id=1.2.40.0.34.6.0.11.3.16" test="not(.)">(eimpf_entry_AntikoerperBestimmungLaboratoryObservation)/d245561e4535-true-d424940e0: '<value-of select="name(..)"/>' ist als geschlossen definiert und dieses Element '<name/>' ist nicht erlaubt oder nicht mit diesem Inhalt erlaubt. Dies kann templateId, code oder id betreffen. Erwartet:  hl7:name[not(@nullFlavor)] (rule-reference: d245561e4535-true-d424940e0)</assert>
    </rule>

   <!-- Checking undefined contents for template/element @isClosed="true". Match context that we did not already match -->
    <rule context="*[hl7:observation[hl7:templateId[@root = '1.2.40.0.34.6.0.11.3.16'] and hl7:templateId[@root = '1.3.6.1.4.1.19376.1.3.1.6']]]/hl7:observation[hl7:templateId[@root = '1.2.40.0.34.6.0.11.3.16'] and hl7:templateId[@root = '1.3.6.1.4.1.19376.1.3.1.6']]/hl7:entryRelationship[hl7:act[hl7:templateId[@root = '1.2.40.0.34.6.0.11.3.11'] and hl7:templateId[@root = '2.16.840.1.113883.10.20.1.40'] and hl7:templateId[@root = '1.3.6.1.4.1.19376.1.5.3.1.4.2']]]/*[not(@xsi:nil = 'true')][not(self::hl7:act[hl7:templateId[@root = '1.2.40.0.34.6.0.11.3.11'] and hl7:templateId[@root = '2.16.840.1.113883.10.20.1.40'] and hl7:templateId[@root = '1.3.6.1.4.1.19376.1.5.3.1.4.2']])]" id="d245561e4539-true-d425434e0">
        <assert role="error" see="http://art-decor.org/art-decor/decor-templates--elgaimpf-?id=1.2.40.0.34.6.0.11.3.16" test="not(.)">(eimpf_entry_AntikoerperBestimmungLaboratoryObservation)/d245561e4539-true-d425434e0: '<value-of select="name(..)"/>' ist als geschlossen definiert und dieses Element '<name/>' ist nicht erlaubt oder nicht mit diesem Inhalt erlaubt. Dies kann templateId, code oder id betreffen. Erwartet:  hl7:act[hl7:templateId[@root = '1.2.40.0.34.6.0.11.3.11'] and hl7:templateId[@root = '2.16.840.1.113883.10.20.1.40'] and hl7:templateId[@root = '1.3.6.1.4.1.19376.1.5.3.1.4.2']] (rule-reference: d245561e4539-true-d425434e0)</assert>
    </rule>

   <!-- Checking undefined contents for template/element @isClosed="true". Match context that we did not already match -->
    <rule context="*[hl7:observation[hl7:templateId[@root = '1.2.40.0.34.6.0.11.3.16'] and hl7:templateId[@root = '1.3.6.1.4.1.19376.1.3.1.6']]]/hl7:observation[hl7:templateId[@root = '1.2.40.0.34.6.0.11.3.16'] and hl7:templateId[@root = '1.3.6.1.4.1.19376.1.3.1.6']]/hl7:entryRelationship[hl7:act[hl7:templateId[@root = '1.2.40.0.34.6.0.11.3.11'] and hl7:templateId[@root = '2.16.840.1.113883.10.20.1.40'] and hl7:templateId[@root = '1.3.6.1.4.1.19376.1.5.3.1.4.2']]]/hl7:act[hl7:templateId[@root = '1.2.40.0.34.6.0.11.3.11'] and hl7:templateId[@root = '2.16.840.1.113883.10.20.1.40'] and hl7:templateId[@root = '1.3.6.1.4.1.19376.1.5.3.1.4.2']]/*[not(@xsi:nil = 'true')][not(self::hl7:templateId[@root = '1.2.40.0.34.6.0.11.3.11'] | self::hl7:templateId[@root = '2.16.840.1.113883.10.20.1.40'] | self::hl7:templateId[@root = '1.3.6.1.4.1.19376.1.5.3.1.4.2'] | self::hl7:id[not(@nullFlavor)] | self::hl7:code[(@code = '48767-8' and @codeSystem = '2.16.840.1.113883.6.1')] | self::hl7:text | self::hl7:statusCode[@code = 'completed'] | self::hl7:performer[hl7:templateId[@root = '1.2.40.0.34.6.0.11.9.17']] | self::hl7:author[hl7:assignedAuthor] | self::hl7:informant | self::hl7:participant[@typeCode][hl7:participantRole])]" id="d424949e5-true-d425968e0">
        <assert role="error" see="http://art-decor.org/art-decor/decor-templates--elgaimpf-?id=1.2.40.0.34.6.0.11.3.16" test="not(.)">(eimpf_entry_AntikoerperBestimmungLaboratoryObservation)/d424949e5-true-d425968e0: '<value-of select="name(..)"/>' ist als geschlossen definiert und dieses Element '<name/>' ist nicht erlaubt oder nicht mit diesem Inhalt erlaubt. Dies kann templateId, code oder id betreffen. Erwartet:  hl7:templateId[@root = '1.2.40.0.34.6.0.11.3.11'] | hl7:templateId[@root = '2.16.840.1.113883.10.20.1.40'] | hl7:templateId[@root = '1.3.6.1.4.1.19376.1.5.3.1.4.2'] | hl7:id[not(@nullFlavor)] | hl7:code[(@code = '48767-8' and @codeSystem = '2.16.840.1.113883.6.1')] | hl7:text | hl7:statusCode[@code = 'completed'] | hl7:performer[hl7:templateId[@root = '1.2.40.0.34.6.0.11.9.17']] | hl7:author[hl7:assignedAuthor] | hl7:informant | hl7:participant[@typeCode][hl7:participantRole] (rule-reference: d424949e5-true-d425968e0)</assert>
    </rule>

   <!-- Checking undefined contents for template/element @isClosed="true". Match context that we did not already match -->
    <rule context="*[hl7:observation[hl7:templateId[@root = '1.2.40.0.34.6.0.11.3.16'] and hl7:templateId[@root = '1.3.6.1.4.1.19376.1.3.1.6']]]/hl7:observation[hl7:templateId[@root = '1.2.40.0.34.6.0.11.3.16'] and hl7:templateId[@root = '1.3.6.1.4.1.19376.1.3.1.6']]/hl7:entryRelationship[hl7:act[hl7:templateId[@root = '1.2.40.0.34.6.0.11.3.11'] and hl7:templateId[@root = '2.16.840.1.113883.10.20.1.40'] and hl7:templateId[@root = '1.3.6.1.4.1.19376.1.5.3.1.4.2']]]/hl7:act[hl7:templateId[@root = '1.2.40.0.34.6.0.11.3.11'] and hl7:templateId[@root = '2.16.840.1.113883.10.20.1.40'] and hl7:templateId[@root = '1.3.6.1.4.1.19376.1.5.3.1.4.2']]/hl7:text/*[not(@xsi:nil = 'true')][not(self::hl7:reference[not(@nullFlavor)])]" id="d425994e37-true-d426005e0">
        <assert role="error" see="http://art-decor.org/art-decor/decor-templates--elgaimpf-?id=1.2.40.0.34.6.0.11.9.1" test="not(.)">(atcdabrr_other_NarrativeTextReference)/d425994e37-true-d426005e0: '<value-of select="name(..)"/>' ist als geschlossen definiert und dieses Element '<name/>' ist nicht erlaubt oder nicht mit diesem Inhalt erlaubt. Dies kann templateId, code oder id betreffen. Erwartet:  hl7:reference[not(@nullFlavor)] (rule-reference: d425994e37-true-d426005e0)</assert>
    </rule>

   <!-- Checking undefined contents for template/element @isClosed="true". Match context that we did not already match -->
    <rule context="*[hl7:observation[hl7:templateId[@root = '1.2.40.0.34.6.0.11.3.16'] and hl7:templateId[@root = '1.3.6.1.4.1.19376.1.3.1.6']]]/hl7:observation[hl7:templateId[@root = '1.2.40.0.34.6.0.11.3.16'] and hl7:templateId[@root = '1.3.6.1.4.1.19376.1.3.1.6']]/hl7:entryRelationship[hl7:act[hl7:templateId[@root = '1.2.40.0.34.6.0.11.3.11'] and hl7:templateId[@root = '2.16.840.1.113883.10.20.1.40'] and hl7:templateId[@root = '1.3.6.1.4.1.19376.1.5.3.1.4.2']]]/hl7:act[hl7:templateId[@root = '1.2.40.0.34.6.0.11.3.11'] and hl7:templateId[@root = '2.16.840.1.113883.10.20.1.40'] and hl7:templateId[@root = '1.3.6.1.4.1.19376.1.5.3.1.4.2']]/hl7:performer[hl7:templateId[@root = '1.2.40.0.34.6.0.11.9.17']]/*[not(@xsi:nil = 'true')][not(self::hl7:templateId[@root = '1.2.40.0.34.6.0.11.9.17'] | self::hl7:time | self::hl7:assignedEntity[not(@nullFlavor)])]" id="d424949e41-true-d426163e0">
        <assert role="error" see="http://art-decor.org/art-decor/decor-templates--elgaimpf-?id=1.2.40.0.34.6.0.11.3.16" test="not(.)">(eimpf_entry_AntikoerperBestimmungLaboratoryObservation)/d424949e41-true-d426163e0: '<value-of select="name(..)"/>' ist als geschlossen definiert und dieses Element '<name/>' ist nicht erlaubt oder nicht mit diesem Inhalt erlaubt. Dies kann templateId, code oder id betreffen. Erwartet:  hl7:templateId[@root = '1.2.40.0.34.6.0.11.9.17'] | hl7:time | hl7:assignedEntity[not(@nullFlavor)] (rule-reference: d424949e41-true-d426163e0)</assert>
    </rule>

   <!-- Checking undefined contents for template/element @isClosed="true". Match context that we did not already match -->
    <rule context="*[hl7:observation[hl7:templateId[@root = '1.2.40.0.34.6.0.11.3.16'] and hl7:templateId[@root = '1.3.6.1.4.1.19376.1.3.1.6']]]/hl7:observation[hl7:templateId[@root = '1.2.40.0.34.6.0.11.3.16'] and hl7:templateId[@root = '1.3.6.1.4.1.19376.1.3.1.6']]/hl7:entryRelationship[hl7:act[hl7:templateId[@root = '1.2.40.0.34.6.0.11.3.11'] and hl7:templateId[@root = '2.16.840.1.113883.10.20.1.40'] and hl7:templateId[@root = '1.3.6.1.4.1.19376.1.5.3.1.4.2']]]/hl7:act[hl7:templateId[@root = '1.2.40.0.34.6.0.11.3.11'] and hl7:templateId[@root = '2.16.840.1.113883.10.20.1.40'] and hl7:templateId[@root = '1.3.6.1.4.1.19376.1.5.3.1.4.2']]/hl7:performer[hl7:templateId[@root = '1.2.40.0.34.6.0.11.9.17']]/hl7:assignedEntity[not(@nullFlavor)]/*[not(@xsi:nil = 'true')][not(self::hl7:id[not(@nullFlavor)] | self::hl7:id[@nullFlavor='NI'] | self::hl7:id[@nullFlavor='UNK'] | self::hl7:code | self::hl7:addr | self::hl7:telecom | self::hl7:assignedPerson | self::hl7:assignedPerson | self::hl7:representedOrganization)]" id="d426019e8-true-d426269e0">
        <assert role="error" see="http://art-decor.org/art-decor/decor-templates--elgaimpf-?id=1.2.40.0.34.6.0.11.3.16" test="not(.)">(eimpf_entry_AntikoerperBestimmungLaboratoryObservation)/d426019e8-true-d426269e0: '<value-of select="name(..)"/>' ist als geschlossen definiert und dieses Element '<name/>' ist nicht erlaubt oder nicht mit diesem Inhalt erlaubt. Dies kann templateId, code oder id betreffen. Erwartet:  hl7:id[not(@nullFlavor)] | hl7:id[@nullFlavor='NI'] | hl7:id[@nullFlavor='UNK'] | hl7:code | hl7:addr | hl7:telecom | hl7:assignedPerson | hl7:assignedPerson | hl7:representedOrganization (rule-reference: d426019e8-true-d426269e0)</assert>
    </rule>

   <!-- Checking undefined contents for template/element @isClosed="true". Match context that we did not already match -->
    <rule context="*[hl7:observation[hl7:templateId[@root = '1.2.40.0.34.6.0.11.3.16'] and hl7:templateId[@root = '1.3.6.1.4.1.19376.1.3.1.6']]]/hl7:observation[hl7:templateId[@root = '1.2.40.0.34.6.0.11.3.16'] and hl7:templateId[@root = '1.3.6.1.4.1.19376.1.3.1.6']]/hl7:entryRelationship[hl7:act[hl7:templateId[@root = '1.2.40.0.34.6.0.11.3.11'] and hl7:templateId[@root = '2.16.840.1.113883.10.20.1.40'] and hl7:templateId[@root = '1.3.6.1.4.1.19376.1.5.3.1.4.2']]]/hl7:act[hl7:templateId[@root = '1.2.40.0.34.6.0.11.3.11'] and hl7:templateId[@root = '2.16.840.1.113883.10.20.1.40'] and hl7:templateId[@root = '1.3.6.1.4.1.19376.1.5.3.1.4.2']]/hl7:performer[hl7:templateId[@root = '1.2.40.0.34.6.0.11.9.17']]/hl7:assignedEntity[not(@nullFlavor)]/hl7:addr/*[not(@xsi:nil = 'true')][not(self::hl7:streetAddressLine | self::hl7:streetName | self::hl7:houseNumber | self::hl7:postalCode | self::hl7:city | self::hl7:state | self::hl7:country | self::hl7:additionalLocator)]" id="d426273e47-true-d426336e0">
        <assert role="error" see="http://art-decor.org/art-decor/decor-templates--elgaimpf-?id=1.2.40.0.34.6.0.11.3.16" test="not(.)">(eimpf_entry_AntikoerperBestimmungLaboratoryObservation)/d426273e47-true-d426336e0: '<value-of select="name(..)"/>' ist als geschlossen definiert und dieses Element '<name/>' ist nicht erlaubt oder nicht mit diesem Inhalt erlaubt. Dies kann templateId, code oder id betreffen. Erwartet:  hl7:streetAddressLine | hl7:streetName | hl7:houseNumber | hl7:postalCode | hl7:city | hl7:state | hl7:country | hl7:additionalLocator (rule-reference: d426273e47-true-d426336e0)</assert>
    </rule>

   <!-- Checking undefined contents for template/element @isClosed="true". Match context that we did not already match -->
    <rule context="*[hl7:observation[hl7:templateId[@root = '1.2.40.0.34.6.0.11.3.16'] and hl7:templateId[@root = '1.3.6.1.4.1.19376.1.3.1.6']]]/hl7:observation[hl7:templateId[@root = '1.2.40.0.34.6.0.11.3.16'] and hl7:templateId[@root = '1.3.6.1.4.1.19376.1.3.1.6']]/hl7:entryRelationship[hl7:act[hl7:templateId[@root = '1.2.40.0.34.6.0.11.3.11'] and hl7:templateId[@root = '2.16.840.1.113883.10.20.1.40'] and hl7:templateId[@root = '1.3.6.1.4.1.19376.1.5.3.1.4.2']]]/hl7:act[hl7:templateId[@root = '1.2.40.0.34.6.0.11.3.11'] and hl7:templateId[@root = '2.16.840.1.113883.10.20.1.40'] and hl7:templateId[@root = '1.3.6.1.4.1.19376.1.5.3.1.4.2']]/hl7:performer[hl7:templateId[@root = '1.2.40.0.34.6.0.11.9.17']]/hl7:assignedEntity[not(@nullFlavor)]/hl7:assignedPerson/*[not(@xsi:nil = 'true')][not(self::hl7:name[not(@nullFlavor)])]" id="d426273e87-true-d426401e0">
        <assert role="error" see="http://art-decor.org/art-decor/decor-templates--elgaimpf-?id=1.2.40.0.34.6.0.11.9.16" test="not(.)">( atcdabbr_other_AssignedEntityBody)/d426273e87-true-d426401e0: '<value-of select="name(..)"/>' ist als geschlossen definiert und dieses Element '<name/>' ist nicht erlaubt oder nicht mit diesem Inhalt erlaubt. Dies kann templateId, code oder id betreffen. Erwartet:  hl7:name[not(@nullFlavor)] (rule-reference: d426273e87-true-d426401e0)</assert>
    </rule>

   <!-- Checking undefined contents for template/element @isClosed="true". Match context that we did not already match -->
    <rule context="*[hl7:observation[hl7:templateId[@root = '1.2.40.0.34.6.0.11.3.16'] and hl7:templateId[@root = '1.3.6.1.4.1.19376.1.3.1.6']]]/hl7:observation[hl7:templateId[@root = '1.2.40.0.34.6.0.11.3.16'] and hl7:templateId[@root = '1.3.6.1.4.1.19376.1.3.1.6']]/hl7:entryRelationship[hl7:act[hl7:templateId[@root = '1.2.40.0.34.6.0.11.3.11'] and hl7:templateId[@root = '2.16.840.1.113883.10.20.1.40'] and hl7:templateId[@root = '1.3.6.1.4.1.19376.1.5.3.1.4.2']]]/hl7:act[hl7:templateId[@root = '1.2.40.0.34.6.0.11.3.11'] and hl7:templateId[@root = '2.16.840.1.113883.10.20.1.40'] and hl7:templateId[@root = '1.3.6.1.4.1.19376.1.5.3.1.4.2']]/hl7:performer[hl7:templateId[@root = '1.2.40.0.34.6.0.11.9.17']]/hl7:assignedEntity[not(@nullFlavor)]/hl7:assignedPerson/*[not(@xsi:nil = 'true')][not(self::hl7:name[not(@nullFlavor)])]" id="d426273e94-true-d426421e0">
        <assert role="error" see="http://art-decor.org/art-decor/decor-templates--elgaimpf-?id=1.2.40.0.34.6.0.11.9.16" test="not(.)">( atcdabbr_other_AssignedEntityBody)/d426273e94-true-d426421e0: '<value-of select="name(..)"/>' ist als geschlossen definiert und dieses Element '<name/>' ist nicht erlaubt oder nicht mit diesem Inhalt erlaubt. Dies kann templateId, code oder id betreffen. Erwartet:  hl7:name[not(@nullFlavor)] (rule-reference: d426273e94-true-d426421e0)</assert>
    </rule>

   <!-- Checking undefined contents for template/element @isClosed="true". Match context that we did not already match -->
    <rule context="*[hl7:observation[hl7:templateId[@root = '1.2.40.0.34.6.0.11.3.16'] and hl7:templateId[@root = '1.3.6.1.4.1.19376.1.3.1.6']]]/hl7:observation[hl7:templateId[@root = '1.2.40.0.34.6.0.11.3.16'] and hl7:templateId[@root = '1.3.6.1.4.1.19376.1.3.1.6']]/hl7:entryRelationship[hl7:act[hl7:templateId[@root = '1.2.40.0.34.6.0.11.3.11'] and hl7:templateId[@root = '2.16.840.1.113883.10.20.1.40'] and hl7:templateId[@root = '1.3.6.1.4.1.19376.1.5.3.1.4.2']]]/hl7:act[hl7:templateId[@root = '1.2.40.0.34.6.0.11.3.11'] and hl7:templateId[@root = '2.16.840.1.113883.10.20.1.40'] and hl7:templateId[@root = '1.3.6.1.4.1.19376.1.5.3.1.4.2']]/hl7:performer[hl7:templateId[@root = '1.2.40.0.34.6.0.11.9.17']]/hl7:assignedEntity[not(@nullFlavor)]/hl7:assignedPerson/hl7:name[not(@nullFlavor)]/*[not(@xsi:nil = 'true')][not(self::hl7:prefix | self::hl7:family[not(@nullFlavor)] | self::hl7:given[not(@nullFlavor)] | self::hl7:suffix)]" id="d426410e10-true-d426449e0">
        <assert role="error" see="http://art-decor.org/art-decor/decor-templates--elgaimpf-?id=1.2.40.0.34.6.0.11.9.16" test="not(.)">( atcdabbr_other_AssignedEntityBody)/d426410e10-true-d426449e0: '<value-of select="name(..)"/>' ist als geschlossen definiert und dieses Element '<name/>' ist nicht erlaubt oder nicht mit diesem Inhalt erlaubt. Dies kann templateId, code oder id betreffen. Erwartet:  hl7:prefix | hl7:family[not(@nullFlavor)] | hl7:given[not(@nullFlavor)] | hl7:suffix (rule-reference: d426410e10-true-d426449e0)</assert>
    </rule>

   <!-- Checking undefined contents for template/element @isClosed="true". Match context that we did not already match -->
    <rule context="*[hl7:observation[hl7:templateId[@root = '1.2.40.0.34.6.0.11.3.16'] and hl7:templateId[@root = '1.3.6.1.4.1.19376.1.3.1.6']]]/hl7:observation[hl7:templateId[@root = '1.2.40.0.34.6.0.11.3.16'] and hl7:templateId[@root = '1.3.6.1.4.1.19376.1.3.1.6']]/hl7:entryRelationship[hl7:act[hl7:templateId[@root = '1.2.40.0.34.6.0.11.3.11'] and hl7:templateId[@root = '2.16.840.1.113883.10.20.1.40'] and hl7:templateId[@root = '1.3.6.1.4.1.19376.1.5.3.1.4.2']]]/hl7:act[hl7:templateId[@root = '1.2.40.0.34.6.0.11.3.11'] and hl7:templateId[@root = '2.16.840.1.113883.10.20.1.40'] and hl7:templateId[@root = '1.3.6.1.4.1.19376.1.5.3.1.4.2']]/hl7:performer[hl7:templateId[@root = '1.2.40.0.34.6.0.11.9.17']]/hl7:assignedEntity[not(@nullFlavor)]/hl7:representedOrganization/*[not(@xsi:nil = 'true')][not(self::hl7:id[not(@nullFlavor)] | self::hl7:name[not(@nullFlavor)] | self::hl7:telecom[not(@nullFlavor)] | self::hl7:addr[not(@nullFlavor)])]" id="d426273e102-true-d426495e0">
        <assert role="error" see="http://art-decor.org/art-decor/decor-templates--elgaimpf-?id=1.2.40.0.34.6.0.11.3.16" test="not(.)">(eimpf_entry_AntikoerperBestimmungLaboratoryObservation)/d426273e102-true-d426495e0: '<value-of select="name(..)"/>' ist als geschlossen definiert und dieses Element '<name/>' ist nicht erlaubt oder nicht mit diesem Inhalt erlaubt. Dies kann templateId, code oder id betreffen. Erwartet:  hl7:id[not(@nullFlavor)] | hl7:name[not(@nullFlavor)] | hl7:telecom[not(@nullFlavor)] | hl7:addr[not(@nullFlavor)] (rule-reference: d426273e102-true-d426495e0)</assert>
    </rule>

   <!-- Checking undefined contents for template/element @isClosed="true". Match context that we did not already match -->
    <rule context="*[hl7:observation[hl7:templateId[@root = '1.2.40.0.34.6.0.11.3.16'] and hl7:templateId[@root = '1.3.6.1.4.1.19376.1.3.1.6']]]/hl7:observation[hl7:templateId[@root = '1.2.40.0.34.6.0.11.3.16'] and hl7:templateId[@root = '1.3.6.1.4.1.19376.1.3.1.6']]/hl7:entryRelationship[hl7:act[hl7:templateId[@root = '1.2.40.0.34.6.0.11.3.11'] and hl7:templateId[@root = '2.16.840.1.113883.10.20.1.40'] and hl7:templateId[@root = '1.3.6.1.4.1.19376.1.5.3.1.4.2']]]/hl7:act[hl7:templateId[@root = '1.2.40.0.34.6.0.11.3.11'] and hl7:templateId[@root = '2.16.840.1.113883.10.20.1.40'] and hl7:templateId[@root = '1.3.6.1.4.1.19376.1.5.3.1.4.2']]/hl7:performer[hl7:templateId[@root = '1.2.40.0.34.6.0.11.9.17']]/hl7:assignedEntity[not(@nullFlavor)]/hl7:representedOrganization/hl7:addr[not(@nullFlavor)]/*[not(@xsi:nil = 'true')][not(self::hl7:streetAddressLine | self::hl7:streetName | self::hl7:houseNumber | self::hl7:postalCode | self::hl7:city | self::hl7:state | self::hl7:country | self::hl7:additionalLocator)]" id="d426470e36-true-d426552e0">
        <assert role="error" see="http://art-decor.org/art-decor/decor-templates--elgaimpf-?id=1.2.40.0.34.6.0.11.3.16" test="not(.)">(eimpf_entry_AntikoerperBestimmungLaboratoryObservation)/d426470e36-true-d426552e0: '<value-of select="name(..)"/>' ist als geschlossen definiert und dieses Element '<name/>' ist nicht erlaubt oder nicht mit diesem Inhalt erlaubt. Dies kann templateId, code oder id betreffen. Erwartet:  hl7:streetAddressLine | hl7:streetName | hl7:houseNumber | hl7:postalCode | hl7:city | hl7:state | hl7:country | hl7:additionalLocator (rule-reference: d426470e36-true-d426552e0)</assert>
    </rule>

   <!-- Checking undefined contents for template/element @isClosed="true". Match context that we did not already match -->
    <rule context="*[hl7:observation[hl7:templateId[@root = '1.2.40.0.34.6.0.11.3.16'] and hl7:templateId[@root = '1.3.6.1.4.1.19376.1.3.1.6']]]/hl7:observation[hl7:templateId[@root = '1.2.40.0.34.6.0.11.3.16'] and hl7:templateId[@root = '1.3.6.1.4.1.19376.1.3.1.6']]/hl7:entryRelationship[hl7:act[hl7:templateId[@root = '1.2.40.0.34.6.0.11.3.11'] and hl7:templateId[@root = '2.16.840.1.113883.10.20.1.40'] and hl7:templateId[@root = '1.3.6.1.4.1.19376.1.5.3.1.4.2']]]/hl7:act[hl7:templateId[@root = '1.2.40.0.34.6.0.11.3.11'] and hl7:templateId[@root = '2.16.840.1.113883.10.20.1.40'] and hl7:templateId[@root = '1.3.6.1.4.1.19376.1.5.3.1.4.2']]/hl7:author[hl7:assignedAuthor]/*[not(@xsi:nil = 'true')][not(self::hl7:functionCode | self::hl7:time[not(@nullFlavor)] | self::hl7:time[@nullFlavor='UNK'] | self::hl7:assignedAuthor)]" id="d424949e43-true-d426713e0">
        <assert role="error" see="http://art-decor.org/art-decor/decor-templates--elgaimpf-?id=1.2.40.0.34.6.0.11.3.16" test="not(.)">(eimpf_entry_AntikoerperBestimmungLaboratoryObservation)/d424949e43-true-d426713e0: '<value-of select="name(..)"/>' ist als geschlossen definiert und dieses Element '<name/>' ist nicht erlaubt oder nicht mit diesem Inhalt erlaubt. Dies kann templateId, code oder id betreffen. Erwartet:  hl7:functionCode | hl7:time[not(@nullFlavor)] | hl7:time[@nullFlavor='UNK'] | hl7:assignedAuthor (rule-reference: d424949e43-true-d426713e0)</assert>
    </rule>

   <!-- Checking undefined contents for template/element @isClosed="true". Match context that we did not already match -->
    <rule context="*[hl7:observation[hl7:templateId[@root = '1.2.40.0.34.6.0.11.3.16'] and hl7:templateId[@root = '1.3.6.1.4.1.19376.1.3.1.6']]]/hl7:observation[hl7:templateId[@root = '1.2.40.0.34.6.0.11.3.16'] and hl7:templateId[@root = '1.3.6.1.4.1.19376.1.3.1.6']]/hl7:entryRelationship[hl7:act[hl7:templateId[@root = '1.2.40.0.34.6.0.11.3.11'] and hl7:templateId[@root = '2.16.840.1.113883.10.20.1.40'] and hl7:templateId[@root = '1.3.6.1.4.1.19376.1.5.3.1.4.2']]]/hl7:act[hl7:templateId[@root = '1.2.40.0.34.6.0.11.3.11'] and hl7:templateId[@root = '2.16.840.1.113883.10.20.1.40'] and hl7:templateId[@root = '1.3.6.1.4.1.19376.1.5.3.1.4.2']]/hl7:author[hl7:assignedAuthor]/hl7:assignedAuthor/*[not(@xsi:nil = 'true')][not(self::hl7:id[not(@nullFlavor)] | self::hl7:id[@nullFlavor='UNK'] | self::hl7:code[not(@nullFlavor)] | self::hl7:addr[not(@nullFlavor)] | self::hl7:telecom[not(@nullFlavor)] | self::hl7:assignedPerson | self::hl7:assignedAuthoringDevice | self::hl7:representedOrganization)]" id="d426589e26-true-d426820e0">
        <assert role="error" see="http://art-decor.org/art-decor/decor-templates--elgaimpf-?id=1.2.40.0.34.6.0.11.3.16" test="not(.)">(eimpf_entry_AntikoerperBestimmungLaboratoryObservation)/d426589e26-true-d426820e0: '<value-of select="name(..)"/>' ist als geschlossen definiert und dieses Element '<name/>' ist nicht erlaubt oder nicht mit diesem Inhalt erlaubt. Dies kann templateId, code oder id betreffen. Erwartet:  hl7:id[not(@nullFlavor)] | hl7:id[@nullFlavor='UNK'] | hl7:code[not(@nullFlavor)] | hl7:addr[not(@nullFlavor)] | hl7:telecom[not(@nullFlavor)] | hl7:assignedPerson | hl7:assignedAuthoringDevice | hl7:representedOrganization (rule-reference: d426589e26-true-d426820e0)</assert>
    </rule>

   <!-- Checking undefined contents for template/element @isClosed="true". Match context that we did not already match -->
    <rule context="*[hl7:observation[hl7:templateId[@root = '1.2.40.0.34.6.0.11.3.16'] and hl7:templateId[@root = '1.3.6.1.4.1.19376.1.3.1.6']]]/hl7:observation[hl7:templateId[@root = '1.2.40.0.34.6.0.11.3.16'] and hl7:templateId[@root = '1.3.6.1.4.1.19376.1.3.1.6']]/hl7:entryRelationship[hl7:act[hl7:templateId[@root = '1.2.40.0.34.6.0.11.3.11'] and hl7:templateId[@root = '2.16.840.1.113883.10.20.1.40'] and hl7:templateId[@root = '1.3.6.1.4.1.19376.1.5.3.1.4.2']]]/hl7:act[hl7:templateId[@root = '1.2.40.0.34.6.0.11.3.11'] and hl7:templateId[@root = '2.16.840.1.113883.10.20.1.40'] and hl7:templateId[@root = '1.3.6.1.4.1.19376.1.5.3.1.4.2']]/hl7:author[hl7:assignedAuthor]/hl7:assignedAuthor/hl7:addr[not(@nullFlavor)]/*[not(@xsi:nil = 'true')][not(self::hl7:streetAddressLine | self::hl7:streetName | self::hl7:houseNumber | self::hl7:postalCode[not(@nullFlavor)] | self::hl7:city[not(@nullFlavor)] | self::hl7:state | self::hl7:country[not(@nullFlavor)] | self::hl7:additionalLocator)]" id="d426589e34-true-d426875e0">
        <assert role="error" see="http://art-decor.org/art-decor/decor-templates--elgaimpf-?id=1.2.40.0.34.6.0.11.3.16" test="not(.)">(eimpf_entry_AntikoerperBestimmungLaboratoryObservation)/d426589e34-true-d426875e0: '<value-of select="name(..)"/>' ist als geschlossen definiert und dieses Element '<name/>' ist nicht erlaubt oder nicht mit diesem Inhalt erlaubt. Dies kann templateId, code oder id betreffen. Erwartet:  hl7:streetAddressLine | hl7:streetName | hl7:houseNumber | hl7:postalCode[not(@nullFlavor)] | hl7:city[not(@nullFlavor)] | hl7:state | hl7:country[not(@nullFlavor)] | hl7:additionalLocator (rule-reference: d426589e34-true-d426875e0)</assert>
    </rule>

   <!-- Checking undefined contents for template/element @isClosed="true". Match context that we did not already match -->
    <rule context="*[hl7:observation[hl7:templateId[@root = '1.2.40.0.34.6.0.11.3.16'] and hl7:templateId[@root = '1.3.6.1.4.1.19376.1.3.1.6']]]/hl7:observation[hl7:templateId[@root = '1.2.40.0.34.6.0.11.3.16'] and hl7:templateId[@root = '1.3.6.1.4.1.19376.1.3.1.6']]/hl7:entryRelationship[hl7:act[hl7:templateId[@root = '1.2.40.0.34.6.0.11.3.11'] and hl7:templateId[@root = '2.16.840.1.113883.10.20.1.40'] and hl7:templateId[@root = '1.3.6.1.4.1.19376.1.5.3.1.4.2']]]/hl7:act[hl7:templateId[@root = '1.2.40.0.34.6.0.11.3.11'] and hl7:templateId[@root = '2.16.840.1.113883.10.20.1.40'] and hl7:templateId[@root = '1.3.6.1.4.1.19376.1.5.3.1.4.2']]/hl7:author[hl7:assignedAuthor]/hl7:assignedAuthor/hl7:assignedPerson/*[not(@xsi:nil = 'true')][not(self::hl7:name[not(@nullFlavor)] | self::hl7:name[@nullFlavor='UNK'] | self::hl7:name[@nullFlavor='MSK'])]" id="d426589e56-true-d426922e0">
        <assert role="error" see="http://art-decor.org/art-decor/decor-templates--elgaimpf-?id=1.2.40.0.34.6.0.11.3.16" test="not(.)">(eimpf_entry_AntikoerperBestimmungLaboratoryObservation)/d426589e56-true-d426922e0: '<value-of select="name(..)"/>' ist als geschlossen definiert und dieses Element '<name/>' ist nicht erlaubt oder nicht mit diesem Inhalt erlaubt. Dies kann templateId, code oder id betreffen. Erwartet:  hl7:name[not(@nullFlavor)] | hl7:name[@nullFlavor='UNK'] | hl7:name[@nullFlavor='MSK'] (rule-reference: d426589e56-true-d426922e0)</assert>
    </rule>

   <!-- Checking undefined contents for template/element @isClosed="true". Match context that we did not already match -->
    <rule context="*[hl7:observation[hl7:templateId[@root = '1.2.40.0.34.6.0.11.3.16'] and hl7:templateId[@root = '1.3.6.1.4.1.19376.1.3.1.6']]]/hl7:observation[hl7:templateId[@root = '1.2.40.0.34.6.0.11.3.16'] and hl7:templateId[@root = '1.3.6.1.4.1.19376.1.3.1.6']]/hl7:entryRelationship[hl7:act[hl7:templateId[@root = '1.2.40.0.34.6.0.11.3.11'] and hl7:templateId[@root = '2.16.840.1.113883.10.20.1.40'] and hl7:templateId[@root = '1.3.6.1.4.1.19376.1.5.3.1.4.2']]]/hl7:act[hl7:templateId[@root = '1.2.40.0.34.6.0.11.3.11'] and hl7:templateId[@root = '2.16.840.1.113883.10.20.1.40'] and hl7:templateId[@root = '1.3.6.1.4.1.19376.1.5.3.1.4.2']]/hl7:author[hl7:assignedAuthor]/hl7:assignedAuthor/hl7:assignedPerson/hl7:name[not(@nullFlavor)]/*[not(@xsi:nil = 'true')][not(self::hl7:prefix | self::hl7:family[not(@nullFlavor)] | self::hl7:given[not(@nullFlavor)] | self::hl7:suffix)]" id="d426926e62-true-d426954e0">
        <assert role="error" see="http://art-decor.org/art-decor/decor-templates--elgaimpf-?id=1.2.40.0.34.6.0.11.9.6" test="not(.)">(atcdabbr_other_PersonNameCompilationG2)/d426926e62-true-d426954e0: '<value-of select="name(..)"/>' ist als geschlossen definiert und dieses Element '<name/>' ist nicht erlaubt oder nicht mit diesem Inhalt erlaubt. Dies kann templateId, code oder id betreffen. Erwartet:  hl7:prefix | hl7:family[not(@nullFlavor)] | hl7:given[not(@nullFlavor)] | hl7:suffix (rule-reference: d426926e62-true-d426954e0)</assert>
    </rule>

   <!-- Checking undefined contents for template/element @isClosed="true". Match context that we did not already match -->
    <rule context="*[hl7:observation[hl7:templateId[@root = '1.2.40.0.34.6.0.11.3.16'] and hl7:templateId[@root = '1.3.6.1.4.1.19376.1.3.1.6']]]/hl7:observation[hl7:templateId[@root = '1.2.40.0.34.6.0.11.3.16'] and hl7:templateId[@root = '1.3.6.1.4.1.19376.1.3.1.6']]/hl7:entryRelationship[hl7:act[hl7:templateId[@root = '1.2.40.0.34.6.0.11.3.11'] and hl7:templateId[@root = '2.16.840.1.113883.10.20.1.40'] and hl7:templateId[@root = '1.3.6.1.4.1.19376.1.5.3.1.4.2']]]/hl7:act[hl7:templateId[@root = '1.2.40.0.34.6.0.11.3.11'] and hl7:templateId[@root = '2.16.840.1.113883.10.20.1.40'] and hl7:templateId[@root = '1.3.6.1.4.1.19376.1.5.3.1.4.2']]/hl7:author[hl7:assignedAuthor]/hl7:assignedAuthor/hl7:assignedAuthoringDevice/*[not(@xsi:nil = 'true')][not(self::hl7:manufacturerModelName[not(@nullFlavor)] | self::hl7:softwareName[not(@nullFlavor)])]" id="d426589e67-true-d426995e0">
        <assert role="error" see="http://art-decor.org/art-decor/decor-templates--elgaimpf-?id=1.2.40.0.34.6.0.11.3.16" test="not(.)">(eimpf_entry_AntikoerperBestimmungLaboratoryObservation)/d426589e67-true-d426995e0: '<value-of select="name(..)"/>' ist als geschlossen definiert und dieses Element '<name/>' ist nicht erlaubt oder nicht mit diesem Inhalt erlaubt. Dies kann templateId, code oder id betreffen. Erwartet:  hl7:manufacturerModelName[not(@nullFlavor)] | hl7:softwareName[not(@nullFlavor)] (rule-reference: d426589e67-true-d426995e0)</assert>
    </rule>

   <!-- Checking undefined contents for template/element @isClosed="true". Match context that we did not already match -->
    <rule context="*[hl7:observation[hl7:templateId[@root = '1.2.40.0.34.6.0.11.3.16'] and hl7:templateId[@root = '1.3.6.1.4.1.19376.1.3.1.6']]]/hl7:observation[hl7:templateId[@root = '1.2.40.0.34.6.0.11.3.16'] and hl7:templateId[@root = '1.3.6.1.4.1.19376.1.3.1.6']]/hl7:entryRelationship[hl7:act[hl7:templateId[@root = '1.2.40.0.34.6.0.11.3.11'] and hl7:templateId[@root = '2.16.840.1.113883.10.20.1.40'] and hl7:templateId[@root = '1.3.6.1.4.1.19376.1.5.3.1.4.2']]]/hl7:act[hl7:templateId[@root = '1.2.40.0.34.6.0.11.3.11'] and hl7:templateId[@root = '2.16.840.1.113883.10.20.1.40'] and hl7:templateId[@root = '1.3.6.1.4.1.19376.1.5.3.1.4.2']]/hl7:author[hl7:assignedAuthor]/hl7:assignedAuthor/hl7:representedOrganization/*[not(@xsi:nil = 'true')][not(self::hl7:id[not(@nullFlavor)] | self::hl7:name[not(@nullFlavor)] | self::hl7:telecom[not(@nullFlavor)] | self::hl7:addr[not(@nullFlavor)])]" id="d426589e74-true-d427037e0">
        <assert role="error" see="http://art-decor.org/art-decor/decor-templates--elgaimpf-?id=1.2.40.0.34.6.0.11.3.16" test="not(.)">(eimpf_entry_AntikoerperBestimmungLaboratoryObservation)/d426589e74-true-d427037e0: '<value-of select="name(..)"/>' ist als geschlossen definiert und dieses Element '<name/>' ist nicht erlaubt oder nicht mit diesem Inhalt erlaubt. Dies kann templateId, code oder id betreffen. Erwartet:  hl7:id[not(@nullFlavor)] | hl7:name[not(@nullFlavor)] | hl7:telecom[not(@nullFlavor)] | hl7:addr[not(@nullFlavor)] (rule-reference: d426589e74-true-d427037e0)</assert>
    </rule>

   <!-- Checking undefined contents for template/element @isClosed="true". Match context that we did not already match -->
    <rule context="*[hl7:observation[hl7:templateId[@root = '1.2.40.0.34.6.0.11.3.16'] and hl7:templateId[@root = '1.3.6.1.4.1.19376.1.3.1.6']]]/hl7:observation[hl7:templateId[@root = '1.2.40.0.34.6.0.11.3.16'] and hl7:templateId[@root = '1.3.6.1.4.1.19376.1.3.1.6']]/hl7:entryRelationship[hl7:act[hl7:templateId[@root = '1.2.40.0.34.6.0.11.3.11'] and hl7:templateId[@root = '2.16.840.1.113883.10.20.1.40'] and hl7:templateId[@root = '1.3.6.1.4.1.19376.1.5.3.1.4.2']]]/hl7:act[hl7:templateId[@root = '1.2.40.0.34.6.0.11.3.11'] and hl7:templateId[@root = '2.16.840.1.113883.10.20.1.40'] and hl7:templateId[@root = '1.3.6.1.4.1.19376.1.5.3.1.4.2']]/hl7:author[hl7:assignedAuthor]/hl7:assignedAuthor/hl7:representedOrganization/hl7:addr[not(@nullFlavor)]/*[not(@xsi:nil = 'true')][not(self::hl7:streetAddressLine | self::hl7:streetName | self::hl7:houseNumber | self::hl7:postalCode[not(@nullFlavor)] | self::hl7:city[not(@nullFlavor)] | self::hl7:state | self::hl7:country[not(@nullFlavor)] | self::hl7:additionalLocator)]" id="d427008e43-true-d427096e0">
        <assert role="error" see="http://art-decor.org/art-decor/decor-templates--elgaimpf-?id=1.2.40.0.34.6.0.11.3.16" test="not(.)">(eimpf_entry_AntikoerperBestimmungLaboratoryObservation)/d427008e43-true-d427096e0: '<value-of select="name(..)"/>' ist als geschlossen definiert und dieses Element '<name/>' ist nicht erlaubt oder nicht mit diesem Inhalt erlaubt. Dies kann templateId, code oder id betreffen. Erwartet:  hl7:streetAddressLine | hl7:streetName | hl7:houseNumber | hl7:postalCode[not(@nullFlavor)] | hl7:city[not(@nullFlavor)] | hl7:state | hl7:country[not(@nullFlavor)] | hl7:additionalLocator (rule-reference: d427008e43-true-d427096e0)</assert>
    </rule>

   <!-- Checking undefined contents for template/element @isClosed="true". Match context that we did not already match -->
    <rule context="*[hl7:observation[hl7:templateId[@root = '1.2.40.0.34.6.0.11.3.16'] and hl7:templateId[@root = '1.3.6.1.4.1.19376.1.3.1.6']]]/hl7:observation[hl7:templateId[@root = '1.2.40.0.34.6.0.11.3.16'] and hl7:templateId[@root = '1.3.6.1.4.1.19376.1.3.1.6']]/hl7:entryRelationship[hl7:act[hl7:templateId[@root = '1.2.40.0.34.6.0.11.3.11'] and hl7:templateId[@root = '2.16.840.1.113883.10.20.1.40'] and hl7:templateId[@root = '1.3.6.1.4.1.19376.1.5.3.1.4.2']]]/hl7:act[hl7:templateId[@root = '1.2.40.0.34.6.0.11.3.11'] and hl7:templateId[@root = '2.16.840.1.113883.10.20.1.40'] and hl7:templateId[@root = '1.3.6.1.4.1.19376.1.5.3.1.4.2']]/hl7:informant/*[not(@xsi:nil = 'true')][not(self::hl7:assignedEntity | self::hl7:relatedEntity)]" id="d424949e46-true-d427259e0">
        <assert role="error" see="http://art-decor.org/art-decor/decor-templates--elgaimpf-?id=1.2.40.0.34.6.0.11.3.16" test="not(.)">(eimpf_entry_AntikoerperBestimmungLaboratoryObservation)/d424949e46-true-d427259e0: '<value-of select="name(..)"/>' ist als geschlossen definiert und dieses Element '<name/>' ist nicht erlaubt oder nicht mit diesem Inhalt erlaubt. Dies kann templateId, code oder id betreffen. Erwartet:  hl7:assignedEntity | hl7:relatedEntity (rule-reference: d424949e46-true-d427259e0)</assert>
    </rule>

   <!-- Checking undefined contents for template/element @isClosed="true". Match context that we did not already match -->
    <rule context="*[hl7:observation[hl7:templateId[@root = '1.2.40.0.34.6.0.11.3.16'] and hl7:templateId[@root = '1.3.6.1.4.1.19376.1.3.1.6']]]/hl7:observation[hl7:templateId[@root = '1.2.40.0.34.6.0.11.3.16'] and hl7:templateId[@root = '1.3.6.1.4.1.19376.1.3.1.6']]/hl7:entryRelationship[hl7:act[hl7:templateId[@root = '1.2.40.0.34.6.0.11.3.11'] and hl7:templateId[@root = '2.16.840.1.113883.10.20.1.40'] and hl7:templateId[@root = '1.3.6.1.4.1.19376.1.5.3.1.4.2']]]/hl7:act[hl7:templateId[@root = '1.2.40.0.34.6.0.11.3.11'] and hl7:templateId[@root = '2.16.840.1.113883.10.20.1.40'] and hl7:templateId[@root = '1.3.6.1.4.1.19376.1.5.3.1.4.2']]/hl7:informant/hl7:assignedEntity/*[not(@xsi:nil = 'true')][not(self::hl7:id[not(@nullFlavor)] | self::hl7:id[@nullFlavor='NI'] | self::hl7:id[@nullFlavor='UNK'] | self::hl7:code | self::hl7:addr | self::hl7:telecom | self::hl7:assignedPerson | self::hl7:assignedPerson | self::hl7:representedOrganization)]" id="d427133e6-true-d427393e0">
        <assert role="error" see="http://art-decor.org/art-decor/decor-templates--elgaimpf-?id=1.2.40.0.34.6.0.11.3.16" test="not(.)">(eimpf_entry_AntikoerperBestimmungLaboratoryObservation)/d427133e6-true-d427393e0: '<value-of select="name(..)"/>' ist als geschlossen definiert und dieses Element '<name/>' ist nicht erlaubt oder nicht mit diesem Inhalt erlaubt. Dies kann templateId, code oder id betreffen. Erwartet:  hl7:id[not(@nullFlavor)] | hl7:id[@nullFlavor='NI'] | hl7:id[@nullFlavor='UNK'] | hl7:code | hl7:addr | hl7:telecom | hl7:assignedPerson | hl7:assignedPerson | hl7:representedOrganization (rule-reference: d427133e6-true-d427393e0)</assert>
    </rule>

   <!-- Checking undefined contents for template/element @isClosed="true". Match context that we did not already match -->
    <rule context="*[hl7:observation[hl7:templateId[@root = '1.2.40.0.34.6.0.11.3.16'] and hl7:templateId[@root = '1.3.6.1.4.1.19376.1.3.1.6']]]/hl7:observation[hl7:templateId[@root = '1.2.40.0.34.6.0.11.3.16'] and hl7:templateId[@root = '1.3.6.1.4.1.19376.1.3.1.6']]/hl7:entryRelationship[hl7:act[hl7:templateId[@root = '1.2.40.0.34.6.0.11.3.11'] and hl7:templateId[@root = '2.16.840.1.113883.10.20.1.40'] and hl7:templateId[@root = '1.3.6.1.4.1.19376.1.5.3.1.4.2']]]/hl7:act[hl7:templateId[@root = '1.2.40.0.34.6.0.11.3.11'] and hl7:templateId[@root = '2.16.840.1.113883.10.20.1.40'] and hl7:templateId[@root = '1.3.6.1.4.1.19376.1.5.3.1.4.2']]/hl7:informant/hl7:assignedEntity/hl7:addr/*[not(@xsi:nil = 'true')][not(self::hl7:streetAddressLine | self::hl7:streetName | self::hl7:houseNumber | self::hl7:postalCode | self::hl7:city | self::hl7:state | self::hl7:country | self::hl7:additionalLocator)]" id="d427264e26-true-d427454e0">
        <assert role="error" see="http://art-decor.org/art-decor/decor-templates--elgaimpf-?id=1.2.40.0.34.6.0.11.3.16" test="not(.)">(eimpf_entry_AntikoerperBestimmungLaboratoryObservation)/d427264e26-true-d427454e0: '<value-of select="name(..)"/>' ist als geschlossen definiert und dieses Element '<name/>' ist nicht erlaubt oder nicht mit diesem Inhalt erlaubt. Dies kann templateId, code oder id betreffen. Erwartet:  hl7:streetAddressLine | hl7:streetName | hl7:houseNumber | hl7:postalCode | hl7:city | hl7:state | hl7:country | hl7:additionalLocator (rule-reference: d427264e26-true-d427454e0)</assert>
    </rule>

   <!-- Checking undefined contents for template/element @isClosed="true". Match context that we did not already match -->
    <rule context="*[hl7:observation[hl7:templateId[@root = '1.2.40.0.34.6.0.11.3.16'] and hl7:templateId[@root = '1.3.6.1.4.1.19376.1.3.1.6']]]/hl7:observation[hl7:templateId[@root = '1.2.40.0.34.6.0.11.3.16'] and hl7:templateId[@root = '1.3.6.1.4.1.19376.1.3.1.6']]/hl7:entryRelationship[hl7:act[hl7:templateId[@root = '1.2.40.0.34.6.0.11.3.11'] and hl7:templateId[@root = '2.16.840.1.113883.10.20.1.40'] and hl7:templateId[@root = '1.3.6.1.4.1.19376.1.5.3.1.4.2']]]/hl7:act[hl7:templateId[@root = '1.2.40.0.34.6.0.11.3.11'] and hl7:templateId[@root = '2.16.840.1.113883.10.20.1.40'] and hl7:templateId[@root = '1.3.6.1.4.1.19376.1.5.3.1.4.2']]/hl7:informant/hl7:assignedEntity/hl7:assignedPerson/*[not(@xsi:nil = 'true')][not(self::hl7:name[not(@nullFlavor)])]" id="d427264e66-true-d427506e0">
        <assert role="error" see="http://art-decor.org/art-decor/decor-templates--elgaimpf-?id=1.2.40.0.34.6.0.11.3.16" test="not(.)">(eimpf_entry_AntikoerperBestimmungLaboratoryObservation)/d427264e66-true-d427506e0: '<value-of select="name(..)"/>' ist als geschlossen definiert und dieses Element '<name/>' ist nicht erlaubt oder nicht mit diesem Inhalt erlaubt. Dies kann templateId, code oder id betreffen. Erwartet:  hl7:name[not(@nullFlavor)] (rule-reference: d427264e66-true-d427506e0)</assert>
    </rule>

   <!-- Checking undefined contents for template/element @isClosed="true". Match context that we did not already match -->
    <rule context="*[hl7:observation[hl7:templateId[@root = '1.2.40.0.34.6.0.11.3.16'] and hl7:templateId[@root = '1.3.6.1.4.1.19376.1.3.1.6']]]/hl7:observation[hl7:templateId[@root = '1.2.40.0.34.6.0.11.3.16'] and hl7:templateId[@root = '1.3.6.1.4.1.19376.1.3.1.6']]/hl7:entryRelationship[hl7:act[hl7:templateId[@root = '1.2.40.0.34.6.0.11.3.11'] and hl7:templateId[@root = '2.16.840.1.113883.10.20.1.40'] and hl7:templateId[@root = '1.3.6.1.4.1.19376.1.5.3.1.4.2']]]/hl7:act[hl7:templateId[@root = '1.2.40.0.34.6.0.11.3.11'] and hl7:templateId[@root = '2.16.840.1.113883.10.20.1.40'] and hl7:templateId[@root = '1.3.6.1.4.1.19376.1.5.3.1.4.2']]/hl7:informant/hl7:assignedEntity/hl7:assignedPerson/*[not(@xsi:nil = 'true')][not(self::hl7:name[not(@nullFlavor)])]" id="d427264e73-true-d427526e0">
        <assert role="error" see="http://art-decor.org/art-decor/decor-templates--elgaimpf-?id=1.2.40.0.34.6.0.11.3.16" test="not(.)">(eimpf_entry_AntikoerperBestimmungLaboratoryObservation)/d427264e73-true-d427526e0: '<value-of select="name(..)"/>' ist als geschlossen definiert und dieses Element '<name/>' ist nicht erlaubt oder nicht mit diesem Inhalt erlaubt. Dies kann templateId, code oder id betreffen. Erwartet:  hl7:name[not(@nullFlavor)] (rule-reference: d427264e73-true-d427526e0)</assert>
    </rule>

   <!-- Checking undefined contents for template/element @isClosed="true". Match context that we did not already match -->
    <rule context="*[hl7:observation[hl7:templateId[@root = '1.2.40.0.34.6.0.11.3.16'] and hl7:templateId[@root = '1.3.6.1.4.1.19376.1.3.1.6']]]/hl7:observation[hl7:templateId[@root = '1.2.40.0.34.6.0.11.3.16'] and hl7:templateId[@root = '1.3.6.1.4.1.19376.1.3.1.6']]/hl7:entryRelationship[hl7:act[hl7:templateId[@root = '1.2.40.0.34.6.0.11.3.11'] and hl7:templateId[@root = '2.16.840.1.113883.10.20.1.40'] and hl7:templateId[@root = '1.3.6.1.4.1.19376.1.5.3.1.4.2']]]/hl7:act[hl7:templateId[@root = '1.2.40.0.34.6.0.11.3.11'] and hl7:templateId[@root = '2.16.840.1.113883.10.20.1.40'] and hl7:templateId[@root = '1.3.6.1.4.1.19376.1.5.3.1.4.2']]/hl7:informant/hl7:assignedEntity/hl7:assignedPerson/hl7:name[not(@nullFlavor)]/*[not(@xsi:nil = 'true')][not(self::hl7:prefix | self::hl7:family[not(@nullFlavor)] | self::hl7:given[not(@nullFlavor)] | self::hl7:suffix)]" id="d427515e10-true-d427554e0">
        <assert role="error" see="http://art-decor.org/art-decor/decor-templates--elgaimpf-?id=1.2.40.0.34.6.0.11.3.16" test="not(.)">(eimpf_entry_AntikoerperBestimmungLaboratoryObservation)/d427515e10-true-d427554e0: '<value-of select="name(..)"/>' ist als geschlossen definiert und dieses Element '<name/>' ist nicht erlaubt oder nicht mit diesem Inhalt erlaubt. Dies kann templateId, code oder id betreffen. Erwartet:  hl7:prefix | hl7:family[not(@nullFlavor)] | hl7:given[not(@nullFlavor)] | hl7:suffix (rule-reference: d427515e10-true-d427554e0)</assert>
    </rule>

   <!-- Checking undefined contents for template/element @isClosed="true". Match context that we did not already match -->
    <rule context="*[hl7:observation[hl7:templateId[@root = '1.2.40.0.34.6.0.11.3.16'] and hl7:templateId[@root = '1.3.6.1.4.1.19376.1.3.1.6']]]/hl7:observation[hl7:templateId[@root = '1.2.40.0.34.6.0.11.3.16'] and hl7:templateId[@root = '1.3.6.1.4.1.19376.1.3.1.6']]/hl7:entryRelationship[hl7:act[hl7:templateId[@root = '1.2.40.0.34.6.0.11.3.11'] and hl7:templateId[@root = '2.16.840.1.113883.10.20.1.40'] and hl7:templateId[@root = '1.3.6.1.4.1.19376.1.5.3.1.4.2']]]/hl7:act[hl7:templateId[@root = '1.2.40.0.34.6.0.11.3.11'] and hl7:templateId[@root = '2.16.840.1.113883.10.20.1.40'] and hl7:templateId[@root = '1.3.6.1.4.1.19376.1.5.3.1.4.2']]/hl7:informant/hl7:assignedEntity/hl7:representedOrganization/*[not(@xsi:nil = 'true')][not(self::hl7:id[not(@nullFlavor)] | self::hl7:name[not(@nullFlavor)] | self::hl7:telecom[not(@nullFlavor)] | self::hl7:addr[not(@nullFlavor)])]" id="d427264e81-true-d427600e0">
        <assert role="error" see="http://art-decor.org/art-decor/decor-templates--elgaimpf-?id=1.2.40.0.34.6.0.11.3.16" test="not(.)">(eimpf_entry_AntikoerperBestimmungLaboratoryObservation)/d427264e81-true-d427600e0: '<value-of select="name(..)"/>' ist als geschlossen definiert und dieses Element '<name/>' ist nicht erlaubt oder nicht mit diesem Inhalt erlaubt. Dies kann templateId, code oder id betreffen. Erwartet:  hl7:id[not(@nullFlavor)] | hl7:name[not(@nullFlavor)] | hl7:telecom[not(@nullFlavor)] | hl7:addr[not(@nullFlavor)] (rule-reference: d427264e81-true-d427600e0)</assert>
    </rule>

   <!-- Checking undefined contents for template/element @isClosed="true". Match context that we did not already match -->
    <rule context="*[hl7:observation[hl7:templateId[@root = '1.2.40.0.34.6.0.11.3.16'] and hl7:templateId[@root = '1.3.6.1.4.1.19376.1.3.1.6']]]/hl7:observation[hl7:templateId[@root = '1.2.40.0.34.6.0.11.3.16'] and hl7:templateId[@root = '1.3.6.1.4.1.19376.1.3.1.6']]/hl7:entryRelationship[hl7:act[hl7:templateId[@root = '1.2.40.0.34.6.0.11.3.11'] and hl7:templateId[@root = '2.16.840.1.113883.10.20.1.40'] and hl7:templateId[@root = '1.3.6.1.4.1.19376.1.5.3.1.4.2']]]/hl7:act[hl7:templateId[@root = '1.2.40.0.34.6.0.11.3.11'] and hl7:templateId[@root = '2.16.840.1.113883.10.20.1.40'] and hl7:templateId[@root = '1.3.6.1.4.1.19376.1.5.3.1.4.2']]/hl7:informant/hl7:assignedEntity/hl7:representedOrganization/hl7:addr[not(@nullFlavor)]/*[not(@xsi:nil = 'true')][not(self::hl7:streetAddressLine | self::hl7:streetName | self::hl7:houseNumber | self::hl7:postalCode | self::hl7:city | self::hl7:state | self::hl7:country | self::hl7:additionalLocator)]" id="d427575e36-true-d427657e0">
        <assert role="error" see="http://art-decor.org/art-decor/decor-templates--elgaimpf-?id=1.2.40.0.34.6.0.11.3.16" test="not(.)">(eimpf_entry_AntikoerperBestimmungLaboratoryObservation)/d427575e36-true-d427657e0: '<value-of select="name(..)"/>' ist als geschlossen definiert und dieses Element '<name/>' ist nicht erlaubt oder nicht mit diesem Inhalt erlaubt. Dies kann templateId, code oder id betreffen. Erwartet:  hl7:streetAddressLine | hl7:streetName | hl7:houseNumber | hl7:postalCode | hl7:city | hl7:state | hl7:country | hl7:additionalLocator (rule-reference: d427575e36-true-d427657e0)</assert>
    </rule>

   <!-- Checking undefined contents for template/element @isClosed="true". Match context that we did not already match -->
    <rule context="*[hl7:observation[hl7:templateId[@root = '1.2.40.0.34.6.0.11.3.16'] and hl7:templateId[@root = '1.3.6.1.4.1.19376.1.3.1.6']]]/hl7:observation[hl7:templateId[@root = '1.2.40.0.34.6.0.11.3.16'] and hl7:templateId[@root = '1.3.6.1.4.1.19376.1.3.1.6']]/hl7:entryRelationship[hl7:act[hl7:templateId[@root = '1.2.40.0.34.6.0.11.3.11'] and hl7:templateId[@root = '2.16.840.1.113883.10.20.1.40'] and hl7:templateId[@root = '1.3.6.1.4.1.19376.1.5.3.1.4.2']]]/hl7:act[hl7:templateId[@root = '1.2.40.0.34.6.0.11.3.11'] and hl7:templateId[@root = '2.16.840.1.113883.10.20.1.40'] and hl7:templateId[@root = '1.3.6.1.4.1.19376.1.5.3.1.4.2']]/hl7:informant/hl7:relatedEntity/*[not(@xsi:nil = 'true')][not(self::hl7:code[not(@nullFlavor)] | self::hl7:addr[not(@nullFlavor)] | self::hl7:telecom[not(@nullFlavor)] | self::hl7:relatedPerson)]" id="d427133e7-true-d427725e0">
        <assert role="error" see="http://art-decor.org/art-decor/decor-templates--elgaimpf-?id=1.2.40.0.34.6.0.11.3.16" test="not(.)">(eimpf_entry_AntikoerperBestimmungLaboratoryObservation)/d427133e7-true-d427725e0: '<value-of select="name(..)"/>' ist als geschlossen definiert und dieses Element '<name/>' ist nicht erlaubt oder nicht mit diesem Inhalt erlaubt. Dies kann templateId, code oder id betreffen. Erwartet:  hl7:code[not(@nullFlavor)] | hl7:addr[not(@nullFlavor)] | hl7:telecom[not(@nullFlavor)] | hl7:relatedPerson (rule-reference: d427133e7-true-d427725e0)</assert>
    </rule>

   <!-- Checking undefined contents for template/element @isClosed="true". Match context that we did not already match -->
    <rule context="*[hl7:observation[hl7:templateId[@root = '1.2.40.0.34.6.0.11.3.16'] and hl7:templateId[@root = '1.3.6.1.4.1.19376.1.3.1.6']]]/hl7:observation[hl7:templateId[@root = '1.2.40.0.34.6.0.11.3.16'] and hl7:templateId[@root = '1.3.6.1.4.1.19376.1.3.1.6']]/hl7:entryRelationship[hl7:act[hl7:templateId[@root = '1.2.40.0.34.6.0.11.3.11'] and hl7:templateId[@root = '2.16.840.1.113883.10.20.1.40'] and hl7:templateId[@root = '1.3.6.1.4.1.19376.1.5.3.1.4.2']]]/hl7:act[hl7:templateId[@root = '1.2.40.0.34.6.0.11.3.11'] and hl7:templateId[@root = '2.16.840.1.113883.10.20.1.40'] and hl7:templateId[@root = '1.3.6.1.4.1.19376.1.5.3.1.4.2']]/hl7:informant/hl7:relatedEntity/hl7:addr[not(@nullFlavor)]/*[not(@xsi:nil = 'true')][not(self::hl7:streetAddressLine | self::hl7:streetName | self::hl7:houseNumber | self::hl7:postalCode | self::hl7:city | self::hl7:state | self::hl7:country | self::hl7:additionalLocator)]" id="d427133e10-true-d427776e0">
        <assert role="error" see="http://art-decor.org/art-decor/decor-templates--elgaimpf-?id=1.2.40.0.34.6.0.11.3.16" test="not(.)">(eimpf_entry_AntikoerperBestimmungLaboratoryObservation)/d427133e10-true-d427776e0: '<value-of select="name(..)"/>' ist als geschlossen definiert und dieses Element '<name/>' ist nicht erlaubt oder nicht mit diesem Inhalt erlaubt. Dies kann templateId, code oder id betreffen. Erwartet:  hl7:streetAddressLine | hl7:streetName | hl7:houseNumber | hl7:postalCode | hl7:city | hl7:state | hl7:country | hl7:additionalLocator (rule-reference: d427133e10-true-d427776e0)</assert>
    </rule>

   <!-- Checking undefined contents for template/element @isClosed="true". Match context that we did not already match -->
    <rule context="*[hl7:observation[hl7:templateId[@root = '1.2.40.0.34.6.0.11.3.16'] and hl7:templateId[@root = '1.3.6.1.4.1.19376.1.3.1.6']]]/hl7:observation[hl7:templateId[@root = '1.2.40.0.34.6.0.11.3.16'] and hl7:templateId[@root = '1.3.6.1.4.1.19376.1.3.1.6']]/hl7:entryRelationship[hl7:act[hl7:templateId[@root = '1.2.40.0.34.6.0.11.3.11'] and hl7:templateId[@root = '2.16.840.1.113883.10.20.1.40'] and hl7:templateId[@root = '1.3.6.1.4.1.19376.1.5.3.1.4.2']]]/hl7:act[hl7:templateId[@root = '1.2.40.0.34.6.0.11.3.11'] and hl7:templateId[@root = '2.16.840.1.113883.10.20.1.40'] and hl7:templateId[@root = '1.3.6.1.4.1.19376.1.5.3.1.4.2']]/hl7:informant/hl7:relatedEntity/hl7:relatedPerson/*[not(@xsi:nil = 'true')][not(self::hl7:name[not(@nullFlavor)] | self::hl7:name[@nullFlavor='UNK'] | self::hl7:name[@nullFlavor='MSK'])]" id="d427133e12-true-d427821e0">
        <assert role="error" see="http://art-decor.org/art-decor/decor-templates--elgaimpf-?id=1.2.40.0.34.6.0.11.3.16" test="not(.)">(eimpf_entry_AntikoerperBestimmungLaboratoryObservation)/d427133e12-true-d427821e0: '<value-of select="name(..)"/>' ist als geschlossen definiert und dieses Element '<name/>' ist nicht erlaubt oder nicht mit diesem Inhalt erlaubt. Dies kann templateId, code oder id betreffen. Erwartet:  hl7:name[not(@nullFlavor)] | hl7:name[@nullFlavor='UNK'] | hl7:name[@nullFlavor='MSK'] (rule-reference: d427133e12-true-d427821e0)</assert>
    </rule>

   <!-- Checking undefined contents for template/element @isClosed="true". Match context that we did not already match -->
    <rule context="*[hl7:observation[hl7:templateId[@root = '1.2.40.0.34.6.0.11.3.16'] and hl7:templateId[@root = '1.3.6.1.4.1.19376.1.3.1.6']]]/hl7:observation[hl7:templateId[@root = '1.2.40.0.34.6.0.11.3.16'] and hl7:templateId[@root = '1.3.6.1.4.1.19376.1.3.1.6']]/hl7:entryRelationship[hl7:act[hl7:templateId[@root = '1.2.40.0.34.6.0.11.3.11'] and hl7:templateId[@root = '2.16.840.1.113883.10.20.1.40'] and hl7:templateId[@root = '1.3.6.1.4.1.19376.1.5.3.1.4.2']]]/hl7:act[hl7:templateId[@root = '1.2.40.0.34.6.0.11.3.11'] and hl7:templateId[@root = '2.16.840.1.113883.10.20.1.40'] and hl7:templateId[@root = '1.3.6.1.4.1.19376.1.5.3.1.4.2']]/hl7:informant/hl7:relatedEntity/hl7:relatedPerson/hl7:name[not(@nullFlavor)]/*[not(@xsi:nil = 'true')][not(self::hl7:prefix | self::hl7:family[not(@nullFlavor)] | self::hl7:given[not(@nullFlavor)] | self::hl7:suffix)]" id="d427815e7-true-d427847e0">
        <assert role="error" see="http://art-decor.org/art-decor/decor-templates--elgaimpf-?id=1.2.40.0.34.6.0.11.3.16" test="not(.)">(eimpf_entry_AntikoerperBestimmungLaboratoryObservation)/d427815e7-true-d427847e0: '<value-of select="name(..)"/>' ist als geschlossen definiert und dieses Element '<name/>' ist nicht erlaubt oder nicht mit diesem Inhalt erlaubt. Dies kann templateId, code oder id betreffen. Erwartet:  hl7:prefix | hl7:family[not(@nullFlavor)] | hl7:given[not(@nullFlavor)] | hl7:suffix (rule-reference: d427815e7-true-d427847e0)</assert>
    </rule>

   <!-- Checking undefined contents for template/element @isClosed="true". Match context that we did not already match -->
    <rule context="*[hl7:observation[hl7:templateId[@root = '1.2.40.0.34.6.0.11.3.16'] and hl7:templateId[@root = '1.3.6.1.4.1.19376.1.3.1.6']]]/hl7:observation[hl7:templateId[@root = '1.2.40.0.34.6.0.11.3.16'] and hl7:templateId[@root = '1.3.6.1.4.1.19376.1.3.1.6']]/hl7:entryRelationship[hl7:act[hl7:templateId[@root = '1.2.40.0.34.6.0.11.3.11'] and hl7:templateId[@root = '2.16.840.1.113883.10.20.1.40'] and hl7:templateId[@root = '1.3.6.1.4.1.19376.1.5.3.1.4.2']]]/hl7:act[hl7:templateId[@root = '1.2.40.0.34.6.0.11.3.11'] and hl7:templateId[@root = '2.16.840.1.113883.10.20.1.40'] and hl7:templateId[@root = '1.3.6.1.4.1.19376.1.5.3.1.4.2']]/hl7:participant[@typeCode][hl7:participantRole]/*[not(@xsi:nil = 'true')][not(self::hl7:time | self::hl7:awarenessCode[concat(@code, @codeSystem) = doc('include/voc-2.16.840.1.113883.1.11.10310-DYNAMIC.xml')//valueSet[1]/conceptList/concept/concat(@code, @codeSystem) or @nullFlavor] | self::hl7:participantRole)]" id="d424949e49-true-d427968e0">
        <assert role="error" see="http://art-decor.org/art-decor/decor-templates--elgaimpf-?id=1.2.40.0.34.6.0.11.3.16" test="not(.)">(eimpf_entry_AntikoerperBestimmungLaboratoryObservation)/d424949e49-true-d427968e0: '<value-of select="name(..)"/>' ist als geschlossen definiert und dieses Element '<name/>' ist nicht erlaubt oder nicht mit diesem Inhalt erlaubt. Dies kann templateId, code oder id betreffen. Erwartet:  hl7:time | hl7:awarenessCode[concat(@code, @codeSystem) = doc('include/voc-2.16.840.1.113883.1.11.10310-DYNAMIC.xml')//valueSet[1]/conceptList/concept/concat(@code, @codeSystem) or @nullFlavor] | hl7:participantRole (rule-reference: d424949e49-true-d427968e0)</assert>
    </rule>

   <!-- Checking undefined contents for template/element @isClosed="true". Match context that we did not already match -->
    <rule context="*[hl7:observation[hl7:templateId[@root = '1.2.40.0.34.6.0.11.3.16'] and hl7:templateId[@root = '1.3.6.1.4.1.19376.1.3.1.6']]]/hl7:observation[hl7:templateId[@root = '1.2.40.0.34.6.0.11.3.16'] and hl7:templateId[@root = '1.3.6.1.4.1.19376.1.3.1.6']]/hl7:entryRelationship[hl7:act[hl7:templateId[@root = '1.2.40.0.34.6.0.11.3.11'] and hl7:templateId[@root = '2.16.840.1.113883.10.20.1.40'] and hl7:templateId[@root = '1.3.6.1.4.1.19376.1.5.3.1.4.2']]]/hl7:act[hl7:templateId[@root = '1.2.40.0.34.6.0.11.3.11'] and hl7:templateId[@root = '2.16.840.1.113883.10.20.1.40'] and hl7:templateId[@root = '1.3.6.1.4.1.19376.1.5.3.1.4.2']]/hl7:participant[@typeCode][hl7:participantRole]/hl7:participantRole/*[not(@xsi:nil = 'true')][not(self::hl7:id | self::hl7:code | self::hl7:addr | self::hl7:telecom | self::hl7:playingDevice | self::hl7:playingEntity | self::hl7:scopingEntity)]" id="d427872e7-true-d428073e0">
        <assert role="error" see="http://art-decor.org/art-decor/decor-templates--elgaimpf-?id=1.2.40.0.34.6.0.11.3.16" test="not(.)">(eimpf_entry_AntikoerperBestimmungLaboratoryObservation)/d427872e7-true-d428073e0: '<value-of select="name(..)"/>' ist als geschlossen definiert und dieses Element '<name/>' ist nicht erlaubt oder nicht mit diesem Inhalt erlaubt. Dies kann templateId, code oder id betreffen. Erwartet:  hl7:id | hl7:code | hl7:addr | hl7:telecom | hl7:playingDevice | hl7:playingEntity | hl7:scopingEntity (rule-reference: d427872e7-true-d428073e0)</assert>
    </rule>

   <!-- Checking undefined contents for template/element @isClosed="true". Match context that we did not already match -->
    <rule context="*[hl7:observation[hl7:templateId[@root = '1.2.40.0.34.6.0.11.3.16'] and hl7:templateId[@root = '1.3.6.1.4.1.19376.1.3.1.6']]]/hl7:observation[hl7:templateId[@root = '1.2.40.0.34.6.0.11.3.16'] and hl7:templateId[@root = '1.3.6.1.4.1.19376.1.3.1.6']]/hl7:entryRelationship[hl7:act[hl7:templateId[@root = '1.2.40.0.34.6.0.11.3.11'] and hl7:templateId[@root = '2.16.840.1.113883.10.20.1.40'] and hl7:templateId[@root = '1.3.6.1.4.1.19376.1.5.3.1.4.2']]]/hl7:act[hl7:templateId[@root = '1.2.40.0.34.6.0.11.3.11'] and hl7:templateId[@root = '2.16.840.1.113883.10.20.1.40'] and hl7:templateId[@root = '1.3.6.1.4.1.19376.1.5.3.1.4.2']]/hl7:participant[@typeCode][hl7:participantRole]/hl7:participantRole/hl7:addr/*[not(@xsi:nil = 'true')][not(self::hl7:streetAddressLine | self::hl7:streetName | self::hl7:houseNumber | self::hl7:postalCode[not(@nullFlavor)] | self::hl7:city[not(@nullFlavor)] | self::hl7:state | self::hl7:country[not(@nullFlavor)] | self::hl7:additionalLocator)]" id="d427872e12-true-d428132e0">
        <assert role="error" see="http://art-decor.org/art-decor/decor-templates--elgaimpf-?id=1.2.40.0.34.6.0.11.3.16" test="not(.)">(eimpf_entry_AntikoerperBestimmungLaboratoryObservation)/d427872e12-true-d428132e0: '<value-of select="name(..)"/>' ist als geschlossen definiert und dieses Element '<name/>' ist nicht erlaubt oder nicht mit diesem Inhalt erlaubt. Dies kann templateId, code oder id betreffen. Erwartet:  hl7:streetAddressLine | hl7:streetName | hl7:houseNumber | hl7:postalCode[not(@nullFlavor)] | hl7:city[not(@nullFlavor)] | hl7:state | hl7:country[not(@nullFlavor)] | hl7:additionalLocator (rule-reference: d427872e12-true-d428132e0)</assert>
    </rule>

   <!-- Checking undefined contents for template/element @isClosed="true". Match context that we did not already match -->
    <rule context="*[hl7:observation[hl7:templateId[@root = '1.2.40.0.34.6.0.11.3.16'] and hl7:templateId[@root = '1.3.6.1.4.1.19376.1.3.1.6']]]/hl7:observation[hl7:templateId[@root = '1.2.40.0.34.6.0.11.3.16'] and hl7:templateId[@root = '1.3.6.1.4.1.19376.1.3.1.6']]/hl7:entryRelationship[hl7:act[hl7:templateId[@root = '1.2.40.0.34.6.0.11.3.11'] and hl7:templateId[@root = '2.16.840.1.113883.10.20.1.40'] and hl7:templateId[@root = '1.3.6.1.4.1.19376.1.5.3.1.4.2']]]/hl7:act[hl7:templateId[@root = '1.2.40.0.34.6.0.11.3.11'] and hl7:templateId[@root = '2.16.840.1.113883.10.20.1.40'] and hl7:templateId[@root = '1.3.6.1.4.1.19376.1.5.3.1.4.2']]/hl7:participant[@typeCode][hl7:participantRole]/hl7:participantRole/hl7:playingDevice/*[not(@xsi:nil = 'true')][not(self::hl7:code[@codeSystem = doc('include/voc-2.16.840.1.113883.1.11.16040-DYNAMIC.xml')//valueSet[1]/completeCodeSystem/@codeSystem or concat(@code, @codeSystem) = doc('include/voc-2.16.840.1.113883.1.11.16040-DYNAMIC.xml')//valueSet[1]/conceptList/concept/concat(@code, @codeSystem) or @nullFlavor] | self::hl7:manufacturerModelName | self::hl7:softwareName)]" id="d427872e38-true-d428200e0">
        <assert role="error" see="http://art-decor.org/art-decor/decor-templates--elgaimpf-?id=1.2.40.0.34.6.0.11.3.16" test="not(.)">(eimpf_entry_AntikoerperBestimmungLaboratoryObservation)/d427872e38-true-d428200e0: '<value-of select="name(..)"/>' ist als geschlossen definiert und dieses Element '<name/>' ist nicht erlaubt oder nicht mit diesem Inhalt erlaubt. Dies kann templateId, code oder id betreffen. Erwartet:  hl7:code[@codeSystem = doc('include/voc-2.16.840.1.113883.1.11.16040-DYNAMIC.xml')//valueSet[1]/completeCodeSystem/@codeSystem or concat(@code, @codeSystem) = doc('include/voc-2.16.840.1.113883.1.11.16040-DYNAMIC.xml')//valueSet[1]/conceptList/concept/concat(@code, @codeSystem) or @nullFlavor] | hl7:manufacturerModelName | hl7:softwareName (rule-reference: d427872e38-true-d428200e0)</assert>
    </rule>

   <!-- Checking undefined contents for template/element @isClosed="true". Match context that we did not already match -->
    <rule context="*[hl7:observation[hl7:templateId[@root = '1.2.40.0.34.6.0.11.3.16'] and hl7:templateId[@root = '1.3.6.1.4.1.19376.1.3.1.6']]]/hl7:observation[hl7:templateId[@root = '1.2.40.0.34.6.0.11.3.16'] and hl7:templateId[@root = '1.3.6.1.4.1.19376.1.3.1.6']]/hl7:entryRelationship[hl7:act[hl7:templateId[@root = '1.2.40.0.34.6.0.11.3.11'] and hl7:templateId[@root = '2.16.840.1.113883.10.20.1.40'] and hl7:templateId[@root = '1.3.6.1.4.1.19376.1.5.3.1.4.2']]]/hl7:act[hl7:templateId[@root = '1.2.40.0.34.6.0.11.3.11'] and hl7:templateId[@root = '2.16.840.1.113883.10.20.1.40'] and hl7:templateId[@root = '1.3.6.1.4.1.19376.1.5.3.1.4.2']]/hl7:participant[@typeCode][hl7:participantRole]/hl7:participantRole/hl7:playingEntity/*[not(@xsi:nil = 'true')][not(self::hl7:code[@codeSystem = doc('include/voc-2.16.840.1.113883.1.11.16040-DYNAMIC.xml')//valueSet[1]/completeCodeSystem/@codeSystem or concat(@code, @codeSystem) = doc('include/voc-2.16.840.1.113883.1.11.16040-DYNAMIC.xml')//valueSet[1]/conceptList/concept/concat(@code, @codeSystem) or @nullFlavor] | self::hl7:quantity | self::hl7:name | self::sdtc:birthTime | self::hl7:desc)]" id="d427872e39-true-d428257e0">
        <assert role="error" see="http://art-decor.org/art-decor/decor-templates--elgaimpf-?id=1.2.40.0.34.6.0.11.3.16" test="not(.)">(eimpf_entry_AntikoerperBestimmungLaboratoryObservation)/d427872e39-true-d428257e0: '<value-of select="name(..)"/>' ist als geschlossen definiert und dieses Element '<name/>' ist nicht erlaubt oder nicht mit diesem Inhalt erlaubt. Dies kann templateId, code oder id betreffen. Erwartet:  hl7:code[@codeSystem = doc('include/voc-2.16.840.1.113883.1.11.16040-DYNAMIC.xml')//valueSet[1]/completeCodeSystem/@codeSystem or concat(@code, @codeSystem) = doc('include/voc-2.16.840.1.113883.1.11.16040-DYNAMIC.xml')//valueSet[1]/conceptList/concept/concat(@code, @codeSystem) or @nullFlavor] | hl7:quantity | hl7:name | sdtc:birthTime | hl7:desc (rule-reference: d427872e39-true-d428257e0)</assert>
    </rule>

   <!-- Checking undefined contents for template/element @isClosed="true". Match context that we did not already match -->
    <rule context="*[hl7:observation[hl7:templateId[@root = '1.2.40.0.34.6.0.11.3.16'] and hl7:templateId[@root = '1.3.6.1.4.1.19376.1.3.1.6']]]/hl7:observation[hl7:templateId[@root = '1.2.40.0.34.6.0.11.3.16'] and hl7:templateId[@root = '1.3.6.1.4.1.19376.1.3.1.6']]/hl7:entryRelationship[hl7:act[hl7:templateId[@root = '1.2.40.0.34.6.0.11.3.11'] and hl7:templateId[@root = '2.16.840.1.113883.10.20.1.40'] and hl7:templateId[@root = '1.3.6.1.4.1.19376.1.5.3.1.4.2']]]/hl7:act[hl7:templateId[@root = '1.2.40.0.34.6.0.11.3.11'] and hl7:templateId[@root = '2.16.840.1.113883.10.20.1.40'] and hl7:templateId[@root = '1.3.6.1.4.1.19376.1.5.3.1.4.2']]/hl7:participant[@typeCode][hl7:participantRole]/hl7:participantRole/hl7:scopingEntity/*[not(@xsi:nil = 'true')][not(self::hl7:id | self::hl7:code[@codeSystem = doc('include/voc-2.16.840.1.113883.1.11.16040-DYNAMIC.xml')//valueSet[1]/completeCodeSystem/@codeSystem or concat(@code, @codeSystem) = doc('include/voc-2.16.840.1.113883.1.11.16040-DYNAMIC.xml')//valueSet[1]/conceptList/concept/concat(@code, @codeSystem) or @nullFlavor] | self::hl7:desc)]" id="d427872e40-true-d428309e0">
        <assert role="error" see="http://art-decor.org/art-decor/decor-templates--elgaimpf-?id=1.2.40.0.34.6.0.11.3.16" test="not(.)">(eimpf_entry_AntikoerperBestimmungLaboratoryObservation)/d427872e40-true-d428309e0: '<value-of select="name(..)"/>' ist als geschlossen definiert und dieses Element '<name/>' ist nicht erlaubt oder nicht mit diesem Inhalt erlaubt. Dies kann templateId, code oder id betreffen. Erwartet:  hl7:id | hl7:code[@codeSystem = doc('include/voc-2.16.840.1.113883.1.11.16040-DYNAMIC.xml')//valueSet[1]/completeCodeSystem/@codeSystem or concat(@code, @codeSystem) = doc('include/voc-2.16.840.1.113883.1.11.16040-DYNAMIC.xml')//valueSet[1]/conceptList/concept/concat(@code, @codeSystem) or @nullFlavor] | hl7:desc (rule-reference: d427872e40-true-d428309e0)</assert>
    </rule>

   <!-- Checking undefined contents for template/element @isClosed="true". Match context that we did not already match -->
    <rule context="*[hl7:observation[hl7:templateId[@root = '1.2.40.0.34.6.0.11.3.16'] and hl7:templateId[@root = '1.3.6.1.4.1.19376.1.3.1.6']]]/hl7:observation[hl7:templateId[@root = '1.2.40.0.34.6.0.11.3.16'] and hl7:templateId[@root = '1.3.6.1.4.1.19376.1.3.1.6']]/hl7:referenceRange[@typeCode = 'REFV'][hl7:observationRange[@classCode = 'OBS'][@moodCode = 'EVN.CRT']]/*[not(@xsi:nil = 'true')][not(self::hl7:observationRange[hl7:interpretationCode[not(@nullFlavor)][not(@nullFlavor)]])]" id="d245561e4542-true-d428339e0">
        <assert role="error" see="http://art-decor.org/art-decor/decor-templates--elgaimpf-?id=1.2.40.0.34.6.0.11.3.16" test="not(.)">(eimpf_entry_AntikoerperBestimmungLaboratoryObservation)/d245561e4542-true-d428339e0: '<value-of select="name(..)"/>' ist als geschlossen definiert und dieses Element '<name/>' ist nicht erlaubt oder nicht mit diesem Inhalt erlaubt. Dies kann templateId, code oder id betreffen. Erwartet:  hl7:observationRange[hl7:interpretationCode[not(@nullFlavor)][not(@nullFlavor)]] (rule-reference: d245561e4542-true-d428339e0)</assert>
    </rule>

   <!-- Checking undefined contents for template/element @isClosed="true". Match context that we did not already match -->
    <rule context="*[hl7:observation[hl7:templateId[@root = '1.2.40.0.34.6.0.11.3.16'] and hl7:templateId[@root = '1.3.6.1.4.1.19376.1.3.1.6']]]/hl7:observation[hl7:templateId[@root = '1.2.40.0.34.6.0.11.3.16'] and hl7:templateId[@root = '1.3.6.1.4.1.19376.1.3.1.6']]/hl7:referenceRange[@typeCode = 'REFV'][hl7:observationRange[@classCode = 'OBS'][@moodCode = 'EVN.CRT']]/hl7:observationRange[hl7:interpretationCode[not(@nullFlavor)][not(@nullFlavor)]]/*[not(@xsi:nil = 'true')][not(self::hl7:text[not(@nullFlavor)] | self::hl7:value[@xsi:type='IVL_PQ'] | self::hl7:value[@xsi:type='RTO'] | self::hl7:interpretationCode[not(@nullFlavor)][not(@nullFlavor)])]" id="d245561e4554-true-d428354e0">
        <assert role="error" see="http://art-decor.org/art-decor/decor-templates--elgaimpf-?id=1.2.40.0.34.6.0.11.3.16" test="not(.)">(eimpf_entry_AntikoerperBestimmungLaboratoryObservation)/d245561e4554-true-d428354e0: '<value-of select="name(..)"/>' ist als geschlossen definiert und dieses Element '<name/>' ist nicht erlaubt oder nicht mit diesem Inhalt erlaubt. Dies kann templateId, code oder id betreffen. Erwartet:  hl7:text[not(@nullFlavor)] | hl7:value[@xsi:type='IVL_PQ'] | hl7:value[@xsi:type='RTO'] | hl7:interpretationCode[not(@nullFlavor)][not(@nullFlavor)] (rule-reference: d245561e4554-true-d428354e0)</assert>
    </rule>

   <!-- Checking undefined contents for template/element @isClosed="true". Match context that we did not already match -->
    <rule context="*[hl7:observation[hl7:templateId[@root = '1.2.40.0.34.6.0.11.3.16'] and hl7:templateId[@root = '1.3.6.1.4.1.19376.1.3.1.6']]]/hl7:observation[hl7:templateId[@root = '1.2.40.0.34.6.0.11.3.16'] and hl7:templateId[@root = '1.3.6.1.4.1.19376.1.3.1.6']]/hl7:referenceRange[@typeCode = 'REFV'][hl7:observationRange[@classCode = 'OBS'][@moodCode = 'EVN.CRT']]/hl7:observationRange[hl7:interpretationCode[not(@nullFlavor)][not(@nullFlavor)]]/hl7:text[not(@nullFlavor)]/*[not(@xsi:nil = 'true')][not(self::hl7:reference[not(@nullFlavor)])]" id="d245561e4557-true-d428367e0">
        <assert role="error" see="http://art-decor.org/art-decor/decor-templates--elgaimpf-?id=1.2.40.0.34.6.0.11.3.16" test="not(.)">(eimpf_entry_AntikoerperBestimmungLaboratoryObservation)/d245561e4557-true-d428367e0: '<value-of select="name(..)"/>' ist als geschlossen definiert und dieses Element '<name/>' ist nicht erlaubt oder nicht mit diesem Inhalt erlaubt. Dies kann templateId, code oder id betreffen. Erwartet:  hl7:reference[not(@nullFlavor)] (rule-reference: d245561e4557-true-d428367e0)</assert>
    </rule>

   <!-- Checking undefined contents for template/element @isClosed="true". Match context that we did not already match -->
    <rule context="*[hl7:observation[hl7:templateId[@root = '1.2.40.0.34.6.0.11.3.16'] and hl7:templateId[@root = '1.3.6.1.4.1.19376.1.3.1.6']]]/hl7:observation[hl7:templateId[@root = '1.2.40.0.34.6.0.11.3.16'] and hl7:templateId[@root = '1.3.6.1.4.1.19376.1.3.1.6']]/hl7:referenceRange[@typeCode = 'REFV'][hl7:observationRange[@classCode = 'OBS'][@moodCode = 'EVN.CRT']]/hl7:observationRange[hl7:interpretationCode[not(@nullFlavor)][not(@nullFlavor)]]/hl7:value[@xsi:type='IVL_PQ']/*[not(@xsi:nil = 'true')][not(self::hl7:low | self::hl7:high)]" id="d245561e4560-true-d428387e0">
        <assert role="error" see="http://art-decor.org/art-decor/decor-templates--elgaimpf-?id=1.2.40.0.34.6.0.11.3.16" test="not(.)">(eimpf_entry_AntikoerperBestimmungLaboratoryObservation)/d245561e4560-true-d428387e0: '<value-of select="name(..)"/>' ist als geschlossen definiert und dieses Element '<name/>' ist nicht erlaubt oder nicht mit diesem Inhalt erlaubt. Dies kann templateId, code oder id betreffen. Erwartet:  hl7:low | hl7:high (rule-reference: d245561e4560-true-d428387e0)</assert>
    </rule>

   <!-- Checking undefined contents for template/element @isClosed="true". Match context that we did not already match -->
    <rule context="*[hl7:observation[hl7:templateId[@root = '1.2.40.0.34.6.0.11.3.16'] and hl7:templateId[@root = '1.3.6.1.4.1.19376.1.3.1.6']]]/hl7:observation[hl7:templateId[@root = '1.2.40.0.34.6.0.11.3.16'] and hl7:templateId[@root = '1.3.6.1.4.1.19376.1.3.1.6']]/hl7:referenceRange[@typeCode = 'REFV'][hl7:observationRange[@classCode = 'OBS'][@moodCode = 'EVN.CRT']]/hl7:observationRange[hl7:interpretationCode[not(@nullFlavor)][not(@nullFlavor)]]/hl7:value[@xsi:type='RTO']/*[not(@xsi:nil = 'true')][not(self::hl7:numerator[not(@nullFlavor)] | self::hl7:denominator)]" id="d245561e4563-true-d428411e0">
        <assert role="error" see="http://art-decor.org/art-decor/decor-templates--elgaimpf-?id=1.2.40.0.34.6.0.11.3.16" test="not(.)">(eimpf_entry_AntikoerperBestimmungLaboratoryObservation)/d245561e4563-true-d428411e0: '<value-of select="name(..)"/>' ist als geschlossen definiert und dieses Element '<name/>' ist nicht erlaubt oder nicht mit diesem Inhalt erlaubt. Dies kann templateId, code oder id betreffen. Erwartet:  hl7:numerator[not(@nullFlavor)] | hl7:denominator (rule-reference: d245561e4563-true-d428411e0)</assert>
    </rule>

   <!-- Checking undefined contents for template/element @isClosed="true". Match context that we did not already match -->
    <rule context="*[hl7:observation[hl7:templateId[@root = '1.2.40.0.34.6.0.11.3.16'] and hl7:templateId[@root = '1.3.6.1.4.1.19376.1.3.1.6']]]/hl7:observation[hl7:templateId[@root = '1.2.40.0.34.6.0.11.3.16'] and hl7:templateId[@root = '1.3.6.1.4.1.19376.1.3.1.6']]/hl7:referenceRange[@typeCode = 'REFV'][hl7:observationRange[@classCode = 'OBS'][@moodCode = 'EVN.CRT']]/hl7:observationRange[hl7:interpretationCode[not(@nullFlavor)][not(@nullFlavor)]]/hl7:value[@xsi:type='RTO']/hl7:denominator/*[not(@xsi:nil = 'true')][not(self::hl7:low | self::hl7:high)]" id="d245561e4566-true-d428433e0">
        <assert role="error" see="http://art-decor.org/art-decor/decor-templates--elgaimpf-?id=1.2.40.0.34.6.0.11.3.16" test="not(.)">(eimpf_entry_AntikoerperBestimmungLaboratoryObservation)/d245561e4566-true-d428433e0: '<value-of select="name(..)"/>' ist als geschlossen definiert und dieses Element '<name/>' ist nicht erlaubt oder nicht mit diesem Inhalt erlaubt. Dies kann templateId, code oder id betreffen. Erwartet:  hl7:low | hl7:high (rule-reference: d245561e4566-true-d428433e0)</assert>
    </rule>
</pattern>