<?xml version="1.0" encoding="UTF-8"?>
<!--
Template derived pattern
===========================================
ID: 1.2.40.0.34.11.3.2.1
Name: Pflege- und Betreuungsdiagnosen (enhanced)
Description: 
-->
<pattern xmlns="http://purl.oclc.org/dsdl/schematron"
         id="template-1.2.40.0.34.11.3.2.1-2013-04-17T000000">
   <title>Pflege- und Betreuungsdiagnosen (enhanced)</title>
   <!--
Template derived rules for ID: 1.2.40.0.34.11.3.2.1
Context: *[hl7:section[hl7:templateId[@root = '1.2.40.0.34.11.3.2.1']]]
Item: (PflegeBetreuungsdiagnosenEnhanced)
-->

   <!--
Template derived rules for ID: 1.2.40.0.34.11.3.2.1
Context: *[hl7:section[hl7:templateId[@root = '1.2.40.0.34.11.3.2.1']]]/hl7:section[hl7:templateId[@root = '1.2.40.0.34.11.3.2.1']]
Item: (PflegeBetreuungsdiagnosenEnhanced)
-->

   <rule context="*[hl7:section[hl7:templateId[@root = '1.2.40.0.34.11.3.2.1']]]/hl7:section[hl7:templateId[@root = '1.2.40.0.34.11.3.2.1']]"
         id="d20e26469-false-d254130e0">
      <assert role="error"
              see="http://elga.art-decor.org/elga-html-20200130T133330/tmp-1.2.40.0.34.11.3.2.1-2013-04-17T000000.html"
              test="count(hl7:templateId[@root = '1.2.40.0.34.11.3.2.1']) &gt;= 1">(PflegeBetreuungsdiagnosenEnhanced): Element hl7:templateId[@root = '1.2.40.0.34.11.3.2.1'] ist required [min 1x].</assert>
      <assert role="error"
              see="http://elga.art-decor.org/elga-html-20200130T133330/tmp-1.2.40.0.34.11.3.2.1-2013-04-17T000000.html"
              test="count(hl7:templateId[@root = '1.2.40.0.34.11.3.2.1']) &lt;= 1">(PflegeBetreuungsdiagnosenEnhanced): Element hl7:templateId[@root = '1.2.40.0.34.11.3.2.1'] kommt zu häufig vor [max 1x].</assert>
      <assert role="error"
              see="http://elga.art-decor.org/elga-html-20200130T133330/tmp-1.2.40.0.34.11.3.2.1-2013-04-17T000000.html"
              test="count(hl7:code[(@code = 'PFDIAG' and @codeSystem = '1.2.40.0.34.5.40')]) &gt;= 1">(PflegeBetreuungsdiagnosenEnhanced): Element hl7:code[(@code = 'PFDIAG' and @codeSystem = '1.2.40.0.34.5.40')] ist mandatory [min 1x].</assert>
      <assert role="error"
              see="http://elga.art-decor.org/elga-html-20200130T133330/tmp-1.2.40.0.34.11.3.2.1-2013-04-17T000000.html"
              test="count(hl7:code[(@code = 'PFDIAG' and @codeSystem = '1.2.40.0.34.5.40')]) &lt;= 1">(PflegeBetreuungsdiagnosenEnhanced): Element hl7:code[(@code = 'PFDIAG' and @codeSystem = '1.2.40.0.34.5.40')] kommt zu häufig vor [max 1x].</assert>
      <assert role="error"
              see="http://elga.art-decor.org/elga-html-20200130T133330/tmp-1.2.40.0.34.11.3.2.1-2013-04-17T000000.html"
              test="count(hl7:title[not(@nullFlavor)]) &gt;= 1">(PflegeBetreuungsdiagnosenEnhanced): Element hl7:title[not(@nullFlavor)] ist mandatory [min 1x].</assert>
      <assert role="error"
              see="http://elga.art-decor.org/elga-html-20200130T133330/tmp-1.2.40.0.34.11.3.2.1-2013-04-17T000000.html"
              test="count(hl7:title[not(@nullFlavor)]) &lt;= 1">(PflegeBetreuungsdiagnosenEnhanced): Element hl7:title[not(@nullFlavor)] kommt zu häufig vor [max 1x].</assert>
      <assert role="error"
              see="http://elga.art-decor.org/elga-html-20200130T133330/tmp-1.2.40.0.34.11.3.2.1-2013-04-17T000000.html"
              test="count(hl7:text[not(@nullFlavor)]) &gt;= 1">(PflegeBetreuungsdiagnosenEnhanced): Element hl7:text[not(@nullFlavor)] ist mandatory [min 1x].</assert>
      <assert role="error"
              see="http://elga.art-decor.org/elga-html-20200130T133330/tmp-1.2.40.0.34.11.3.2.1-2013-04-17T000000.html"
              test="count(hl7:text[not(@nullFlavor)]) &lt;= 1">(PflegeBetreuungsdiagnosenEnhanced): Element hl7:text[not(@nullFlavor)] kommt zu häufig vor [max 1x].</assert>
      <assert role="error"
              see="http://elga.art-decor.org/elga-html-20200130T133330/tmp-1.2.40.0.34.11.3.2.1-2013-04-17T000000.html"
              test="count(hl7:entry) = 0">(PflegeBetreuungsdiagnosenEnhanced): Element hl7:entry DARF NICHT vorkommen.</assert>
   </rule>
   <!--
Template derived rules for ID: 1.2.40.0.34.11.3.2.1
Context: *[hl7:section[hl7:templateId[@root = '1.2.40.0.34.11.3.2.1']]]/hl7:section[hl7:templateId[@root = '1.2.40.0.34.11.3.2.1']]/hl7:templateId[@root = '1.2.40.0.34.11.3.2.1']
Item: (PflegeBetreuungsdiagnosenEnhanced)
-->

   <rule context="*[hl7:section[hl7:templateId[@root = '1.2.40.0.34.11.3.2.1']]]/hl7:section[hl7:templateId[@root = '1.2.40.0.34.11.3.2.1']]/hl7:templateId[@root = '1.2.40.0.34.11.3.2.1']"
         id="d20e26473-false-d254183e0">
      <extends rule="II"/>
      <assert role="error"
              see="http://elga.art-decor.org/elga-html-20200130T133330/tmp-1.2.40.0.34.11.3.2.1-2013-04-17T000000.html"
              test="(local-name-from-QName(resolve-QName(@xsi:type,.))='II' and namespace-uri-from-QName(resolve-QName(@xsi:type,.))='urn:hl7-org:v3') or not(@xsi:type)">(PflegeBetreuungsdiagnosenEnhanced): Wenn eine @xsi:type Instruktion anwesend ist MUSS diese den Wert "{urn:hl7-org:v3}:II" haben. Gefunden "{<value-of select="namespace-uri-from-QName(resolve-QName(@xsi:type,.))"/>}:<value-of select="local-name-from-QName(resolve-QName(@xsi:type,.))"/>"</assert>
      <assert role="error"
              see="http://elga.art-decor.org/elga-html-20200130T133330/tmp-1.2.40.0.34.11.3.2.1-2013-04-17T000000.html"
              test="string(@root) = ('1.2.40.0.34.11.3.2.1')">(PflegeBetreuungsdiagnosenEnhanced): Der Wert von root MUSS '1.2.40.0.34.11.3.2.1' sein. Gefunden: "<value-of select="@root"/>"</assert>
   </rule>
   <!--
Template derived rules for ID: 1.2.40.0.34.11.30011
Context: *[hl7:section[hl7:templateId[@root = '1.2.40.0.34.11.3.2.1']]]/hl7:section[hl7:templateId[@root = '1.2.40.0.34.11.3.2.1']]/hl7:code[(@code = 'PFDIAG' and @codeSystem = '1.2.40.0.34.5.40')]
Item: (PflegeBetreuungsdiagnosenAlleEIS)
-->

   <rule context="*[hl7:section[hl7:templateId[@root = '1.2.40.0.34.11.3.2.1']]]/hl7:section[hl7:templateId[@root = '1.2.40.0.34.11.3.2.1']]/hl7:code[(@code = 'PFDIAG' and @codeSystem = '1.2.40.0.34.5.40')]"
         id="d254184e66-false-d254199e0">
      <extends rule="CE"/>
      <assert role="error"
              see="http://elga.art-decor.org/elga-html-20200130T133330/tmp-1.2.40.0.34.11.30011-2015-01-31T000000.html"
              test="(local-name-from-QName(resolve-QName(@xsi:type,.))='CE' and namespace-uri-from-QName(resolve-QName(@xsi:type,.))='urn:hl7-org:v3') or not(@xsi:type)">(PflegeBetreuungsdiagnosenAlleEIS): Wenn eine @xsi:type Instruktion anwesend ist MUSS diese den Wert "{urn:hl7-org:v3}:CE" haben. Gefunden "{<value-of select="namespace-uri-from-QName(resolve-QName(@xsi:type,.))"/>}:<value-of select="local-name-from-QName(resolve-QName(@xsi:type,.))"/>"</assert>
      <assert role="error"
              see="http://elga.art-decor.org/elga-html-20200130T133330/tmp-1.2.40.0.34.11.30011-2015-01-31T000000.html"
              test="@nullFlavor or (@code='PFDIAG' and @codeSystem='1.2.40.0.34.5.40')">(PflegeBetreuungsdiagnosenAlleEIS): Der Elementinhalt MUSS einer von 'code 'PFDIAG' codeSystem '1.2.40.0.34.5.40'' sein.</assert>
   </rule>
   <!--
Template derived rules for ID: 1.2.40.0.34.11.30011
Context: *[hl7:section[hl7:templateId[@root = '1.2.40.0.34.11.3.2.1']]]/hl7:section[hl7:templateId[@root = '1.2.40.0.34.11.3.2.1']]/hl7:title[not(@nullFlavor)]
Item: (PflegeBetreuungsdiagnosenAlleEIS)
-->

   <rule context="*[hl7:section[hl7:templateId[@root = '1.2.40.0.34.11.3.2.1']]]/hl7:section[hl7:templateId[@root = '1.2.40.0.34.11.3.2.1']]/hl7:title[not(@nullFlavor)]"
         id="d254184e77-false-d254215e0">
      <extends rule="ST"/>
      <assert role="error"
              see="http://elga.art-decor.org/elga-html-20200130T133330/tmp-1.2.40.0.34.11.30011-2015-01-31T000000.html"
              test="(local-name-from-QName(resolve-QName(@xsi:type,.))='ST' and namespace-uri-from-QName(resolve-QName(@xsi:type,.))='urn:hl7-org:v3') or not(@xsi:type)">(PflegeBetreuungsdiagnosenAlleEIS): Wenn eine @xsi:type Instruktion anwesend ist MUSS diese den Wert "{urn:hl7-org:v3}:ST" haben. Gefunden "{<value-of select="namespace-uri-from-QName(resolve-QName(@xsi:type,.))"/>}:<value-of select="local-name-from-QName(resolve-QName(@xsi:type,.))"/>"</assert>
      <assert role="error"
              see="http://elga.art-decor.org/elga-html-20200130T133330/tmp-1.2.40.0.34.11.30011-2015-01-31T000000.html"
              test="text()='Pflegediagnosen'">(PflegeBetreuungsdiagnosenAlleEIS): Der Elementinhalt von 'hl7:title[not(@nullFlavor)]' MUSS ''Pflegediagnosen'' sein. Gefunden: "<value-of select="."/>"</assert>
   </rule>
   <!--
Template derived rules for ID: 1.2.40.0.34.11.30011
Context: *[hl7:section[hl7:templateId[@root = '1.2.40.0.34.11.3.2.1']]]/hl7:section[hl7:templateId[@root = '1.2.40.0.34.11.3.2.1']]/hl7:text[not(@nullFlavor)]
Item: (PflegeBetreuungsdiagnosenAlleEIS)
-->

   <rule context="*[hl7:section[hl7:templateId[@root = '1.2.40.0.34.11.3.2.1']]]/hl7:section[hl7:templateId[@root = '1.2.40.0.34.11.3.2.1']]/hl7:text[not(@nullFlavor)]"
         id="d254184e83-false-d254229e0">
      <extends rule="SD.TEXT"/>
      <assert role="error"
              see="http://elga.art-decor.org/elga-html-20200130T133330/tmp-1.2.40.0.34.11.30011-2015-01-31T000000.html"
              test="(local-name-from-QName(resolve-QName(@xsi:type,.))='SD.TEXT' and namespace-uri-from-QName(resolve-QName(@xsi:type,.))='urn:hl7-org:v3') or not(@xsi:type)">(PflegeBetreuungsdiagnosenAlleEIS): Wenn eine @xsi:type Instruktion anwesend ist MUSS diese den Wert "{urn:hl7-org:v3}:SD.TEXT" haben. Gefunden "{<value-of select="namespace-uri-from-QName(resolve-QName(@xsi:type,.))"/>}:<value-of select="local-name-from-QName(resolve-QName(@xsi:type,.))"/>"</assert>
   </rule>
   <!--
Template derived rules for ID: 1.2.40.0.34.11.3.2.1
Context: *[hl7:section[hl7:templateId[@root = '1.2.40.0.34.11.3.2.1']]]/hl7:section[hl7:templateId[@root = '1.2.40.0.34.11.3.2.1']]/hl7:entry
Item: (PflegeBetreuungsdiagnosenEnhanced)
-->
</pattern>
