<?xml version="1.0" encoding="UTF-8"?>
<!--
Template derived pattern
===========================================
ID: 1.2.40.0.34.6.0.11.2.8
Name: Übersetzung
Description: 
-->
<pattern xmlns="http://purl.oclc.org/dsdl/schematron" id="template-1.2.40.0.34.6.0.11.2.8-2019-05-14T152450-closed">
    <title>Übersetzung</title>

   <!-- Checking undefined contents for template/element @isClosed="true". Match context that we did not already match -->
    <rule context="*[hl7:section[hl7:templateId[@root = '1.2.40.0.34.6.0.11.2.8']]]/*[not(@xsi:nil = 'true')][not(self::hl7:section[hl7:templateId[@root = '1.2.40.0.34.6.0.11.2.8']])]" id="d245561e3086-true-d395332e0">
        <assert role="error" see="http://art-decor.org/art-decor/decor-templates--elgaimpf-?id=1.2.40.0.34.6.0.11.2.8" test="not(.)">(atcdabbr_section_Uebersetzung)/d245561e3086-true-d395332e0: '<value-of select="name(..)"/>' ist als geschlossen definiert und dieses Element '<name/>' ist nicht erlaubt oder nicht mit diesem Inhalt erlaubt. Dies kann templateId, code oder id betreffen. Erwartet:  hl7:section[hl7:templateId[@root = '1.2.40.0.34.6.0.11.2.8']] (rule-reference: d245561e3086-true-d395332e0)</assert>
    </rule>

   <!-- Checking undefined contents for template/element @isClosed="true". Match context that we did not already match -->
    <rule context="*[hl7:section[hl7:templateId[@root = '1.2.40.0.34.6.0.11.2.8']]]/hl7:section[hl7:templateId[@root = '1.2.40.0.34.6.0.11.2.8']]/*[not(@xsi:nil = 'true')][not(self::hl7:templateId[@root = '1.2.40.0.34.6.0.11.2.8'] | self::hl7:id[not(@nullFlavor)] | self::hl7:title[not(@nullFlavor)] | self::hl7:text[not(@nullFlavor)] | self::hl7:languageCode[@code = doc('include/voc-1.2.40.0.34.10.173-DYNAMIC.xml')//valueSet[1]/conceptList/*/@code] | self::hl7:author[hl7:assignedAuthor] | self::hl7:informant)]" id="d245561e3202-true-d395653e0">
        <assert role="error" see="http://art-decor.org/art-decor/decor-templates--elgaimpf-?id=1.2.40.0.34.6.0.11.2.8" test="not(.)">(atcdabbr_section_Uebersetzung)/d245561e3202-true-d395653e0: '<value-of select="name(..)"/>' ist als geschlossen definiert und dieses Element '<name/>' ist nicht erlaubt oder nicht mit diesem Inhalt erlaubt. Dies kann templateId, code oder id betreffen. Erwartet:  hl7:templateId[@root = '1.2.40.0.34.6.0.11.2.8'] | hl7:id[not(@nullFlavor)] | hl7:title[not(@nullFlavor)] | hl7:text[not(@nullFlavor)] | hl7:languageCode[@code = doc('include/voc-1.2.40.0.34.10.173-DYNAMIC.xml')//valueSet[1]/conceptList/*/@code] | hl7:author[hl7:assignedAuthor] | hl7:informant (rule-reference: d245561e3202-true-d395653e0)</assert>
    </rule>

   <!-- Checking undefined contents for template/element @isClosed="true". Match context that we did not already match -->
    <rule context="*[hl7:section[hl7:templateId[@root = '1.2.40.0.34.6.0.11.2.8']]]/hl7:section[hl7:templateId[@root = '1.2.40.0.34.6.0.11.2.8']]/hl7:author[hl7:assignedAuthor]/*[not(@xsi:nil = 'true')][not(self::hl7:functionCode | self::hl7:time[not(@nullFlavor)] | self::hl7:time[@nullFlavor='UNK'] | self::hl7:assignedAuthor)]" id="d245561e3223-true-d395804e0">
        <assert role="error" see="http://art-decor.org/art-decor/decor-templates--elgaimpf-?id=1.2.40.0.34.6.0.11.2.8" test="not(.)">(atcdabbr_section_Uebersetzung)/d245561e3223-true-d395804e0: '<value-of select="name(..)"/>' ist als geschlossen definiert und dieses Element '<name/>' ist nicht erlaubt oder nicht mit diesem Inhalt erlaubt. Dies kann templateId, code oder id betreffen. Erwartet:  hl7:functionCode | hl7:time[not(@nullFlavor)] | hl7:time[@nullFlavor='UNK'] | hl7:assignedAuthor (rule-reference: d245561e3223-true-d395804e0)</assert>
    </rule>

   <!-- Checking undefined contents for template/element @isClosed="true". Match context that we did not already match -->
    <rule context="*[hl7:section[hl7:templateId[@root = '1.2.40.0.34.6.0.11.2.8']]]/hl7:section[hl7:templateId[@root = '1.2.40.0.34.6.0.11.2.8']]/hl7:author[hl7:assignedAuthor]/hl7:assignedAuthor/*[not(@xsi:nil = 'true')][not(self::hl7:id[not(@nullFlavor)] | self::hl7:id[@nullFlavor='UNK'] | self::hl7:code[not(@nullFlavor)] | self::hl7:addr[not(@nullFlavor)] | self::hl7:telecom[not(@nullFlavor)] | self::hl7:assignedPerson | self::hl7:assignedAuthoringDevice | self::hl7:representedOrganization)]" id="d395680e26-true-d395911e0">
        <assert role="error" see="http://art-decor.org/art-decor/decor-templates--elgaimpf-?id=1.2.40.0.34.6.0.11.2.8" test="not(.)">(atcdabbr_section_Uebersetzung)/d395680e26-true-d395911e0: '<value-of select="name(..)"/>' ist als geschlossen definiert und dieses Element '<name/>' ist nicht erlaubt oder nicht mit diesem Inhalt erlaubt. Dies kann templateId, code oder id betreffen. Erwartet:  hl7:id[not(@nullFlavor)] | hl7:id[@nullFlavor='UNK'] | hl7:code[not(@nullFlavor)] | hl7:addr[not(@nullFlavor)] | hl7:telecom[not(@nullFlavor)] | hl7:assignedPerson | hl7:assignedAuthoringDevice | hl7:representedOrganization (rule-reference: d395680e26-true-d395911e0)</assert>
    </rule>

   <!-- Checking undefined contents for template/element @isClosed="true". Match context that we did not already match -->
    <rule context="*[hl7:section[hl7:templateId[@root = '1.2.40.0.34.6.0.11.2.8']]]/hl7:section[hl7:templateId[@root = '1.2.40.0.34.6.0.11.2.8']]/hl7:author[hl7:assignedAuthor]/hl7:assignedAuthor/hl7:addr[not(@nullFlavor)]/*[not(@xsi:nil = 'true')][not(self::hl7:streetAddressLine | self::hl7:streetName | self::hl7:houseNumber | self::hl7:postalCode[not(@nullFlavor)] | self::hl7:city[not(@nullFlavor)] | self::hl7:state | self::hl7:country[not(@nullFlavor)] | self::hl7:additionalLocator)]" id="d395680e34-true-d395966e0">
        <assert role="error" see="http://art-decor.org/art-decor/decor-templates--elgaimpf-?id=1.2.40.0.34.6.0.11.2.8" test="not(.)">(atcdabbr_section_Uebersetzung)/d395680e34-true-d395966e0: '<value-of select="name(..)"/>' ist als geschlossen definiert und dieses Element '<name/>' ist nicht erlaubt oder nicht mit diesem Inhalt erlaubt. Dies kann templateId, code oder id betreffen. Erwartet:  hl7:streetAddressLine | hl7:streetName | hl7:houseNumber | hl7:postalCode[not(@nullFlavor)] | hl7:city[not(@nullFlavor)] | hl7:state | hl7:country[not(@nullFlavor)] | hl7:additionalLocator (rule-reference: d395680e34-true-d395966e0)</assert>
    </rule>

   <!-- Checking undefined contents for template/element @isClosed="true". Match context that we did not already match -->
    <rule context="*[hl7:section[hl7:templateId[@root = '1.2.40.0.34.6.0.11.2.8']]]/hl7:section[hl7:templateId[@root = '1.2.40.0.34.6.0.11.2.8']]/hl7:author[hl7:assignedAuthor]/hl7:assignedAuthor/hl7:assignedPerson/*[not(@xsi:nil = 'true')][not(self::hl7:name[not(@nullFlavor)] | self::hl7:name[@nullFlavor='UNK'] | self::hl7:name[@nullFlavor='MSK'])]" id="d395680e56-true-d396013e0">
        <assert role="error" see="http://art-decor.org/art-decor/decor-templates--elgaimpf-?id=1.2.40.0.34.6.0.11.2.8" test="not(.)">(atcdabbr_section_Uebersetzung)/d395680e56-true-d396013e0: '<value-of select="name(..)"/>' ist als geschlossen definiert und dieses Element '<name/>' ist nicht erlaubt oder nicht mit diesem Inhalt erlaubt. Dies kann templateId, code oder id betreffen. Erwartet:  hl7:name[not(@nullFlavor)] | hl7:name[@nullFlavor='UNK'] | hl7:name[@nullFlavor='MSK'] (rule-reference: d395680e56-true-d396013e0)</assert>
    </rule>

   <!-- Checking undefined contents for template/element @isClosed="true". Match context that we did not already match -->
    <rule context="*[hl7:section[hl7:templateId[@root = '1.2.40.0.34.6.0.11.2.8']]]/hl7:section[hl7:templateId[@root = '1.2.40.0.34.6.0.11.2.8']]/hl7:author[hl7:assignedAuthor]/hl7:assignedAuthor/hl7:assignedPerson/hl7:name[not(@nullFlavor)]/*[not(@xsi:nil = 'true')][not(self::hl7:prefix | self::hl7:family[not(@nullFlavor)] | self::hl7:given[not(@nullFlavor)] | self::hl7:suffix)]" id="d396017e62-true-d396045e0">
        <assert role="error" see="http://art-decor.org/art-decor/decor-templates--elgaimpf-?id=1.2.40.0.34.6.0.11.9.6" test="not(.)">(atcdabbr_other_PersonNameCompilationG2)/d396017e62-true-d396045e0: '<value-of select="name(..)"/>' ist als geschlossen definiert und dieses Element '<name/>' ist nicht erlaubt oder nicht mit diesem Inhalt erlaubt. Dies kann templateId, code oder id betreffen. Erwartet:  hl7:prefix | hl7:family[not(@nullFlavor)] | hl7:given[not(@nullFlavor)] | hl7:suffix (rule-reference: d396017e62-true-d396045e0)</assert>
    </rule>

   <!-- Checking undefined contents for template/element @isClosed="true". Match context that we did not already match -->
    <rule context="*[hl7:section[hl7:templateId[@root = '1.2.40.0.34.6.0.11.2.8']]]/hl7:section[hl7:templateId[@root = '1.2.40.0.34.6.0.11.2.8']]/hl7:author[hl7:assignedAuthor]/hl7:assignedAuthor/hl7:assignedAuthoringDevice/*[not(@xsi:nil = 'true')][not(self::hl7:manufacturerModelName[not(@nullFlavor)] | self::hl7:softwareName[not(@nullFlavor)])]" id="d395680e67-true-d396086e0">
        <assert role="error" see="http://art-decor.org/art-decor/decor-templates--elgaimpf-?id=1.2.40.0.34.6.0.11.2.8" test="not(.)">(atcdabbr_section_Uebersetzung)/d395680e67-true-d396086e0: '<value-of select="name(..)"/>' ist als geschlossen definiert und dieses Element '<name/>' ist nicht erlaubt oder nicht mit diesem Inhalt erlaubt. Dies kann templateId, code oder id betreffen. Erwartet:  hl7:manufacturerModelName[not(@nullFlavor)] | hl7:softwareName[not(@nullFlavor)] (rule-reference: d395680e67-true-d396086e0)</assert>
    </rule>

   <!-- Checking undefined contents for template/element @isClosed="true". Match context that we did not already match -->
    <rule context="*[hl7:section[hl7:templateId[@root = '1.2.40.0.34.6.0.11.2.8']]]/hl7:section[hl7:templateId[@root = '1.2.40.0.34.6.0.11.2.8']]/hl7:author[hl7:assignedAuthor]/hl7:assignedAuthor/hl7:representedOrganization/*[not(@xsi:nil = 'true')][not(self::hl7:id[not(@nullFlavor)] | self::hl7:name[not(@nullFlavor)] | self::hl7:telecom[not(@nullFlavor)] | self::hl7:addr[not(@nullFlavor)])]" id="d395680e74-true-d396128e0">
        <assert role="error" see="http://art-decor.org/art-decor/decor-templates--elgaimpf-?id=1.2.40.0.34.6.0.11.2.8" test="not(.)">(atcdabbr_section_Uebersetzung)/d395680e74-true-d396128e0: '<value-of select="name(..)"/>' ist als geschlossen definiert und dieses Element '<name/>' ist nicht erlaubt oder nicht mit diesem Inhalt erlaubt. Dies kann templateId, code oder id betreffen. Erwartet:  hl7:id[not(@nullFlavor)] | hl7:name[not(@nullFlavor)] | hl7:telecom[not(@nullFlavor)] | hl7:addr[not(@nullFlavor)] (rule-reference: d395680e74-true-d396128e0)</assert>
    </rule>

   <!-- Checking undefined contents for template/element @isClosed="true". Match context that we did not already match -->
    <rule context="*[hl7:section[hl7:templateId[@root = '1.2.40.0.34.6.0.11.2.8']]]/hl7:section[hl7:templateId[@root = '1.2.40.0.34.6.0.11.2.8']]/hl7:author[hl7:assignedAuthor]/hl7:assignedAuthor/hl7:representedOrganization/hl7:addr[not(@nullFlavor)]/*[not(@xsi:nil = 'true')][not(self::hl7:streetAddressLine | self::hl7:streetName | self::hl7:houseNumber | self::hl7:postalCode[not(@nullFlavor)] | self::hl7:city[not(@nullFlavor)] | self::hl7:state | self::hl7:country[not(@nullFlavor)] | self::hl7:additionalLocator)]" id="d396099e43-true-d396187e0">
        <assert role="error" see="http://art-decor.org/art-decor/decor-templates--elgaimpf-?id=1.2.40.0.34.6.0.11.2.8" test="not(.)">(atcdabbr_section_Uebersetzung)/d396099e43-true-d396187e0: '<value-of select="name(..)"/>' ist als geschlossen definiert und dieses Element '<name/>' ist nicht erlaubt oder nicht mit diesem Inhalt erlaubt. Dies kann templateId, code oder id betreffen. Erwartet:  hl7:streetAddressLine | hl7:streetName | hl7:houseNumber | hl7:postalCode[not(@nullFlavor)] | hl7:city[not(@nullFlavor)] | hl7:state | hl7:country[not(@nullFlavor)] | hl7:additionalLocator (rule-reference: d396099e43-true-d396187e0)</assert>
    </rule>

   <!-- Checking undefined contents for template/element @isClosed="true". Match context that we did not already match -->
    <rule context="*[hl7:section[hl7:templateId[@root = '1.2.40.0.34.6.0.11.2.8']]]/hl7:section[hl7:templateId[@root = '1.2.40.0.34.6.0.11.2.8']]/hl7:informant/*[not(@xsi:nil = 'true')][not(self::hl7:assignedEntity | self::hl7:relatedEntity)]" id="d245561e3226-true-d396350e0">
        <assert role="error" see="http://art-decor.org/art-decor/decor-templates--elgaimpf-?id=1.2.40.0.34.6.0.11.2.8" test="not(.)">(atcdabbr_section_Uebersetzung)/d245561e3226-true-d396350e0: '<value-of select="name(..)"/>' ist als geschlossen definiert und dieses Element '<name/>' ist nicht erlaubt oder nicht mit diesem Inhalt erlaubt. Dies kann templateId, code oder id betreffen. Erwartet:  hl7:assignedEntity | hl7:relatedEntity (rule-reference: d245561e3226-true-d396350e0)</assert>
    </rule>

   <!-- Checking undefined contents for template/element @isClosed="true". Match context that we did not already match -->
    <rule context="*[hl7:section[hl7:templateId[@root = '1.2.40.0.34.6.0.11.2.8']]]/hl7:section[hl7:templateId[@root = '1.2.40.0.34.6.0.11.2.8']]/hl7:informant/hl7:assignedEntity/*[not(@xsi:nil = 'true')][not(self::hl7:id[not(@nullFlavor)] | self::hl7:id[@nullFlavor='NI'] | self::hl7:id[@nullFlavor='UNK'] | self::hl7:code | self::hl7:addr | self::hl7:telecom | self::hl7:assignedPerson | self::hl7:assignedPerson | self::hl7:representedOrganization)]" id="d396224e4-true-d396484e0">
        <assert role="error" see="http://art-decor.org/art-decor/decor-templates--elgaimpf-?id=1.2.40.0.34.6.0.11.2.8" test="not(.)">(atcdabbr_section_Uebersetzung)/d396224e4-true-d396484e0: '<value-of select="name(..)"/>' ist als geschlossen definiert und dieses Element '<name/>' ist nicht erlaubt oder nicht mit diesem Inhalt erlaubt. Dies kann templateId, code oder id betreffen. Erwartet:  hl7:id[not(@nullFlavor)] | hl7:id[@nullFlavor='NI'] | hl7:id[@nullFlavor='UNK'] | hl7:code | hl7:addr | hl7:telecom | hl7:assignedPerson | hl7:assignedPerson | hl7:representedOrganization (rule-reference: d396224e4-true-d396484e0)</assert>
    </rule>

   <!-- Checking undefined contents for template/element @isClosed="true". Match context that we did not already match -->
    <rule context="*[hl7:section[hl7:templateId[@root = '1.2.40.0.34.6.0.11.2.8']]]/hl7:section[hl7:templateId[@root = '1.2.40.0.34.6.0.11.2.8']]/hl7:informant/hl7:assignedEntity/hl7:addr/*[not(@xsi:nil = 'true')][not(self::hl7:streetAddressLine | self::hl7:streetName | self::hl7:houseNumber | self::hl7:postalCode | self::hl7:city | self::hl7:state | self::hl7:country | self::hl7:additionalLocator)]" id="d396355e26-true-d396545e0">
        <assert role="error" see="http://art-decor.org/art-decor/decor-templates--elgaimpf-?id=1.2.40.0.34.6.0.11.2.8" test="not(.)">(atcdabbr_section_Uebersetzung)/d396355e26-true-d396545e0: '<value-of select="name(..)"/>' ist als geschlossen definiert und dieses Element '<name/>' ist nicht erlaubt oder nicht mit diesem Inhalt erlaubt. Dies kann templateId, code oder id betreffen. Erwartet:  hl7:streetAddressLine | hl7:streetName | hl7:houseNumber | hl7:postalCode | hl7:city | hl7:state | hl7:country | hl7:additionalLocator (rule-reference: d396355e26-true-d396545e0)</assert>
    </rule>

   <!-- Checking undefined contents for template/element @isClosed="true". Match context that we did not already match -->
    <rule context="*[hl7:section[hl7:templateId[@root = '1.2.40.0.34.6.0.11.2.8']]]/hl7:section[hl7:templateId[@root = '1.2.40.0.34.6.0.11.2.8']]/hl7:informant/hl7:assignedEntity/hl7:assignedPerson/*[not(@xsi:nil = 'true')][not(self::hl7:name[not(@nullFlavor)])]" id="d396355e66-true-d396597e0">
        <assert role="error" see="http://art-decor.org/art-decor/decor-templates--elgaimpf-?id=1.2.40.0.34.6.0.11.2.8" test="not(.)">(atcdabbr_section_Uebersetzung)/d396355e66-true-d396597e0: '<value-of select="name(..)"/>' ist als geschlossen definiert und dieses Element '<name/>' ist nicht erlaubt oder nicht mit diesem Inhalt erlaubt. Dies kann templateId, code oder id betreffen. Erwartet:  hl7:name[not(@nullFlavor)] (rule-reference: d396355e66-true-d396597e0)</assert>
    </rule>

   <!-- Checking undefined contents for template/element @isClosed="true". Match context that we did not already match -->
    <rule context="*[hl7:section[hl7:templateId[@root = '1.2.40.0.34.6.0.11.2.8']]]/hl7:section[hl7:templateId[@root = '1.2.40.0.34.6.0.11.2.8']]/hl7:informant/hl7:assignedEntity/hl7:assignedPerson/*[not(@xsi:nil = 'true')][not(self::hl7:name[not(@nullFlavor)])]" id="d396355e73-true-d396617e0">
        <assert role="error" see="http://art-decor.org/art-decor/decor-templates--elgaimpf-?id=1.2.40.0.34.6.0.11.2.8" test="not(.)">(atcdabbr_section_Uebersetzung)/d396355e73-true-d396617e0: '<value-of select="name(..)"/>' ist als geschlossen definiert und dieses Element '<name/>' ist nicht erlaubt oder nicht mit diesem Inhalt erlaubt. Dies kann templateId, code oder id betreffen. Erwartet:  hl7:name[not(@nullFlavor)] (rule-reference: d396355e73-true-d396617e0)</assert>
    </rule>

   <!-- Checking undefined contents for template/element @isClosed="true". Match context that we did not already match -->
    <rule context="*[hl7:section[hl7:templateId[@root = '1.2.40.0.34.6.0.11.2.8']]]/hl7:section[hl7:templateId[@root = '1.2.40.0.34.6.0.11.2.8']]/hl7:informant/hl7:assignedEntity/hl7:assignedPerson/hl7:name[not(@nullFlavor)]/*[not(@xsi:nil = 'true')][not(self::hl7:prefix | self::hl7:family[not(@nullFlavor)] | self::hl7:given[not(@nullFlavor)] | self::hl7:suffix)]" id="d396606e10-true-d396645e0">
        <assert role="error" see="http://art-decor.org/art-decor/decor-templates--elgaimpf-?id=1.2.40.0.34.6.0.11.2.8" test="not(.)">(atcdabbr_section_Uebersetzung)/d396606e10-true-d396645e0: '<value-of select="name(..)"/>' ist als geschlossen definiert und dieses Element '<name/>' ist nicht erlaubt oder nicht mit diesem Inhalt erlaubt. Dies kann templateId, code oder id betreffen. Erwartet:  hl7:prefix | hl7:family[not(@nullFlavor)] | hl7:given[not(@nullFlavor)] | hl7:suffix (rule-reference: d396606e10-true-d396645e0)</assert>
    </rule>

   <!-- Checking undefined contents for template/element @isClosed="true". Match context that we did not already match -->
    <rule context="*[hl7:section[hl7:templateId[@root = '1.2.40.0.34.6.0.11.2.8']]]/hl7:section[hl7:templateId[@root = '1.2.40.0.34.6.0.11.2.8']]/hl7:informant/hl7:assignedEntity/hl7:representedOrganization/*[not(@xsi:nil = 'true')][not(self::hl7:id[not(@nullFlavor)] | self::hl7:name[not(@nullFlavor)] | self::hl7:telecom[not(@nullFlavor)] | self::hl7:addr[not(@nullFlavor)])]" id="d396355e81-true-d396691e0">
        <assert role="error" see="http://art-decor.org/art-decor/decor-templates--elgaimpf-?id=1.2.40.0.34.6.0.11.2.8" test="not(.)">(atcdabbr_section_Uebersetzung)/d396355e81-true-d396691e0: '<value-of select="name(..)"/>' ist als geschlossen definiert und dieses Element '<name/>' ist nicht erlaubt oder nicht mit diesem Inhalt erlaubt. Dies kann templateId, code oder id betreffen. Erwartet:  hl7:id[not(@nullFlavor)] | hl7:name[not(@nullFlavor)] | hl7:telecom[not(@nullFlavor)] | hl7:addr[not(@nullFlavor)] (rule-reference: d396355e81-true-d396691e0)</assert>
    </rule>

   <!-- Checking undefined contents for template/element @isClosed="true". Match context that we did not already match -->
    <rule context="*[hl7:section[hl7:templateId[@root = '1.2.40.0.34.6.0.11.2.8']]]/hl7:section[hl7:templateId[@root = '1.2.40.0.34.6.0.11.2.8']]/hl7:informant/hl7:assignedEntity/hl7:representedOrganization/hl7:addr[not(@nullFlavor)]/*[not(@xsi:nil = 'true')][not(self::hl7:streetAddressLine | self::hl7:streetName | self::hl7:houseNumber | self::hl7:postalCode | self::hl7:city | self::hl7:state | self::hl7:country | self::hl7:additionalLocator)]" id="d396666e36-true-d396748e0">
        <assert role="error" see="http://art-decor.org/art-decor/decor-templates--elgaimpf-?id=1.2.40.0.34.6.0.11.2.8" test="not(.)">(atcdabbr_section_Uebersetzung)/d396666e36-true-d396748e0: '<value-of select="name(..)"/>' ist als geschlossen definiert und dieses Element '<name/>' ist nicht erlaubt oder nicht mit diesem Inhalt erlaubt. Dies kann templateId, code oder id betreffen. Erwartet:  hl7:streetAddressLine | hl7:streetName | hl7:houseNumber | hl7:postalCode | hl7:city | hl7:state | hl7:country | hl7:additionalLocator (rule-reference: d396666e36-true-d396748e0)</assert>
    </rule>

   <!-- Checking undefined contents for template/element @isClosed="true". Match context that we did not already match -->
    <rule context="*[hl7:section[hl7:templateId[@root = '1.2.40.0.34.6.0.11.2.8']]]/hl7:section[hl7:templateId[@root = '1.2.40.0.34.6.0.11.2.8']]/hl7:informant/hl7:relatedEntity/*[not(@xsi:nil = 'true')][not(self::hl7:code[not(@nullFlavor)] | self::hl7:addr[not(@nullFlavor)] | self::hl7:telecom[not(@nullFlavor)] | self::hl7:relatedPerson)]" id="d396224e5-true-d396816e0">
        <assert role="error" see="http://art-decor.org/art-decor/decor-templates--elgaimpf-?id=1.2.40.0.34.6.0.11.2.8" test="not(.)">(atcdabbr_section_Uebersetzung)/d396224e5-true-d396816e0: '<value-of select="name(..)"/>' ist als geschlossen definiert und dieses Element '<name/>' ist nicht erlaubt oder nicht mit diesem Inhalt erlaubt. Dies kann templateId, code oder id betreffen. Erwartet:  hl7:code[not(@nullFlavor)] | hl7:addr[not(@nullFlavor)] | hl7:telecom[not(@nullFlavor)] | hl7:relatedPerson (rule-reference: d396224e5-true-d396816e0)</assert>
    </rule>

   <!-- Checking undefined contents for template/element @isClosed="true". Match context that we did not already match -->
    <rule context="*[hl7:section[hl7:templateId[@root = '1.2.40.0.34.6.0.11.2.8']]]/hl7:section[hl7:templateId[@root = '1.2.40.0.34.6.0.11.2.8']]/hl7:informant/hl7:relatedEntity/hl7:addr[not(@nullFlavor)]/*[not(@xsi:nil = 'true')][not(self::hl7:streetAddressLine | self::hl7:streetName | self::hl7:houseNumber | self::hl7:postalCode | self::hl7:city | self::hl7:state | self::hl7:country | self::hl7:additionalLocator)]" id="d396224e8-true-d396867e0">
        <assert role="error" see="http://art-decor.org/art-decor/decor-templates--elgaimpf-?id=1.2.40.0.34.6.0.11.2.8" test="not(.)">(atcdabbr_section_Uebersetzung)/d396224e8-true-d396867e0: '<value-of select="name(..)"/>' ist als geschlossen definiert und dieses Element '<name/>' ist nicht erlaubt oder nicht mit diesem Inhalt erlaubt. Dies kann templateId, code oder id betreffen. Erwartet:  hl7:streetAddressLine | hl7:streetName | hl7:houseNumber | hl7:postalCode | hl7:city | hl7:state | hl7:country | hl7:additionalLocator (rule-reference: d396224e8-true-d396867e0)</assert>
    </rule>

   <!-- Checking undefined contents for template/element @isClosed="true". Match context that we did not already match -->
    <rule context="*[hl7:section[hl7:templateId[@root = '1.2.40.0.34.6.0.11.2.8']]]/hl7:section[hl7:templateId[@root = '1.2.40.0.34.6.0.11.2.8']]/hl7:informant/hl7:relatedEntity/hl7:relatedPerson/*[not(@xsi:nil = 'true')][not(self::hl7:name[not(@nullFlavor)] | self::hl7:name[@nullFlavor='UNK'] | self::hl7:name[@nullFlavor='MSK'])]" id="d396224e10-true-d396912e0">
        <assert role="error" see="http://art-decor.org/art-decor/decor-templates--elgaimpf-?id=1.2.40.0.34.6.0.11.2.8" test="not(.)">(atcdabbr_section_Uebersetzung)/d396224e10-true-d396912e0: '<value-of select="name(..)"/>' ist als geschlossen definiert und dieses Element '<name/>' ist nicht erlaubt oder nicht mit diesem Inhalt erlaubt. Dies kann templateId, code oder id betreffen. Erwartet:  hl7:name[not(@nullFlavor)] | hl7:name[@nullFlavor='UNK'] | hl7:name[@nullFlavor='MSK'] (rule-reference: d396224e10-true-d396912e0)</assert>
    </rule>

   <!-- Checking undefined contents for template/element @isClosed="true". Match context that we did not already match -->
    <rule context="*[hl7:section[hl7:templateId[@root = '1.2.40.0.34.6.0.11.2.8']]]/hl7:section[hl7:templateId[@root = '1.2.40.0.34.6.0.11.2.8']]/hl7:informant/hl7:relatedEntity/hl7:relatedPerson/hl7:name[not(@nullFlavor)]/*[not(@xsi:nil = 'true')][not(self::hl7:prefix | self::hl7:family[not(@nullFlavor)] | self::hl7:given[not(@nullFlavor)] | self::hl7:suffix)]" id="d396906e7-true-d396938e0">
        <assert role="error" see="http://art-decor.org/art-decor/decor-templates--elgaimpf-?id=1.2.40.0.34.6.0.11.2.8" test="not(.)">(atcdabbr_section_Uebersetzung)/d396906e7-true-d396938e0: '<value-of select="name(..)"/>' ist als geschlossen definiert und dieses Element '<name/>' ist nicht erlaubt oder nicht mit diesem Inhalt erlaubt. Dies kann templateId, code oder id betreffen. Erwartet:  hl7:prefix | hl7:family[not(@nullFlavor)] | hl7:given[not(@nullFlavor)] | hl7:suffix (rule-reference: d396906e7-true-d396938e0)</assert>
    </rule>
</pattern>