<?xml version="1.0" encoding="UTF-8"?>
<!--
Template derived pattern
===========================================
ID: 1.2.40.0.34.6.0.11.3.21
Name: Expositionsrisiko Problem Entry
Description: 
-->
<pattern xmlns="http://purl.oclc.org/dsdl/schematron" id="template-1.2.40.0.34.6.0.11.3.21-2019-05-29T151739">
    <title>Expositionsrisiko Problem Entry</title>
   <!--
Template derived rules for ID: 1.2.40.0.34.6.0.11.3.21
Context: *[hl7:observation[hl7:templateId[@root = '1.2.40.0.34.6.0.11.3.21'] and hl7:templateId[@root = '2.16.840.1.113883.10.20.1.28'] and hl7:templateId[@root = '1.3.6.1.4.1.19376.1.5.3.1.4.5']]]
Item: (atcdabbr_entry_ExpositionsrisikoProblem)
-->

<!--
Template derived rules for ID: 1.2.40.0.34.6.0.11.3.21
Context: *[hl7:observation[hl7:templateId[@root = '1.2.40.0.34.6.0.11.3.21'] and hl7:templateId[@root = '2.16.840.1.113883.10.20.1.28'] and hl7:templateId[@root = '1.3.6.1.4.1.19376.1.5.3.1.4.5']]]/hl7:observation[hl7:templateId[@root = '1.2.40.0.34.6.0.11.3.21'] and hl7:templateId[@root = '2.16.840.1.113883.10.20.1.28'] and hl7:templateId[@root = '1.3.6.1.4.1.19376.1.5.3.1.4.5']]
Item: (atcdabbr_entry_ExpositionsrisikoProblem)
-->
    <rule context="*[hl7:observation[hl7:templateId[@root = '1.2.40.0.34.6.0.11.3.21'] and hl7:templateId[@root = '2.16.840.1.113883.10.20.1.28'] and hl7:templateId[@root = '1.3.6.1.4.1.19376.1.5.3.1.4.5']]]/hl7:observation[hl7:templateId[@root = '1.2.40.0.34.6.0.11.3.21'] and hl7:templateId[@root = '2.16.840.1.113883.10.20.1.28'] and hl7:templateId[@root = '1.3.6.1.4.1.19376.1.5.3.1.4.5']]" id="d245561e4921-false-d445105e0">
        <assert role="error" see="http://art-decor.org/art-decor/decor-templates--elgaimpf-?id=1.2.40.0.34.6.0.11.3.21" test="string(@classCode) = ('OBS')">(atcdabbr_entry_ExpositionsrisikoProblem): Der Wert von classCode MUSS 'OBS' sein. Gefunden: "<value-of select="@classCode"/>"</assert>
        <assert role="error" see="http://art-decor.org/art-decor/decor-templates--elgaimpf-?id=1.2.40.0.34.6.0.11.3.21" test="string(@moodCode) = ('EVN')">(atcdabbr_entry_ExpositionsrisikoProblem): Der Wert von moodCode MUSS 'EVN' sein. Gefunden: "<value-of select="@moodCode"/>"</assert>
        <assert role="error" see="http://art-decor.org/art-decor/decor-templates--elgaimpf-?id=1.2.40.0.34.6.0.11.3.21" test="string(@negationInd) = ('false')">(atcdabbr_entry_ExpositionsrisikoProblem): Der Wert von negationInd MUSS 'false' sein. Gefunden: "<value-of select="@negationInd"/>"</assert>
        <assert role="error" see="http://art-decor.org/art-decor/decor-templates--elgaimpf-?id=1.2.40.0.34.6.0.11.3.21" test="count(hl7:templateId[@root = '1.2.40.0.34.6.0.11.3.21']) &gt;= 1">(atcdabbr_entry_ExpositionsrisikoProblem): Element hl7:templateId[@root = '1.2.40.0.34.6.0.11.3.21'] ist mandatory [min 1x].</assert>
        <assert role="error" see="http://art-decor.org/art-decor/decor-templates--elgaimpf-?id=1.2.40.0.34.6.0.11.3.21" test="count(hl7:templateId[@root = '1.2.40.0.34.6.0.11.3.21']) &lt;= 1">(atcdabbr_entry_ExpositionsrisikoProblem): Element hl7:templateId[@root = '1.2.40.0.34.6.0.11.3.21'] kommt zu häufig vor [max 1x].</assert>
        <assert role="error" see="http://art-decor.org/art-decor/decor-templates--elgaimpf-?id=1.2.40.0.34.6.0.11.3.21" test="count(hl7:templateId[@root = '2.16.840.1.113883.10.20.1.28']) &gt;= 1">(atcdabbr_entry_ExpositionsrisikoProblem): Element hl7:templateId[@root = '2.16.840.1.113883.10.20.1.28'] ist mandatory [min 1x].</assert>
        <assert role="error" see="http://art-decor.org/art-decor/decor-templates--elgaimpf-?id=1.2.40.0.34.6.0.11.3.21" test="count(hl7:templateId[@root = '2.16.840.1.113883.10.20.1.28']) &lt;= 1">(atcdabbr_entry_ExpositionsrisikoProblem): Element hl7:templateId[@root = '2.16.840.1.113883.10.20.1.28'] kommt zu häufig vor [max 1x].</assert>
        <assert role="error" see="http://art-decor.org/art-decor/decor-templates--elgaimpf-?id=1.2.40.0.34.6.0.11.3.21" test="count(hl7:templateId[@root = '1.3.6.1.4.1.19376.1.5.3.1.4.5']) &gt;= 1">(atcdabbr_entry_ExpositionsrisikoProblem): Element hl7:templateId[@root = '1.3.6.1.4.1.19376.1.5.3.1.4.5'] ist mandatory [min 1x].</assert>
        <assert role="error" see="http://art-decor.org/art-decor/decor-templates--elgaimpf-?id=1.2.40.0.34.6.0.11.3.21" test="count(hl7:templateId[@root = '1.3.6.1.4.1.19376.1.5.3.1.4.5']) &lt;= 1">(atcdabbr_entry_ExpositionsrisikoProblem): Element hl7:templateId[@root = '1.3.6.1.4.1.19376.1.5.3.1.4.5'] kommt zu häufig vor [max 1x].</assert>
        <assert role="error" see="http://art-decor.org/art-decor/decor-templates--elgaimpf-?id=1.2.40.0.34.6.0.11.3.21" test="count(hl7:id[not(@nullFlavor)]) &gt;= 1">(atcdabbr_entry_ExpositionsrisikoProblem): Element hl7:id[not(@nullFlavor)] ist mandatory [min 1x].</assert>
        <assert role="error" see="http://art-decor.org/art-decor/decor-templates--elgaimpf-?id=1.2.40.0.34.6.0.11.3.21" test="count(hl7:id[not(@nullFlavor)]) &lt;= 1">(atcdabbr_entry_ExpositionsrisikoProblem): Element hl7:id[not(@nullFlavor)] kommt zu häufig vor [max 1x].</assert>
        <assert role="error" see="http://art-decor.org/art-decor/decor-templates--elgaimpf-?id=1.2.40.0.34.6.0.11.3.21" test="count(hl7:code[(@code = '55607006' and @codeSystem = '2.16.840.1.113883.6.96')]) &gt;= 1">(atcdabbr_entry_ExpositionsrisikoProblem): Element hl7:code[(@code = '55607006' and @codeSystem = '2.16.840.1.113883.6.96')] ist mandatory [min 1x].</assert>
        <assert role="error" see="http://art-decor.org/art-decor/decor-templates--elgaimpf-?id=1.2.40.0.34.6.0.11.3.21" test="count(hl7:code[(@code = '55607006' and @codeSystem = '2.16.840.1.113883.6.96')]) &lt;= 1">(atcdabbr_entry_ExpositionsrisikoProblem): Element hl7:code[(@code = '55607006' and @codeSystem = '2.16.840.1.113883.6.96')] kommt zu häufig vor [max 1x].</assert>
        <assert role="error" see="http://art-decor.org/art-decor/decor-templates--elgaimpf-?id=1.2.40.0.34.6.0.11.3.21" test="count(hl7:text[not(@nullFlavor)]) &gt;= 1">(atcdabbr_entry_ExpositionsrisikoProblem): Element hl7:text[not(@nullFlavor)] ist mandatory [min 1x].</assert>
        <assert role="error" see="http://art-decor.org/art-decor/decor-templates--elgaimpf-?id=1.2.40.0.34.6.0.11.3.21" test="count(hl7:text[not(@nullFlavor)]) &lt;= 1">(atcdabbr_entry_ExpositionsrisikoProblem): Element hl7:text[not(@nullFlavor)] kommt zu häufig vor [max 1x].</assert>
        <assert role="error" see="http://art-decor.org/art-decor/decor-templates--elgaimpf-?id=1.2.40.0.34.6.0.11.3.21" test="count(hl7:statusCode[@code = 'completed']) &gt;= 1">(atcdabbr_entry_ExpositionsrisikoProblem): Element hl7:statusCode[@code = 'completed'] ist mandatory [min 1x].</assert>
        <assert role="error" see="http://art-decor.org/art-decor/decor-templates--elgaimpf-?id=1.2.40.0.34.6.0.11.3.21" test="count(hl7:statusCode[@code = 'completed']) &lt;= 1">(atcdabbr_entry_ExpositionsrisikoProblem): Element hl7:statusCode[@code = 'completed'] kommt zu häufig vor [max 1x].</assert>
        <assert role="error" see="http://art-decor.org/art-decor/decor-templates--elgaimpf-?id=1.2.40.0.34.6.0.11.3.21" test="count(hl7:effectiveTime[not(@nullFlavor)]) &gt;= 1">(atcdabbr_entry_ExpositionsrisikoProblem): Element hl7:effectiveTime[not(@nullFlavor)] ist mandatory [min 1x].</assert>
        <assert role="error" see="http://art-decor.org/art-decor/decor-templates--elgaimpf-?id=1.2.40.0.34.6.0.11.3.21" test="count(hl7:effectiveTime[not(@nullFlavor)]) &lt;= 1">(atcdabbr_entry_ExpositionsrisikoProblem): Element hl7:effectiveTime[not(@nullFlavor)] kommt zu häufig vor [max 1x].</assert>
        <assert role="error" see="http://art-decor.org/art-decor/decor-templates--elgaimpf-?id=1.2.40.0.34.6.0.11.3.21" test="count(hl7:value[concat(@code, @codeSystem) = doc('include/voc-1.2.40.0.34.6.0.10.15-DYNAMIC.xml')//valueSet[1]/conceptList/concept/concat(@code, @codeSystem)]) &gt;= 1">(atcdabbr_entry_ExpositionsrisikoProblem): Element hl7:value[concat(@code, @codeSystem) = doc('include/voc-1.2.40.0.34.6.0.10.15-DYNAMIC.xml')//valueSet[1]/conceptList/concept/concat(@code, @codeSystem)] ist mandatory [min 1x].</assert>
        <assert role="error" see="http://art-decor.org/art-decor/decor-templates--elgaimpf-?id=1.2.40.0.34.6.0.11.3.21" test="count(hl7:value[concat(@code, @codeSystem) = doc('include/voc-1.2.40.0.34.6.0.10.15-DYNAMIC.xml')//valueSet[1]/conceptList/concept/concat(@code, @codeSystem)]) &lt;= 1">(atcdabbr_entry_ExpositionsrisikoProblem): Element hl7:value[concat(@code, @codeSystem) = doc('include/voc-1.2.40.0.34.6.0.10.15-DYNAMIC.xml')//valueSet[1]/conceptList/concept/concat(@code, @codeSystem)] kommt zu häufig vor [max 1x].</assert>
    </rule>
   <!--
Template derived rules for ID: 1.2.40.0.34.6.0.11.3.21
Context: *[hl7:observation[hl7:templateId[@root = '1.2.40.0.34.6.0.11.3.21'] and hl7:templateId[@root = '2.16.840.1.113883.10.20.1.28'] and hl7:templateId[@root = '1.3.6.1.4.1.19376.1.5.3.1.4.5']]]/hl7:observation[hl7:templateId[@root = '1.2.40.0.34.6.0.11.3.21'] and hl7:templateId[@root = '2.16.840.1.113883.10.20.1.28'] and hl7:templateId[@root = '1.3.6.1.4.1.19376.1.5.3.1.4.5']]/hl7:templateId[@root = '1.2.40.0.34.6.0.11.3.21']
Item: (atcdabbr_entry_ExpositionsrisikoProblem)
-->
    <rule context="*[hl7:observation[hl7:templateId[@root = '1.2.40.0.34.6.0.11.3.21'] and hl7:templateId[@root = '2.16.840.1.113883.10.20.1.28'] and hl7:templateId[@root = '1.3.6.1.4.1.19376.1.5.3.1.4.5']]]/hl7:observation[hl7:templateId[@root = '1.2.40.0.34.6.0.11.3.21'] and hl7:templateId[@root = '2.16.840.1.113883.10.20.1.28'] and hl7:templateId[@root = '1.3.6.1.4.1.19376.1.5.3.1.4.5']]/hl7:templateId[@root = '1.2.40.0.34.6.0.11.3.21']" id="d245561e4928-false-d445214e0">
        <extends rule="II"/>
        <assert role="error" see="http://art-decor.org/art-decor/decor-templates--elgaimpf-?id=1.2.40.0.34.6.0.11.3.21" test="(local-name-from-QName(resolve-QName(@xsi:type,.))='II' and namespace-uri-from-QName(resolve-QName(@xsi:type,.))='urn:hl7-org:v3') or not(@xsi:type)">(atcdabbr_entry_ExpositionsrisikoProblem): Wenn eine @xsi:type Instruktion anwesend ist MUSS diese den Wert "{urn:hl7-org:v3}:II" haben. Gefunden "{<value-of select="namespace-uri-from-QName(resolve-QName(@xsi:type,.))"/>}:<value-of select="local-name-from-QName(resolve-QName(@xsi:type,.))"/>"</assert>
        <assert role="error" see="http://art-decor.org/art-decor/decor-templates--elgaimpf-?id=1.2.40.0.34.6.0.11.3.21" test="string(@root) = ('1.2.40.0.34.6.0.11.3.21')">(atcdabbr_entry_ExpositionsrisikoProblem): Der Wert von root MUSS '1.2.40.0.34.6.0.11.3.21' sein. Gefunden: "<value-of select="@root"/>"</assert>
    </rule>
   <!--
Template derived rules for ID: 1.2.40.0.34.6.0.11.3.21
Context: *[hl7:observation[hl7:templateId[@root = '1.2.40.0.34.6.0.11.3.21'] and hl7:templateId[@root = '2.16.840.1.113883.10.20.1.28'] and hl7:templateId[@root = '1.3.6.1.4.1.19376.1.5.3.1.4.5']]]/hl7:observation[hl7:templateId[@root = '1.2.40.0.34.6.0.11.3.21'] and hl7:templateId[@root = '2.16.840.1.113883.10.20.1.28'] and hl7:templateId[@root = '1.3.6.1.4.1.19376.1.5.3.1.4.5']]/hl7:templateId[@root = '2.16.840.1.113883.10.20.1.28']
Item: (atcdabbr_entry_ExpositionsrisikoProblem)
-->
    <rule context="*[hl7:observation[hl7:templateId[@root = '1.2.40.0.34.6.0.11.3.21'] and hl7:templateId[@root = '2.16.840.1.113883.10.20.1.28'] and hl7:templateId[@root = '1.3.6.1.4.1.19376.1.5.3.1.4.5']]]/hl7:observation[hl7:templateId[@root = '1.2.40.0.34.6.0.11.3.21'] and hl7:templateId[@root = '2.16.840.1.113883.10.20.1.28'] and hl7:templateId[@root = '1.3.6.1.4.1.19376.1.5.3.1.4.5']]/hl7:templateId[@root = '2.16.840.1.113883.10.20.1.28']" id="d245561e4932-false-d445228e0">
        <extends rule="II"/>
        <assert role="error" see="http://art-decor.org/art-decor/decor-templates--elgaimpf-?id=1.2.40.0.34.6.0.11.3.21" test="(local-name-from-QName(resolve-QName(@xsi:type,.))='II' and namespace-uri-from-QName(resolve-QName(@xsi:type,.))='urn:hl7-org:v3') or not(@xsi:type)">(atcdabbr_entry_ExpositionsrisikoProblem): Wenn eine @xsi:type Instruktion anwesend ist MUSS diese den Wert "{urn:hl7-org:v3}:II" haben. Gefunden "{<value-of select="namespace-uri-from-QName(resolve-QName(@xsi:type,.))"/>}:<value-of select="local-name-from-QName(resolve-QName(@xsi:type,.))"/>"</assert>
        <assert role="error" see="http://art-decor.org/art-decor/decor-templates--elgaimpf-?id=1.2.40.0.34.6.0.11.3.21" test="string(@root) = ('2.16.840.1.113883.10.20.1.28')">(atcdabbr_entry_ExpositionsrisikoProblem): Der Wert von root MUSS '2.16.840.1.113883.10.20.1.28' sein. Gefunden: "<value-of select="@root"/>"</assert>
    </rule>
   <!--
Template derived rules for ID: 1.2.40.0.34.6.0.11.3.21
Context: *[hl7:observation[hl7:templateId[@root = '1.2.40.0.34.6.0.11.3.21'] and hl7:templateId[@root = '2.16.840.1.113883.10.20.1.28'] and hl7:templateId[@root = '1.3.6.1.4.1.19376.1.5.3.1.4.5']]]/hl7:observation[hl7:templateId[@root = '1.2.40.0.34.6.0.11.3.21'] and hl7:templateId[@root = '2.16.840.1.113883.10.20.1.28'] and hl7:templateId[@root = '1.3.6.1.4.1.19376.1.5.3.1.4.5']]/hl7:templateId[@root = '1.3.6.1.4.1.19376.1.5.3.1.4.5']
Item: (atcdabbr_entry_ExpositionsrisikoProblem)
-->
    <rule context="*[hl7:observation[hl7:templateId[@root = '1.2.40.0.34.6.0.11.3.21'] and hl7:templateId[@root = '2.16.840.1.113883.10.20.1.28'] and hl7:templateId[@root = '1.3.6.1.4.1.19376.1.5.3.1.4.5']]]/hl7:observation[hl7:templateId[@root = '1.2.40.0.34.6.0.11.3.21'] and hl7:templateId[@root = '2.16.840.1.113883.10.20.1.28'] and hl7:templateId[@root = '1.3.6.1.4.1.19376.1.5.3.1.4.5']]/hl7:templateId[@root = '1.3.6.1.4.1.19376.1.5.3.1.4.5']" id="d245561e4936-false-d445242e0">
        <extends rule="II"/>
        <assert role="error" see="http://art-decor.org/art-decor/decor-templates--elgaimpf-?id=1.2.40.0.34.6.0.11.3.21" test="(local-name-from-QName(resolve-QName(@xsi:type,.))='II' and namespace-uri-from-QName(resolve-QName(@xsi:type,.))='urn:hl7-org:v3') or not(@xsi:type)">(atcdabbr_entry_ExpositionsrisikoProblem): Wenn eine @xsi:type Instruktion anwesend ist MUSS diese den Wert "{urn:hl7-org:v3}:II" haben. Gefunden "{<value-of select="namespace-uri-from-QName(resolve-QName(@xsi:type,.))"/>}:<value-of select="local-name-from-QName(resolve-QName(@xsi:type,.))"/>"</assert>
        <assert role="error" see="http://art-decor.org/art-decor/decor-templates--elgaimpf-?id=1.2.40.0.34.6.0.11.3.21" test="string(@root) = ('1.3.6.1.4.1.19376.1.5.3.1.4.5')">(atcdabbr_entry_ExpositionsrisikoProblem): Der Wert von root MUSS '1.3.6.1.4.1.19376.1.5.3.1.4.5' sein. Gefunden: "<value-of select="@root"/>"</assert>
    </rule>
   <!--
Template derived rules for ID: 1.2.40.0.34.6.0.11.3.21
Context: *[hl7:observation[hl7:templateId[@root = '1.2.40.0.34.6.0.11.3.21'] and hl7:templateId[@root = '2.16.840.1.113883.10.20.1.28'] and hl7:templateId[@root = '1.3.6.1.4.1.19376.1.5.3.1.4.5']]]/hl7:observation[hl7:templateId[@root = '1.2.40.0.34.6.0.11.3.21'] and hl7:templateId[@root = '2.16.840.1.113883.10.20.1.28'] and hl7:templateId[@root = '1.3.6.1.4.1.19376.1.5.3.1.4.5']]/hl7:id[not(@nullFlavor)]
Item: (atcdabbr_entry_ExpositionsrisikoProblem)
-->
    <rule context="*[hl7:observation[hl7:templateId[@root = '1.2.40.0.34.6.0.11.3.21'] and hl7:templateId[@root = '2.16.840.1.113883.10.20.1.28'] and hl7:templateId[@root = '1.3.6.1.4.1.19376.1.5.3.1.4.5']]]/hl7:observation[hl7:templateId[@root = '1.2.40.0.34.6.0.11.3.21'] and hl7:templateId[@root = '2.16.840.1.113883.10.20.1.28'] and hl7:templateId[@root = '1.3.6.1.4.1.19376.1.5.3.1.4.5']]/hl7:id[not(@nullFlavor)]" id="d245561e4940-false-d445255e0">
        <extends rule="II"/>
        <assert role="error" see="http://art-decor.org/art-decor/decor-templates--elgaimpf-?id=1.2.40.0.34.6.0.11.3.21" test="(local-name-from-QName(resolve-QName(@xsi:type,.))='II' and namespace-uri-from-QName(resolve-QName(@xsi:type,.))='urn:hl7-org:v3') or not(@xsi:type)">(atcdabbr_entry_ExpositionsrisikoProblem): Wenn eine @xsi:type Instruktion anwesend ist MUSS diese den Wert "{urn:hl7-org:v3}:II" haben. Gefunden "{<value-of select="namespace-uri-from-QName(resolve-QName(@xsi:type,.))"/>}:<value-of select="local-name-from-QName(resolve-QName(@xsi:type,.))"/>"</assert>
    </rule>
   <!--
Template derived rules for ID: 1.2.40.0.34.6.0.11.3.21
Context: *[hl7:observation[hl7:templateId[@root = '1.2.40.0.34.6.0.11.3.21'] and hl7:templateId[@root = '2.16.840.1.113883.10.20.1.28'] and hl7:templateId[@root = '1.3.6.1.4.1.19376.1.5.3.1.4.5']]]/hl7:observation[hl7:templateId[@root = '1.2.40.0.34.6.0.11.3.21'] and hl7:templateId[@root = '2.16.840.1.113883.10.20.1.28'] and hl7:templateId[@root = '1.3.6.1.4.1.19376.1.5.3.1.4.5']]/hl7:code[(@code = '55607006' and @codeSystem = '2.16.840.1.113883.6.96')]
Item: (atcdabbr_entry_ExpositionsrisikoProblem)
-->
    <rule context="*[hl7:observation[hl7:templateId[@root = '1.2.40.0.34.6.0.11.3.21'] and hl7:templateId[@root = '2.16.840.1.113883.10.20.1.28'] and hl7:templateId[@root = '1.3.6.1.4.1.19376.1.5.3.1.4.5']]]/hl7:observation[hl7:templateId[@root = '1.2.40.0.34.6.0.11.3.21'] and hl7:templateId[@root = '2.16.840.1.113883.10.20.1.28'] and hl7:templateId[@root = '1.3.6.1.4.1.19376.1.5.3.1.4.5']]/hl7:code[(@code = '55607006' and @codeSystem = '2.16.840.1.113883.6.96')]" id="d245561e4948-false-d445265e0">
        <extends rule="CE"/>
        <assert role="error" see="http://art-decor.org/art-decor/decor-templates--elgaimpf-?id=1.2.40.0.34.6.0.11.3.21" test="(local-name-from-QName(resolve-QName(@xsi:type,.))='CE' and namespace-uri-from-QName(resolve-QName(@xsi:type,.))='urn:hl7-org:v3') or not(@xsi:type)">(atcdabbr_entry_ExpositionsrisikoProblem): Wenn eine @xsi:type Instruktion anwesend ist MUSS diese den Wert "{urn:hl7-org:v3}:CE" haben. Gefunden "{<value-of select="namespace-uri-from-QName(resolve-QName(@xsi:type,.))"/>}:<value-of select="local-name-from-QName(resolve-QName(@xsi:type,.))"/>"</assert>
        <assert role="error" see="http://art-decor.org/art-decor/decor-templates--elgaimpf-?id=1.2.40.0.34.6.0.11.3.21" test="@nullFlavor or (@code='55607006' and @codeSystem='2.16.840.1.113883.6.96')">(atcdabbr_entry_ExpositionsrisikoProblem): Der Elementinhalt MUSS einer von 'code '55607006' codeSystem '2.16.840.1.113883.6.96'' sein.</assert>
        <assert role="error" see="http://art-decor.org/art-decor/decor-templates--elgaimpf-?id=1.2.40.0.34.6.0.11.3.21" test="string(@codeSystemName) = ('SNOMED CT')">(atcdabbr_entry_ExpositionsrisikoProblem): Der Wert von codeSystemName MUSS 'SNOMED CT' sein. Gefunden: "<value-of select="@codeSystemName"/>"</assert>
        <assert role="error" see="http://art-decor.org/art-decor/decor-templates--elgaimpf-?id=1.2.40.0.34.6.0.11.3.21" test="not(@codeSystemName) or string-length(@codeSystemName)&gt;0">(atcdabbr_entry_ExpositionsrisikoProblem): Attribute @codeSystemName MUSS vom Datentyp 'st' sein  - '<value-of select="@codeSystemName"/>'</assert>
        <assert role="error" see="http://art-decor.org/art-decor/decor-templates--elgaimpf-?id=1.2.40.0.34.6.0.11.3.21" test="@displayName">(atcdabbr_entry_ExpositionsrisikoProblem): Attribut @displayName MUSS vorkommen.</assert>
        <assert role="error" see="http://art-decor.org/art-decor/decor-templates--elgaimpf-?id=1.2.40.0.34.6.0.11.3.21" test="not(@displayName) or string-length(@displayName)&gt;0">(atcdabbr_entry_ExpositionsrisikoProblem): Attribute @displayName MUSS vom Datentyp 'st' sein  - '<value-of select="@displayName"/>'</assert>
    </rule>
   <!--
Template derived rules for ID: 1.2.40.0.34.6.0.11.9.1
Context: *[hl7:observation[hl7:templateId[@root = '1.2.40.0.34.6.0.11.3.21'] and hl7:templateId[@root = '2.16.840.1.113883.10.20.1.28'] and hl7:templateId[@root = '1.3.6.1.4.1.19376.1.5.3.1.4.5']]]/hl7:observation[hl7:templateId[@root = '1.2.40.0.34.6.0.11.3.21'] and hl7:templateId[@root = '2.16.840.1.113883.10.20.1.28'] and hl7:templateId[@root = '1.3.6.1.4.1.19376.1.5.3.1.4.5']]/hl7:text
Item: (atcdabrr_other_NarrativeTextReference)
-->
    <rule context="*[hl7:observation[hl7:templateId[@root = '1.2.40.0.34.6.0.11.3.21'] and hl7:templateId[@root = '2.16.840.1.113883.10.20.1.28'] and hl7:templateId[@root = '1.3.6.1.4.1.19376.1.5.3.1.4.5']]]/hl7:observation[hl7:templateId[@root = '1.2.40.0.34.6.0.11.3.21'] and hl7:templateId[@root = '2.16.840.1.113883.10.20.1.28'] and hl7:templateId[@root = '1.3.6.1.4.1.19376.1.5.3.1.4.5']]/hl7:text" id="d445266e64-false-d445292e0">
        <extends rule="ED"/>
        <assert role="error" see="http://art-decor.org/art-decor/decor-templates--elgaimpf-?id=1.2.40.0.34.6.0.11.9.1" test="(local-name-from-QName(resolve-QName(@xsi:type,.))='ED' and namespace-uri-from-QName(resolve-QName(@xsi:type,.))='urn:hl7-org:v3') or not(@xsi:type)">(atcdabrr_other_NarrativeTextReference): Wenn eine @xsi:type Instruktion anwesend ist MUSS diese den Wert "{urn:hl7-org:v3}:ED" haben. Gefunden "{<value-of select="namespace-uri-from-QName(resolve-QName(@xsi:type,.))"/>}:<value-of select="local-name-from-QName(resolve-QName(@xsi:type,.))"/>"</assert>
        <assert role="error" see="http://art-decor.org/art-decor/decor-templates--elgaimpf-?id=1.2.40.0.34.6.0.11.9.1" test="count(hl7:reference[not(@nullFlavor)]) &gt;= 1">(atcdabrr_other_NarrativeTextReference): Element hl7:reference[not(@nullFlavor)] ist mandatory [min 1x].</assert>
        <assert role="error" see="http://art-decor.org/art-decor/decor-templates--elgaimpf-?id=1.2.40.0.34.6.0.11.9.1" test="count(hl7:reference[not(@nullFlavor)]) &lt;= 1">(atcdabrr_other_NarrativeTextReference): Element hl7:reference[not(@nullFlavor)] kommt zu häufig vor [max 1x].</assert>
    </rule>
   <!--
Template derived rules for ID: 1.2.40.0.34.6.0.11.9.1
Context: *[hl7:observation[hl7:templateId[@root = '1.2.40.0.34.6.0.11.3.21'] and hl7:templateId[@root = '2.16.840.1.113883.10.20.1.28'] and hl7:templateId[@root = '1.3.6.1.4.1.19376.1.5.3.1.4.5']]]/hl7:observation[hl7:templateId[@root = '1.2.40.0.34.6.0.11.3.21'] and hl7:templateId[@root = '2.16.840.1.113883.10.20.1.28'] and hl7:templateId[@root = '1.3.6.1.4.1.19376.1.5.3.1.4.5']]/hl7:text/hl7:reference[not(@nullFlavor)]
Item: (atcdabrr_other_NarrativeTextReference)
-->
    <rule context="*[hl7:observation[hl7:templateId[@root = '1.2.40.0.34.6.0.11.3.21'] and hl7:templateId[@root = '2.16.840.1.113883.10.20.1.28'] and hl7:templateId[@root = '1.3.6.1.4.1.19376.1.5.3.1.4.5']]]/hl7:observation[hl7:templateId[@root = '1.2.40.0.34.6.0.11.3.21'] and hl7:templateId[@root = '2.16.840.1.113883.10.20.1.28'] and hl7:templateId[@root = '1.3.6.1.4.1.19376.1.5.3.1.4.5']]/hl7:text/hl7:reference[not(@nullFlavor)]" id="d445266e65-false-d445310e0">
        <extends rule="TEL"/>
        <assert role="error" see="http://art-decor.org/art-decor/decor-templates--elgaimpf-?id=1.2.40.0.34.6.0.11.9.1" test="(local-name-from-QName(resolve-QName(@xsi:type,.))='TEL' and namespace-uri-from-QName(resolve-QName(@xsi:type,.))='urn:hl7-org:v3') or not(@xsi:type)">(atcdabrr_other_NarrativeTextReference): Wenn eine @xsi:type Instruktion anwesend ist MUSS diese den Wert "{urn:hl7-org:v3}:TEL" haben. Gefunden "{<value-of select="namespace-uri-from-QName(resolve-QName(@xsi:type,.))"/>}:<value-of select="local-name-from-QName(resolve-QName(@xsi:type,.))"/>"</assert>
        <assert role="error" see="http://art-decor.org/art-decor/decor-templates--elgaimpf-?id=1.2.40.0.34.6.0.11.9.1" test="@value">(atcdabrr_other_NarrativeTextReference): Attribut @value MUSS vorkommen.</assert>
        <assert role="error" see="http://art-decor.org/art-decor/decor-templates--elgaimpf-?id=1.2.40.0.34.6.0.11.9.1" test="starts-with(@value,'#')">(atcdabrr_other_NarrativeTextReference): The @value attribute content MUST conform to the format '#xxx', where xxx is the ID of the corresponding 'content'-element.</assert>
    </rule>
   <!--
Template derived rules for ID: 1.2.40.0.34.6.0.11.3.21
Context: *[hl7:observation[hl7:templateId[@root = '1.2.40.0.34.6.0.11.3.21'] and hl7:templateId[@root = '2.16.840.1.113883.10.20.1.28'] and hl7:templateId[@root = '1.3.6.1.4.1.19376.1.5.3.1.4.5']]]/hl7:observation[hl7:templateId[@root = '1.2.40.0.34.6.0.11.3.21'] and hl7:templateId[@root = '2.16.840.1.113883.10.20.1.28'] and hl7:templateId[@root = '1.3.6.1.4.1.19376.1.5.3.1.4.5']]/hl7:statusCode[@code = 'completed']
Item: (atcdabbr_entry_ExpositionsrisikoProblem)
-->
    <rule context="*[hl7:observation[hl7:templateId[@root = '1.2.40.0.34.6.0.11.3.21'] and hl7:templateId[@root = '2.16.840.1.113883.10.20.1.28'] and hl7:templateId[@root = '1.3.6.1.4.1.19376.1.5.3.1.4.5']]]/hl7:observation[hl7:templateId[@root = '1.2.40.0.34.6.0.11.3.21'] and hl7:templateId[@root = '2.16.840.1.113883.10.20.1.28'] and hl7:templateId[@root = '1.3.6.1.4.1.19376.1.5.3.1.4.5']]/hl7:statusCode[@code = 'completed']" id="d245561e4955-false-d445324e0">
        <extends rule="CS"/>
        <assert role="error" see="http://art-decor.org/art-decor/decor-templates--elgaimpf-?id=1.2.40.0.34.6.0.11.3.21" test="(local-name-from-QName(resolve-QName(@xsi:type,.))='CS' and namespace-uri-from-QName(resolve-QName(@xsi:type,.))='urn:hl7-org:v3') or not(@xsi:type)">(atcdabbr_entry_ExpositionsrisikoProblem): Wenn eine @xsi:type Instruktion anwesend ist MUSS diese den Wert "{urn:hl7-org:v3}:CS" haben. Gefunden "{<value-of select="namespace-uri-from-QName(resolve-QName(@xsi:type,.))"/>}:<value-of select="local-name-from-QName(resolve-QName(@xsi:type,.))"/>"</assert>
        <assert role="error" see="http://art-decor.org/art-decor/decor-templates--elgaimpf-?id=1.2.40.0.34.6.0.11.3.21" test="@nullFlavor or (@code='completed')">(atcdabbr_entry_ExpositionsrisikoProblem): Der Elementinhalt MUSS einer von 'code 'completed'' sein.</assert>
    </rule>
   <!--
Template derived rules for ID: 1.2.40.0.34.6.0.11.3.21
Context: *[hl7:observation[hl7:templateId[@root = '1.2.40.0.34.6.0.11.3.21'] and hl7:templateId[@root = '2.16.840.1.113883.10.20.1.28'] and hl7:templateId[@root = '1.3.6.1.4.1.19376.1.5.3.1.4.5']]]/hl7:observation[hl7:templateId[@root = '1.2.40.0.34.6.0.11.3.21'] and hl7:templateId[@root = '2.16.840.1.113883.10.20.1.28'] and hl7:templateId[@root = '1.3.6.1.4.1.19376.1.5.3.1.4.5']]/hl7:effectiveTime[not(@nullFlavor)]
Item: (atcdabbr_entry_ExpositionsrisikoProblem)
-->
    <rule context="*[hl7:observation[hl7:templateId[@root = '1.2.40.0.34.6.0.11.3.21'] and hl7:templateId[@root = '2.16.840.1.113883.10.20.1.28'] and hl7:templateId[@root = '1.3.6.1.4.1.19376.1.5.3.1.4.5']]]/hl7:observation[hl7:templateId[@root = '1.2.40.0.34.6.0.11.3.21'] and hl7:templateId[@root = '2.16.840.1.113883.10.20.1.28'] and hl7:templateId[@root = '1.3.6.1.4.1.19376.1.5.3.1.4.5']]/hl7:effectiveTime[not(@nullFlavor)]" id="d245561e4961-false-d445339e0">
        <extends rule="IVL_TS"/>
        <assert role="error" see="http://art-decor.org/art-decor/decor-templates--elgaimpf-?id=1.2.40.0.34.6.0.11.3.21" test="(local-name-from-QName(resolve-QName(@xsi:type,.))='IVL_TS' and namespace-uri-from-QName(resolve-QName(@xsi:type,.))='urn:hl7-org:v3') or not(@xsi:type)">(atcdabbr_entry_ExpositionsrisikoProblem): Wenn eine @xsi:type Instruktion anwesend ist MUSS diese den Wert "{urn:hl7-org:v3}:IVL_TS" haben. Gefunden "{<value-of select="namespace-uri-from-QName(resolve-QName(@xsi:type,.))"/>}:<value-of select="local-name-from-QName(resolve-QName(@xsi:type,.))"/>"</assert>
        <assert role="error" see="http://art-decor.org/art-decor/decor-templates--elgaimpf-?id=1.2.40.0.34.6.0.11.3.21" test="count(hl7:low[not(@nullFlavor)]) &gt;= 1">(atcdabbr_entry_ExpositionsrisikoProblem): Element hl7:low[not(@nullFlavor)] ist mandatory [min 1x].</assert>
        <assert role="error" see="http://art-decor.org/art-decor/decor-templates--elgaimpf-?id=1.2.40.0.34.6.0.11.3.21" test="count(hl7:low[not(@nullFlavor)]) &lt;= 1">(atcdabbr_entry_ExpositionsrisikoProblem): Element hl7:low[not(@nullFlavor)] kommt zu häufig vor [max 1x].</assert>
        <assert role="error" see="http://art-decor.org/art-decor/decor-templates--elgaimpf-?id=1.2.40.0.34.6.0.11.3.21" test="count(hl7:high) = 0">(atcdabbr_entry_ExpositionsrisikoProblem): Element hl7:high DARF NICHT vorkommen.</assert>
    </rule>
   <!--
Template derived rules for ID: 1.2.40.0.34.6.0.11.3.21
Context: *[hl7:observation[hl7:templateId[@root = '1.2.40.0.34.6.0.11.3.21'] and hl7:templateId[@root = '2.16.840.1.113883.10.20.1.28'] and hl7:templateId[@root = '1.3.6.1.4.1.19376.1.5.3.1.4.5']]]/hl7:observation[hl7:templateId[@root = '1.2.40.0.34.6.0.11.3.21'] and hl7:templateId[@root = '2.16.840.1.113883.10.20.1.28'] and hl7:templateId[@root = '1.3.6.1.4.1.19376.1.5.3.1.4.5']]/hl7:effectiveTime[not(@nullFlavor)]/hl7:low[not(@nullFlavor)]
Item: (atcdabbr_entry_ExpositionsrisikoProblem)
-->
    <rule context="*[hl7:observation[hl7:templateId[@root = '1.2.40.0.34.6.0.11.3.21'] and hl7:templateId[@root = '2.16.840.1.113883.10.20.1.28'] and hl7:templateId[@root = '1.3.6.1.4.1.19376.1.5.3.1.4.5']]]/hl7:observation[hl7:templateId[@root = '1.2.40.0.34.6.0.11.3.21'] and hl7:templateId[@root = '2.16.840.1.113883.10.20.1.28'] and hl7:templateId[@root = '1.3.6.1.4.1.19376.1.5.3.1.4.5']]/hl7:effectiveTime[not(@nullFlavor)]/hl7:low[not(@nullFlavor)]" id="d245561e4967-false-d445363e0">
        <extends rule="TS.DATE"/>
        <assert role="error" see="http://art-decor.org/art-decor/decor-templates--elgaimpf-?id=1.2.40.0.34.6.0.11.3.21" test="(local-name-from-QName(resolve-QName(@xsi:type,.))='TS' and namespace-uri-from-QName(resolve-QName(@xsi:type,.))='urn:hl7-org:v3') or not(@xsi:type)">(atcdabbr_entry_ExpositionsrisikoProblem): Wenn eine @xsi:type Instruktion anwesend ist MUSS diese den Wert "{urn:hl7-org:v3}:TS" haben. Gefunden "{<value-of select="namespace-uri-from-QName(resolve-QName(@xsi:type,.))"/>}:<value-of select="local-name-from-QName(resolve-QName(@xsi:type,.))"/>"</assert>
        <assert role="error" see="http://art-decor.org/art-decor/decor-templates--elgaimpf-?id=1.2.40.0.34.6.0.11.3.21" test="not(*)">(atcdabbr_entry_ExpositionsrisikoProblem): <value-of select="local-name()"/> with datatype TS.DATE, SHOULD NOT have child elements.</assert>
    </rule>
   <!--
Template derived rules for ID: 1.2.40.0.34.6.0.11.3.21
Context: *[hl7:observation[hl7:templateId[@root = '1.2.40.0.34.6.0.11.3.21'] and hl7:templateId[@root = '2.16.840.1.113883.10.20.1.28'] and hl7:templateId[@root = '1.3.6.1.4.1.19376.1.5.3.1.4.5']]]/hl7:observation[hl7:templateId[@root = '1.2.40.0.34.6.0.11.3.21'] and hl7:templateId[@root = '2.16.840.1.113883.10.20.1.28'] and hl7:templateId[@root = '1.3.6.1.4.1.19376.1.5.3.1.4.5']]/hl7:effectiveTime[not(@nullFlavor)]/hl7:high
Item: (atcdabbr_entry_ExpositionsrisikoProblem)
-->
    <rule context="*[hl7:observation[hl7:templateId[@root = '1.2.40.0.34.6.0.11.3.21'] and hl7:templateId[@root = '2.16.840.1.113883.10.20.1.28'] and hl7:templateId[@root = '1.3.6.1.4.1.19376.1.5.3.1.4.5']]]/hl7:observation[hl7:templateId[@root = '1.2.40.0.34.6.0.11.3.21'] and hl7:templateId[@root = '2.16.840.1.113883.10.20.1.28'] and hl7:templateId[@root = '1.3.6.1.4.1.19376.1.5.3.1.4.5']]/hl7:effectiveTime[not(@nullFlavor)]/hl7:high" id="d245561e4970-false-d445375e0">
        <extends rule="TS.DATE"/>
        <assert role="error" see="http://art-decor.org/art-decor/decor-templates--elgaimpf-?id=1.2.40.0.34.6.0.11.3.21" test="(local-name-from-QName(resolve-QName(@xsi:type,.))='TS' and namespace-uri-from-QName(resolve-QName(@xsi:type,.))='urn:hl7-org:v3') or not(@xsi:type)">(atcdabbr_entry_ExpositionsrisikoProblem): Wenn eine @xsi:type Instruktion anwesend ist MUSS diese den Wert "{urn:hl7-org:v3}:TS" haben. Gefunden "{<value-of select="namespace-uri-from-QName(resolve-QName(@xsi:type,.))"/>}:<value-of select="local-name-from-QName(resolve-QName(@xsi:type,.))"/>"</assert>
        <assert role="error" see="http://art-decor.org/art-decor/decor-templates--elgaimpf-?id=1.2.40.0.34.6.0.11.3.21" test="not(*)">(atcdabbr_entry_ExpositionsrisikoProblem): <value-of select="local-name()"/> with datatype TS.DATE, SHOULD NOT have child elements.</assert>
    </rule>
   <!--
Template derived rules for ID: 1.2.40.0.34.6.0.11.3.21
Context: *[hl7:observation[hl7:templateId[@root = '1.2.40.0.34.6.0.11.3.21'] and hl7:templateId[@root = '2.16.840.1.113883.10.20.1.28'] and hl7:templateId[@root = '1.3.6.1.4.1.19376.1.5.3.1.4.5']]]/hl7:observation[hl7:templateId[@root = '1.2.40.0.34.6.0.11.3.21'] and hl7:templateId[@root = '2.16.840.1.113883.10.20.1.28'] and hl7:templateId[@root = '1.3.6.1.4.1.19376.1.5.3.1.4.5']]/hl7:value[concat(@code, @codeSystem) = doc('include/voc-1.2.40.0.34.6.0.10.15-DYNAMIC.xml')//valueSet[1]/conceptList/concept/concat(@code, @codeSystem)]
Item: (atcdabbr_entry_ExpositionsrisikoProblem)
-->
    <rule context="*[hl7:observation[hl7:templateId[@root = '1.2.40.0.34.6.0.11.3.21'] and hl7:templateId[@root = '2.16.840.1.113883.10.20.1.28'] and hl7:templateId[@root = '1.3.6.1.4.1.19376.1.5.3.1.4.5']]]/hl7:observation[hl7:templateId[@root = '1.2.40.0.34.6.0.11.3.21'] and hl7:templateId[@root = '2.16.840.1.113883.10.20.1.28'] and hl7:templateId[@root = '1.3.6.1.4.1.19376.1.5.3.1.4.5']]/hl7:value[concat(@code, @codeSystem) = doc('include/voc-1.2.40.0.34.6.0.10.15-DYNAMIC.xml')//valueSet[1]/conceptList/concept/concat(@code, @codeSystem)]" id="d245561e4973-false-d445393e0">
        <extends rule="CD"/>
        <assert role="error" see="http://art-decor.org/art-decor/decor-templates--elgaimpf-?id=1.2.40.0.34.6.0.11.3.21" test="(local-name-from-QName(resolve-QName(@xsi:type,.))='CD' and namespace-uri-from-QName(resolve-QName(@xsi:type,.))='urn:hl7-org:v3') or not(@xsi:type)">(atcdabbr_entry_ExpositionsrisikoProblem): Wenn eine @xsi:type Instruktion anwesend ist MUSS diese den Wert "{urn:hl7-org:v3}:CD" haben. Gefunden "{<value-of select="namespace-uri-from-QName(resolve-QName(@xsi:type,.))"/>}:<value-of select="local-name-from-QName(resolve-QName(@xsi:type,.))"/>"</assert>
        <let name="theCode" value="@code"/>
        <let name="theCodeSystem" value="@codeSystem"/>
        <assert role="error" see="http://art-decor.org/art-decor/decor-templates--elgaimpf-?id=1.2.40.0.34.6.0.11.3.21" test="@nullFlavor or exists(doc('include/voc-1.2.40.0.34.6.0.10.15-DYNAMIC.xml')//valueSet[1][conceptList/concept[@code = $theCode][@codeSystem = $theCodeSystem]])">(atcdabbr_entry_ExpositionsrisikoProblem): Der Elementinhalt MUSS einer von '1.2.40.0.34.6.0.10.15 eImpf_SpecialSituationIndication_VS (DYNAMIC)' sein.</assert>
        <assert role="error" see="http://art-decor.org/art-decor/decor-templates--elgaimpf-?id=1.2.40.0.34.6.0.11.3.21" test="not(@displayName) or string-length(@displayName)&gt;0">(atcdabbr_entry_ExpositionsrisikoProblem): Attribute @displayName MUSS vom Datentyp 'st' sein  - '<value-of select="@displayName"/>'</assert>
        <assert role="error" see="http://art-decor.org/art-decor/decor-templates--elgaimpf-?id=1.2.40.0.34.6.0.11.3.21" test="@code">(atcdabbr_entry_ExpositionsrisikoProblem): Attribut @code MUSS vorkommen.</assert>
        <assert role="error" see="http://art-decor.org/art-decor/decor-templates--elgaimpf-?id=1.2.40.0.34.6.0.11.3.21" test="not(@code) or (string-length(@code) &gt; 0 and not(matches(@code,'\s')))">(atcdabbr_entry_ExpositionsrisikoProblem): Attribute @code MUSS vom Datentyp 'cs' sein  - '<value-of select="@code"/>'</assert>
        <assert role="error" see="http://art-decor.org/art-decor/decor-templates--elgaimpf-?id=1.2.40.0.34.6.0.11.3.21" test="@codeSystem">(atcdabbr_entry_ExpositionsrisikoProblem): Attribut @codeSystem MUSS vorkommen.</assert>
        <assert role="error" see="http://art-decor.org/art-decor/decor-templates--elgaimpf-?id=1.2.40.0.34.6.0.11.3.21" test="not(@codeSystem) or matches(@codeSystem,'^[0-2](\.(0|[1-9]\d*))*$')">(atcdabbr_entry_ExpositionsrisikoProblem): Attribute @codeSystem MUSS vom Datentyp 'oid' sein  - '<value-of select="@codeSystem"/>'</assert>
        <assert role="error" see="http://art-decor.org/art-decor/decor-templates--elgaimpf-?id=1.2.40.0.34.6.0.11.3.21" test="count(hl7:originalText[not(@nullFlavor)]) &gt;= 1">(atcdabbr_entry_ExpositionsrisikoProblem): Element hl7:originalText[not(@nullFlavor)] ist mandatory [min 1x].</assert>
        <assert role="error" see="http://art-decor.org/art-decor/decor-templates--elgaimpf-?id=1.2.40.0.34.6.0.11.3.21" test="count(hl7:originalText[not(@nullFlavor)]) &lt;= 1">(atcdabbr_entry_ExpositionsrisikoProblem): Element hl7:originalText[not(@nullFlavor)] kommt zu häufig vor [max 1x].</assert>
    </rule>
   <!--
Template derived rules for ID: 1.2.40.0.34.6.0.11.9.2
Context: *[hl7:observation[hl7:templateId[@root = '1.2.40.0.34.6.0.11.3.21'] and hl7:templateId[@root = '2.16.840.1.113883.10.20.1.28'] and hl7:templateId[@root = '1.3.6.1.4.1.19376.1.5.3.1.4.5']]]/hl7:observation[hl7:templateId[@root = '1.2.40.0.34.6.0.11.3.21'] and hl7:templateId[@root = '2.16.840.1.113883.10.20.1.28'] and hl7:templateId[@root = '1.3.6.1.4.1.19376.1.5.3.1.4.5']]/hl7:value[concat(@code, @codeSystem) = doc('include/voc-1.2.40.0.34.6.0.10.15-DYNAMIC.xml')//valueSet[1]/conceptList/concept/concat(@code, @codeSystem)]/hl7:originalText
Item: (atcdabbr_other_OriginalTextReference)
-->
    <rule context="*[hl7:observation[hl7:templateId[@root = '1.2.40.0.34.6.0.11.3.21'] and hl7:templateId[@root = '2.16.840.1.113883.10.20.1.28'] and hl7:templateId[@root = '1.3.6.1.4.1.19376.1.5.3.1.4.5']]]/hl7:observation[hl7:templateId[@root = '1.2.40.0.34.6.0.11.3.21'] and hl7:templateId[@root = '2.16.840.1.113883.10.20.1.28'] and hl7:templateId[@root = '1.3.6.1.4.1.19376.1.5.3.1.4.5']]/hl7:value[concat(@code, @codeSystem) = doc('include/voc-1.2.40.0.34.6.0.10.15-DYNAMIC.xml')//valueSet[1]/conceptList/concept/concat(@code, @codeSystem)]/hl7:originalText" id="d445396e46-false-d445441e0">
        <extends rule="ED"/>
        <assert role="error" see="http://art-decor.org/art-decor/decor-templates--elgaimpf-?id=1.2.40.0.34.6.0.11.9.2" test="(local-name-from-QName(resolve-QName(@xsi:type,.))='ED' and namespace-uri-from-QName(resolve-QName(@xsi:type,.))='urn:hl7-org:v3') or not(@xsi:type)">(atcdabbr_other_OriginalTextReference): Wenn eine @xsi:type Instruktion anwesend ist MUSS diese den Wert "{urn:hl7-org:v3}:ED" haben. Gefunden "{<value-of select="namespace-uri-from-QName(resolve-QName(@xsi:type,.))"/>}:<value-of select="local-name-from-QName(resolve-QName(@xsi:type,.))"/>"</assert>
        <assert role="error" see="http://art-decor.org/art-decor/decor-templates--elgaimpf-?id=1.2.40.0.34.6.0.11.9.2" test="count(hl7:reference[not(@nullFlavor)]) &gt;= 1">(atcdabbr_other_OriginalTextReference): Element hl7:reference[not(@nullFlavor)] ist mandatory [min 1x].</assert>
        <assert role="error" see="http://art-decor.org/art-decor/decor-templates--elgaimpf-?id=1.2.40.0.34.6.0.11.9.2" test="count(hl7:reference[not(@nullFlavor)]) &lt;= 1">(atcdabbr_other_OriginalTextReference): Element hl7:reference[not(@nullFlavor)] kommt zu häufig vor [max 1x].</assert>
    </rule>
   <!--
Template derived rules for ID: 1.2.40.0.34.6.0.11.9.2
Context: *[hl7:observation[hl7:templateId[@root = '1.2.40.0.34.6.0.11.3.21'] and hl7:templateId[@root = '2.16.840.1.113883.10.20.1.28'] and hl7:templateId[@root = '1.3.6.1.4.1.19376.1.5.3.1.4.5']]]/hl7:observation[hl7:templateId[@root = '1.2.40.0.34.6.0.11.3.21'] and hl7:templateId[@root = '2.16.840.1.113883.10.20.1.28'] and hl7:templateId[@root = '1.3.6.1.4.1.19376.1.5.3.1.4.5']]/hl7:value[concat(@code, @codeSystem) = doc('include/voc-1.2.40.0.34.6.0.10.15-DYNAMIC.xml')//valueSet[1]/conceptList/concept/concat(@code, @codeSystem)]/hl7:originalText/hl7:reference[not(@nullFlavor)]
Item: (atcdabbr_other_OriginalTextReference)
-->
    <rule context="*[hl7:observation[hl7:templateId[@root = '1.2.40.0.34.6.0.11.3.21'] and hl7:templateId[@root = '2.16.840.1.113883.10.20.1.28'] and hl7:templateId[@root = '1.3.6.1.4.1.19376.1.5.3.1.4.5']]]/hl7:observation[hl7:templateId[@root = '1.2.40.0.34.6.0.11.3.21'] and hl7:templateId[@root = '2.16.840.1.113883.10.20.1.28'] and hl7:templateId[@root = '1.3.6.1.4.1.19376.1.5.3.1.4.5']]/hl7:value[concat(@code, @codeSystem) = doc('include/voc-1.2.40.0.34.6.0.10.15-DYNAMIC.xml')//valueSet[1]/conceptList/concept/concat(@code, @codeSystem)]/hl7:originalText/hl7:reference[not(@nullFlavor)]" id="d445396e50-false-d445459e0">
        <extends rule="TEL"/>
        <assert role="error" see="http://art-decor.org/art-decor/decor-templates--elgaimpf-?id=1.2.40.0.34.6.0.11.9.2" test="(local-name-from-QName(resolve-QName(@xsi:type,.))='TEL' and namespace-uri-from-QName(resolve-QName(@xsi:type,.))='urn:hl7-org:v3') or not(@xsi:type)">(atcdabbr_other_OriginalTextReference): Wenn eine @xsi:type Instruktion anwesend ist MUSS diese den Wert "{urn:hl7-org:v3}:TEL" haben. Gefunden "{<value-of select="namespace-uri-from-QName(resolve-QName(@xsi:type,.))"/>}:<value-of select="local-name-from-QName(resolve-QName(@xsi:type,.))"/>"</assert>
        <assert role="error" see="http://art-decor.org/art-decor/decor-templates--elgaimpf-?id=1.2.40.0.34.6.0.11.9.2" test="@value">(atcdabbr_other_OriginalTextReference): Attribut @value MUSS vorkommen.</assert>
        <assert role="error" see="http://art-decor.org/art-decor/decor-templates--elgaimpf-?id=1.2.40.0.34.6.0.11.9.2" test="starts-with(@value,'#')">(atcdabbr_other_OriginalTextReference): The @value attribute content MUST conform to the format '#xxx', where xxx is the ID of the corresponding 'content'-element.</assert>
    </rule>
</pattern>