<?xml version="1.0" encoding="UTF-8"?>
<!--
Template derived pattern
===========================================
ID: 1.2.40.0.34.11.3.2.12
Name: Soziale Umstände und Verhalten
Description: 
-->
<pattern xmlns="http://purl.oclc.org/dsdl/schematron"
         id="template-1.2.40.0.34.11.3.2.12-2013-10-10T000000">
   <title>Soziale Umstände und Verhalten</title>
   <!--
Template derived rules for ID: 1.2.40.0.34.11.3.2.12
Context: *[hl7:section[hl7:templateId[@root = '1.2.40.0.34.11.3.2.12']]]
Item: (SozialeUmstaendeUndVerhalten)
-->

   <!--
Template derived rules for ID: 1.2.40.0.34.11.3.2.12
Context: *[hl7:section[hl7:templateId[@root = '1.2.40.0.34.11.3.2.12']]]/hl7:section[hl7:templateId[@root = '1.2.40.0.34.11.3.2.12']]
Item: (SozialeUmstaendeUndVerhalten)
-->

   <rule context="*[hl7:section[hl7:templateId[@root = '1.2.40.0.34.11.3.2.12']]]/hl7:section[hl7:templateId[@root = '1.2.40.0.34.11.3.2.12']]"
         id="d20e26679-false-d254781e0">
      <assert role="error"
              see="http://elga.art-decor.org/elga-html-20200130T133330/tmp-1.2.40.0.34.11.3.2.12-2013-10-10T000000.html"
              test="count(hl7:templateId[@root = '1.2.40.0.34.11.3.2.12']) &gt;= 1">(SozialeUmstaendeUndVerhalten): Element hl7:templateId[@root = '1.2.40.0.34.11.3.2.12'] ist required [min 1x].</assert>
      <assert role="error"
              see="http://elga.art-decor.org/elga-html-20200130T133330/tmp-1.2.40.0.34.11.3.2.12-2013-10-10T000000.html"
              test="count(hl7:templateId[@root = '1.2.40.0.34.11.3.2.12']) &lt;= 1">(SozialeUmstaendeUndVerhalten): Element hl7:templateId[@root = '1.2.40.0.34.11.3.2.12'] kommt zu häufig vor [max 1x].</assert>
      <assert role="error"
              see="http://elga.art-decor.org/elga-html-20200130T133330/tmp-1.2.40.0.34.11.3.2.12-2013-10-10T000000.html"
              test="count(hl7:code[(@code = 'PFSOZV' and @codeSystem = '1.2.40.0.34.5.40')]) &gt;= 1">(SozialeUmstaendeUndVerhalten): Element hl7:code[(@code = 'PFSOZV' and @codeSystem = '1.2.40.0.34.5.40')] ist mandatory [min 1x].</assert>
      <assert role="error"
              see="http://elga.art-decor.org/elga-html-20200130T133330/tmp-1.2.40.0.34.11.3.2.12-2013-10-10T000000.html"
              test="count(hl7:code[(@code = 'PFSOZV' and @codeSystem = '1.2.40.0.34.5.40')]) &lt;= 1">(SozialeUmstaendeUndVerhalten): Element hl7:code[(@code = 'PFSOZV' and @codeSystem = '1.2.40.0.34.5.40')] kommt zu häufig vor [max 1x].</assert>
      <assert role="error"
              see="http://elga.art-decor.org/elga-html-20200130T133330/tmp-1.2.40.0.34.11.3.2.12-2013-10-10T000000.html"
              test="count(hl7:title[not(@nullFlavor)]) &gt;= 1">(SozialeUmstaendeUndVerhalten): Element hl7:title[not(@nullFlavor)] ist mandatory [min 1x].</assert>
      <assert role="error"
              see="http://elga.art-decor.org/elga-html-20200130T133330/tmp-1.2.40.0.34.11.3.2.12-2013-10-10T000000.html"
              test="count(hl7:title[not(@nullFlavor)]) &lt;= 1">(SozialeUmstaendeUndVerhalten): Element hl7:title[not(@nullFlavor)] kommt zu häufig vor [max 1x].</assert>
      <assert role="error"
              see="http://elga.art-decor.org/elga-html-20200130T133330/tmp-1.2.40.0.34.11.3.2.12-2013-10-10T000000.html"
              test="count(hl7:text[not(@nullFlavor)]) &gt;= 1">(SozialeUmstaendeUndVerhalten): Element hl7:text[not(@nullFlavor)] ist mandatory [min 1x].</assert>
      <assert role="error"
              see="http://elga.art-decor.org/elga-html-20200130T133330/tmp-1.2.40.0.34.11.3.2.12-2013-10-10T000000.html"
              test="count(hl7:text[not(@nullFlavor)]) &lt;= 1">(SozialeUmstaendeUndVerhalten): Element hl7:text[not(@nullFlavor)] kommt zu häufig vor [max 1x].</assert>
      <assert role="error"
              see="http://elga.art-decor.org/elga-html-20200130T133330/tmp-1.2.40.0.34.11.3.2.12-2013-10-10T000000.html"
              test="count(hl7:component[hl7:section[hl7:templateId[@root = '1.2.40.0.34.11.1.2.8']]]) &lt;= 1">(SozialeUmstaendeUndVerhalten): Element hl7:component[hl7:section[hl7:templateId[@root = '1.2.40.0.34.11.1.2.8']]] kommt zu häufig vor [max 1x].</assert>
      <assert role="error"
              see="http://elga.art-decor.org/elga-html-20200130T133330/tmp-1.2.40.0.34.11.3.2.12-2013-10-10T000000.html"
              test="count(hl7:component[hl7:section[hl7:templateId[@root = '1.2.40.0.34.11.1.2.9']]]) &lt;= 1">(SozialeUmstaendeUndVerhalten): Element hl7:component[hl7:section[hl7:templateId[@root = '1.2.40.0.34.11.1.2.9']]] kommt zu häufig vor [max 1x].</assert>
   </rule>
   <!--
Template derived rules for ID: 1.2.40.0.34.11.3.2.12
Context: *[hl7:section[hl7:templateId[@root = '1.2.40.0.34.11.3.2.12']]]/hl7:section[hl7:templateId[@root = '1.2.40.0.34.11.3.2.12']]/hl7:templateId[@root = '1.2.40.0.34.11.3.2.12']
Item: (SozialeUmstaendeUndVerhalten)
-->

   <rule context="*[hl7:section[hl7:templateId[@root = '1.2.40.0.34.11.3.2.12']]]/hl7:section[hl7:templateId[@root = '1.2.40.0.34.11.3.2.12']]/hl7:templateId[@root = '1.2.40.0.34.11.3.2.12']"
         id="d20e26681-false-d254846e0">
      <extends rule="II"/>
      <assert role="error"
              see="http://elga.art-decor.org/elga-html-20200130T133330/tmp-1.2.40.0.34.11.3.2.12-2013-10-10T000000.html"
              test="(local-name-from-QName(resolve-QName(@xsi:type,.))='II' and namespace-uri-from-QName(resolve-QName(@xsi:type,.))='urn:hl7-org:v3') or not(@xsi:type)">(SozialeUmstaendeUndVerhalten): Wenn eine @xsi:type Instruktion anwesend ist MUSS diese den Wert "{urn:hl7-org:v3}:II" haben. Gefunden "{<value-of select="namespace-uri-from-QName(resolve-QName(@xsi:type,.))"/>}:<value-of select="local-name-from-QName(resolve-QName(@xsi:type,.))"/>"</assert>
      <assert role="error"
              see="http://elga.art-decor.org/elga-html-20200130T133330/tmp-1.2.40.0.34.11.3.2.12-2013-10-10T000000.html"
              test="string(@root) = ('1.2.40.0.34.11.3.2.12')">(SozialeUmstaendeUndVerhalten): Der Wert von root MUSS '1.2.40.0.34.11.3.2.12' sein. Gefunden: "<value-of select="@root"/>"</assert>
   </rule>
   <!--
Template derived rules for ID: 1.2.40.0.34.11.3.2.12
Context: *[hl7:section[hl7:templateId[@root = '1.2.40.0.34.11.3.2.12']]]/hl7:section[hl7:templateId[@root = '1.2.40.0.34.11.3.2.12']]/hl7:code[(@code = 'PFSOZV' and @codeSystem = '1.2.40.0.34.5.40')]
Item: (SozialeUmstaendeUndVerhalten)
-->

   <rule context="*[hl7:section[hl7:templateId[@root = '1.2.40.0.34.11.3.2.12']]]/hl7:section[hl7:templateId[@root = '1.2.40.0.34.11.3.2.12']]/hl7:code[(@code = 'PFSOZV' and @codeSystem = '1.2.40.0.34.5.40')]"
         id="d20e26686-false-d254861e0">
      <extends rule="CE"/>
      <assert role="error"
              see="http://elga.art-decor.org/elga-html-20200130T133330/tmp-1.2.40.0.34.11.3.2.12-2013-10-10T000000.html"
              test="(local-name-from-QName(resolve-QName(@xsi:type,.))='CE' and namespace-uri-from-QName(resolve-QName(@xsi:type,.))='urn:hl7-org:v3') or not(@xsi:type)">(SozialeUmstaendeUndVerhalten): Wenn eine @xsi:type Instruktion anwesend ist MUSS diese den Wert "{urn:hl7-org:v3}:CE" haben. Gefunden "{<value-of select="namespace-uri-from-QName(resolve-QName(@xsi:type,.))"/>}:<value-of select="local-name-from-QName(resolve-QName(@xsi:type,.))"/>"</assert>
      <assert role="error"
              see="http://elga.art-decor.org/elga-html-20200130T133330/tmp-1.2.40.0.34.11.3.2.12-2013-10-10T000000.html"
              test="@nullFlavor or (@code='PFSOZV' and @codeSystem='1.2.40.0.34.5.40')">(SozialeUmstaendeUndVerhalten): Der Elementinhalt MUSS einer von 'code 'PFSOZV' codeSystem '1.2.40.0.34.5.40'' sein.</assert>
   </rule>
   <!--
Template derived rules for ID: 1.2.40.0.34.11.3.2.12
Context: *[hl7:section[hl7:templateId[@root = '1.2.40.0.34.11.3.2.12']]]/hl7:section[hl7:templateId[@root = '1.2.40.0.34.11.3.2.12']]/hl7:title[not(@nullFlavor)]
Item: (SozialeUmstaendeUndVerhalten)
-->

   <rule context="*[hl7:section[hl7:templateId[@root = '1.2.40.0.34.11.3.2.12']]]/hl7:section[hl7:templateId[@root = '1.2.40.0.34.11.3.2.12']]/hl7:title[not(@nullFlavor)]"
         id="d20e26696-false-d254877e0">
      <extends rule="ST"/>
      <assert role="error"
              see="http://elga.art-decor.org/elga-html-20200130T133330/tmp-1.2.40.0.34.11.3.2.12-2013-10-10T000000.html"
              test="(local-name-from-QName(resolve-QName(@xsi:type,.))='ST' and namespace-uri-from-QName(resolve-QName(@xsi:type,.))='urn:hl7-org:v3') or not(@xsi:type)">(SozialeUmstaendeUndVerhalten): Wenn eine @xsi:type Instruktion anwesend ist MUSS diese den Wert "{urn:hl7-org:v3}:ST" haben. Gefunden "{<value-of select="namespace-uri-from-QName(resolve-QName(@xsi:type,.))"/>}:<value-of select="local-name-from-QName(resolve-QName(@xsi:type,.))"/>"</assert>
      <assert role="error"
              see="http://elga.art-decor.org/elga-html-20200130T133330/tmp-1.2.40.0.34.11.3.2.12-2013-10-10T000000.html"
              test="text()='Soziale Umstände und Verhalten'">(SozialeUmstaendeUndVerhalten): Der Elementinhalt von 'hl7:title[not(@nullFlavor)]' MUSS ''Soziale Umstände und Verhalten'' sein. Gefunden: "<value-of select="."/>"</assert>
   </rule>
   <!--
Template derived rules for ID: 1.2.40.0.34.11.3.2.12
Context: *[hl7:section[hl7:templateId[@root = '1.2.40.0.34.11.3.2.12']]]/hl7:section[hl7:templateId[@root = '1.2.40.0.34.11.3.2.12']]/hl7:text[not(@nullFlavor)]
Item: (SozialeUmstaendeUndVerhalten)
-->

   <!--
Template derived rules for ID: 1.2.40.0.34.11.30032
Context: *[hl7:section[hl7:templateId[@root = '1.2.40.0.34.11.3.2.12']]]/hl7:section[hl7:templateId[@root = '1.2.40.0.34.11.3.2.12']]/hl7:component[hl7:section[hl7:templateId[@root = '1.2.40.0.34.11.1.2.8']]]
Item: (RisikenHilfsmittelRessourcen)
-->

   <rule context="*[hl7:section[hl7:templateId[@root = '1.2.40.0.34.11.3.2.12']]]/hl7:section[hl7:templateId[@root = '1.2.40.0.34.11.3.2.12']]/hl7:component[hl7:section[hl7:templateId[@root = '1.2.40.0.34.11.1.2.8']]]"
         id="d254893e8-false-d254904e0">
      <assert role="error"
              see="http://elga.art-decor.org/elga-html-20200130T133330/tmp-1.2.40.0.34.11.30032-2013-11-07T000000.html"
              test="string(@typeCode) = ('COMP') or not(@typeCode)">(RisikenHilfsmittelRessourcen): Der Wert von typeCode MUSS 'COMP' sein. Gefunden: "<value-of select="@typeCode"/>"</assert>
      <assert role="error"
              see="http://elga.art-decor.org/elga-html-20200130T133330/tmp-1.2.40.0.34.11.30032-2013-11-07T000000.html"
              test="string(@contextConductionInd) = ('true') or not(@contextConductionInd)">(RisikenHilfsmittelRessourcen): Der Wert von contextConductionInd MUSS 'true' sein. Gefunden: "<value-of select="@contextConductionInd"/>"</assert>
   </rule>
   <!--
Template derived rules for ID: 1.2.40.0.34.11.30032
Context: *[hl7:section[hl7:templateId[@root = '1.2.40.0.34.11.3.2.12']]]/hl7:section[hl7:templateId[@root = '1.2.40.0.34.11.3.2.12']]/hl7:component[hl7:section[hl7:templateId[@root = '1.2.40.0.34.11.1.2.9']]]
Item: (RisikenHilfsmittelRessourcen)
-->

   <rule context="*[hl7:section[hl7:templateId[@root = '1.2.40.0.34.11.3.2.12']]]/hl7:section[hl7:templateId[@root = '1.2.40.0.34.11.3.2.12']]/hl7:component[hl7:section[hl7:templateId[@root = '1.2.40.0.34.11.1.2.9']]]"
         id="d254893e15-false-d254922e0">
      <assert role="error"
              see="http://elga.art-decor.org/elga-html-20200130T133330/tmp-1.2.40.0.34.11.30032-2013-11-07T000000.html"
              test="string(@typeCode) = ('COMP') or not(@typeCode)">(RisikenHilfsmittelRessourcen): Der Wert von typeCode MUSS 'COMP' sein. Gefunden: "<value-of select="@typeCode"/>"</assert>
      <assert role="error"
              see="http://elga.art-decor.org/elga-html-20200130T133330/tmp-1.2.40.0.34.11.30032-2013-11-07T000000.html"
              test="string(@contextConductionInd) = ('true') or not(@contextConductionInd)">(RisikenHilfsmittelRessourcen): Der Wert von contextConductionInd MUSS 'true' sein. Gefunden: "<value-of select="@contextConductionInd"/>"</assert>
   </rule>
</pattern>
