<?xml version="1.0" encoding="UTF-8"?>
<!--
Template derived pattern
===========================================
ID: 1.2.40.0.34.11.3.2.10
Name: Schmerz
Description: 
-->
<pattern xmlns="http://purl.oclc.org/dsdl/schematron"
         id="template-1.2.40.0.34.11.3.2.10-2011-12-19T000000">
   <title>Schmerz</title>
   <!--
Template derived rules for ID: 1.2.40.0.34.11.3.2.10
Context: *[hl7:section[hl7:templateId[@root = '1.2.40.0.34.11.3.2.10'] and hl7:templateId[@root = '1.3.6.1.4.1.19376.1.5.3.1.1.20.2.4']]]
Item: (Schmerz)
-->

   <!--
Template derived rules for ID: 1.2.40.0.34.11.3.2.10
Context: *[hl7:section[hl7:templateId[@root = '1.2.40.0.34.11.3.2.10'] and hl7:templateId[@root = '1.3.6.1.4.1.19376.1.5.3.1.1.20.2.4']]]/hl7:section[hl7:templateId[@root = '1.2.40.0.34.11.3.2.10'] and hl7:templateId[@root = '1.3.6.1.4.1.19376.1.5.3.1.1.20.2.4']]
Item: (Schmerz)
-->

   <rule context="*[hl7:section[hl7:templateId[@root = '1.2.40.0.34.11.3.2.10'] and hl7:templateId[@root = '1.3.6.1.4.1.19376.1.5.3.1.1.20.2.4']]]/hl7:section[hl7:templateId[@root = '1.2.40.0.34.11.3.2.10'] and hl7:templateId[@root = '1.3.6.1.4.1.19376.1.5.3.1.1.20.2.4']]"
         id="d20e26543-false-d254373e0">
      <assert role="error"
              see="http://elga.art-decor.org/elga-html-20200130T133330/tmp-1.2.40.0.34.11.3.2.10-2011-12-19T000000.html"
              test="count(hl7:templateId[@root = '1.2.40.0.34.11.3.2.10']) &gt;= 1">(Schmerz): Element hl7:templateId[@root = '1.2.40.0.34.11.3.2.10'] ist required [min 1x].</assert>
      <assert role="error"
              see="http://elga.art-decor.org/elga-html-20200130T133330/tmp-1.2.40.0.34.11.3.2.10-2011-12-19T000000.html"
              test="count(hl7:templateId[@root = '1.2.40.0.34.11.3.2.10']) &lt;= 1">(Schmerz): Element hl7:templateId[@root = '1.2.40.0.34.11.3.2.10'] kommt zu häufig vor [max 1x].</assert>
      <assert role="error"
              see="http://elga.art-decor.org/elga-html-20200130T133330/tmp-1.2.40.0.34.11.3.2.10-2011-12-19T000000.html"
              test="count(hl7:templateId[@root = '1.3.6.1.4.1.19376.1.5.3.1.1.20.2.4']) &gt;= 1">(Schmerz): Element hl7:templateId[@root = '1.3.6.1.4.1.19376.1.5.3.1.1.20.2.4'] ist required [min 1x].</assert>
      <assert role="error"
              see="http://elga.art-decor.org/elga-html-20200130T133330/tmp-1.2.40.0.34.11.3.2.10-2011-12-19T000000.html"
              test="count(hl7:templateId[@root = '1.3.6.1.4.1.19376.1.5.3.1.1.20.2.4']) &lt;= 1">(Schmerz): Element hl7:templateId[@root = '1.3.6.1.4.1.19376.1.5.3.1.1.20.2.4'] kommt zu häufig vor [max 1x].</assert>
      <assert role="error"
              see="http://elga.art-decor.org/elga-html-20200130T133330/tmp-1.2.40.0.34.11.3.2.10-2011-12-19T000000.html"
              test="count(hl7:code[(@code = '38212-7' and @codeSystem = '2.16.840.1.113883.6.1')]) &gt;= 1">(Schmerz): Element hl7:code[(@code = '38212-7' and @codeSystem = '2.16.840.1.113883.6.1')] ist mandatory [min 1x].</assert>
      <assert role="error"
              see="http://elga.art-decor.org/elga-html-20200130T133330/tmp-1.2.40.0.34.11.3.2.10-2011-12-19T000000.html"
              test="count(hl7:code[(@code = '38212-7' and @codeSystem = '2.16.840.1.113883.6.1')]) &lt;= 1">(Schmerz): Element hl7:code[(@code = '38212-7' and @codeSystem = '2.16.840.1.113883.6.1')] kommt zu häufig vor [max 1x].</assert>
      <assert role="error"
              see="http://elga.art-decor.org/elga-html-20200130T133330/tmp-1.2.40.0.34.11.3.2.10-2011-12-19T000000.html"
              test="count(hl7:title[not(@nullFlavor)]) &gt;= 1">(Schmerz): Element hl7:title[not(@nullFlavor)] ist mandatory [min 1x].</assert>
      <assert role="error"
              see="http://elga.art-decor.org/elga-html-20200130T133330/tmp-1.2.40.0.34.11.3.2.10-2011-12-19T000000.html"
              test="count(hl7:title[not(@nullFlavor)]) &lt;= 1">(Schmerz): Element hl7:title[not(@nullFlavor)] kommt zu häufig vor [max 1x].</assert>
      <assert role="error"
              see="http://elga.art-decor.org/elga-html-20200130T133330/tmp-1.2.40.0.34.11.3.2.10-2011-12-19T000000.html"
              test="count(hl7:text[not(@nullFlavor)]) &gt;= 1">(Schmerz): Element hl7:text[not(@nullFlavor)] ist mandatory [min 1x].</assert>
      <assert role="error"
              see="http://elga.art-decor.org/elga-html-20200130T133330/tmp-1.2.40.0.34.11.3.2.10-2011-12-19T000000.html"
              test="count(hl7:text[not(@nullFlavor)]) &lt;= 1">(Schmerz): Element hl7:text[not(@nullFlavor)] kommt zu häufig vor [max 1x].</assert>
      <assert role="error"
              see="http://elga.art-decor.org/elga-html-20200130T133330/tmp-1.2.40.0.34.11.3.2.10-2011-12-19T000000.html"
              test="count(hl7:component[hl7:section[hl7:templateId[@root = '1.2.40.0.34.11.1.2.8']]]) &lt;= 1">(Schmerz): Element hl7:component[hl7:section[hl7:templateId[@root = '1.2.40.0.34.11.1.2.8']]] kommt zu häufig vor [max 1x].</assert>
      <assert role="error"
              see="http://elga.art-decor.org/elga-html-20200130T133330/tmp-1.2.40.0.34.11.3.2.10-2011-12-19T000000.html"
              test="count(hl7:component[hl7:section[hl7:templateId[@root = '1.2.40.0.34.11.1.2.9']]]) &lt;= 1">(Schmerz): Element hl7:component[hl7:section[hl7:templateId[@root = '1.2.40.0.34.11.1.2.9']]] kommt zu häufig vor [max 1x].</assert>
   </rule>
   <!--
Template derived rules for ID: 1.2.40.0.34.11.3.2.10
Context: *[hl7:section[hl7:templateId[@root = '1.2.40.0.34.11.3.2.10'] and hl7:templateId[@root = '1.3.6.1.4.1.19376.1.5.3.1.1.20.2.4']]]/hl7:section[hl7:templateId[@root = '1.2.40.0.34.11.3.2.10'] and hl7:templateId[@root = '1.3.6.1.4.1.19376.1.5.3.1.1.20.2.4']]/hl7:templateId[@root = '1.2.40.0.34.11.3.2.10']
Item: (Schmerz)
-->

   <rule context="*[hl7:section[hl7:templateId[@root = '1.2.40.0.34.11.3.2.10'] and hl7:templateId[@root = '1.3.6.1.4.1.19376.1.5.3.1.1.20.2.4']]]/hl7:section[hl7:templateId[@root = '1.2.40.0.34.11.3.2.10'] and hl7:templateId[@root = '1.3.6.1.4.1.19376.1.5.3.1.1.20.2.4']]/hl7:templateId[@root = '1.2.40.0.34.11.3.2.10']"
         id="d20e26545-false-d254447e0">
      <extends rule="II"/>
      <assert role="error"
              see="http://elga.art-decor.org/elga-html-20200130T133330/tmp-1.2.40.0.34.11.3.2.10-2011-12-19T000000.html"
              test="(local-name-from-QName(resolve-QName(@xsi:type,.))='II' and namespace-uri-from-QName(resolve-QName(@xsi:type,.))='urn:hl7-org:v3') or not(@xsi:type)">(Schmerz): Wenn eine @xsi:type Instruktion anwesend ist MUSS diese den Wert "{urn:hl7-org:v3}:II" haben. Gefunden "{<value-of select="namespace-uri-from-QName(resolve-QName(@xsi:type,.))"/>}:<value-of select="local-name-from-QName(resolve-QName(@xsi:type,.))"/>"</assert>
      <assert role="error"
              see="http://elga.art-decor.org/elga-html-20200130T133330/tmp-1.2.40.0.34.11.3.2.10-2011-12-19T000000.html"
              test="string(@root) = ('1.2.40.0.34.11.3.2.10')">(Schmerz): Der Wert von root MUSS '1.2.40.0.34.11.3.2.10' sein. Gefunden: "<value-of select="@root"/>"</assert>
   </rule>
   <!--
Template derived rules for ID: 1.2.40.0.34.11.3.2.10
Context: *[hl7:section[hl7:templateId[@root = '1.2.40.0.34.11.3.2.10'] and hl7:templateId[@root = '1.3.6.1.4.1.19376.1.5.3.1.1.20.2.4']]]/hl7:section[hl7:templateId[@root = '1.2.40.0.34.11.3.2.10'] and hl7:templateId[@root = '1.3.6.1.4.1.19376.1.5.3.1.1.20.2.4']]/hl7:templateId[@root = '1.3.6.1.4.1.19376.1.5.3.1.1.20.2.4']
Item: (Schmerz)
-->

   <rule context="*[hl7:section[hl7:templateId[@root = '1.2.40.0.34.11.3.2.10'] and hl7:templateId[@root = '1.3.6.1.4.1.19376.1.5.3.1.1.20.2.4']]]/hl7:section[hl7:templateId[@root = '1.2.40.0.34.11.3.2.10'] and hl7:templateId[@root = '1.3.6.1.4.1.19376.1.5.3.1.1.20.2.4']]/hl7:templateId[@root = '1.3.6.1.4.1.19376.1.5.3.1.1.20.2.4']"
         id="d20e26550-false-d254462e0">
      <extends rule="II"/>
      <assert role="error"
              see="http://elga.art-decor.org/elga-html-20200130T133330/tmp-1.2.40.0.34.11.3.2.10-2011-12-19T000000.html"
              test="(local-name-from-QName(resolve-QName(@xsi:type,.))='II' and namespace-uri-from-QName(resolve-QName(@xsi:type,.))='urn:hl7-org:v3') or not(@xsi:type)">(Schmerz): Wenn eine @xsi:type Instruktion anwesend ist MUSS diese den Wert "{urn:hl7-org:v3}:II" haben. Gefunden "{<value-of select="namespace-uri-from-QName(resolve-QName(@xsi:type,.))"/>}:<value-of select="local-name-from-QName(resolve-QName(@xsi:type,.))"/>"</assert>
      <assert role="error"
              see="http://elga.art-decor.org/elga-html-20200130T133330/tmp-1.2.40.0.34.11.3.2.10-2011-12-19T000000.html"
              test="string(@root) = ('1.3.6.1.4.1.19376.1.5.3.1.1.20.2.4')">(Schmerz): Der Wert von root MUSS '1.3.6.1.4.1.19376.1.5.3.1.1.20.2.4' sein. Gefunden: "<value-of select="@root"/>"</assert>
   </rule>
   <!--
Template derived rules for ID: 1.2.40.0.34.11.3.2.10
Context: *[hl7:section[hl7:templateId[@root = '1.2.40.0.34.11.3.2.10'] and hl7:templateId[@root = '1.3.6.1.4.1.19376.1.5.3.1.1.20.2.4']]]/hl7:section[hl7:templateId[@root = '1.2.40.0.34.11.3.2.10'] and hl7:templateId[@root = '1.3.6.1.4.1.19376.1.5.3.1.1.20.2.4']]/hl7:code[(@code = '38212-7' and @codeSystem = '2.16.840.1.113883.6.1')]
Item: (Schmerz)
-->

   <rule context="*[hl7:section[hl7:templateId[@root = '1.2.40.0.34.11.3.2.10'] and hl7:templateId[@root = '1.3.6.1.4.1.19376.1.5.3.1.1.20.2.4']]]/hl7:section[hl7:templateId[@root = '1.2.40.0.34.11.3.2.10'] and hl7:templateId[@root = '1.3.6.1.4.1.19376.1.5.3.1.1.20.2.4']]/hl7:code[(@code = '38212-7' and @codeSystem = '2.16.840.1.113883.6.1')]"
         id="d20e26555-false-d254477e0">
      <extends rule="CE"/>
      <assert role="error"
              see="http://elga.art-decor.org/elga-html-20200130T133330/tmp-1.2.40.0.34.11.3.2.10-2011-12-19T000000.html"
              test="(local-name-from-QName(resolve-QName(@xsi:type,.))='CE' and namespace-uri-from-QName(resolve-QName(@xsi:type,.))='urn:hl7-org:v3') or not(@xsi:type)">(Schmerz): Wenn eine @xsi:type Instruktion anwesend ist MUSS diese den Wert "{urn:hl7-org:v3}:CE" haben. Gefunden "{<value-of select="namespace-uri-from-QName(resolve-QName(@xsi:type,.))"/>}:<value-of select="local-name-from-QName(resolve-QName(@xsi:type,.))"/>"</assert>
      <assert role="error"
              see="http://elga.art-decor.org/elga-html-20200130T133330/tmp-1.2.40.0.34.11.3.2.10-2011-12-19T000000.html"
              test="@nullFlavor or (@code='38212-7' and @codeSystem='2.16.840.1.113883.6.1')">(Schmerz): Der Elementinhalt MUSS einer von 'code '38212-7' codeSystem '2.16.840.1.113883.6.1'' sein.</assert>
   </rule>
   <!--
Template derived rules for ID: 1.2.40.0.34.11.3.2.10
Context: *[hl7:section[hl7:templateId[@root = '1.2.40.0.34.11.3.2.10'] and hl7:templateId[@root = '1.3.6.1.4.1.19376.1.5.3.1.1.20.2.4']]]/hl7:section[hl7:templateId[@root = '1.2.40.0.34.11.3.2.10'] and hl7:templateId[@root = '1.3.6.1.4.1.19376.1.5.3.1.1.20.2.4']]/hl7:title[not(@nullFlavor)]
Item: (Schmerz)
-->

   <rule context="*[hl7:section[hl7:templateId[@root = '1.2.40.0.34.11.3.2.10'] and hl7:templateId[@root = '1.3.6.1.4.1.19376.1.5.3.1.1.20.2.4']]]/hl7:section[hl7:templateId[@root = '1.2.40.0.34.11.3.2.10'] and hl7:templateId[@root = '1.3.6.1.4.1.19376.1.5.3.1.1.20.2.4']]/hl7:title[not(@nullFlavor)]"
         id="d20e26565-false-d254493e0">
      <extends rule="ST"/>
      <assert role="error"
              see="http://elga.art-decor.org/elga-html-20200130T133330/tmp-1.2.40.0.34.11.3.2.10-2011-12-19T000000.html"
              test="(local-name-from-QName(resolve-QName(@xsi:type,.))='ST' and namespace-uri-from-QName(resolve-QName(@xsi:type,.))='urn:hl7-org:v3') or not(@xsi:type)">(Schmerz): Wenn eine @xsi:type Instruktion anwesend ist MUSS diese den Wert "{urn:hl7-org:v3}:ST" haben. Gefunden "{<value-of select="namespace-uri-from-QName(resolve-QName(@xsi:type,.))"/>}:<value-of select="local-name-from-QName(resolve-QName(@xsi:type,.))"/>"</assert>
      <assert role="error"
              see="http://elga.art-decor.org/elga-html-20200130T133330/tmp-1.2.40.0.34.11.3.2.10-2011-12-19T000000.html"
              test="text()='Schmerz'">(Schmerz): Der Elementinhalt von 'hl7:title[not(@nullFlavor)]' MUSS ''Schmerz'' sein. Gefunden: "<value-of select="."/>"</assert>
   </rule>
   <!--
Template derived rules for ID: 1.2.40.0.34.11.3.2.10
Context: *[hl7:section[hl7:templateId[@root = '1.2.40.0.34.11.3.2.10'] and hl7:templateId[@root = '1.3.6.1.4.1.19376.1.5.3.1.1.20.2.4']]]/hl7:section[hl7:templateId[@root = '1.2.40.0.34.11.3.2.10'] and hl7:templateId[@root = '1.3.6.1.4.1.19376.1.5.3.1.1.20.2.4']]/hl7:text[not(@nullFlavor)]
Item: (Schmerz)
-->

   <!--
Template derived rules for ID: 1.2.40.0.34.11.30032
Context: *[hl7:section[hl7:templateId[@root = '1.2.40.0.34.11.3.2.10'] and hl7:templateId[@root = '1.3.6.1.4.1.19376.1.5.3.1.1.20.2.4']]]/hl7:section[hl7:templateId[@root = '1.2.40.0.34.11.3.2.10'] and hl7:templateId[@root = '1.3.6.1.4.1.19376.1.5.3.1.1.20.2.4']]/hl7:component[hl7:section[hl7:templateId[@root = '1.2.40.0.34.11.1.2.8']]]
Item: (RisikenHilfsmittelRessourcen)
-->

   <rule context="*[hl7:section[hl7:templateId[@root = '1.2.40.0.34.11.3.2.10'] and hl7:templateId[@root = '1.3.6.1.4.1.19376.1.5.3.1.1.20.2.4']]]/hl7:section[hl7:templateId[@root = '1.2.40.0.34.11.3.2.10'] and hl7:templateId[@root = '1.3.6.1.4.1.19376.1.5.3.1.1.20.2.4']]/hl7:component[hl7:section[hl7:templateId[@root = '1.2.40.0.34.11.1.2.8']]]"
         id="d254509e8-false-d254520e0">
      <assert role="error"
              see="http://elga.art-decor.org/elga-html-20200130T133330/tmp-1.2.40.0.34.11.30032-2013-11-07T000000.html"
              test="string(@typeCode) = ('COMP') or not(@typeCode)">(RisikenHilfsmittelRessourcen): Der Wert von typeCode MUSS 'COMP' sein. Gefunden: "<value-of select="@typeCode"/>"</assert>
      <assert role="error"
              see="http://elga.art-decor.org/elga-html-20200130T133330/tmp-1.2.40.0.34.11.30032-2013-11-07T000000.html"
              test="string(@contextConductionInd) = ('true') or not(@contextConductionInd)">(RisikenHilfsmittelRessourcen): Der Wert von contextConductionInd MUSS 'true' sein. Gefunden: "<value-of select="@contextConductionInd"/>"</assert>
   </rule>
   <!--
Template derived rules for ID: 1.2.40.0.34.11.30032
Context: *[hl7:section[hl7:templateId[@root = '1.2.40.0.34.11.3.2.10'] and hl7:templateId[@root = '1.3.6.1.4.1.19376.1.5.3.1.1.20.2.4']]]/hl7:section[hl7:templateId[@root = '1.2.40.0.34.11.3.2.10'] and hl7:templateId[@root = '1.3.6.1.4.1.19376.1.5.3.1.1.20.2.4']]/hl7:component[hl7:section[hl7:templateId[@root = '1.2.40.0.34.11.1.2.9']]]
Item: (RisikenHilfsmittelRessourcen)
-->

   <rule context="*[hl7:section[hl7:templateId[@root = '1.2.40.0.34.11.3.2.10'] and hl7:templateId[@root = '1.3.6.1.4.1.19376.1.5.3.1.1.20.2.4']]]/hl7:section[hl7:templateId[@root = '1.2.40.0.34.11.3.2.10'] and hl7:templateId[@root = '1.3.6.1.4.1.19376.1.5.3.1.1.20.2.4']]/hl7:component[hl7:section[hl7:templateId[@root = '1.2.40.0.34.11.1.2.9']]]"
         id="d254509e15-false-d254538e0">
      <assert role="error"
              see="http://elga.art-decor.org/elga-html-20200130T133330/tmp-1.2.40.0.34.11.30032-2013-11-07T000000.html"
              test="string(@typeCode) = ('COMP') or not(@typeCode)">(RisikenHilfsmittelRessourcen): Der Wert von typeCode MUSS 'COMP' sein. Gefunden: "<value-of select="@typeCode"/>"</assert>
      <assert role="error"
              see="http://elga.art-decor.org/elga-html-20200130T133330/tmp-1.2.40.0.34.11.30032-2013-11-07T000000.html"
              test="string(@contextConductionInd) = ('true') or not(@contextConductionInd)">(RisikenHilfsmittelRessourcen): Der Wert von contextConductionInd MUSS 'true' sein. Gefunden: "<value-of select="@contextConductionInd"/>"</assert>
   </rule>
</pattern>
