<?xml version="1.0" encoding="UTF-8"?>
<!--
Template derived pattern
===========================================
ID: 1.2.40.0.34.6.0.11.3.9
Name: Impfrelevante Erkrankungen Problem Entry
Description: 
-->
<pattern xmlns="http://purl.oclc.org/dsdl/schematron" id="template-1.2.40.0.34.6.0.11.3.9-2019-05-20T081225">
    <title>Impfrelevante Erkrankungen Problem Entry</title>
   <!--
Template derived rules for ID: 1.2.40.0.34.6.0.11.3.9
Context: *[hl7:observation[hl7:templateId[@root = '1.2.40.0.34.6.0.11.3.9'] and hl7:templateId[@root = '2.16.840.1.113883.10.20.1.28'] and hl7:templateId[@root = '1.3.6.1.4.1.19376.1.5.3.1.4.5']]]
Item: (eimpf_entry_ImpfrelevanteErkrankungProblemEntry)
-->

<!--
Template derived rules for ID: 1.2.40.0.34.6.0.11.3.9
Context: *[hl7:observation[hl7:templateId[@root = '1.2.40.0.34.6.0.11.3.9'] and hl7:templateId[@root = '2.16.840.1.113883.10.20.1.28'] and hl7:templateId[@root = '1.3.6.1.4.1.19376.1.5.3.1.4.5']]]/hl7:observation[hl7:templateId[@root = '1.2.40.0.34.6.0.11.3.9'] and hl7:templateId[@root = '2.16.840.1.113883.10.20.1.28'] and hl7:templateId[@root = '1.3.6.1.4.1.19376.1.5.3.1.4.5']]
Item: (eimpf_entry_ImpfrelevanteErkrankungProblemEntry)
-->
    <rule context="*[hl7:observation[hl7:templateId[@root = '1.2.40.0.34.6.0.11.3.9'] and hl7:templateId[@root = '2.16.840.1.113883.10.20.1.28'] and hl7:templateId[@root = '1.3.6.1.4.1.19376.1.5.3.1.4.5']]]/hl7:observation[hl7:templateId[@root = '1.2.40.0.34.6.0.11.3.9'] and hl7:templateId[@root = '2.16.840.1.113883.10.20.1.28'] and hl7:templateId[@root = '1.3.6.1.4.1.19376.1.5.3.1.4.5']]" id="d245561e5648-false-d462940e0">
        <assert role="error" see="http://art-decor.org/art-decor/decor-templates--elgaimpf-?id=1.2.40.0.34.6.0.11.3.9" test="string(@classCode) = ('OBS')">(eimpf_entry_ImpfrelevanteErkrankungProblemEntry): Der Wert von classCode MUSS 'OBS' sein. Gefunden: "<value-of select="@classCode"/>"</assert>
        <assert role="error" see="http://art-decor.org/art-decor/decor-templates--elgaimpf-?id=1.2.40.0.34.6.0.11.3.9" test="string(@moodCode) = ('EVN')">(eimpf_entry_ImpfrelevanteErkrankungProblemEntry): Der Wert von moodCode MUSS 'EVN' sein. Gefunden: "<value-of select="@moodCode"/>"</assert>
        <assert role="error" see="http://art-decor.org/art-decor/decor-templates--elgaimpf-?id=1.2.40.0.34.6.0.11.3.9" test="@negationInd">(eimpf_entry_ImpfrelevanteErkrankungProblemEntry): Attribut @negationInd MUSS vorkommen.</assert>
        <assert role="error" see="http://art-decor.org/art-decor/decor-templates--elgaimpf-?id=1.2.40.0.34.6.0.11.3.9" test="not(@negationInd) or string(@negationInd)=('true','false')">(eimpf_entry_ImpfrelevanteErkrankungProblemEntry): Attribute @negationInd MUSS vom Datentyp 'bl' sein  - '<value-of select="@negationInd"/>'</assert>
        <assert role="error" see="http://art-decor.org/art-decor/decor-templates--elgaimpf-?id=1.2.40.0.34.6.0.11.3.9" test="count(hl7:templateId[@root = '1.2.40.0.34.6.0.11.3.9']) &gt;= 1">(eimpf_entry_ImpfrelevanteErkrankungProblemEntry): Element hl7:templateId[@root = '1.2.40.0.34.6.0.11.3.9'] ist mandatory [min 1x].</assert>
        <assert role="error" see="http://art-decor.org/art-decor/decor-templates--elgaimpf-?id=1.2.40.0.34.6.0.11.3.9" test="count(hl7:templateId[@root = '1.2.40.0.34.6.0.11.3.9']) &lt;= 1">(eimpf_entry_ImpfrelevanteErkrankungProblemEntry): Element hl7:templateId[@root = '1.2.40.0.34.6.0.11.3.9'] kommt zu häufig vor [max 1x].</assert>
        <assert role="error" see="http://art-decor.org/art-decor/decor-templates--elgaimpf-?id=1.2.40.0.34.6.0.11.3.9" test="count(hl7:templateId[@root = '2.16.840.1.113883.10.20.1.28']) &gt;= 1">(eimpf_entry_ImpfrelevanteErkrankungProblemEntry): Element hl7:templateId[@root = '2.16.840.1.113883.10.20.1.28'] ist mandatory [min 1x].</assert>
        <assert role="error" see="http://art-decor.org/art-decor/decor-templates--elgaimpf-?id=1.2.40.0.34.6.0.11.3.9" test="count(hl7:templateId[@root = '2.16.840.1.113883.10.20.1.28']) &lt;= 1">(eimpf_entry_ImpfrelevanteErkrankungProblemEntry): Element hl7:templateId[@root = '2.16.840.1.113883.10.20.1.28'] kommt zu häufig vor [max 1x].</assert>
        <assert role="error" see="http://art-decor.org/art-decor/decor-templates--elgaimpf-?id=1.2.40.0.34.6.0.11.3.9" test="count(hl7:templateId[@root = '1.3.6.1.4.1.19376.1.5.3.1.4.5']) &gt;= 1">(eimpf_entry_ImpfrelevanteErkrankungProblemEntry): Element hl7:templateId[@root = '1.3.6.1.4.1.19376.1.5.3.1.4.5'] ist mandatory [min 1x].</assert>
        <assert role="error" see="http://art-decor.org/art-decor/decor-templates--elgaimpf-?id=1.2.40.0.34.6.0.11.3.9" test="count(hl7:templateId[@root = '1.3.6.1.4.1.19376.1.5.3.1.4.5']) &lt;= 1">(eimpf_entry_ImpfrelevanteErkrankungProblemEntry): Element hl7:templateId[@root = '1.3.6.1.4.1.19376.1.5.3.1.4.5'] kommt zu häufig vor [max 1x].</assert>
        <assert role="error" see="http://art-decor.org/art-decor/decor-templates--elgaimpf-?id=1.2.40.0.34.6.0.11.3.9" test="count(hl7:id[not(@nullFlavor)]) &gt;= 1">(eimpf_entry_ImpfrelevanteErkrankungProblemEntry): Element hl7:id[not(@nullFlavor)] ist mandatory [min 1x].</assert>
        <assert role="error" see="http://art-decor.org/art-decor/decor-templates--elgaimpf-?id=1.2.40.0.34.6.0.11.3.9" test="count(hl7:id[not(@nullFlavor)]) &lt;= 1">(eimpf_entry_ImpfrelevanteErkrankungProblemEntry): Element hl7:id[not(@nullFlavor)] kommt zu häufig vor [max 1x].</assert>
        <assert role="error" see="http://art-decor.org/art-decor/decor-templates--elgaimpf-?id=1.2.40.0.34.6.0.11.3.9" test="count(hl7:code[(@code = '55607006' and @codeSystem = '2.16.840.1.113883.6.96')]) &gt;= 1">(eimpf_entry_ImpfrelevanteErkrankungProblemEntry): Element hl7:code[(@code = '55607006' and @codeSystem = '2.16.840.1.113883.6.96')] ist mandatory [min 1x].</assert>
        <assert role="error" see="http://art-decor.org/art-decor/decor-templates--elgaimpf-?id=1.2.40.0.34.6.0.11.3.9" test="count(hl7:code[(@code = '55607006' and @codeSystem = '2.16.840.1.113883.6.96')]) &lt;= 1">(eimpf_entry_ImpfrelevanteErkrankungProblemEntry): Element hl7:code[(@code = '55607006' and @codeSystem = '2.16.840.1.113883.6.96')] kommt zu häufig vor [max 1x].</assert>
        <assert role="error" see="http://art-decor.org/art-decor/decor-templates--elgaimpf-?id=1.2.40.0.34.6.0.11.3.9" test="count(hl7:text[not(@nullFlavor)]) &gt;= 1">(eimpf_entry_ImpfrelevanteErkrankungProblemEntry): Element hl7:text[not(@nullFlavor)] ist mandatory [min 1x].</assert>
        <assert role="error" see="http://art-decor.org/art-decor/decor-templates--elgaimpf-?id=1.2.40.0.34.6.0.11.3.9" test="count(hl7:text[not(@nullFlavor)]) &lt;= 1">(eimpf_entry_ImpfrelevanteErkrankungProblemEntry): Element hl7:text[not(@nullFlavor)] kommt zu häufig vor [max 1x].</assert>
        <assert role="error" see="http://art-decor.org/art-decor/decor-templates--elgaimpf-?id=1.2.40.0.34.6.0.11.3.9" test="count(hl7:statusCode[@code = 'completed']) &gt;= 1">(eimpf_entry_ImpfrelevanteErkrankungProblemEntry): Element hl7:statusCode[@code = 'completed'] ist mandatory [min 1x].</assert>
        <assert role="error" see="http://art-decor.org/art-decor/decor-templates--elgaimpf-?id=1.2.40.0.34.6.0.11.3.9" test="count(hl7:statusCode[@code = 'completed']) &lt;= 1">(eimpf_entry_ImpfrelevanteErkrankungProblemEntry): Element hl7:statusCode[@code = 'completed'] kommt zu häufig vor [max 1x].</assert>
        <assert role="error" see="http://art-decor.org/art-decor/decor-templates--elgaimpf-?id=1.2.40.0.34.6.0.11.3.9" test="count(hl7:effectiveTime[not(@nullFlavor)]) &gt;= 1">(eimpf_entry_ImpfrelevanteErkrankungProblemEntry): Element hl7:effectiveTime[not(@nullFlavor)] ist mandatory [min 1x].</assert>
        <assert role="error" see="http://art-decor.org/art-decor/decor-templates--elgaimpf-?id=1.2.40.0.34.6.0.11.3.9" test="count(hl7:effectiveTime[not(@nullFlavor)]) &lt;= 1">(eimpf_entry_ImpfrelevanteErkrankungProblemEntry): Element hl7:effectiveTime[not(@nullFlavor)] kommt zu häufig vor [max 1x].</assert>
        <assert role="error" see="http://art-decor.org/art-decor/decor-templates--elgaimpf-?id=1.2.40.0.34.6.0.11.3.9" test="count(hl7:value[concat(@code, @codeSystem) = doc('include/voc-1.2.40.0.34.6.0.10.2-DYNAMIC.xml')//valueSet[1]/conceptList/concept/concat(@code, @codeSystem)]) &gt;= 1">(eimpf_entry_ImpfrelevanteErkrankungProblemEntry): Element hl7:value[concat(@code, @codeSystem) = doc('include/voc-1.2.40.0.34.6.0.10.2-DYNAMIC.xml')//valueSet[1]/conceptList/concept/concat(@code, @codeSystem)] ist mandatory [min 1x].</assert>
        <assert role="error" see="http://art-decor.org/art-decor/decor-templates--elgaimpf-?id=1.2.40.0.34.6.0.11.3.9" test="count(hl7:value[concat(@code, @codeSystem) = doc('include/voc-1.2.40.0.34.6.0.10.2-DYNAMIC.xml')//valueSet[1]/conceptList/concept/concat(@code, @codeSystem)]) &lt;= 1">(eimpf_entry_ImpfrelevanteErkrankungProblemEntry): Element hl7:value[concat(@code, @codeSystem) = doc('include/voc-1.2.40.0.34.6.0.10.2-DYNAMIC.xml')//valueSet[1]/conceptList/concept/concat(@code, @codeSystem)] kommt zu häufig vor [max 1x].</assert>
    </rule>
   <!--
Template derived rules for ID: 1.2.40.0.34.6.0.11.3.9
Context: *[hl7:observation[hl7:templateId[@root = '1.2.40.0.34.6.0.11.3.9'] and hl7:templateId[@root = '2.16.840.1.113883.10.20.1.28'] and hl7:templateId[@root = '1.3.6.1.4.1.19376.1.5.3.1.4.5']]]/hl7:observation[hl7:templateId[@root = '1.2.40.0.34.6.0.11.3.9'] and hl7:templateId[@root = '2.16.840.1.113883.10.20.1.28'] and hl7:templateId[@root = '1.3.6.1.4.1.19376.1.5.3.1.4.5']]/hl7:templateId[@root = '1.2.40.0.34.6.0.11.3.9']
Item: (eimpf_entry_ImpfrelevanteErkrankungProblemEntry)
-->
    <rule context="*[hl7:observation[hl7:templateId[@root = '1.2.40.0.34.6.0.11.3.9'] and hl7:templateId[@root = '2.16.840.1.113883.10.20.1.28'] and hl7:templateId[@root = '1.3.6.1.4.1.19376.1.5.3.1.4.5']]]/hl7:observation[hl7:templateId[@root = '1.2.40.0.34.6.0.11.3.9'] and hl7:templateId[@root = '2.16.840.1.113883.10.20.1.28'] and hl7:templateId[@root = '1.3.6.1.4.1.19376.1.5.3.1.4.5']]/hl7:templateId[@root = '1.2.40.0.34.6.0.11.3.9']" id="d245561e5660-false-d463155e0">
        <extends rule="II"/>
        <assert role="error" see="http://art-decor.org/art-decor/decor-templates--elgaimpf-?id=1.2.40.0.34.6.0.11.3.9" test="(local-name-from-QName(resolve-QName(@xsi:type,.))='II' and namespace-uri-from-QName(resolve-QName(@xsi:type,.))='urn:hl7-org:v3') or not(@xsi:type)">(eimpf_entry_ImpfrelevanteErkrankungProblemEntry): Wenn eine @xsi:type Instruktion anwesend ist MUSS diese den Wert "{urn:hl7-org:v3}:II" haben. Gefunden "{<value-of select="namespace-uri-from-QName(resolve-QName(@xsi:type,.))"/>}:<value-of select="local-name-from-QName(resolve-QName(@xsi:type,.))"/>"</assert>
        <assert role="error" see="http://art-decor.org/art-decor/decor-templates--elgaimpf-?id=1.2.40.0.34.6.0.11.3.9" test="string(@root) = ('1.2.40.0.34.6.0.11.3.9')">(eimpf_entry_ImpfrelevanteErkrankungProblemEntry): Der Wert von root MUSS '1.2.40.0.34.6.0.11.3.9' sein. Gefunden: "<value-of select="@root"/>"</assert>
    </rule>
   <!--
Template derived rules for ID: 1.2.40.0.34.6.0.11.3.9
Context: *[hl7:observation[hl7:templateId[@root = '1.2.40.0.34.6.0.11.3.9'] and hl7:templateId[@root = '2.16.840.1.113883.10.20.1.28'] and hl7:templateId[@root = '1.3.6.1.4.1.19376.1.5.3.1.4.5']]]/hl7:observation[hl7:templateId[@root = '1.2.40.0.34.6.0.11.3.9'] and hl7:templateId[@root = '2.16.840.1.113883.10.20.1.28'] and hl7:templateId[@root = '1.3.6.1.4.1.19376.1.5.3.1.4.5']]/hl7:templateId[@root = '2.16.840.1.113883.10.20.1.28']
Item: (eimpf_entry_ImpfrelevanteErkrankungProblemEntry)
-->
    <rule context="*[hl7:observation[hl7:templateId[@root = '1.2.40.0.34.6.0.11.3.9'] and hl7:templateId[@root = '2.16.840.1.113883.10.20.1.28'] and hl7:templateId[@root = '1.3.6.1.4.1.19376.1.5.3.1.4.5']]]/hl7:observation[hl7:templateId[@root = '1.2.40.0.34.6.0.11.3.9'] and hl7:templateId[@root = '2.16.840.1.113883.10.20.1.28'] and hl7:templateId[@root = '1.3.6.1.4.1.19376.1.5.3.1.4.5']]/hl7:templateId[@root = '2.16.840.1.113883.10.20.1.28']" id="d245561e5664-false-d463169e0">
        <extends rule="II"/>
        <assert role="error" see="http://art-decor.org/art-decor/decor-templates--elgaimpf-?id=1.2.40.0.34.6.0.11.3.9" test="(local-name-from-QName(resolve-QName(@xsi:type,.))='II' and namespace-uri-from-QName(resolve-QName(@xsi:type,.))='urn:hl7-org:v3') or not(@xsi:type)">(eimpf_entry_ImpfrelevanteErkrankungProblemEntry): Wenn eine @xsi:type Instruktion anwesend ist MUSS diese den Wert "{urn:hl7-org:v3}:II" haben. Gefunden "{<value-of select="namespace-uri-from-QName(resolve-QName(@xsi:type,.))"/>}:<value-of select="local-name-from-QName(resolve-QName(@xsi:type,.))"/>"</assert>
        <assert role="error" see="http://art-decor.org/art-decor/decor-templates--elgaimpf-?id=1.2.40.0.34.6.0.11.3.9" test="string(@root) = ('2.16.840.1.113883.10.20.1.28')">(eimpf_entry_ImpfrelevanteErkrankungProblemEntry): Der Wert von root MUSS '2.16.840.1.113883.10.20.1.28' sein. Gefunden: "<value-of select="@root"/>"</assert>
    </rule>
   <!--
Template derived rules for ID: 1.2.40.0.34.6.0.11.3.9
Context: *[hl7:observation[hl7:templateId[@root = '1.2.40.0.34.6.0.11.3.9'] and hl7:templateId[@root = '2.16.840.1.113883.10.20.1.28'] and hl7:templateId[@root = '1.3.6.1.4.1.19376.1.5.3.1.4.5']]]/hl7:observation[hl7:templateId[@root = '1.2.40.0.34.6.0.11.3.9'] and hl7:templateId[@root = '2.16.840.1.113883.10.20.1.28'] and hl7:templateId[@root = '1.3.6.1.4.1.19376.1.5.3.1.4.5']]/hl7:templateId[@root = '1.3.6.1.4.1.19376.1.5.3.1.4.5']
Item: (eimpf_entry_ImpfrelevanteErkrankungProblemEntry)
-->
    <rule context="*[hl7:observation[hl7:templateId[@root = '1.2.40.0.34.6.0.11.3.9'] and hl7:templateId[@root = '2.16.840.1.113883.10.20.1.28'] and hl7:templateId[@root = '1.3.6.1.4.1.19376.1.5.3.1.4.5']]]/hl7:observation[hl7:templateId[@root = '1.2.40.0.34.6.0.11.3.9'] and hl7:templateId[@root = '2.16.840.1.113883.10.20.1.28'] and hl7:templateId[@root = '1.3.6.1.4.1.19376.1.5.3.1.4.5']]/hl7:templateId[@root = '1.3.6.1.4.1.19376.1.5.3.1.4.5']" id="d245561e5668-false-d463183e0">
        <extends rule="II"/>
        <assert role="error" see="http://art-decor.org/art-decor/decor-templates--elgaimpf-?id=1.2.40.0.34.6.0.11.3.9" test="(local-name-from-QName(resolve-QName(@xsi:type,.))='II' and namespace-uri-from-QName(resolve-QName(@xsi:type,.))='urn:hl7-org:v3') or not(@xsi:type)">(eimpf_entry_ImpfrelevanteErkrankungProblemEntry): Wenn eine @xsi:type Instruktion anwesend ist MUSS diese den Wert "{urn:hl7-org:v3}:II" haben. Gefunden "{<value-of select="namespace-uri-from-QName(resolve-QName(@xsi:type,.))"/>}:<value-of select="local-name-from-QName(resolve-QName(@xsi:type,.))"/>"</assert>
        <assert role="error" see="http://art-decor.org/art-decor/decor-templates--elgaimpf-?id=1.2.40.0.34.6.0.11.3.9" test="string(@root) = ('1.3.6.1.4.1.19376.1.5.3.1.4.5')">(eimpf_entry_ImpfrelevanteErkrankungProblemEntry): Der Wert von root MUSS '1.3.6.1.4.1.19376.1.5.3.1.4.5' sein. Gefunden: "<value-of select="@root"/>"</assert>
    </rule>
   <!--
Template derived rules for ID: 1.2.40.0.34.6.0.11.3.9
Context: *[hl7:observation[hl7:templateId[@root = '1.2.40.0.34.6.0.11.3.9'] and hl7:templateId[@root = '2.16.840.1.113883.10.20.1.28'] and hl7:templateId[@root = '1.3.6.1.4.1.19376.1.5.3.1.4.5']]]/hl7:observation[hl7:templateId[@root = '1.2.40.0.34.6.0.11.3.9'] and hl7:templateId[@root = '2.16.840.1.113883.10.20.1.28'] and hl7:templateId[@root = '1.3.6.1.4.1.19376.1.5.3.1.4.5']]/hl7:id[not(@nullFlavor)]
Item: (eimpf_entry_ImpfrelevanteErkrankungProblemEntry)
-->
    <rule context="*[hl7:observation[hl7:templateId[@root = '1.2.40.0.34.6.0.11.3.9'] and hl7:templateId[@root = '2.16.840.1.113883.10.20.1.28'] and hl7:templateId[@root = '1.3.6.1.4.1.19376.1.5.3.1.4.5']]]/hl7:observation[hl7:templateId[@root = '1.2.40.0.34.6.0.11.3.9'] and hl7:templateId[@root = '2.16.840.1.113883.10.20.1.28'] and hl7:templateId[@root = '1.3.6.1.4.1.19376.1.5.3.1.4.5']]/hl7:id[not(@nullFlavor)]" id="d245561e5672-false-d463196e0">
        <extends rule="II"/>
        <assert role="error" see="http://art-decor.org/art-decor/decor-templates--elgaimpf-?id=1.2.40.0.34.6.0.11.3.9" test="(local-name-from-QName(resolve-QName(@xsi:type,.))='II' and namespace-uri-from-QName(resolve-QName(@xsi:type,.))='urn:hl7-org:v3') or not(@xsi:type)">(eimpf_entry_ImpfrelevanteErkrankungProblemEntry): Wenn eine @xsi:type Instruktion anwesend ist MUSS diese den Wert "{urn:hl7-org:v3}:II" haben. Gefunden "{<value-of select="namespace-uri-from-QName(resolve-QName(@xsi:type,.))"/>}:<value-of select="local-name-from-QName(resolve-QName(@xsi:type,.))"/>"</assert>
    </rule>
   <!--
Template derived rules for ID: 1.2.40.0.34.6.0.11.3.9
Context: *[hl7:observation[hl7:templateId[@root = '1.2.40.0.34.6.0.11.3.9'] and hl7:templateId[@root = '2.16.840.1.113883.10.20.1.28'] and hl7:templateId[@root = '1.3.6.1.4.1.19376.1.5.3.1.4.5']]]/hl7:observation[hl7:templateId[@root = '1.2.40.0.34.6.0.11.3.9'] and hl7:templateId[@root = '2.16.840.1.113883.10.20.1.28'] and hl7:templateId[@root = '1.3.6.1.4.1.19376.1.5.3.1.4.5']]/hl7:code[(@code = '55607006' and @codeSystem = '2.16.840.1.113883.6.96')]
Item: (eimpf_entry_ImpfrelevanteErkrankungProblemEntry)
-->
    <rule context="*[hl7:observation[hl7:templateId[@root = '1.2.40.0.34.6.0.11.3.9'] and hl7:templateId[@root = '2.16.840.1.113883.10.20.1.28'] and hl7:templateId[@root = '1.3.6.1.4.1.19376.1.5.3.1.4.5']]]/hl7:observation[hl7:templateId[@root = '1.2.40.0.34.6.0.11.3.9'] and hl7:templateId[@root = '2.16.840.1.113883.10.20.1.28'] and hl7:templateId[@root = '1.3.6.1.4.1.19376.1.5.3.1.4.5']]/hl7:code[(@code = '55607006' and @codeSystem = '2.16.840.1.113883.6.96')]" id="d245561e5683-false-d463206e0">
        <extends rule="CE"/>
        <assert role="error" see="http://art-decor.org/art-decor/decor-templates--elgaimpf-?id=1.2.40.0.34.6.0.11.3.9" test="(local-name-from-QName(resolve-QName(@xsi:type,.))='CE' and namespace-uri-from-QName(resolve-QName(@xsi:type,.))='urn:hl7-org:v3') or not(@xsi:type)">(eimpf_entry_ImpfrelevanteErkrankungProblemEntry): Wenn eine @xsi:type Instruktion anwesend ist MUSS diese den Wert "{urn:hl7-org:v3}:CE" haben. Gefunden "{<value-of select="namespace-uri-from-QName(resolve-QName(@xsi:type,.))"/>}:<value-of select="local-name-from-QName(resolve-QName(@xsi:type,.))"/>"</assert>
        <assert role="error" see="http://art-decor.org/art-decor/decor-templates--elgaimpf-?id=1.2.40.0.34.6.0.11.3.9" test="@nullFlavor or (@code='55607006' and @codeSystem='2.16.840.1.113883.6.96')">(eimpf_entry_ImpfrelevanteErkrankungProblemEntry): Der Elementinhalt MUSS einer von 'code '55607006' codeSystem '2.16.840.1.113883.6.96'' sein.</assert>
        <assert role="error" see="http://art-decor.org/art-decor/decor-templates--elgaimpf-?id=1.2.40.0.34.6.0.11.3.9" test="string(@codeSystemName) = ('SNOMED CT')">(eimpf_entry_ImpfrelevanteErkrankungProblemEntry): Der Wert von codeSystemName MUSS 'SNOMED CT' sein. Gefunden: "<value-of select="@codeSystemName"/>"</assert>
        <assert role="error" see="http://art-decor.org/art-decor/decor-templates--elgaimpf-?id=1.2.40.0.34.6.0.11.3.9" test="not(@codeSystemName) or string-length(@codeSystemName)&gt;0">(eimpf_entry_ImpfrelevanteErkrankungProblemEntry): Attribute @codeSystemName MUSS vom Datentyp 'st' sein  - '<value-of select="@codeSystemName"/>'</assert>
    </rule>
   <!--
Template derived rules for ID: 1.2.40.0.34.6.0.11.9.1
Context: *[hl7:observation[hl7:templateId[@root = '1.2.40.0.34.6.0.11.3.9'] and hl7:templateId[@root = '2.16.840.1.113883.10.20.1.28'] and hl7:templateId[@root = '1.3.6.1.4.1.19376.1.5.3.1.4.5']]]/hl7:observation[hl7:templateId[@root = '1.2.40.0.34.6.0.11.3.9'] and hl7:templateId[@root = '2.16.840.1.113883.10.20.1.28'] and hl7:templateId[@root = '1.3.6.1.4.1.19376.1.5.3.1.4.5']]/hl7:text
Item: (atcdabrr_other_NarrativeTextReference)
-->
    <rule context="*[hl7:observation[hl7:templateId[@root = '1.2.40.0.34.6.0.11.3.9'] and hl7:templateId[@root = '2.16.840.1.113883.10.20.1.28'] and hl7:templateId[@root = '1.3.6.1.4.1.19376.1.5.3.1.4.5']]]/hl7:observation[hl7:templateId[@root = '1.2.40.0.34.6.0.11.3.9'] and hl7:templateId[@root = '2.16.840.1.113883.10.20.1.28'] and hl7:templateId[@root = '1.3.6.1.4.1.19376.1.5.3.1.4.5']]/hl7:text" id="d463207e58-false-d463228e0">
        <extends rule="ED"/>
        <assert role="error" see="http://art-decor.org/art-decor/decor-templates--elgaimpf-?id=1.2.40.0.34.6.0.11.9.1" test="(local-name-from-QName(resolve-QName(@xsi:type,.))='ED' and namespace-uri-from-QName(resolve-QName(@xsi:type,.))='urn:hl7-org:v3') or not(@xsi:type)">(atcdabrr_other_NarrativeTextReference): Wenn eine @xsi:type Instruktion anwesend ist MUSS diese den Wert "{urn:hl7-org:v3}:ED" haben. Gefunden "{<value-of select="namespace-uri-from-QName(resolve-QName(@xsi:type,.))"/>}:<value-of select="local-name-from-QName(resolve-QName(@xsi:type,.))"/>"</assert>
        <assert role="error" see="http://art-decor.org/art-decor/decor-templates--elgaimpf-?id=1.2.40.0.34.6.0.11.9.1" test="count(hl7:reference[not(@nullFlavor)]) &gt;= 1">(atcdabrr_other_NarrativeTextReference): Element hl7:reference[not(@nullFlavor)] ist mandatory [min 1x].</assert>
        <assert role="error" see="http://art-decor.org/art-decor/decor-templates--elgaimpf-?id=1.2.40.0.34.6.0.11.9.1" test="count(hl7:reference[not(@nullFlavor)]) &lt;= 1">(atcdabrr_other_NarrativeTextReference): Element hl7:reference[not(@nullFlavor)] kommt zu häufig vor [max 1x].</assert>
    </rule>
   <!--
Template derived rules for ID: 1.2.40.0.34.6.0.11.9.1
Context: *[hl7:observation[hl7:templateId[@root = '1.2.40.0.34.6.0.11.3.9'] and hl7:templateId[@root = '2.16.840.1.113883.10.20.1.28'] and hl7:templateId[@root = '1.3.6.1.4.1.19376.1.5.3.1.4.5']]]/hl7:observation[hl7:templateId[@root = '1.2.40.0.34.6.0.11.3.9'] and hl7:templateId[@root = '2.16.840.1.113883.10.20.1.28'] and hl7:templateId[@root = '1.3.6.1.4.1.19376.1.5.3.1.4.5']]/hl7:text/hl7:reference[not(@nullFlavor)]
Item: (atcdabrr_other_NarrativeTextReference)
-->
    <rule context="*[hl7:observation[hl7:templateId[@root = '1.2.40.0.34.6.0.11.3.9'] and hl7:templateId[@root = '2.16.840.1.113883.10.20.1.28'] and hl7:templateId[@root = '1.3.6.1.4.1.19376.1.5.3.1.4.5']]]/hl7:observation[hl7:templateId[@root = '1.2.40.0.34.6.0.11.3.9'] and hl7:templateId[@root = '2.16.840.1.113883.10.20.1.28'] and hl7:templateId[@root = '1.3.6.1.4.1.19376.1.5.3.1.4.5']]/hl7:text/hl7:reference[not(@nullFlavor)]" id="d463207e59-false-d463246e0">
        <extends rule="TEL"/>
        <assert role="error" see="http://art-decor.org/art-decor/decor-templates--elgaimpf-?id=1.2.40.0.34.6.0.11.9.1" test="(local-name-from-QName(resolve-QName(@xsi:type,.))='TEL' and namespace-uri-from-QName(resolve-QName(@xsi:type,.))='urn:hl7-org:v3') or not(@xsi:type)">(atcdabrr_other_NarrativeTextReference): Wenn eine @xsi:type Instruktion anwesend ist MUSS diese den Wert "{urn:hl7-org:v3}:TEL" haben. Gefunden "{<value-of select="namespace-uri-from-QName(resolve-QName(@xsi:type,.))"/>}:<value-of select="local-name-from-QName(resolve-QName(@xsi:type,.))"/>"</assert>
        <assert role="error" see="http://art-decor.org/art-decor/decor-templates--elgaimpf-?id=1.2.40.0.34.6.0.11.9.1" test="@value">(atcdabrr_other_NarrativeTextReference): Attribut @value MUSS vorkommen.</assert>
        <assert role="error" see="http://art-decor.org/art-decor/decor-templates--elgaimpf-?id=1.2.40.0.34.6.0.11.9.1" test="starts-with(@value,'#')">(atcdabrr_other_NarrativeTextReference): The @value attribute content MUST conform to the format '#xxx', where xxx is the ID of the corresponding 'content'-element.</assert>
    </rule>
   <!--
Template derived rules for ID: 1.2.40.0.34.6.0.11.3.9
Context: *[hl7:observation[hl7:templateId[@root = '1.2.40.0.34.6.0.11.3.9'] and hl7:templateId[@root = '2.16.840.1.113883.10.20.1.28'] and hl7:templateId[@root = '1.3.6.1.4.1.19376.1.5.3.1.4.5']]]/hl7:observation[hl7:templateId[@root = '1.2.40.0.34.6.0.11.3.9'] and hl7:templateId[@root = '2.16.840.1.113883.10.20.1.28'] and hl7:templateId[@root = '1.3.6.1.4.1.19376.1.5.3.1.4.5']]/hl7:statusCode[@code = 'completed']
Item: (eimpf_entry_ImpfrelevanteErkrankungProblemEntry)
-->
    <rule context="*[hl7:observation[hl7:templateId[@root = '1.2.40.0.34.6.0.11.3.9'] and hl7:templateId[@root = '2.16.840.1.113883.10.20.1.28'] and hl7:templateId[@root = '1.3.6.1.4.1.19376.1.5.3.1.4.5']]]/hl7:observation[hl7:templateId[@root = '1.2.40.0.34.6.0.11.3.9'] and hl7:templateId[@root = '2.16.840.1.113883.10.20.1.28'] and hl7:templateId[@root = '1.3.6.1.4.1.19376.1.5.3.1.4.5']]/hl7:statusCode[@code = 'completed']" id="d245561e5689-false-d463260e0">
        <extends rule="CS"/>
        <assert role="error" see="http://art-decor.org/art-decor/decor-templates--elgaimpf-?id=1.2.40.0.34.6.0.11.3.9" test="(local-name-from-QName(resolve-QName(@xsi:type,.))='CS' and namespace-uri-from-QName(resolve-QName(@xsi:type,.))='urn:hl7-org:v3') or not(@xsi:type)">(eimpf_entry_ImpfrelevanteErkrankungProblemEntry): Wenn eine @xsi:type Instruktion anwesend ist MUSS diese den Wert "{urn:hl7-org:v3}:CS" haben. Gefunden "{<value-of select="namespace-uri-from-QName(resolve-QName(@xsi:type,.))"/>}:<value-of select="local-name-from-QName(resolve-QName(@xsi:type,.))"/>"</assert>
        <assert role="error" see="http://art-decor.org/art-decor/decor-templates--elgaimpf-?id=1.2.40.0.34.6.0.11.3.9" test="@nullFlavor or (@code='completed')">(eimpf_entry_ImpfrelevanteErkrankungProblemEntry): Der Elementinhalt MUSS einer von 'code 'completed'' sein.</assert>
    </rule>
   <!--
Template derived rules for ID: 1.2.40.0.34.6.0.11.3.9
Context: *[hl7:observation[hl7:templateId[@root = '1.2.40.0.34.6.0.11.3.9'] and hl7:templateId[@root = '2.16.840.1.113883.10.20.1.28'] and hl7:templateId[@root = '1.3.6.1.4.1.19376.1.5.3.1.4.5']]]/hl7:observation[hl7:templateId[@root = '1.2.40.0.34.6.0.11.3.9'] and hl7:templateId[@root = '2.16.840.1.113883.10.20.1.28'] and hl7:templateId[@root = '1.3.6.1.4.1.19376.1.5.3.1.4.5']]/hl7:effectiveTime[not(@nullFlavor)]
Item: (eimpf_entry_ImpfrelevanteErkrankungProblemEntry)
-->
    <rule context="*[hl7:observation[hl7:templateId[@root = '1.2.40.0.34.6.0.11.3.9'] and hl7:templateId[@root = '2.16.840.1.113883.10.20.1.28'] and hl7:templateId[@root = '1.3.6.1.4.1.19376.1.5.3.1.4.5']]]/hl7:observation[hl7:templateId[@root = '1.2.40.0.34.6.0.11.3.9'] and hl7:templateId[@root = '2.16.840.1.113883.10.20.1.28'] and hl7:templateId[@root = '1.3.6.1.4.1.19376.1.5.3.1.4.5']]/hl7:effectiveTime[not(@nullFlavor)]" id="d245561e5696-false-d463275e0">
        <extends rule="IVL_TS"/>
        <assert role="error" see="http://art-decor.org/art-decor/decor-templates--elgaimpf-?id=1.2.40.0.34.6.0.11.3.9" test="(local-name-from-QName(resolve-QName(@xsi:type,.))='IVL_TS' and namespace-uri-from-QName(resolve-QName(@xsi:type,.))='urn:hl7-org:v3') or not(@xsi:type)">(eimpf_entry_ImpfrelevanteErkrankungProblemEntry): Wenn eine @xsi:type Instruktion anwesend ist MUSS diese den Wert "{urn:hl7-org:v3}:IVL_TS" haben. Gefunden "{<value-of select="namespace-uri-from-QName(resolve-QName(@xsi:type,.))"/>}:<value-of select="local-name-from-QName(resolve-QName(@xsi:type,.))"/>"</assert>
        <let name="elmcount" value="count(hl7:low[not(@nullFlavor)] | hl7:low[@nullFlavor='UNK'])"/>
        <assert role="error" see="http://art-decor.org/art-decor/decor-templates--elgaimpf-?id=1.2.40.0.34.6.0.11.3.9" test="$elmcount &gt;= 1">(eimpf_entry_ImpfrelevanteErkrankungProblemEntry): Auswahl (hl7:low[not(@nullFlavor)]  oder  hl7:low[@nullFlavor='UNK']) enthält nicht genügend Elemente [min 1x]</assert>
        <assert role="error" see="http://art-decor.org/art-decor/decor-templates--elgaimpf-?id=1.2.40.0.34.6.0.11.3.9" test="$elmcount &lt;= 1">(eimpf_entry_ImpfrelevanteErkrankungProblemEntry): Auswahl (hl7:low[not(@nullFlavor)]  oder  hl7:low[@nullFlavor='UNK']) enthält zu viele Elemente [max 1x]</assert>
        <assert role="error" see="http://art-decor.org/art-decor/decor-templates--elgaimpf-?id=1.2.40.0.34.6.0.11.3.9" test="count(hl7:low[not(@nullFlavor)]) &lt;= 1">(eimpf_entry_ImpfrelevanteErkrankungProblemEntry): Element hl7:low[not(@nullFlavor)] kommt zu häufig vor [max 1x].</assert>
        <assert role="error" see="http://art-decor.org/art-decor/decor-templates--elgaimpf-?id=1.2.40.0.34.6.0.11.3.9" test="count(hl7:low[@nullFlavor='UNK']) &lt;= 1">(eimpf_entry_ImpfrelevanteErkrankungProblemEntry): Element hl7:low[@nullFlavor='UNK'] kommt zu häufig vor [max 1x].</assert>
        <assert role="error" see="http://art-decor.org/art-decor/decor-templates--elgaimpf-?id=1.2.40.0.34.6.0.11.3.9" test="count(hl7:high) &lt;= 1">(eimpf_entry_ImpfrelevanteErkrankungProblemEntry): Element hl7:high kommt zu häufig vor [max 1x].</assert>
    </rule>
   <!--
Template derived rules for ID: 1.2.40.0.34.6.0.11.3.9
Context: *[hl7:observation[hl7:templateId[@root = '1.2.40.0.34.6.0.11.3.9'] and hl7:templateId[@root = '2.16.840.1.113883.10.20.1.28'] and hl7:templateId[@root = '1.3.6.1.4.1.19376.1.5.3.1.4.5']]]/hl7:observation[hl7:templateId[@root = '1.2.40.0.34.6.0.11.3.9'] and hl7:templateId[@root = '2.16.840.1.113883.10.20.1.28'] and hl7:templateId[@root = '1.3.6.1.4.1.19376.1.5.3.1.4.5']]/hl7:effectiveTime[not(@nullFlavor)]/hl7:low[not(@nullFlavor)]
Item: (eimpf_entry_ImpfrelevanteErkrankungProblemEntry)
-->
    <rule context="*[hl7:observation[hl7:templateId[@root = '1.2.40.0.34.6.0.11.3.9'] and hl7:templateId[@root = '2.16.840.1.113883.10.20.1.28'] and hl7:templateId[@root = '1.3.6.1.4.1.19376.1.5.3.1.4.5']]]/hl7:observation[hl7:templateId[@root = '1.2.40.0.34.6.0.11.3.9'] and hl7:templateId[@root = '2.16.840.1.113883.10.20.1.28'] and hl7:templateId[@root = '1.3.6.1.4.1.19376.1.5.3.1.4.5']]/hl7:effectiveTime[not(@nullFlavor)]/hl7:low[not(@nullFlavor)]" id="d245561e5712-false-d463305e0">
        <extends rule="TS.DATE"/>
        <assert role="error" see="http://art-decor.org/art-decor/decor-templates--elgaimpf-?id=1.2.40.0.34.6.0.11.3.9" test="(local-name-from-QName(resolve-QName(@xsi:type,.))='TS' and namespace-uri-from-QName(resolve-QName(@xsi:type,.))='urn:hl7-org:v3') or not(@xsi:type)">(eimpf_entry_ImpfrelevanteErkrankungProblemEntry): Wenn eine @xsi:type Instruktion anwesend ist MUSS diese den Wert "{urn:hl7-org:v3}:TS" haben. Gefunden "{<value-of select="namespace-uri-from-QName(resolve-QName(@xsi:type,.))"/>}:<value-of select="local-name-from-QName(resolve-QName(@xsi:type,.))"/>"</assert>
        <assert role="error" see="http://art-decor.org/art-decor/decor-templates--elgaimpf-?id=1.2.40.0.34.6.0.11.3.9" test="not(*)">(eimpf_entry_ImpfrelevanteErkrankungProblemEntry): <value-of select="local-name()"/> with datatype TS.DATE, SHOULD NOT have child elements.</assert>
    </rule>
   <!--
Template derived rules for ID: 1.2.40.0.34.6.0.11.3.9
Context: *[hl7:observation[hl7:templateId[@root = '1.2.40.0.34.6.0.11.3.9'] and hl7:templateId[@root = '2.16.840.1.113883.10.20.1.28'] and hl7:templateId[@root = '1.3.6.1.4.1.19376.1.5.3.1.4.5']]]/hl7:observation[hl7:templateId[@root = '1.2.40.0.34.6.0.11.3.9'] and hl7:templateId[@root = '2.16.840.1.113883.10.20.1.28'] and hl7:templateId[@root = '1.3.6.1.4.1.19376.1.5.3.1.4.5']]/hl7:effectiveTime[not(@nullFlavor)]/hl7:low[@nullFlavor='UNK']
Item: (eimpf_entry_ImpfrelevanteErkrankungProblemEntry)
-->
    <rule context="*[hl7:observation[hl7:templateId[@root = '1.2.40.0.34.6.0.11.3.9'] and hl7:templateId[@root = '2.16.840.1.113883.10.20.1.28'] and hl7:templateId[@root = '1.3.6.1.4.1.19376.1.5.3.1.4.5']]]/hl7:observation[hl7:templateId[@root = '1.2.40.0.34.6.0.11.3.9'] and hl7:templateId[@root = '2.16.840.1.113883.10.20.1.28'] and hl7:templateId[@root = '1.3.6.1.4.1.19376.1.5.3.1.4.5']]/hl7:effectiveTime[not(@nullFlavor)]/hl7:low[@nullFlavor='UNK']" id="d245561e5713-false-d463315e0">
        <extends rule="TS.DATE"/>
        <assert role="error" see="http://art-decor.org/art-decor/decor-templates--elgaimpf-?id=1.2.40.0.34.6.0.11.3.9" test="(local-name-from-QName(resolve-QName(@xsi:type,.))='TS' and namespace-uri-from-QName(resolve-QName(@xsi:type,.))='urn:hl7-org:v3') or not(@xsi:type)">(eimpf_entry_ImpfrelevanteErkrankungProblemEntry): Wenn eine @xsi:type Instruktion anwesend ist MUSS diese den Wert "{urn:hl7-org:v3}:TS" haben. Gefunden "{<value-of select="namespace-uri-from-QName(resolve-QName(@xsi:type,.))"/>}:<value-of select="local-name-from-QName(resolve-QName(@xsi:type,.))"/>"</assert>
        <assert role="error" see="http://art-decor.org/art-decor/decor-templates--elgaimpf-?id=1.2.40.0.34.6.0.11.3.9" test="not(*)">(eimpf_entry_ImpfrelevanteErkrankungProblemEntry): <value-of select="local-name()"/> with datatype TS.DATE, SHOULD NOT have child elements.</assert>
        <assert role="error" see="http://art-decor.org/art-decor/decor-templates--elgaimpf-?id=1.2.40.0.34.6.0.11.3.9" test="string(@nullFlavor) = ('UNK')">(eimpf_entry_ImpfrelevanteErkrankungProblemEntry): Der Wert von nullFlavor MUSS 'UNK' sein. Gefunden: "<value-of select="@nullFlavor"/>"</assert>
    </rule>
   <!--
Template derived rules for ID: 1.2.40.0.34.6.0.11.3.9
Context: *[hl7:observation[hl7:templateId[@root = '1.2.40.0.34.6.0.11.3.9'] and hl7:templateId[@root = '2.16.840.1.113883.10.20.1.28'] and hl7:templateId[@root = '1.3.6.1.4.1.19376.1.5.3.1.4.5']]]/hl7:observation[hl7:templateId[@root = '1.2.40.0.34.6.0.11.3.9'] and hl7:templateId[@root = '2.16.840.1.113883.10.20.1.28'] and hl7:templateId[@root = '1.3.6.1.4.1.19376.1.5.3.1.4.5']]/hl7:effectiveTime[not(@nullFlavor)]/hl7:high
Item: (eimpf_entry_ImpfrelevanteErkrankungProblemEntry)
-->
    <rule context="*[hl7:observation[hl7:templateId[@root = '1.2.40.0.34.6.0.11.3.9'] and hl7:templateId[@root = '2.16.840.1.113883.10.20.1.28'] and hl7:templateId[@root = '1.3.6.1.4.1.19376.1.5.3.1.4.5']]]/hl7:observation[hl7:templateId[@root = '1.2.40.0.34.6.0.11.3.9'] and hl7:templateId[@root = '2.16.840.1.113883.10.20.1.28'] and hl7:templateId[@root = '1.3.6.1.4.1.19376.1.5.3.1.4.5']]/hl7:effectiveTime[not(@nullFlavor)]/hl7:high" id="d245561e5717-false-d463331e0">
        <extends rule="TS.DATE"/>
        <assert role="error" see="http://art-decor.org/art-decor/decor-templates--elgaimpf-?id=1.2.40.0.34.6.0.11.3.9" test="(local-name-from-QName(resolve-QName(@xsi:type,.))='TS' and namespace-uri-from-QName(resolve-QName(@xsi:type,.))='urn:hl7-org:v3') or not(@xsi:type)">(eimpf_entry_ImpfrelevanteErkrankungProblemEntry): Wenn eine @xsi:type Instruktion anwesend ist MUSS diese den Wert "{urn:hl7-org:v3}:TS" haben. Gefunden "{<value-of select="namespace-uri-from-QName(resolve-QName(@xsi:type,.))"/>}:<value-of select="local-name-from-QName(resolve-QName(@xsi:type,.))"/>"</assert>
        <assert role="error" see="http://art-decor.org/art-decor/decor-templates--elgaimpf-?id=1.2.40.0.34.6.0.11.3.9" test="not(*)">(eimpf_entry_ImpfrelevanteErkrankungProblemEntry): <value-of select="local-name()"/> with datatype TS.DATE, SHOULD NOT have child elements.</assert>
    </rule>
   <!--
Template derived rules for ID: 1.2.40.0.34.6.0.11.3.9
Context: *[hl7:observation[hl7:templateId[@root = '1.2.40.0.34.6.0.11.3.9'] and hl7:templateId[@root = '2.16.840.1.113883.10.20.1.28'] and hl7:templateId[@root = '1.3.6.1.4.1.19376.1.5.3.1.4.5']]]/hl7:observation[hl7:templateId[@root = '1.2.40.0.34.6.0.11.3.9'] and hl7:templateId[@root = '2.16.840.1.113883.10.20.1.28'] and hl7:templateId[@root = '1.3.6.1.4.1.19376.1.5.3.1.4.5']]/hl7:value[concat(@code, @codeSystem) = doc('include/voc-1.2.40.0.34.6.0.10.2-DYNAMIC.xml')//valueSet[1]/conceptList/concept/concat(@code, @codeSystem)]
Item: (eimpf_entry_ImpfrelevanteErkrankungProblemEntry)
-->
    <rule context="*[hl7:observation[hl7:templateId[@root = '1.2.40.0.34.6.0.11.3.9'] and hl7:templateId[@root = '2.16.840.1.113883.10.20.1.28'] and hl7:templateId[@root = '1.3.6.1.4.1.19376.1.5.3.1.4.5']]]/hl7:observation[hl7:templateId[@root = '1.2.40.0.34.6.0.11.3.9'] and hl7:templateId[@root = '2.16.840.1.113883.10.20.1.28'] and hl7:templateId[@root = '1.3.6.1.4.1.19376.1.5.3.1.4.5']]/hl7:value[concat(@code, @codeSystem) = doc('include/voc-1.2.40.0.34.6.0.10.2-DYNAMIC.xml')//valueSet[1]/conceptList/concept/concat(@code, @codeSystem)]" id="d245561e5720-false-d463349e0">
        <extends rule="CD"/>
        <assert role="error" see="http://art-decor.org/art-decor/decor-templates--elgaimpf-?id=1.2.40.0.34.6.0.11.3.9" test="(local-name-from-QName(resolve-QName(@xsi:type,.))='CD' and namespace-uri-from-QName(resolve-QName(@xsi:type,.))='urn:hl7-org:v3') or not(@xsi:type)">(eimpf_entry_ImpfrelevanteErkrankungProblemEntry): Wenn eine @xsi:type Instruktion anwesend ist MUSS diese den Wert "{urn:hl7-org:v3}:CD" haben. Gefunden "{<value-of select="namespace-uri-from-QName(resolve-QName(@xsi:type,.))"/>}:<value-of select="local-name-from-QName(resolve-QName(@xsi:type,.))"/>"</assert>
        <let name="theCode" value="@code"/>
        <let name="theCodeSystem" value="@codeSystem"/>
        <assert role="error" see="http://art-decor.org/art-decor/decor-templates--elgaimpf-?id=1.2.40.0.34.6.0.11.3.9" test="@nullFlavor or exists(doc('include/voc-1.2.40.0.34.6.0.10.2-DYNAMIC.xml')//valueSet[1][conceptList/concept[@code = $theCode][@codeSystem = $theCodeSystem]])">(eimpf_entry_ImpfrelevanteErkrankungProblemEntry): Der Elementinhalt MUSS einer von '1.2.40.0.34.6.0.10.2 eImpf_ImpfrelevanteErkankungen_VS (DYNAMIC)' sein.</assert>
        <assert role="error" see="http://art-decor.org/art-decor/decor-templates--elgaimpf-?id=1.2.40.0.34.6.0.11.3.9" test="@code">(eimpf_entry_ImpfrelevanteErkrankungProblemEntry): Attribut @code MUSS vorkommen.</assert>
        <assert role="error" see="http://art-decor.org/art-decor/decor-templates--elgaimpf-?id=1.2.40.0.34.6.0.11.3.9" test="not(@code) or (string-length(@code) &gt; 0 and not(matches(@code,'\s')))">(eimpf_entry_ImpfrelevanteErkrankungProblemEntry): Attribute @code MUSS vom Datentyp 'cs' sein  - '<value-of select="@code"/>'</assert>
        <assert role="error" see="http://art-decor.org/art-decor/decor-templates--elgaimpf-?id=1.2.40.0.34.6.0.11.3.9" test="@codeSystem">(eimpf_entry_ImpfrelevanteErkrankungProblemEntry): Attribut @codeSystem MUSS vorkommen.</assert>
        <assert role="error" see="http://art-decor.org/art-decor/decor-templates--elgaimpf-?id=1.2.40.0.34.6.0.11.3.9" test="not(@codeSystem) or matches(@codeSystem,'^[0-2](\.(0|[1-9]\d*))*$')">(eimpf_entry_ImpfrelevanteErkrankungProblemEntry): Attribute @codeSystem MUSS vom Datentyp 'oid' sein  - '<value-of select="@codeSystem"/>'</assert>
        <assert role="error" see="http://art-decor.org/art-decor/decor-templates--elgaimpf-?id=1.2.40.0.34.6.0.11.3.9" test="count(hl7:originalText[not(@nullFlavor)]) &gt;= 1">(eimpf_entry_ImpfrelevanteErkrankungProblemEntry): Element hl7:originalText[not(@nullFlavor)] ist mandatory [min 1x].</assert>
        <assert role="error" see="http://art-decor.org/art-decor/decor-templates--elgaimpf-?id=1.2.40.0.34.6.0.11.3.9" test="count(hl7:originalText[not(@nullFlavor)]) &lt;= 1">(eimpf_entry_ImpfrelevanteErkrankungProblemEntry): Element hl7:originalText[not(@nullFlavor)] kommt zu häufig vor [max 1x].</assert>
    </rule>
   <!--
Template derived rules for ID: 1.2.40.0.34.6.0.11.9.2
Context: *[hl7:observation[hl7:templateId[@root = '1.2.40.0.34.6.0.11.3.9'] and hl7:templateId[@root = '2.16.840.1.113883.10.20.1.28'] and hl7:templateId[@root = '1.3.6.1.4.1.19376.1.5.3.1.4.5']]]/hl7:observation[hl7:templateId[@root = '1.2.40.0.34.6.0.11.3.9'] and hl7:templateId[@root = '2.16.840.1.113883.10.20.1.28'] and hl7:templateId[@root = '1.3.6.1.4.1.19376.1.5.3.1.4.5']]/hl7:value[concat(@code, @codeSystem) = doc('include/voc-1.2.40.0.34.6.0.10.2-DYNAMIC.xml')//valueSet[1]/conceptList/concept/concat(@code, @codeSystem)]/hl7:originalText
Item: (atcdabbr_other_OriginalTextReference)
-->
    <rule context="*[hl7:observation[hl7:templateId[@root = '1.2.40.0.34.6.0.11.3.9'] and hl7:templateId[@root = '2.16.840.1.113883.10.20.1.28'] and hl7:templateId[@root = '1.3.6.1.4.1.19376.1.5.3.1.4.5']]]/hl7:observation[hl7:templateId[@root = '1.2.40.0.34.6.0.11.3.9'] and hl7:templateId[@root = '2.16.840.1.113883.10.20.1.28'] and hl7:templateId[@root = '1.3.6.1.4.1.19376.1.5.3.1.4.5']]/hl7:value[concat(@code, @codeSystem) = doc('include/voc-1.2.40.0.34.6.0.10.2-DYNAMIC.xml')//valueSet[1]/conceptList/concept/concat(@code, @codeSystem)]/hl7:originalText" id="d463352e41-false-d463393e0">
        <extends rule="ED"/>
        <assert role="error" see="http://art-decor.org/art-decor/decor-templates--elgaimpf-?id=1.2.40.0.34.6.0.11.9.2" test="(local-name-from-QName(resolve-QName(@xsi:type,.))='ED' and namespace-uri-from-QName(resolve-QName(@xsi:type,.))='urn:hl7-org:v3') or not(@xsi:type)">(atcdabbr_other_OriginalTextReference): Wenn eine @xsi:type Instruktion anwesend ist MUSS diese den Wert "{urn:hl7-org:v3}:ED" haben. Gefunden "{<value-of select="namespace-uri-from-QName(resolve-QName(@xsi:type,.))"/>}:<value-of select="local-name-from-QName(resolve-QName(@xsi:type,.))"/>"</assert>
        <assert role="error" see="http://art-decor.org/art-decor/decor-templates--elgaimpf-?id=1.2.40.0.34.6.0.11.9.2" test="count(hl7:reference[not(@nullFlavor)]) &gt;= 1">(atcdabbr_other_OriginalTextReference): Element hl7:reference[not(@nullFlavor)] ist mandatory [min 1x].</assert>
        <assert role="error" see="http://art-decor.org/art-decor/decor-templates--elgaimpf-?id=1.2.40.0.34.6.0.11.9.2" test="count(hl7:reference[not(@nullFlavor)]) &lt;= 1">(atcdabbr_other_OriginalTextReference): Element hl7:reference[not(@nullFlavor)] kommt zu häufig vor [max 1x].</assert>
    </rule>
   <!--
Template derived rules for ID: 1.2.40.0.34.6.0.11.9.2
Context: *[hl7:observation[hl7:templateId[@root = '1.2.40.0.34.6.0.11.3.9'] and hl7:templateId[@root = '2.16.840.1.113883.10.20.1.28'] and hl7:templateId[@root = '1.3.6.1.4.1.19376.1.5.3.1.4.5']]]/hl7:observation[hl7:templateId[@root = '1.2.40.0.34.6.0.11.3.9'] and hl7:templateId[@root = '2.16.840.1.113883.10.20.1.28'] and hl7:templateId[@root = '1.3.6.1.4.1.19376.1.5.3.1.4.5']]/hl7:value[concat(@code, @codeSystem) = doc('include/voc-1.2.40.0.34.6.0.10.2-DYNAMIC.xml')//valueSet[1]/conceptList/concept/concat(@code, @codeSystem)]/hl7:originalText/hl7:reference[not(@nullFlavor)]
Item: (atcdabbr_other_OriginalTextReference)
-->
    <rule context="*[hl7:observation[hl7:templateId[@root = '1.2.40.0.34.6.0.11.3.9'] and hl7:templateId[@root = '2.16.840.1.113883.10.20.1.28'] and hl7:templateId[@root = '1.3.6.1.4.1.19376.1.5.3.1.4.5']]]/hl7:observation[hl7:templateId[@root = '1.2.40.0.34.6.0.11.3.9'] and hl7:templateId[@root = '2.16.840.1.113883.10.20.1.28'] and hl7:templateId[@root = '1.3.6.1.4.1.19376.1.5.3.1.4.5']]/hl7:value[concat(@code, @codeSystem) = doc('include/voc-1.2.40.0.34.6.0.10.2-DYNAMIC.xml')//valueSet[1]/conceptList/concept/concat(@code, @codeSystem)]/hl7:originalText/hl7:reference[not(@nullFlavor)]" id="d463352e45-false-d463411e0">
        <extends rule="TEL"/>
        <assert role="error" see="http://art-decor.org/art-decor/decor-templates--elgaimpf-?id=1.2.40.0.34.6.0.11.9.2" test="(local-name-from-QName(resolve-QName(@xsi:type,.))='TEL' and namespace-uri-from-QName(resolve-QName(@xsi:type,.))='urn:hl7-org:v3') or not(@xsi:type)">(atcdabbr_other_OriginalTextReference): Wenn eine @xsi:type Instruktion anwesend ist MUSS diese den Wert "{urn:hl7-org:v3}:TEL" haben. Gefunden "{<value-of select="namespace-uri-from-QName(resolve-QName(@xsi:type,.))"/>}:<value-of select="local-name-from-QName(resolve-QName(@xsi:type,.))"/>"</assert>
        <assert role="error" see="http://art-decor.org/art-decor/decor-templates--elgaimpf-?id=1.2.40.0.34.6.0.11.9.2" test="@value">(atcdabbr_other_OriginalTextReference): Attribut @value MUSS vorkommen.</assert>
        <assert role="error" see="http://art-decor.org/art-decor/decor-templates--elgaimpf-?id=1.2.40.0.34.6.0.11.9.2" test="starts-with(@value,'#')">(atcdabbr_other_OriginalTextReference): The @value attribute content MUST conform to the format '#xxx', where xxx is the ID of the corresponding 'content'-element.</assert>
    </rule>

   <!--
Template derived rules for ID: 1.2.40.0.34.6.0.11.3.9
Context: *[hl7:observation[hl7:templateId[@root = '1.2.40.0.34.6.0.11.3.9'] and hl7:templateId[@root = '2.16.840.1.113883.10.20.1.28'] and hl7:templateId[@root = '1.3.6.1.4.1.19376.1.5.3.1.4.5']]]/hl7:observation[hl7:templateId[@root = '1.2.40.0.34.6.0.11.3.9'] and hl7:templateId[@root = '2.16.840.1.113883.10.20.1.28'] and hl7:templateId[@root = '1.3.6.1.4.1.19376.1.5.3.1.4.5']]/hl7:entryRelationship[hl7:act[hl7:templateId[@root = '1.2.40.0.34.6.0.11.3.11'] and hl7:templateId[@root = '2.16.840.1.113883.10.20.1.40'] and hl7:templateId[@root = '1.3.6.1.4.1.19376.1.5.3.1.4.2']]]
Item: (eimpf_entry_ImpfrelevanteErkrankungProblemEntry)
-->
    <rule context="*[hl7:observation[hl7:templateId[@root = '1.2.40.0.34.6.0.11.3.9'] and hl7:templateId[@root = '2.16.840.1.113883.10.20.1.28'] and hl7:templateId[@root = '1.3.6.1.4.1.19376.1.5.3.1.4.5']]]/hl7:observation[hl7:templateId[@root = '1.2.40.0.34.6.0.11.3.9'] and hl7:templateId[@root = '2.16.840.1.113883.10.20.1.28'] and hl7:templateId[@root = '1.3.6.1.4.1.19376.1.5.3.1.4.5']]/hl7:entryRelationship[hl7:act[hl7:templateId[@root = '1.2.40.0.34.6.0.11.3.11'] and hl7:templateId[@root = '2.16.840.1.113883.10.20.1.40'] and hl7:templateId[@root = '1.3.6.1.4.1.19376.1.5.3.1.4.2']]]">
        <assert role="error" see="http://art-decor.org/art-decor/decor-templates--elgaimpf-?id=1.2.40.0.34.6.0.11.3.9" test="string(@typeCode) = ('COMP')">(eimpf_entry_ImpfrelevanteErkrankungProblemEntry): Der Wert von typeCode MUSS 'COMP' sein. Gefunden: "<value-of select="@typeCode"/>"</assert>
        <assert role="error" see="http://art-decor.org/art-decor/decor-templates--elgaimpf-?id=1.2.40.0.34.6.0.11.3.9" test="string(@contextConductionInd) = ('true') or not(@contextConductionInd)">(eimpf_entry_ImpfrelevanteErkrankungProblemEntry): Der Wert von contextConductionInd MUSS 'true' sein. Gefunden: "<value-of select="@contextConductionInd"/>"</assert>
    </rule>
</pattern>