<?xml version="1.0" encoding="UTF-8"?>
<!--
Template derived pattern
===========================================
ID: 1.2.40.0.34.6.0.11.3.9
Name: Impfrelevante Erkrankungen Problem Entry
Description: 
-->
<pattern xmlns="http://purl.oclc.org/dsdl/schematron" id="template-1.2.40.0.34.6.0.11.3.9-2019-05-20T081225-closed">
    <title>Impfrelevante Erkrankungen Problem Entry</title>

   <!-- Checking undefined contents for template/element @isClosed="true". Match context that we did not already match -->
    <rule context="*[hl7:observation[hl7:templateId[@root = '1.2.40.0.34.6.0.11.3.9'] and hl7:templateId[@root = '2.16.840.1.113883.10.20.1.28'] and hl7:templateId[@root = '1.3.6.1.4.1.19376.1.5.3.1.4.5']]]/*[not(@xsi:nil = 'true')][not(self::hl7:observation[hl7:templateId[@root = '1.2.40.0.34.6.0.11.3.9'] and hl7:templateId[@root = '2.16.840.1.113883.10.20.1.28'] and hl7:templateId[@root = '1.3.6.1.4.1.19376.1.5.3.1.4.5']])]" id="d245561e5619-true-d463868e0">
        <assert role="error" see="http://art-decor.org/art-decor/decor-templates--elgaimpf-?id=1.2.40.0.34.6.0.11.3.9" test="not(.)">(eimpf_entry_ImpfrelevanteErkrankungProblemEntry)/d245561e5619-true-d463868e0: '<value-of select="name(..)"/>' ist als geschlossen definiert und dieses Element '<name/>' ist nicht erlaubt oder nicht mit diesem Inhalt erlaubt. Dies kann templateId, code oder id betreffen. Erwartet:  hl7:observation[hl7:templateId[@root = '1.2.40.0.34.6.0.11.3.9'] and hl7:templateId[@root = '2.16.840.1.113883.10.20.1.28'] and hl7:templateId[@root = '1.3.6.1.4.1.19376.1.5.3.1.4.5']] (rule-reference: d245561e5619-true-d463868e0)</assert>
    </rule>

   <!-- Checking undefined contents for template/element @isClosed="true". Match context that we did not already match -->
    <rule context="*[hl7:observation[hl7:templateId[@root = '1.2.40.0.34.6.0.11.3.9'] and hl7:templateId[@root = '2.16.840.1.113883.10.20.1.28'] and hl7:templateId[@root = '1.3.6.1.4.1.19376.1.5.3.1.4.5']]]/hl7:observation[hl7:templateId[@root = '1.2.40.0.34.6.0.11.3.9'] and hl7:templateId[@root = '2.16.840.1.113883.10.20.1.28'] and hl7:templateId[@root = '1.3.6.1.4.1.19376.1.5.3.1.4.5']]/*[not(@xsi:nil = 'true')][not(self::hl7:templateId[@root = '1.2.40.0.34.6.0.11.3.9'] | self::hl7:templateId[@root = '2.16.840.1.113883.10.20.1.28'] | self::hl7:templateId[@root = '1.3.6.1.4.1.19376.1.5.3.1.4.5'] | self::hl7:id[not(@nullFlavor)] | self::hl7:code[(@code = '55607006' and @codeSystem = '2.16.840.1.113883.6.96')] | self::hl7:text | self::hl7:statusCode[@code = 'completed'] | self::hl7:effectiveTime[not(@nullFlavor)] | self::hl7:value[concat(@code, @codeSystem) = doc('include/voc-1.2.40.0.34.6.0.10.2-DYNAMIC.xml')//valueSet[1]/conceptList/concept/concat(@code, @codeSystem)] | self::hl7:entryRelationship[hl7:act[hl7:templateId[@root = '1.2.40.0.34.6.0.11.3.11'] and hl7:templateId[@root = '2.16.840.1.113883.10.20.1.40'] and hl7:templateId[@root = '1.3.6.1.4.1.19376.1.5.3.1.4.2']]])]" id="d245561e5648-true-d464254e0">
        <assert role="error" see="http://art-decor.org/art-decor/decor-templates--elgaimpf-?id=1.2.40.0.34.6.0.11.3.9" test="not(.)">(eimpf_entry_ImpfrelevanteErkrankungProblemEntry)/d245561e5648-true-d464254e0: '<value-of select="name(..)"/>' ist als geschlossen definiert und dieses Element '<name/>' ist nicht erlaubt oder nicht mit diesem Inhalt erlaubt. Dies kann templateId, code oder id betreffen. Erwartet:  hl7:templateId[@root = '1.2.40.0.34.6.0.11.3.9'] | hl7:templateId[@root = '2.16.840.1.113883.10.20.1.28'] | hl7:templateId[@root = '1.3.6.1.4.1.19376.1.5.3.1.4.5'] | hl7:id[not(@nullFlavor)] | hl7:code[(@code = '55607006' and @codeSystem = '2.16.840.1.113883.6.96')] | hl7:text | hl7:statusCode[@code = 'completed'] | hl7:effectiveTime[not(@nullFlavor)] | hl7:value[concat(@code, @codeSystem) = doc('include/voc-1.2.40.0.34.6.0.10.2-DYNAMIC.xml')//valueSet[1]/conceptList/concept/concat(@code, @codeSystem)] | hl7:entryRelationship[hl7:act[hl7:templateId[@root = '1.2.40.0.34.6.0.11.3.11'] and hl7:templateId[@root = '2.16.840.1.113883.10.20.1.40'] and hl7:templateId[@root = '1.3.6.1.4.1.19376.1.5.3.1.4.2']]] (rule-reference: d245561e5648-true-d464254e0)</assert>
    </rule>

   <!-- Checking undefined contents for template/element @isClosed="true". Match context that we did not already match -->
    <rule context="*[hl7:observation[hl7:templateId[@root = '1.2.40.0.34.6.0.11.3.9'] and hl7:templateId[@root = '2.16.840.1.113883.10.20.1.28'] and hl7:templateId[@root = '1.3.6.1.4.1.19376.1.5.3.1.4.5']]]/hl7:observation[hl7:templateId[@root = '1.2.40.0.34.6.0.11.3.9'] and hl7:templateId[@root = '2.16.840.1.113883.10.20.1.28'] and hl7:templateId[@root = '1.3.6.1.4.1.19376.1.5.3.1.4.5']]/hl7:text/*[not(@xsi:nil = 'true')][not(self::hl7:reference[not(@nullFlavor)])]" id="d464282e37-true-d464293e0">
        <assert role="error" see="http://art-decor.org/art-decor/decor-templates--elgaimpf-?id=1.2.40.0.34.6.0.11.9.1" test="not(.)">(atcdabrr_other_NarrativeTextReference)/d464282e37-true-d464293e0: '<value-of select="name(..)"/>' ist als geschlossen definiert und dieses Element '<name/>' ist nicht erlaubt oder nicht mit diesem Inhalt erlaubt. Dies kann templateId, code oder id betreffen. Erwartet:  hl7:reference[not(@nullFlavor)] (rule-reference: d464282e37-true-d464293e0)</assert>
    </rule>

   <!-- Checking undefined contents for template/element @isClosed="true". Match context that we did not already match -->
    <rule context="*[hl7:observation[hl7:templateId[@root = '1.2.40.0.34.6.0.11.3.9'] and hl7:templateId[@root = '2.16.840.1.113883.10.20.1.28'] and hl7:templateId[@root = '1.3.6.1.4.1.19376.1.5.3.1.4.5']]]/hl7:observation[hl7:templateId[@root = '1.2.40.0.34.6.0.11.3.9'] and hl7:templateId[@root = '2.16.840.1.113883.10.20.1.28'] and hl7:templateId[@root = '1.3.6.1.4.1.19376.1.5.3.1.4.5']]/hl7:effectiveTime[not(@nullFlavor)]/*[not(@xsi:nil = 'true')][not(self::hl7:low[not(@nullFlavor)] | self::hl7:low[@nullFlavor='UNK'] | self::hl7:high)]" id="d245561e5696-true-d464315e0">
        <assert role="error" see="http://art-decor.org/art-decor/decor-templates--elgaimpf-?id=1.2.40.0.34.6.0.11.3.9" test="not(.)">(eimpf_entry_ImpfrelevanteErkrankungProblemEntry)/d245561e5696-true-d464315e0: '<value-of select="name(..)"/>' ist als geschlossen definiert und dieses Element '<name/>' ist nicht erlaubt oder nicht mit diesem Inhalt erlaubt. Dies kann templateId, code oder id betreffen. Erwartet:  hl7:low[not(@nullFlavor)] | hl7:low[@nullFlavor='UNK'] | hl7:high (rule-reference: d245561e5696-true-d464315e0)</assert>
    </rule>

   <!-- Checking undefined contents for template/element @isClosed="true". Match context that we did not already match -->
    <rule context="*[hl7:observation[hl7:templateId[@root = '1.2.40.0.34.6.0.11.3.9'] and hl7:templateId[@root = '2.16.840.1.113883.10.20.1.28'] and hl7:templateId[@root = '1.3.6.1.4.1.19376.1.5.3.1.4.5']]]/hl7:observation[hl7:templateId[@root = '1.2.40.0.34.6.0.11.3.9'] and hl7:templateId[@root = '2.16.840.1.113883.10.20.1.28'] and hl7:templateId[@root = '1.3.6.1.4.1.19376.1.5.3.1.4.5']]/hl7:value[concat(@code, @codeSystem) = doc('include/voc-1.2.40.0.34.6.0.10.2-DYNAMIC.xml')//valueSet[1]/conceptList/concept/concat(@code, @codeSystem)]/*[not(@xsi:nil = 'true')][not(self::hl7:originalText)]" id="d245561e5720-true-d464341e0">
        <assert role="error" see="http://art-decor.org/art-decor/decor-templates--elgaimpf-?id=1.2.40.0.34.6.0.11.3.9" test="not(.)">(eimpf_entry_ImpfrelevanteErkrankungProblemEntry)/d245561e5720-true-d464341e0: '<value-of select="name(..)"/>' ist als geschlossen definiert und dieses Element '<name/>' ist nicht erlaubt oder nicht mit diesem Inhalt erlaubt. Dies kann templateId, code oder id betreffen. Erwartet:  hl7:originalText (rule-reference: d245561e5720-true-d464341e0)</assert>
    </rule>

   <!-- Checking undefined contents for template/element @isClosed="true". Match context that we did not already match -->
    <rule context="*[hl7:observation[hl7:templateId[@root = '1.2.40.0.34.6.0.11.3.9'] and hl7:templateId[@root = '2.16.840.1.113883.10.20.1.28'] and hl7:templateId[@root = '1.3.6.1.4.1.19376.1.5.3.1.4.5']]]/hl7:observation[hl7:templateId[@root = '1.2.40.0.34.6.0.11.3.9'] and hl7:templateId[@root = '2.16.840.1.113883.10.20.1.28'] and hl7:templateId[@root = '1.3.6.1.4.1.19376.1.5.3.1.4.5']]/hl7:value[concat(@code, @codeSystem) = doc('include/voc-1.2.40.0.34.6.0.10.2-DYNAMIC.xml')//valueSet[1]/conceptList/concept/concat(@code, @codeSystem)]/hl7:originalText/*[not(@xsi:nil = 'true')][not(self::hl7:reference[not(@nullFlavor)])]" id="d464345e10-true-d464356e0">
        <assert role="error" see="http://art-decor.org/art-decor/decor-templates--elgaimpf-?id=1.2.40.0.34.6.0.11.9.2" test="not(.)">(atcdabbr_other_OriginalTextReference)/d464345e10-true-d464356e0: '<value-of select="name(..)"/>' ist als geschlossen definiert und dieses Element '<name/>' ist nicht erlaubt oder nicht mit diesem Inhalt erlaubt. Dies kann templateId, code oder id betreffen. Erwartet:  hl7:reference[not(@nullFlavor)] (rule-reference: d464345e10-true-d464356e0)</assert>
    </rule>

   <!-- Checking undefined contents for template/element @isClosed="true". Match context that we did not already match -->
    <rule context="*[hl7:observation[hl7:templateId[@root = '1.2.40.0.34.6.0.11.3.9'] and hl7:templateId[@root = '2.16.840.1.113883.10.20.1.28'] and hl7:templateId[@root = '1.3.6.1.4.1.19376.1.5.3.1.4.5']]]/hl7:observation[hl7:templateId[@root = '1.2.40.0.34.6.0.11.3.9'] and hl7:templateId[@root = '2.16.840.1.113883.10.20.1.28'] and hl7:templateId[@root = '1.3.6.1.4.1.19376.1.5.3.1.4.5']]/hl7:entryRelationship[hl7:act[hl7:templateId[@root = '1.2.40.0.34.6.0.11.3.11'] and hl7:templateId[@root = '2.16.840.1.113883.10.20.1.40'] and hl7:templateId[@root = '1.3.6.1.4.1.19376.1.5.3.1.4.2']]]/*[not(@xsi:nil = 'true')][not(self::hl7:act[hl7:templateId[@root = '1.2.40.0.34.6.0.11.3.11'] and hl7:templateId[@root = '2.16.840.1.113883.10.20.1.40'] and hl7:templateId[@root = '1.3.6.1.4.1.19376.1.5.3.1.4.2']])]" id="d245561e5732-true-d464850e0">
        <assert role="error" see="http://art-decor.org/art-decor/decor-templates--elgaimpf-?id=1.2.40.0.34.6.0.11.3.9" test="not(.)">(eimpf_entry_ImpfrelevanteErkrankungProblemEntry)/d245561e5732-true-d464850e0: '<value-of select="name(..)"/>' ist als geschlossen definiert und dieses Element '<name/>' ist nicht erlaubt oder nicht mit diesem Inhalt erlaubt. Dies kann templateId, code oder id betreffen. Erwartet:  hl7:act[hl7:templateId[@root = '1.2.40.0.34.6.0.11.3.11'] and hl7:templateId[@root = '2.16.840.1.113883.10.20.1.40'] and hl7:templateId[@root = '1.3.6.1.4.1.19376.1.5.3.1.4.2']] (rule-reference: d245561e5732-true-d464850e0)</assert>
    </rule>

   <!-- Checking undefined contents for template/element @isClosed="true". Match context that we did not already match -->
    <rule context="*[hl7:observation[hl7:templateId[@root = '1.2.40.0.34.6.0.11.3.9'] and hl7:templateId[@root = '2.16.840.1.113883.10.20.1.28'] and hl7:templateId[@root = '1.3.6.1.4.1.19376.1.5.3.1.4.5']]]/hl7:observation[hl7:templateId[@root = '1.2.40.0.34.6.0.11.3.9'] and hl7:templateId[@root = '2.16.840.1.113883.10.20.1.28'] and hl7:templateId[@root = '1.3.6.1.4.1.19376.1.5.3.1.4.5']]/hl7:entryRelationship[hl7:act[hl7:templateId[@root = '1.2.40.0.34.6.0.11.3.11'] and hl7:templateId[@root = '2.16.840.1.113883.10.20.1.40'] and hl7:templateId[@root = '1.3.6.1.4.1.19376.1.5.3.1.4.2']]]/hl7:act[hl7:templateId[@root = '1.2.40.0.34.6.0.11.3.11'] and hl7:templateId[@root = '2.16.840.1.113883.10.20.1.40'] and hl7:templateId[@root = '1.3.6.1.4.1.19376.1.5.3.1.4.2']]/*[not(@xsi:nil = 'true')][not(self::hl7:templateId[@root = '1.2.40.0.34.6.0.11.3.11'] | self::hl7:templateId[@root = '2.16.840.1.113883.10.20.1.40'] | self::hl7:templateId[@root = '1.3.6.1.4.1.19376.1.5.3.1.4.2'] | self::hl7:id[not(@nullFlavor)] | self::hl7:code[(@code = '48767-8' and @codeSystem = '2.16.840.1.113883.6.1')] | self::hl7:text | self::hl7:statusCode[@code = 'completed'] | self::hl7:performer[hl7:templateId[@root = '1.2.40.0.34.6.0.11.9.17']] | self::hl7:author[hl7:assignedAuthor] | self::hl7:informant | self::hl7:participant[@typeCode][hl7:participantRole])]" id="d464365e8-true-d465384e0">
        <assert role="error" see="http://art-decor.org/art-decor/decor-templates--elgaimpf-?id=1.2.40.0.34.6.0.11.3.9" test="not(.)">(eimpf_entry_ImpfrelevanteErkrankungProblemEntry)/d464365e8-true-d465384e0: '<value-of select="name(..)"/>' ist als geschlossen definiert und dieses Element '<name/>' ist nicht erlaubt oder nicht mit diesem Inhalt erlaubt. Dies kann templateId, code oder id betreffen. Erwartet:  hl7:templateId[@root = '1.2.40.0.34.6.0.11.3.11'] | hl7:templateId[@root = '2.16.840.1.113883.10.20.1.40'] | hl7:templateId[@root = '1.3.6.1.4.1.19376.1.5.3.1.4.2'] | hl7:id[not(@nullFlavor)] | hl7:code[(@code = '48767-8' and @codeSystem = '2.16.840.1.113883.6.1')] | hl7:text | hl7:statusCode[@code = 'completed'] | hl7:performer[hl7:templateId[@root = '1.2.40.0.34.6.0.11.9.17']] | hl7:author[hl7:assignedAuthor] | hl7:informant | hl7:participant[@typeCode][hl7:participantRole] (rule-reference: d464365e8-true-d465384e0)</assert>
    </rule>

   <!-- Checking undefined contents for template/element @isClosed="true". Match context that we did not already match -->
    <rule context="*[hl7:observation[hl7:templateId[@root = '1.2.40.0.34.6.0.11.3.9'] and hl7:templateId[@root = '2.16.840.1.113883.10.20.1.28'] and hl7:templateId[@root = '1.3.6.1.4.1.19376.1.5.3.1.4.5']]]/hl7:observation[hl7:templateId[@root = '1.2.40.0.34.6.0.11.3.9'] and hl7:templateId[@root = '2.16.840.1.113883.10.20.1.28'] and hl7:templateId[@root = '1.3.6.1.4.1.19376.1.5.3.1.4.5']]/hl7:entryRelationship[hl7:act[hl7:templateId[@root = '1.2.40.0.34.6.0.11.3.11'] and hl7:templateId[@root = '2.16.840.1.113883.10.20.1.40'] and hl7:templateId[@root = '1.3.6.1.4.1.19376.1.5.3.1.4.2']]]/hl7:act[hl7:templateId[@root = '1.2.40.0.34.6.0.11.3.11'] and hl7:templateId[@root = '2.16.840.1.113883.10.20.1.40'] and hl7:templateId[@root = '1.3.6.1.4.1.19376.1.5.3.1.4.2']]/hl7:text/*[not(@xsi:nil = 'true')][not(self::hl7:reference[not(@nullFlavor)])]" id="d465410e37-true-d465421e0">
        <assert role="error" see="http://art-decor.org/art-decor/decor-templates--elgaimpf-?id=1.2.40.0.34.6.0.11.9.1" test="not(.)">(atcdabrr_other_NarrativeTextReference)/d465410e37-true-d465421e0: '<value-of select="name(..)"/>' ist als geschlossen definiert und dieses Element '<name/>' ist nicht erlaubt oder nicht mit diesem Inhalt erlaubt. Dies kann templateId, code oder id betreffen. Erwartet:  hl7:reference[not(@nullFlavor)] (rule-reference: d465410e37-true-d465421e0)</assert>
    </rule>

   <!-- Checking undefined contents for template/element @isClosed="true". Match context that we did not already match -->
    <rule context="*[hl7:observation[hl7:templateId[@root = '1.2.40.0.34.6.0.11.3.9'] and hl7:templateId[@root = '2.16.840.1.113883.10.20.1.28'] and hl7:templateId[@root = '1.3.6.1.4.1.19376.1.5.3.1.4.5']]]/hl7:observation[hl7:templateId[@root = '1.2.40.0.34.6.0.11.3.9'] and hl7:templateId[@root = '2.16.840.1.113883.10.20.1.28'] and hl7:templateId[@root = '1.3.6.1.4.1.19376.1.5.3.1.4.5']]/hl7:entryRelationship[hl7:act[hl7:templateId[@root = '1.2.40.0.34.6.0.11.3.11'] and hl7:templateId[@root = '2.16.840.1.113883.10.20.1.40'] and hl7:templateId[@root = '1.3.6.1.4.1.19376.1.5.3.1.4.2']]]/hl7:act[hl7:templateId[@root = '1.2.40.0.34.6.0.11.3.11'] and hl7:templateId[@root = '2.16.840.1.113883.10.20.1.40'] and hl7:templateId[@root = '1.3.6.1.4.1.19376.1.5.3.1.4.2']]/hl7:performer[hl7:templateId[@root = '1.2.40.0.34.6.0.11.9.17']]/*[not(@xsi:nil = 'true')][not(self::hl7:templateId[@root = '1.2.40.0.34.6.0.11.9.17'] | self::hl7:time | self::hl7:assignedEntity[not(@nullFlavor)])]" id="d464365e44-true-d465579e0">
        <assert role="error" see="http://art-decor.org/art-decor/decor-templates--elgaimpf-?id=1.2.40.0.34.6.0.11.3.9" test="not(.)">(eimpf_entry_ImpfrelevanteErkrankungProblemEntry)/d464365e44-true-d465579e0: '<value-of select="name(..)"/>' ist als geschlossen definiert und dieses Element '<name/>' ist nicht erlaubt oder nicht mit diesem Inhalt erlaubt. Dies kann templateId, code oder id betreffen. Erwartet:  hl7:templateId[@root = '1.2.40.0.34.6.0.11.9.17'] | hl7:time | hl7:assignedEntity[not(@nullFlavor)] (rule-reference: d464365e44-true-d465579e0)</assert>
    </rule>

   <!-- Checking undefined contents for template/element @isClosed="true". Match context that we did not already match -->
    <rule context="*[hl7:observation[hl7:templateId[@root = '1.2.40.0.34.6.0.11.3.9'] and hl7:templateId[@root = '2.16.840.1.113883.10.20.1.28'] and hl7:templateId[@root = '1.3.6.1.4.1.19376.1.5.3.1.4.5']]]/hl7:observation[hl7:templateId[@root = '1.2.40.0.34.6.0.11.3.9'] and hl7:templateId[@root = '2.16.840.1.113883.10.20.1.28'] and hl7:templateId[@root = '1.3.6.1.4.1.19376.1.5.3.1.4.5']]/hl7:entryRelationship[hl7:act[hl7:templateId[@root = '1.2.40.0.34.6.0.11.3.11'] and hl7:templateId[@root = '2.16.840.1.113883.10.20.1.40'] and hl7:templateId[@root = '1.3.6.1.4.1.19376.1.5.3.1.4.2']]]/hl7:act[hl7:templateId[@root = '1.2.40.0.34.6.0.11.3.11'] and hl7:templateId[@root = '2.16.840.1.113883.10.20.1.40'] and hl7:templateId[@root = '1.3.6.1.4.1.19376.1.5.3.1.4.2']]/hl7:performer[hl7:templateId[@root = '1.2.40.0.34.6.0.11.9.17']]/hl7:assignedEntity[not(@nullFlavor)]/*[not(@xsi:nil = 'true')][not(self::hl7:id[not(@nullFlavor)] | self::hl7:id[@nullFlavor='NI'] | self::hl7:id[@nullFlavor='UNK'] | self::hl7:code | self::hl7:addr | self::hl7:telecom | self::hl7:assignedPerson | self::hl7:assignedPerson | self::hl7:representedOrganization)]" id="d465435e8-true-d465685e0">
        <assert role="error" see="http://art-decor.org/art-decor/decor-templates--elgaimpf-?id=1.2.40.0.34.6.0.11.3.9" test="not(.)">(eimpf_entry_ImpfrelevanteErkrankungProblemEntry)/d465435e8-true-d465685e0: '<value-of select="name(..)"/>' ist als geschlossen definiert und dieses Element '<name/>' ist nicht erlaubt oder nicht mit diesem Inhalt erlaubt. Dies kann templateId, code oder id betreffen. Erwartet:  hl7:id[not(@nullFlavor)] | hl7:id[@nullFlavor='NI'] | hl7:id[@nullFlavor='UNK'] | hl7:code | hl7:addr | hl7:telecom | hl7:assignedPerson | hl7:assignedPerson | hl7:representedOrganization (rule-reference: d465435e8-true-d465685e0)</assert>
    </rule>

   <!-- Checking undefined contents for template/element @isClosed="true". Match context that we did not already match -->
    <rule context="*[hl7:observation[hl7:templateId[@root = '1.2.40.0.34.6.0.11.3.9'] and hl7:templateId[@root = '2.16.840.1.113883.10.20.1.28'] and hl7:templateId[@root = '1.3.6.1.4.1.19376.1.5.3.1.4.5']]]/hl7:observation[hl7:templateId[@root = '1.2.40.0.34.6.0.11.3.9'] and hl7:templateId[@root = '2.16.840.1.113883.10.20.1.28'] and hl7:templateId[@root = '1.3.6.1.4.1.19376.1.5.3.1.4.5']]/hl7:entryRelationship[hl7:act[hl7:templateId[@root = '1.2.40.0.34.6.0.11.3.11'] and hl7:templateId[@root = '2.16.840.1.113883.10.20.1.40'] and hl7:templateId[@root = '1.3.6.1.4.1.19376.1.5.3.1.4.2']]]/hl7:act[hl7:templateId[@root = '1.2.40.0.34.6.0.11.3.11'] and hl7:templateId[@root = '2.16.840.1.113883.10.20.1.40'] and hl7:templateId[@root = '1.3.6.1.4.1.19376.1.5.3.1.4.2']]/hl7:performer[hl7:templateId[@root = '1.2.40.0.34.6.0.11.9.17']]/hl7:assignedEntity[not(@nullFlavor)]/hl7:addr/*[not(@xsi:nil = 'true')][not(self::hl7:streetAddressLine | self::hl7:streetName | self::hl7:houseNumber | self::hl7:postalCode | self::hl7:city | self::hl7:state | self::hl7:country | self::hl7:additionalLocator)]" id="d465689e47-true-d465752e0">
        <assert role="error" see="http://art-decor.org/art-decor/decor-templates--elgaimpf-?id=1.2.40.0.34.6.0.11.3.9" test="not(.)">(eimpf_entry_ImpfrelevanteErkrankungProblemEntry)/d465689e47-true-d465752e0: '<value-of select="name(..)"/>' ist als geschlossen definiert und dieses Element '<name/>' ist nicht erlaubt oder nicht mit diesem Inhalt erlaubt. Dies kann templateId, code oder id betreffen. Erwartet:  hl7:streetAddressLine | hl7:streetName | hl7:houseNumber | hl7:postalCode | hl7:city | hl7:state | hl7:country | hl7:additionalLocator (rule-reference: d465689e47-true-d465752e0)</assert>
    </rule>

   <!-- Checking undefined contents for template/element @isClosed="true". Match context that we did not already match -->
    <rule context="*[hl7:observation[hl7:templateId[@root = '1.2.40.0.34.6.0.11.3.9'] and hl7:templateId[@root = '2.16.840.1.113883.10.20.1.28'] and hl7:templateId[@root = '1.3.6.1.4.1.19376.1.5.3.1.4.5']]]/hl7:observation[hl7:templateId[@root = '1.2.40.0.34.6.0.11.3.9'] and hl7:templateId[@root = '2.16.840.1.113883.10.20.1.28'] and hl7:templateId[@root = '1.3.6.1.4.1.19376.1.5.3.1.4.5']]/hl7:entryRelationship[hl7:act[hl7:templateId[@root = '1.2.40.0.34.6.0.11.3.11'] and hl7:templateId[@root = '2.16.840.1.113883.10.20.1.40'] and hl7:templateId[@root = '1.3.6.1.4.1.19376.1.5.3.1.4.2']]]/hl7:act[hl7:templateId[@root = '1.2.40.0.34.6.0.11.3.11'] and hl7:templateId[@root = '2.16.840.1.113883.10.20.1.40'] and hl7:templateId[@root = '1.3.6.1.4.1.19376.1.5.3.1.4.2']]/hl7:performer[hl7:templateId[@root = '1.2.40.0.34.6.0.11.9.17']]/hl7:assignedEntity[not(@nullFlavor)]/hl7:assignedPerson/*[not(@xsi:nil = 'true')][not(self::hl7:name[not(@nullFlavor)])]" id="d465689e87-true-d465817e0">
        <assert role="error" see="http://art-decor.org/art-decor/decor-templates--elgaimpf-?id=1.2.40.0.34.6.0.11.9.16" test="not(.)">( atcdabbr_other_AssignedEntityBody)/d465689e87-true-d465817e0: '<value-of select="name(..)"/>' ist als geschlossen definiert und dieses Element '<name/>' ist nicht erlaubt oder nicht mit diesem Inhalt erlaubt. Dies kann templateId, code oder id betreffen. Erwartet:  hl7:name[not(@nullFlavor)] (rule-reference: d465689e87-true-d465817e0)</assert>
    </rule>

   <!-- Checking undefined contents for template/element @isClosed="true". Match context that we did not already match -->
    <rule context="*[hl7:observation[hl7:templateId[@root = '1.2.40.0.34.6.0.11.3.9'] and hl7:templateId[@root = '2.16.840.1.113883.10.20.1.28'] and hl7:templateId[@root = '1.3.6.1.4.1.19376.1.5.3.1.4.5']]]/hl7:observation[hl7:templateId[@root = '1.2.40.0.34.6.0.11.3.9'] and hl7:templateId[@root = '2.16.840.1.113883.10.20.1.28'] and hl7:templateId[@root = '1.3.6.1.4.1.19376.1.5.3.1.4.5']]/hl7:entryRelationship[hl7:act[hl7:templateId[@root = '1.2.40.0.34.6.0.11.3.11'] and hl7:templateId[@root = '2.16.840.1.113883.10.20.1.40'] and hl7:templateId[@root = '1.3.6.1.4.1.19376.1.5.3.1.4.2']]]/hl7:act[hl7:templateId[@root = '1.2.40.0.34.6.0.11.3.11'] and hl7:templateId[@root = '2.16.840.1.113883.10.20.1.40'] and hl7:templateId[@root = '1.3.6.1.4.1.19376.1.5.3.1.4.2']]/hl7:performer[hl7:templateId[@root = '1.2.40.0.34.6.0.11.9.17']]/hl7:assignedEntity[not(@nullFlavor)]/hl7:assignedPerson/*[not(@xsi:nil = 'true')][not(self::hl7:name[not(@nullFlavor)])]" id="d465689e94-true-d465837e0">
        <assert role="error" see="http://art-decor.org/art-decor/decor-templates--elgaimpf-?id=1.2.40.0.34.6.0.11.9.16" test="not(.)">( atcdabbr_other_AssignedEntityBody)/d465689e94-true-d465837e0: '<value-of select="name(..)"/>' ist als geschlossen definiert und dieses Element '<name/>' ist nicht erlaubt oder nicht mit diesem Inhalt erlaubt. Dies kann templateId, code oder id betreffen. Erwartet:  hl7:name[not(@nullFlavor)] (rule-reference: d465689e94-true-d465837e0)</assert>
    </rule>

   <!-- Checking undefined contents for template/element @isClosed="true". Match context that we did not already match -->
    <rule context="*[hl7:observation[hl7:templateId[@root = '1.2.40.0.34.6.0.11.3.9'] and hl7:templateId[@root = '2.16.840.1.113883.10.20.1.28'] and hl7:templateId[@root = '1.3.6.1.4.1.19376.1.5.3.1.4.5']]]/hl7:observation[hl7:templateId[@root = '1.2.40.0.34.6.0.11.3.9'] and hl7:templateId[@root = '2.16.840.1.113883.10.20.1.28'] and hl7:templateId[@root = '1.3.6.1.4.1.19376.1.5.3.1.4.5']]/hl7:entryRelationship[hl7:act[hl7:templateId[@root = '1.2.40.0.34.6.0.11.3.11'] and hl7:templateId[@root = '2.16.840.1.113883.10.20.1.40'] and hl7:templateId[@root = '1.3.6.1.4.1.19376.1.5.3.1.4.2']]]/hl7:act[hl7:templateId[@root = '1.2.40.0.34.6.0.11.3.11'] and hl7:templateId[@root = '2.16.840.1.113883.10.20.1.40'] and hl7:templateId[@root = '1.3.6.1.4.1.19376.1.5.3.1.4.2']]/hl7:performer[hl7:templateId[@root = '1.2.40.0.34.6.0.11.9.17']]/hl7:assignedEntity[not(@nullFlavor)]/hl7:assignedPerson/hl7:name[not(@nullFlavor)]/*[not(@xsi:nil = 'true')][not(self::hl7:prefix | self::hl7:family[not(@nullFlavor)] | self::hl7:given[not(@nullFlavor)] | self::hl7:suffix)]" id="d465826e10-true-d465865e0">
        <assert role="error" see="http://art-decor.org/art-decor/decor-templates--elgaimpf-?id=1.2.40.0.34.6.0.11.9.16" test="not(.)">( atcdabbr_other_AssignedEntityBody)/d465826e10-true-d465865e0: '<value-of select="name(..)"/>' ist als geschlossen definiert und dieses Element '<name/>' ist nicht erlaubt oder nicht mit diesem Inhalt erlaubt. Dies kann templateId, code oder id betreffen. Erwartet:  hl7:prefix | hl7:family[not(@nullFlavor)] | hl7:given[not(@nullFlavor)] | hl7:suffix (rule-reference: d465826e10-true-d465865e0)</assert>
    </rule>

   <!-- Checking undefined contents for template/element @isClosed="true". Match context that we did not already match -->
    <rule context="*[hl7:observation[hl7:templateId[@root = '1.2.40.0.34.6.0.11.3.9'] and hl7:templateId[@root = '2.16.840.1.113883.10.20.1.28'] and hl7:templateId[@root = '1.3.6.1.4.1.19376.1.5.3.1.4.5']]]/hl7:observation[hl7:templateId[@root = '1.2.40.0.34.6.0.11.3.9'] and hl7:templateId[@root = '2.16.840.1.113883.10.20.1.28'] and hl7:templateId[@root = '1.3.6.1.4.1.19376.1.5.3.1.4.5']]/hl7:entryRelationship[hl7:act[hl7:templateId[@root = '1.2.40.0.34.6.0.11.3.11'] and hl7:templateId[@root = '2.16.840.1.113883.10.20.1.40'] and hl7:templateId[@root = '1.3.6.1.4.1.19376.1.5.3.1.4.2']]]/hl7:act[hl7:templateId[@root = '1.2.40.0.34.6.0.11.3.11'] and hl7:templateId[@root = '2.16.840.1.113883.10.20.1.40'] and hl7:templateId[@root = '1.3.6.1.4.1.19376.1.5.3.1.4.2']]/hl7:performer[hl7:templateId[@root = '1.2.40.0.34.6.0.11.9.17']]/hl7:assignedEntity[not(@nullFlavor)]/hl7:representedOrganization/*[not(@xsi:nil = 'true')][not(self::hl7:id[not(@nullFlavor)] | self::hl7:name[not(@nullFlavor)] | self::hl7:telecom[not(@nullFlavor)] | self::hl7:addr[not(@nullFlavor)])]" id="d465689e102-true-d465911e0">
        <assert role="error" see="http://art-decor.org/art-decor/decor-templates--elgaimpf-?id=1.2.40.0.34.6.0.11.3.9" test="not(.)">(eimpf_entry_ImpfrelevanteErkrankungProblemEntry)/d465689e102-true-d465911e0: '<value-of select="name(..)"/>' ist als geschlossen definiert und dieses Element '<name/>' ist nicht erlaubt oder nicht mit diesem Inhalt erlaubt. Dies kann templateId, code oder id betreffen. Erwartet:  hl7:id[not(@nullFlavor)] | hl7:name[not(@nullFlavor)] | hl7:telecom[not(@nullFlavor)] | hl7:addr[not(@nullFlavor)] (rule-reference: d465689e102-true-d465911e0)</assert>
    </rule>

   <!-- Checking undefined contents for template/element @isClosed="true". Match context that we did not already match -->
    <rule context="*[hl7:observation[hl7:templateId[@root = '1.2.40.0.34.6.0.11.3.9'] and hl7:templateId[@root = '2.16.840.1.113883.10.20.1.28'] and hl7:templateId[@root = '1.3.6.1.4.1.19376.1.5.3.1.4.5']]]/hl7:observation[hl7:templateId[@root = '1.2.40.0.34.6.0.11.3.9'] and hl7:templateId[@root = '2.16.840.1.113883.10.20.1.28'] and hl7:templateId[@root = '1.3.6.1.4.1.19376.1.5.3.1.4.5']]/hl7:entryRelationship[hl7:act[hl7:templateId[@root = '1.2.40.0.34.6.0.11.3.11'] and hl7:templateId[@root = '2.16.840.1.113883.10.20.1.40'] and hl7:templateId[@root = '1.3.6.1.4.1.19376.1.5.3.1.4.2']]]/hl7:act[hl7:templateId[@root = '1.2.40.0.34.6.0.11.3.11'] and hl7:templateId[@root = '2.16.840.1.113883.10.20.1.40'] and hl7:templateId[@root = '1.3.6.1.4.1.19376.1.5.3.1.4.2']]/hl7:performer[hl7:templateId[@root = '1.2.40.0.34.6.0.11.9.17']]/hl7:assignedEntity[not(@nullFlavor)]/hl7:representedOrganization/hl7:addr[not(@nullFlavor)]/*[not(@xsi:nil = 'true')][not(self::hl7:streetAddressLine | self::hl7:streetName | self::hl7:houseNumber | self::hl7:postalCode | self::hl7:city | self::hl7:state | self::hl7:country | self::hl7:additionalLocator)]" id="d465886e36-true-d465968e0">
        <assert role="error" see="http://art-decor.org/art-decor/decor-templates--elgaimpf-?id=1.2.40.0.34.6.0.11.3.9" test="not(.)">(eimpf_entry_ImpfrelevanteErkrankungProblemEntry)/d465886e36-true-d465968e0: '<value-of select="name(..)"/>' ist als geschlossen definiert und dieses Element '<name/>' ist nicht erlaubt oder nicht mit diesem Inhalt erlaubt. Dies kann templateId, code oder id betreffen. Erwartet:  hl7:streetAddressLine | hl7:streetName | hl7:houseNumber | hl7:postalCode | hl7:city | hl7:state | hl7:country | hl7:additionalLocator (rule-reference: d465886e36-true-d465968e0)</assert>
    </rule>

   <!-- Checking undefined contents for template/element @isClosed="true". Match context that we did not already match -->
    <rule context="*[hl7:observation[hl7:templateId[@root = '1.2.40.0.34.6.0.11.3.9'] and hl7:templateId[@root = '2.16.840.1.113883.10.20.1.28'] and hl7:templateId[@root = '1.3.6.1.4.1.19376.1.5.3.1.4.5']]]/hl7:observation[hl7:templateId[@root = '1.2.40.0.34.6.0.11.3.9'] and hl7:templateId[@root = '2.16.840.1.113883.10.20.1.28'] and hl7:templateId[@root = '1.3.6.1.4.1.19376.1.5.3.1.4.5']]/hl7:entryRelationship[hl7:act[hl7:templateId[@root = '1.2.40.0.34.6.0.11.3.11'] and hl7:templateId[@root = '2.16.840.1.113883.10.20.1.40'] and hl7:templateId[@root = '1.3.6.1.4.1.19376.1.5.3.1.4.2']]]/hl7:act[hl7:templateId[@root = '1.2.40.0.34.6.0.11.3.11'] and hl7:templateId[@root = '2.16.840.1.113883.10.20.1.40'] and hl7:templateId[@root = '1.3.6.1.4.1.19376.1.5.3.1.4.2']]/hl7:author[hl7:assignedAuthor]/*[not(@xsi:nil = 'true')][not(self::hl7:functionCode | self::hl7:time[not(@nullFlavor)] | self::hl7:time[@nullFlavor='UNK'] | self::hl7:assignedAuthor)]" id="d464365e46-true-d466129e0">
        <assert role="error" see="http://art-decor.org/art-decor/decor-templates--elgaimpf-?id=1.2.40.0.34.6.0.11.3.9" test="not(.)">(eimpf_entry_ImpfrelevanteErkrankungProblemEntry)/d464365e46-true-d466129e0: '<value-of select="name(..)"/>' ist als geschlossen definiert und dieses Element '<name/>' ist nicht erlaubt oder nicht mit diesem Inhalt erlaubt. Dies kann templateId, code oder id betreffen. Erwartet:  hl7:functionCode | hl7:time[not(@nullFlavor)] | hl7:time[@nullFlavor='UNK'] | hl7:assignedAuthor (rule-reference: d464365e46-true-d466129e0)</assert>
    </rule>

   <!-- Checking undefined contents for template/element @isClosed="true". Match context that we did not already match -->
    <rule context="*[hl7:observation[hl7:templateId[@root = '1.2.40.0.34.6.0.11.3.9'] and hl7:templateId[@root = '2.16.840.1.113883.10.20.1.28'] and hl7:templateId[@root = '1.3.6.1.4.1.19376.1.5.3.1.4.5']]]/hl7:observation[hl7:templateId[@root = '1.2.40.0.34.6.0.11.3.9'] and hl7:templateId[@root = '2.16.840.1.113883.10.20.1.28'] and hl7:templateId[@root = '1.3.6.1.4.1.19376.1.5.3.1.4.5']]/hl7:entryRelationship[hl7:act[hl7:templateId[@root = '1.2.40.0.34.6.0.11.3.11'] and hl7:templateId[@root = '2.16.840.1.113883.10.20.1.40'] and hl7:templateId[@root = '1.3.6.1.4.1.19376.1.5.3.1.4.2']]]/hl7:act[hl7:templateId[@root = '1.2.40.0.34.6.0.11.3.11'] and hl7:templateId[@root = '2.16.840.1.113883.10.20.1.40'] and hl7:templateId[@root = '1.3.6.1.4.1.19376.1.5.3.1.4.2']]/hl7:author[hl7:assignedAuthor]/hl7:assignedAuthor/*[not(@xsi:nil = 'true')][not(self::hl7:id[not(@nullFlavor)] | self::hl7:id[@nullFlavor='UNK'] | self::hl7:code[not(@nullFlavor)] | self::hl7:addr[not(@nullFlavor)] | self::hl7:telecom[not(@nullFlavor)] | self::hl7:assignedPerson | self::hl7:assignedAuthoringDevice | self::hl7:representedOrganization)]" id="d466005e26-true-d466236e0">
        <assert role="error" see="http://art-decor.org/art-decor/decor-templates--elgaimpf-?id=1.2.40.0.34.6.0.11.3.9" test="not(.)">(eimpf_entry_ImpfrelevanteErkrankungProblemEntry)/d466005e26-true-d466236e0: '<value-of select="name(..)"/>' ist als geschlossen definiert und dieses Element '<name/>' ist nicht erlaubt oder nicht mit diesem Inhalt erlaubt. Dies kann templateId, code oder id betreffen. Erwartet:  hl7:id[not(@nullFlavor)] | hl7:id[@nullFlavor='UNK'] | hl7:code[not(@nullFlavor)] | hl7:addr[not(@nullFlavor)] | hl7:telecom[not(@nullFlavor)] | hl7:assignedPerson | hl7:assignedAuthoringDevice | hl7:representedOrganization (rule-reference: d466005e26-true-d466236e0)</assert>
    </rule>

   <!-- Checking undefined contents for template/element @isClosed="true". Match context that we did not already match -->
    <rule context="*[hl7:observation[hl7:templateId[@root = '1.2.40.0.34.6.0.11.3.9'] and hl7:templateId[@root = '2.16.840.1.113883.10.20.1.28'] and hl7:templateId[@root = '1.3.6.1.4.1.19376.1.5.3.1.4.5']]]/hl7:observation[hl7:templateId[@root = '1.2.40.0.34.6.0.11.3.9'] and hl7:templateId[@root = '2.16.840.1.113883.10.20.1.28'] and hl7:templateId[@root = '1.3.6.1.4.1.19376.1.5.3.1.4.5']]/hl7:entryRelationship[hl7:act[hl7:templateId[@root = '1.2.40.0.34.6.0.11.3.11'] and hl7:templateId[@root = '2.16.840.1.113883.10.20.1.40'] and hl7:templateId[@root = '1.3.6.1.4.1.19376.1.5.3.1.4.2']]]/hl7:act[hl7:templateId[@root = '1.2.40.0.34.6.0.11.3.11'] and hl7:templateId[@root = '2.16.840.1.113883.10.20.1.40'] and hl7:templateId[@root = '1.3.6.1.4.1.19376.1.5.3.1.4.2']]/hl7:author[hl7:assignedAuthor]/hl7:assignedAuthor/hl7:addr[not(@nullFlavor)]/*[not(@xsi:nil = 'true')][not(self::hl7:streetAddressLine | self::hl7:streetName | self::hl7:houseNumber | self::hl7:postalCode[not(@nullFlavor)] | self::hl7:city[not(@nullFlavor)] | self::hl7:state | self::hl7:country[not(@nullFlavor)] | self::hl7:additionalLocator)]" id="d466005e34-true-d466291e0">
        <assert role="error" see="http://art-decor.org/art-decor/decor-templates--elgaimpf-?id=1.2.40.0.34.6.0.11.3.9" test="not(.)">(eimpf_entry_ImpfrelevanteErkrankungProblemEntry)/d466005e34-true-d466291e0: '<value-of select="name(..)"/>' ist als geschlossen definiert und dieses Element '<name/>' ist nicht erlaubt oder nicht mit diesem Inhalt erlaubt. Dies kann templateId, code oder id betreffen. Erwartet:  hl7:streetAddressLine | hl7:streetName | hl7:houseNumber | hl7:postalCode[not(@nullFlavor)] | hl7:city[not(@nullFlavor)] | hl7:state | hl7:country[not(@nullFlavor)] | hl7:additionalLocator (rule-reference: d466005e34-true-d466291e0)</assert>
    </rule>

   <!-- Checking undefined contents for template/element @isClosed="true". Match context that we did not already match -->
    <rule context="*[hl7:observation[hl7:templateId[@root = '1.2.40.0.34.6.0.11.3.9'] and hl7:templateId[@root = '2.16.840.1.113883.10.20.1.28'] and hl7:templateId[@root = '1.3.6.1.4.1.19376.1.5.3.1.4.5']]]/hl7:observation[hl7:templateId[@root = '1.2.40.0.34.6.0.11.3.9'] and hl7:templateId[@root = '2.16.840.1.113883.10.20.1.28'] and hl7:templateId[@root = '1.3.6.1.4.1.19376.1.5.3.1.4.5']]/hl7:entryRelationship[hl7:act[hl7:templateId[@root = '1.2.40.0.34.6.0.11.3.11'] and hl7:templateId[@root = '2.16.840.1.113883.10.20.1.40'] and hl7:templateId[@root = '1.3.6.1.4.1.19376.1.5.3.1.4.2']]]/hl7:act[hl7:templateId[@root = '1.2.40.0.34.6.0.11.3.11'] and hl7:templateId[@root = '2.16.840.1.113883.10.20.1.40'] and hl7:templateId[@root = '1.3.6.1.4.1.19376.1.5.3.1.4.2']]/hl7:author[hl7:assignedAuthor]/hl7:assignedAuthor/hl7:assignedPerson/*[not(@xsi:nil = 'true')][not(self::hl7:name[not(@nullFlavor)] | self::hl7:name[@nullFlavor='UNK'] | self::hl7:name[@nullFlavor='MSK'])]" id="d466005e56-true-d466338e0">
        <assert role="error" see="http://art-decor.org/art-decor/decor-templates--elgaimpf-?id=1.2.40.0.34.6.0.11.3.9" test="not(.)">(eimpf_entry_ImpfrelevanteErkrankungProblemEntry)/d466005e56-true-d466338e0: '<value-of select="name(..)"/>' ist als geschlossen definiert und dieses Element '<name/>' ist nicht erlaubt oder nicht mit diesem Inhalt erlaubt. Dies kann templateId, code oder id betreffen. Erwartet:  hl7:name[not(@nullFlavor)] | hl7:name[@nullFlavor='UNK'] | hl7:name[@nullFlavor='MSK'] (rule-reference: d466005e56-true-d466338e0)</assert>
    </rule>

   <!-- Checking undefined contents for template/element @isClosed="true". Match context that we did not already match -->
    <rule context="*[hl7:observation[hl7:templateId[@root = '1.2.40.0.34.6.0.11.3.9'] and hl7:templateId[@root = '2.16.840.1.113883.10.20.1.28'] and hl7:templateId[@root = '1.3.6.1.4.1.19376.1.5.3.1.4.5']]]/hl7:observation[hl7:templateId[@root = '1.2.40.0.34.6.0.11.3.9'] and hl7:templateId[@root = '2.16.840.1.113883.10.20.1.28'] and hl7:templateId[@root = '1.3.6.1.4.1.19376.1.5.3.1.4.5']]/hl7:entryRelationship[hl7:act[hl7:templateId[@root = '1.2.40.0.34.6.0.11.3.11'] and hl7:templateId[@root = '2.16.840.1.113883.10.20.1.40'] and hl7:templateId[@root = '1.3.6.1.4.1.19376.1.5.3.1.4.2']]]/hl7:act[hl7:templateId[@root = '1.2.40.0.34.6.0.11.3.11'] and hl7:templateId[@root = '2.16.840.1.113883.10.20.1.40'] and hl7:templateId[@root = '1.3.6.1.4.1.19376.1.5.3.1.4.2']]/hl7:author[hl7:assignedAuthor]/hl7:assignedAuthor/hl7:assignedPerson/hl7:name[not(@nullFlavor)]/*[not(@xsi:nil = 'true')][not(self::hl7:prefix | self::hl7:family[not(@nullFlavor)] | self::hl7:given[not(@nullFlavor)] | self::hl7:suffix)]" id="d466342e62-true-d466370e0">
        <assert role="error" see="http://art-decor.org/art-decor/decor-templates--elgaimpf-?id=1.2.40.0.34.6.0.11.9.6" test="not(.)">(atcdabbr_other_PersonNameCompilationG2)/d466342e62-true-d466370e0: '<value-of select="name(..)"/>' ist als geschlossen definiert und dieses Element '<name/>' ist nicht erlaubt oder nicht mit diesem Inhalt erlaubt. Dies kann templateId, code oder id betreffen. Erwartet:  hl7:prefix | hl7:family[not(@nullFlavor)] | hl7:given[not(@nullFlavor)] | hl7:suffix (rule-reference: d466342e62-true-d466370e0)</assert>
    </rule>

   <!-- Checking undefined contents for template/element @isClosed="true". Match context that we did not already match -->
    <rule context="*[hl7:observation[hl7:templateId[@root = '1.2.40.0.34.6.0.11.3.9'] and hl7:templateId[@root = '2.16.840.1.113883.10.20.1.28'] and hl7:templateId[@root = '1.3.6.1.4.1.19376.1.5.3.1.4.5']]]/hl7:observation[hl7:templateId[@root = '1.2.40.0.34.6.0.11.3.9'] and hl7:templateId[@root = '2.16.840.1.113883.10.20.1.28'] and hl7:templateId[@root = '1.3.6.1.4.1.19376.1.5.3.1.4.5']]/hl7:entryRelationship[hl7:act[hl7:templateId[@root = '1.2.40.0.34.6.0.11.3.11'] and hl7:templateId[@root = '2.16.840.1.113883.10.20.1.40'] and hl7:templateId[@root = '1.3.6.1.4.1.19376.1.5.3.1.4.2']]]/hl7:act[hl7:templateId[@root = '1.2.40.0.34.6.0.11.3.11'] and hl7:templateId[@root = '2.16.840.1.113883.10.20.1.40'] and hl7:templateId[@root = '1.3.6.1.4.1.19376.1.5.3.1.4.2']]/hl7:author[hl7:assignedAuthor]/hl7:assignedAuthor/hl7:assignedAuthoringDevice/*[not(@xsi:nil = 'true')][not(self::hl7:manufacturerModelName[not(@nullFlavor)] | self::hl7:softwareName[not(@nullFlavor)])]" id="d466005e67-true-d466411e0">
        <assert role="error" see="http://art-decor.org/art-decor/decor-templates--elgaimpf-?id=1.2.40.0.34.6.0.11.3.9" test="not(.)">(eimpf_entry_ImpfrelevanteErkrankungProblemEntry)/d466005e67-true-d466411e0: '<value-of select="name(..)"/>' ist als geschlossen definiert und dieses Element '<name/>' ist nicht erlaubt oder nicht mit diesem Inhalt erlaubt. Dies kann templateId, code oder id betreffen. Erwartet:  hl7:manufacturerModelName[not(@nullFlavor)] | hl7:softwareName[not(@nullFlavor)] (rule-reference: d466005e67-true-d466411e0)</assert>
    </rule>

   <!-- Checking undefined contents for template/element @isClosed="true". Match context that we did not already match -->
    <rule context="*[hl7:observation[hl7:templateId[@root = '1.2.40.0.34.6.0.11.3.9'] and hl7:templateId[@root = '2.16.840.1.113883.10.20.1.28'] and hl7:templateId[@root = '1.3.6.1.4.1.19376.1.5.3.1.4.5']]]/hl7:observation[hl7:templateId[@root = '1.2.40.0.34.6.0.11.3.9'] and hl7:templateId[@root = '2.16.840.1.113883.10.20.1.28'] and hl7:templateId[@root = '1.3.6.1.4.1.19376.1.5.3.1.4.5']]/hl7:entryRelationship[hl7:act[hl7:templateId[@root = '1.2.40.0.34.6.0.11.3.11'] and hl7:templateId[@root = '2.16.840.1.113883.10.20.1.40'] and hl7:templateId[@root = '1.3.6.1.4.1.19376.1.5.3.1.4.2']]]/hl7:act[hl7:templateId[@root = '1.2.40.0.34.6.0.11.3.11'] and hl7:templateId[@root = '2.16.840.1.113883.10.20.1.40'] and hl7:templateId[@root = '1.3.6.1.4.1.19376.1.5.3.1.4.2']]/hl7:author[hl7:assignedAuthor]/hl7:assignedAuthor/hl7:representedOrganization/*[not(@xsi:nil = 'true')][not(self::hl7:id[not(@nullFlavor)] | self::hl7:name[not(@nullFlavor)] | self::hl7:telecom[not(@nullFlavor)] | self::hl7:addr[not(@nullFlavor)])]" id="d466005e74-true-d466453e0">
        <assert role="error" see="http://art-decor.org/art-decor/decor-templates--elgaimpf-?id=1.2.40.0.34.6.0.11.3.9" test="not(.)">(eimpf_entry_ImpfrelevanteErkrankungProblemEntry)/d466005e74-true-d466453e0: '<value-of select="name(..)"/>' ist als geschlossen definiert und dieses Element '<name/>' ist nicht erlaubt oder nicht mit diesem Inhalt erlaubt. Dies kann templateId, code oder id betreffen. Erwartet:  hl7:id[not(@nullFlavor)] | hl7:name[not(@nullFlavor)] | hl7:telecom[not(@nullFlavor)] | hl7:addr[not(@nullFlavor)] (rule-reference: d466005e74-true-d466453e0)</assert>
    </rule>

   <!-- Checking undefined contents for template/element @isClosed="true". Match context that we did not already match -->
    <rule context="*[hl7:observation[hl7:templateId[@root = '1.2.40.0.34.6.0.11.3.9'] and hl7:templateId[@root = '2.16.840.1.113883.10.20.1.28'] and hl7:templateId[@root = '1.3.6.1.4.1.19376.1.5.3.1.4.5']]]/hl7:observation[hl7:templateId[@root = '1.2.40.0.34.6.0.11.3.9'] and hl7:templateId[@root = '2.16.840.1.113883.10.20.1.28'] and hl7:templateId[@root = '1.3.6.1.4.1.19376.1.5.3.1.4.5']]/hl7:entryRelationship[hl7:act[hl7:templateId[@root = '1.2.40.0.34.6.0.11.3.11'] and hl7:templateId[@root = '2.16.840.1.113883.10.20.1.40'] and hl7:templateId[@root = '1.3.6.1.4.1.19376.1.5.3.1.4.2']]]/hl7:act[hl7:templateId[@root = '1.2.40.0.34.6.0.11.3.11'] and hl7:templateId[@root = '2.16.840.1.113883.10.20.1.40'] and hl7:templateId[@root = '1.3.6.1.4.1.19376.1.5.3.1.4.2']]/hl7:author[hl7:assignedAuthor]/hl7:assignedAuthor/hl7:representedOrganization/hl7:addr[not(@nullFlavor)]/*[not(@xsi:nil = 'true')][not(self::hl7:streetAddressLine | self::hl7:streetName | self::hl7:houseNumber | self::hl7:postalCode[not(@nullFlavor)] | self::hl7:city[not(@nullFlavor)] | self::hl7:state | self::hl7:country[not(@nullFlavor)] | self::hl7:additionalLocator)]" id="d466424e43-true-d466512e0">
        <assert role="error" see="http://art-decor.org/art-decor/decor-templates--elgaimpf-?id=1.2.40.0.34.6.0.11.3.9" test="not(.)">(eimpf_entry_ImpfrelevanteErkrankungProblemEntry)/d466424e43-true-d466512e0: '<value-of select="name(..)"/>' ist als geschlossen definiert und dieses Element '<name/>' ist nicht erlaubt oder nicht mit diesem Inhalt erlaubt. Dies kann templateId, code oder id betreffen. Erwartet:  hl7:streetAddressLine | hl7:streetName | hl7:houseNumber | hl7:postalCode[not(@nullFlavor)] | hl7:city[not(@nullFlavor)] | hl7:state | hl7:country[not(@nullFlavor)] | hl7:additionalLocator (rule-reference: d466424e43-true-d466512e0)</assert>
    </rule>

   <!-- Checking undefined contents for template/element @isClosed="true". Match context that we did not already match -->
    <rule context="*[hl7:observation[hl7:templateId[@root = '1.2.40.0.34.6.0.11.3.9'] and hl7:templateId[@root = '2.16.840.1.113883.10.20.1.28'] and hl7:templateId[@root = '1.3.6.1.4.1.19376.1.5.3.1.4.5']]]/hl7:observation[hl7:templateId[@root = '1.2.40.0.34.6.0.11.3.9'] and hl7:templateId[@root = '2.16.840.1.113883.10.20.1.28'] and hl7:templateId[@root = '1.3.6.1.4.1.19376.1.5.3.1.4.5']]/hl7:entryRelationship[hl7:act[hl7:templateId[@root = '1.2.40.0.34.6.0.11.3.11'] and hl7:templateId[@root = '2.16.840.1.113883.10.20.1.40'] and hl7:templateId[@root = '1.3.6.1.4.1.19376.1.5.3.1.4.2']]]/hl7:act[hl7:templateId[@root = '1.2.40.0.34.6.0.11.3.11'] and hl7:templateId[@root = '2.16.840.1.113883.10.20.1.40'] and hl7:templateId[@root = '1.3.6.1.4.1.19376.1.5.3.1.4.2']]/hl7:informant/*[not(@xsi:nil = 'true')][not(self::hl7:assignedEntity | self::hl7:relatedEntity)]" id="d464365e49-true-d466675e0">
        <assert role="error" see="http://art-decor.org/art-decor/decor-templates--elgaimpf-?id=1.2.40.0.34.6.0.11.3.9" test="not(.)">(eimpf_entry_ImpfrelevanteErkrankungProblemEntry)/d464365e49-true-d466675e0: '<value-of select="name(..)"/>' ist als geschlossen definiert und dieses Element '<name/>' ist nicht erlaubt oder nicht mit diesem Inhalt erlaubt. Dies kann templateId, code oder id betreffen. Erwartet:  hl7:assignedEntity | hl7:relatedEntity (rule-reference: d464365e49-true-d466675e0)</assert>
    </rule>

   <!-- Checking undefined contents for template/element @isClosed="true". Match context that we did not already match -->
    <rule context="*[hl7:observation[hl7:templateId[@root = '1.2.40.0.34.6.0.11.3.9'] and hl7:templateId[@root = '2.16.840.1.113883.10.20.1.28'] and hl7:templateId[@root = '1.3.6.1.4.1.19376.1.5.3.1.4.5']]]/hl7:observation[hl7:templateId[@root = '1.2.40.0.34.6.0.11.3.9'] and hl7:templateId[@root = '2.16.840.1.113883.10.20.1.28'] and hl7:templateId[@root = '1.3.6.1.4.1.19376.1.5.3.1.4.5']]/hl7:entryRelationship[hl7:act[hl7:templateId[@root = '1.2.40.0.34.6.0.11.3.11'] and hl7:templateId[@root = '2.16.840.1.113883.10.20.1.40'] and hl7:templateId[@root = '1.3.6.1.4.1.19376.1.5.3.1.4.2']]]/hl7:act[hl7:templateId[@root = '1.2.40.0.34.6.0.11.3.11'] and hl7:templateId[@root = '2.16.840.1.113883.10.20.1.40'] and hl7:templateId[@root = '1.3.6.1.4.1.19376.1.5.3.1.4.2']]/hl7:informant/hl7:assignedEntity/*[not(@xsi:nil = 'true')][not(self::hl7:id[not(@nullFlavor)] | self::hl7:id[@nullFlavor='NI'] | self::hl7:id[@nullFlavor='UNK'] | self::hl7:code | self::hl7:addr | self::hl7:telecom | self::hl7:assignedPerson | self::hl7:assignedPerson | self::hl7:representedOrganization)]" id="d466549e6-true-d466809e0">
        <assert role="error" see="http://art-decor.org/art-decor/decor-templates--elgaimpf-?id=1.2.40.0.34.6.0.11.3.9" test="not(.)">(eimpf_entry_ImpfrelevanteErkrankungProblemEntry)/d466549e6-true-d466809e0: '<value-of select="name(..)"/>' ist als geschlossen definiert und dieses Element '<name/>' ist nicht erlaubt oder nicht mit diesem Inhalt erlaubt. Dies kann templateId, code oder id betreffen. Erwartet:  hl7:id[not(@nullFlavor)] | hl7:id[@nullFlavor='NI'] | hl7:id[@nullFlavor='UNK'] | hl7:code | hl7:addr | hl7:telecom | hl7:assignedPerson | hl7:assignedPerson | hl7:representedOrganization (rule-reference: d466549e6-true-d466809e0)</assert>
    </rule>

   <!-- Checking undefined contents for template/element @isClosed="true". Match context that we did not already match -->
    <rule context="*[hl7:observation[hl7:templateId[@root = '1.2.40.0.34.6.0.11.3.9'] and hl7:templateId[@root = '2.16.840.1.113883.10.20.1.28'] and hl7:templateId[@root = '1.3.6.1.4.1.19376.1.5.3.1.4.5']]]/hl7:observation[hl7:templateId[@root = '1.2.40.0.34.6.0.11.3.9'] and hl7:templateId[@root = '2.16.840.1.113883.10.20.1.28'] and hl7:templateId[@root = '1.3.6.1.4.1.19376.1.5.3.1.4.5']]/hl7:entryRelationship[hl7:act[hl7:templateId[@root = '1.2.40.0.34.6.0.11.3.11'] and hl7:templateId[@root = '2.16.840.1.113883.10.20.1.40'] and hl7:templateId[@root = '1.3.6.1.4.1.19376.1.5.3.1.4.2']]]/hl7:act[hl7:templateId[@root = '1.2.40.0.34.6.0.11.3.11'] and hl7:templateId[@root = '2.16.840.1.113883.10.20.1.40'] and hl7:templateId[@root = '1.3.6.1.4.1.19376.1.5.3.1.4.2']]/hl7:informant/hl7:assignedEntity/hl7:addr/*[not(@xsi:nil = 'true')][not(self::hl7:streetAddressLine | self::hl7:streetName | self::hl7:houseNumber | self::hl7:postalCode | self::hl7:city | self::hl7:state | self::hl7:country | self::hl7:additionalLocator)]" id="d466680e26-true-d466870e0">
        <assert role="error" see="http://art-decor.org/art-decor/decor-templates--elgaimpf-?id=1.2.40.0.34.6.0.11.3.9" test="not(.)">(eimpf_entry_ImpfrelevanteErkrankungProblemEntry)/d466680e26-true-d466870e0: '<value-of select="name(..)"/>' ist als geschlossen definiert und dieses Element '<name/>' ist nicht erlaubt oder nicht mit diesem Inhalt erlaubt. Dies kann templateId, code oder id betreffen. Erwartet:  hl7:streetAddressLine | hl7:streetName | hl7:houseNumber | hl7:postalCode | hl7:city | hl7:state | hl7:country | hl7:additionalLocator (rule-reference: d466680e26-true-d466870e0)</assert>
    </rule>

   <!-- Checking undefined contents for template/element @isClosed="true". Match context that we did not already match -->
    <rule context="*[hl7:observation[hl7:templateId[@root = '1.2.40.0.34.6.0.11.3.9'] and hl7:templateId[@root = '2.16.840.1.113883.10.20.1.28'] and hl7:templateId[@root = '1.3.6.1.4.1.19376.1.5.3.1.4.5']]]/hl7:observation[hl7:templateId[@root = '1.2.40.0.34.6.0.11.3.9'] and hl7:templateId[@root = '2.16.840.1.113883.10.20.1.28'] and hl7:templateId[@root = '1.3.6.1.4.1.19376.1.5.3.1.4.5']]/hl7:entryRelationship[hl7:act[hl7:templateId[@root = '1.2.40.0.34.6.0.11.3.11'] and hl7:templateId[@root = '2.16.840.1.113883.10.20.1.40'] and hl7:templateId[@root = '1.3.6.1.4.1.19376.1.5.3.1.4.2']]]/hl7:act[hl7:templateId[@root = '1.2.40.0.34.6.0.11.3.11'] and hl7:templateId[@root = '2.16.840.1.113883.10.20.1.40'] and hl7:templateId[@root = '1.3.6.1.4.1.19376.1.5.3.1.4.2']]/hl7:informant/hl7:assignedEntity/hl7:assignedPerson/*[not(@xsi:nil = 'true')][not(self::hl7:name[not(@nullFlavor)])]" id="d466680e66-true-d466922e0">
        <assert role="error" see="http://art-decor.org/art-decor/decor-templates--elgaimpf-?id=1.2.40.0.34.6.0.11.3.9" test="not(.)">(eimpf_entry_ImpfrelevanteErkrankungProblemEntry)/d466680e66-true-d466922e0: '<value-of select="name(..)"/>' ist als geschlossen definiert und dieses Element '<name/>' ist nicht erlaubt oder nicht mit diesem Inhalt erlaubt. Dies kann templateId, code oder id betreffen. Erwartet:  hl7:name[not(@nullFlavor)] (rule-reference: d466680e66-true-d466922e0)</assert>
    </rule>

   <!-- Checking undefined contents for template/element @isClosed="true". Match context that we did not already match -->
    <rule context="*[hl7:observation[hl7:templateId[@root = '1.2.40.0.34.6.0.11.3.9'] and hl7:templateId[@root = '2.16.840.1.113883.10.20.1.28'] and hl7:templateId[@root = '1.3.6.1.4.1.19376.1.5.3.1.4.5']]]/hl7:observation[hl7:templateId[@root = '1.2.40.0.34.6.0.11.3.9'] and hl7:templateId[@root = '2.16.840.1.113883.10.20.1.28'] and hl7:templateId[@root = '1.3.6.1.4.1.19376.1.5.3.1.4.5']]/hl7:entryRelationship[hl7:act[hl7:templateId[@root = '1.2.40.0.34.6.0.11.3.11'] and hl7:templateId[@root = '2.16.840.1.113883.10.20.1.40'] and hl7:templateId[@root = '1.3.6.1.4.1.19376.1.5.3.1.4.2']]]/hl7:act[hl7:templateId[@root = '1.2.40.0.34.6.0.11.3.11'] and hl7:templateId[@root = '2.16.840.1.113883.10.20.1.40'] and hl7:templateId[@root = '1.3.6.1.4.1.19376.1.5.3.1.4.2']]/hl7:informant/hl7:assignedEntity/hl7:assignedPerson/*[not(@xsi:nil = 'true')][not(self::hl7:name[not(@nullFlavor)])]" id="d466680e73-true-d466942e0">
        <assert role="error" see="http://art-decor.org/art-decor/decor-templates--elgaimpf-?id=1.2.40.0.34.6.0.11.3.9" test="not(.)">(eimpf_entry_ImpfrelevanteErkrankungProblemEntry)/d466680e73-true-d466942e0: '<value-of select="name(..)"/>' ist als geschlossen definiert und dieses Element '<name/>' ist nicht erlaubt oder nicht mit diesem Inhalt erlaubt. Dies kann templateId, code oder id betreffen. Erwartet:  hl7:name[not(@nullFlavor)] (rule-reference: d466680e73-true-d466942e0)</assert>
    </rule>

   <!-- Checking undefined contents for template/element @isClosed="true". Match context that we did not already match -->
    <rule context="*[hl7:observation[hl7:templateId[@root = '1.2.40.0.34.6.0.11.3.9'] and hl7:templateId[@root = '2.16.840.1.113883.10.20.1.28'] and hl7:templateId[@root = '1.3.6.1.4.1.19376.1.5.3.1.4.5']]]/hl7:observation[hl7:templateId[@root = '1.2.40.0.34.6.0.11.3.9'] and hl7:templateId[@root = '2.16.840.1.113883.10.20.1.28'] and hl7:templateId[@root = '1.3.6.1.4.1.19376.1.5.3.1.4.5']]/hl7:entryRelationship[hl7:act[hl7:templateId[@root = '1.2.40.0.34.6.0.11.3.11'] and hl7:templateId[@root = '2.16.840.1.113883.10.20.1.40'] and hl7:templateId[@root = '1.3.6.1.4.1.19376.1.5.3.1.4.2']]]/hl7:act[hl7:templateId[@root = '1.2.40.0.34.6.0.11.3.11'] and hl7:templateId[@root = '2.16.840.1.113883.10.20.1.40'] and hl7:templateId[@root = '1.3.6.1.4.1.19376.1.5.3.1.4.2']]/hl7:informant/hl7:assignedEntity/hl7:assignedPerson/hl7:name[not(@nullFlavor)]/*[not(@xsi:nil = 'true')][not(self::hl7:prefix | self::hl7:family[not(@nullFlavor)] | self::hl7:given[not(@nullFlavor)] | self::hl7:suffix)]" id="d466931e10-true-d466970e0">
        <assert role="error" see="http://art-decor.org/art-decor/decor-templates--elgaimpf-?id=1.2.40.0.34.6.0.11.3.9" test="not(.)">(eimpf_entry_ImpfrelevanteErkrankungProblemEntry)/d466931e10-true-d466970e0: '<value-of select="name(..)"/>' ist als geschlossen definiert und dieses Element '<name/>' ist nicht erlaubt oder nicht mit diesem Inhalt erlaubt. Dies kann templateId, code oder id betreffen. Erwartet:  hl7:prefix | hl7:family[not(@nullFlavor)] | hl7:given[not(@nullFlavor)] | hl7:suffix (rule-reference: d466931e10-true-d466970e0)</assert>
    </rule>

   <!-- Checking undefined contents for template/element @isClosed="true". Match context that we did not already match -->
    <rule context="*[hl7:observation[hl7:templateId[@root = '1.2.40.0.34.6.0.11.3.9'] and hl7:templateId[@root = '2.16.840.1.113883.10.20.1.28'] and hl7:templateId[@root = '1.3.6.1.4.1.19376.1.5.3.1.4.5']]]/hl7:observation[hl7:templateId[@root = '1.2.40.0.34.6.0.11.3.9'] and hl7:templateId[@root = '2.16.840.1.113883.10.20.1.28'] and hl7:templateId[@root = '1.3.6.1.4.1.19376.1.5.3.1.4.5']]/hl7:entryRelationship[hl7:act[hl7:templateId[@root = '1.2.40.0.34.6.0.11.3.11'] and hl7:templateId[@root = '2.16.840.1.113883.10.20.1.40'] and hl7:templateId[@root = '1.3.6.1.4.1.19376.1.5.3.1.4.2']]]/hl7:act[hl7:templateId[@root = '1.2.40.0.34.6.0.11.3.11'] and hl7:templateId[@root = '2.16.840.1.113883.10.20.1.40'] and hl7:templateId[@root = '1.3.6.1.4.1.19376.1.5.3.1.4.2']]/hl7:informant/hl7:assignedEntity/hl7:representedOrganization/*[not(@xsi:nil = 'true')][not(self::hl7:id[not(@nullFlavor)] | self::hl7:name[not(@nullFlavor)] | self::hl7:telecom[not(@nullFlavor)] | self::hl7:addr[not(@nullFlavor)])]" id="d466680e81-true-d467016e0">
        <assert role="error" see="http://art-decor.org/art-decor/decor-templates--elgaimpf-?id=1.2.40.0.34.6.0.11.3.9" test="not(.)">(eimpf_entry_ImpfrelevanteErkrankungProblemEntry)/d466680e81-true-d467016e0: '<value-of select="name(..)"/>' ist als geschlossen definiert und dieses Element '<name/>' ist nicht erlaubt oder nicht mit diesem Inhalt erlaubt. Dies kann templateId, code oder id betreffen. Erwartet:  hl7:id[not(@nullFlavor)] | hl7:name[not(@nullFlavor)] | hl7:telecom[not(@nullFlavor)] | hl7:addr[not(@nullFlavor)] (rule-reference: d466680e81-true-d467016e0)</assert>
    </rule>

   <!-- Checking undefined contents for template/element @isClosed="true". Match context that we did not already match -->
    <rule context="*[hl7:observation[hl7:templateId[@root = '1.2.40.0.34.6.0.11.3.9'] and hl7:templateId[@root = '2.16.840.1.113883.10.20.1.28'] and hl7:templateId[@root = '1.3.6.1.4.1.19376.1.5.3.1.4.5']]]/hl7:observation[hl7:templateId[@root = '1.2.40.0.34.6.0.11.3.9'] and hl7:templateId[@root = '2.16.840.1.113883.10.20.1.28'] and hl7:templateId[@root = '1.3.6.1.4.1.19376.1.5.3.1.4.5']]/hl7:entryRelationship[hl7:act[hl7:templateId[@root = '1.2.40.0.34.6.0.11.3.11'] and hl7:templateId[@root = '2.16.840.1.113883.10.20.1.40'] and hl7:templateId[@root = '1.3.6.1.4.1.19376.1.5.3.1.4.2']]]/hl7:act[hl7:templateId[@root = '1.2.40.0.34.6.0.11.3.11'] and hl7:templateId[@root = '2.16.840.1.113883.10.20.1.40'] and hl7:templateId[@root = '1.3.6.1.4.1.19376.1.5.3.1.4.2']]/hl7:informant/hl7:assignedEntity/hl7:representedOrganization/hl7:addr[not(@nullFlavor)]/*[not(@xsi:nil = 'true')][not(self::hl7:streetAddressLine | self::hl7:streetName | self::hl7:houseNumber | self::hl7:postalCode | self::hl7:city | self::hl7:state | self::hl7:country | self::hl7:additionalLocator)]" id="d466991e36-true-d467073e0">
        <assert role="error" see="http://art-decor.org/art-decor/decor-templates--elgaimpf-?id=1.2.40.0.34.6.0.11.3.9" test="not(.)">(eimpf_entry_ImpfrelevanteErkrankungProblemEntry)/d466991e36-true-d467073e0: '<value-of select="name(..)"/>' ist als geschlossen definiert und dieses Element '<name/>' ist nicht erlaubt oder nicht mit diesem Inhalt erlaubt. Dies kann templateId, code oder id betreffen. Erwartet:  hl7:streetAddressLine | hl7:streetName | hl7:houseNumber | hl7:postalCode | hl7:city | hl7:state | hl7:country | hl7:additionalLocator (rule-reference: d466991e36-true-d467073e0)</assert>
    </rule>

   <!-- Checking undefined contents for template/element @isClosed="true". Match context that we did not already match -->
    <rule context="*[hl7:observation[hl7:templateId[@root = '1.2.40.0.34.6.0.11.3.9'] and hl7:templateId[@root = '2.16.840.1.113883.10.20.1.28'] and hl7:templateId[@root = '1.3.6.1.4.1.19376.1.5.3.1.4.5']]]/hl7:observation[hl7:templateId[@root = '1.2.40.0.34.6.0.11.3.9'] and hl7:templateId[@root = '2.16.840.1.113883.10.20.1.28'] and hl7:templateId[@root = '1.3.6.1.4.1.19376.1.5.3.1.4.5']]/hl7:entryRelationship[hl7:act[hl7:templateId[@root = '1.2.40.0.34.6.0.11.3.11'] and hl7:templateId[@root = '2.16.840.1.113883.10.20.1.40'] and hl7:templateId[@root = '1.3.6.1.4.1.19376.1.5.3.1.4.2']]]/hl7:act[hl7:templateId[@root = '1.2.40.0.34.6.0.11.3.11'] and hl7:templateId[@root = '2.16.840.1.113883.10.20.1.40'] and hl7:templateId[@root = '1.3.6.1.4.1.19376.1.5.3.1.4.2']]/hl7:informant/hl7:relatedEntity/*[not(@xsi:nil = 'true')][not(self::hl7:code[not(@nullFlavor)] | self::hl7:addr[not(@nullFlavor)] | self::hl7:telecom[not(@nullFlavor)] | self::hl7:relatedPerson)]" id="d466549e7-true-d467141e0">
        <assert role="error" see="http://art-decor.org/art-decor/decor-templates--elgaimpf-?id=1.2.40.0.34.6.0.11.3.9" test="not(.)">(eimpf_entry_ImpfrelevanteErkrankungProblemEntry)/d466549e7-true-d467141e0: '<value-of select="name(..)"/>' ist als geschlossen definiert und dieses Element '<name/>' ist nicht erlaubt oder nicht mit diesem Inhalt erlaubt. Dies kann templateId, code oder id betreffen. Erwartet:  hl7:code[not(@nullFlavor)] | hl7:addr[not(@nullFlavor)] | hl7:telecom[not(@nullFlavor)] | hl7:relatedPerson (rule-reference: d466549e7-true-d467141e0)</assert>
    </rule>

   <!-- Checking undefined contents for template/element @isClosed="true". Match context that we did not already match -->
    <rule context="*[hl7:observation[hl7:templateId[@root = '1.2.40.0.34.6.0.11.3.9'] and hl7:templateId[@root = '2.16.840.1.113883.10.20.1.28'] and hl7:templateId[@root = '1.3.6.1.4.1.19376.1.5.3.1.4.5']]]/hl7:observation[hl7:templateId[@root = '1.2.40.0.34.6.0.11.3.9'] and hl7:templateId[@root = '2.16.840.1.113883.10.20.1.28'] and hl7:templateId[@root = '1.3.6.1.4.1.19376.1.5.3.1.4.5']]/hl7:entryRelationship[hl7:act[hl7:templateId[@root = '1.2.40.0.34.6.0.11.3.11'] and hl7:templateId[@root = '2.16.840.1.113883.10.20.1.40'] and hl7:templateId[@root = '1.3.6.1.4.1.19376.1.5.3.1.4.2']]]/hl7:act[hl7:templateId[@root = '1.2.40.0.34.6.0.11.3.11'] and hl7:templateId[@root = '2.16.840.1.113883.10.20.1.40'] and hl7:templateId[@root = '1.3.6.1.4.1.19376.1.5.3.1.4.2']]/hl7:informant/hl7:relatedEntity/hl7:addr[not(@nullFlavor)]/*[not(@xsi:nil = 'true')][not(self::hl7:streetAddressLine | self::hl7:streetName | self::hl7:houseNumber | self::hl7:postalCode | self::hl7:city | self::hl7:state | self::hl7:country | self::hl7:additionalLocator)]" id="d466549e10-true-d467192e0">
        <assert role="error" see="http://art-decor.org/art-decor/decor-templates--elgaimpf-?id=1.2.40.0.34.6.0.11.3.9" test="not(.)">(eimpf_entry_ImpfrelevanteErkrankungProblemEntry)/d466549e10-true-d467192e0: '<value-of select="name(..)"/>' ist als geschlossen definiert und dieses Element '<name/>' ist nicht erlaubt oder nicht mit diesem Inhalt erlaubt. Dies kann templateId, code oder id betreffen. Erwartet:  hl7:streetAddressLine | hl7:streetName | hl7:houseNumber | hl7:postalCode | hl7:city | hl7:state | hl7:country | hl7:additionalLocator (rule-reference: d466549e10-true-d467192e0)</assert>
    </rule>

   <!-- Checking undefined contents for template/element @isClosed="true". Match context that we did not already match -->
    <rule context="*[hl7:observation[hl7:templateId[@root = '1.2.40.0.34.6.0.11.3.9'] and hl7:templateId[@root = '2.16.840.1.113883.10.20.1.28'] and hl7:templateId[@root = '1.3.6.1.4.1.19376.1.5.3.1.4.5']]]/hl7:observation[hl7:templateId[@root = '1.2.40.0.34.6.0.11.3.9'] and hl7:templateId[@root = '2.16.840.1.113883.10.20.1.28'] and hl7:templateId[@root = '1.3.6.1.4.1.19376.1.5.3.1.4.5']]/hl7:entryRelationship[hl7:act[hl7:templateId[@root = '1.2.40.0.34.6.0.11.3.11'] and hl7:templateId[@root = '2.16.840.1.113883.10.20.1.40'] and hl7:templateId[@root = '1.3.6.1.4.1.19376.1.5.3.1.4.2']]]/hl7:act[hl7:templateId[@root = '1.2.40.0.34.6.0.11.3.11'] and hl7:templateId[@root = '2.16.840.1.113883.10.20.1.40'] and hl7:templateId[@root = '1.3.6.1.4.1.19376.1.5.3.1.4.2']]/hl7:informant/hl7:relatedEntity/hl7:relatedPerson/*[not(@xsi:nil = 'true')][not(self::hl7:name[not(@nullFlavor)] | self::hl7:name[@nullFlavor='UNK'] | self::hl7:name[@nullFlavor='MSK'])]" id="d466549e12-true-d467237e0">
        <assert role="error" see="http://art-decor.org/art-decor/decor-templates--elgaimpf-?id=1.2.40.0.34.6.0.11.3.9" test="not(.)">(eimpf_entry_ImpfrelevanteErkrankungProblemEntry)/d466549e12-true-d467237e0: '<value-of select="name(..)"/>' ist als geschlossen definiert und dieses Element '<name/>' ist nicht erlaubt oder nicht mit diesem Inhalt erlaubt. Dies kann templateId, code oder id betreffen. Erwartet:  hl7:name[not(@nullFlavor)] | hl7:name[@nullFlavor='UNK'] | hl7:name[@nullFlavor='MSK'] (rule-reference: d466549e12-true-d467237e0)</assert>
    </rule>

   <!-- Checking undefined contents for template/element @isClosed="true". Match context that we did not already match -->
    <rule context="*[hl7:observation[hl7:templateId[@root = '1.2.40.0.34.6.0.11.3.9'] and hl7:templateId[@root = '2.16.840.1.113883.10.20.1.28'] and hl7:templateId[@root = '1.3.6.1.4.1.19376.1.5.3.1.4.5']]]/hl7:observation[hl7:templateId[@root = '1.2.40.0.34.6.0.11.3.9'] and hl7:templateId[@root = '2.16.840.1.113883.10.20.1.28'] and hl7:templateId[@root = '1.3.6.1.4.1.19376.1.5.3.1.4.5']]/hl7:entryRelationship[hl7:act[hl7:templateId[@root = '1.2.40.0.34.6.0.11.3.11'] and hl7:templateId[@root = '2.16.840.1.113883.10.20.1.40'] and hl7:templateId[@root = '1.3.6.1.4.1.19376.1.5.3.1.4.2']]]/hl7:act[hl7:templateId[@root = '1.2.40.0.34.6.0.11.3.11'] and hl7:templateId[@root = '2.16.840.1.113883.10.20.1.40'] and hl7:templateId[@root = '1.3.6.1.4.1.19376.1.5.3.1.4.2']]/hl7:informant/hl7:relatedEntity/hl7:relatedPerson/hl7:name[not(@nullFlavor)]/*[not(@xsi:nil = 'true')][not(self::hl7:prefix | self::hl7:family[not(@nullFlavor)] | self::hl7:given[not(@nullFlavor)] | self::hl7:suffix)]" id="d467231e7-true-d467263e0">
        <assert role="error" see="http://art-decor.org/art-decor/decor-templates--elgaimpf-?id=1.2.40.0.34.6.0.11.3.9" test="not(.)">(eimpf_entry_ImpfrelevanteErkrankungProblemEntry)/d467231e7-true-d467263e0: '<value-of select="name(..)"/>' ist als geschlossen definiert und dieses Element '<name/>' ist nicht erlaubt oder nicht mit diesem Inhalt erlaubt. Dies kann templateId, code oder id betreffen. Erwartet:  hl7:prefix | hl7:family[not(@nullFlavor)] | hl7:given[not(@nullFlavor)] | hl7:suffix (rule-reference: d467231e7-true-d467263e0)</assert>
    </rule>

   <!-- Checking undefined contents for template/element @isClosed="true". Match context that we did not already match -->
    <rule context="*[hl7:observation[hl7:templateId[@root = '1.2.40.0.34.6.0.11.3.9'] and hl7:templateId[@root = '2.16.840.1.113883.10.20.1.28'] and hl7:templateId[@root = '1.3.6.1.4.1.19376.1.5.3.1.4.5']]]/hl7:observation[hl7:templateId[@root = '1.2.40.0.34.6.0.11.3.9'] and hl7:templateId[@root = '2.16.840.1.113883.10.20.1.28'] and hl7:templateId[@root = '1.3.6.1.4.1.19376.1.5.3.1.4.5']]/hl7:entryRelationship[hl7:act[hl7:templateId[@root = '1.2.40.0.34.6.0.11.3.11'] and hl7:templateId[@root = '2.16.840.1.113883.10.20.1.40'] and hl7:templateId[@root = '1.3.6.1.4.1.19376.1.5.3.1.4.2']]]/hl7:act[hl7:templateId[@root = '1.2.40.0.34.6.0.11.3.11'] and hl7:templateId[@root = '2.16.840.1.113883.10.20.1.40'] and hl7:templateId[@root = '1.3.6.1.4.1.19376.1.5.3.1.4.2']]/hl7:participant[@typeCode][hl7:participantRole]/*[not(@xsi:nil = 'true')][not(self::hl7:time | self::hl7:awarenessCode[concat(@code, @codeSystem) = doc('include/voc-2.16.840.1.113883.1.11.10310-DYNAMIC.xml')//valueSet[1]/conceptList/concept/concat(@code, @codeSystem) or @nullFlavor] | self::hl7:participantRole)]" id="d464365e52-true-d467384e0">
        <assert role="error" see="http://art-decor.org/art-decor/decor-templates--elgaimpf-?id=1.2.40.0.34.6.0.11.3.9" test="not(.)">(eimpf_entry_ImpfrelevanteErkrankungProblemEntry)/d464365e52-true-d467384e0: '<value-of select="name(..)"/>' ist als geschlossen definiert und dieses Element '<name/>' ist nicht erlaubt oder nicht mit diesem Inhalt erlaubt. Dies kann templateId, code oder id betreffen. Erwartet:  hl7:time | hl7:awarenessCode[concat(@code, @codeSystem) = doc('include/voc-2.16.840.1.113883.1.11.10310-DYNAMIC.xml')//valueSet[1]/conceptList/concept/concat(@code, @codeSystem) or @nullFlavor] | hl7:participantRole (rule-reference: d464365e52-true-d467384e0)</assert>
    </rule>

   <!-- Checking undefined contents for template/element @isClosed="true". Match context that we did not already match -->
    <rule context="*[hl7:observation[hl7:templateId[@root = '1.2.40.0.34.6.0.11.3.9'] and hl7:templateId[@root = '2.16.840.1.113883.10.20.1.28'] and hl7:templateId[@root = '1.3.6.1.4.1.19376.1.5.3.1.4.5']]]/hl7:observation[hl7:templateId[@root = '1.2.40.0.34.6.0.11.3.9'] and hl7:templateId[@root = '2.16.840.1.113883.10.20.1.28'] and hl7:templateId[@root = '1.3.6.1.4.1.19376.1.5.3.1.4.5']]/hl7:entryRelationship[hl7:act[hl7:templateId[@root = '1.2.40.0.34.6.0.11.3.11'] and hl7:templateId[@root = '2.16.840.1.113883.10.20.1.40'] and hl7:templateId[@root = '1.3.6.1.4.1.19376.1.5.3.1.4.2']]]/hl7:act[hl7:templateId[@root = '1.2.40.0.34.6.0.11.3.11'] and hl7:templateId[@root = '2.16.840.1.113883.10.20.1.40'] and hl7:templateId[@root = '1.3.6.1.4.1.19376.1.5.3.1.4.2']]/hl7:participant[@typeCode][hl7:participantRole]/hl7:participantRole/*[not(@xsi:nil = 'true')][not(self::hl7:id | self::hl7:code | self::hl7:addr | self::hl7:telecom | self::hl7:playingDevice | self::hl7:playingEntity | self::hl7:scopingEntity)]" id="d467288e7-true-d467489e0">
        <assert role="error" see="http://art-decor.org/art-decor/decor-templates--elgaimpf-?id=1.2.40.0.34.6.0.11.3.9" test="not(.)">(eimpf_entry_ImpfrelevanteErkrankungProblemEntry)/d467288e7-true-d467489e0: '<value-of select="name(..)"/>' ist als geschlossen definiert und dieses Element '<name/>' ist nicht erlaubt oder nicht mit diesem Inhalt erlaubt. Dies kann templateId, code oder id betreffen. Erwartet:  hl7:id | hl7:code | hl7:addr | hl7:telecom | hl7:playingDevice | hl7:playingEntity | hl7:scopingEntity (rule-reference: d467288e7-true-d467489e0)</assert>
    </rule>

   <!-- Checking undefined contents for template/element @isClosed="true". Match context that we did not already match -->
    <rule context="*[hl7:observation[hl7:templateId[@root = '1.2.40.0.34.6.0.11.3.9'] and hl7:templateId[@root = '2.16.840.1.113883.10.20.1.28'] and hl7:templateId[@root = '1.3.6.1.4.1.19376.1.5.3.1.4.5']]]/hl7:observation[hl7:templateId[@root = '1.2.40.0.34.6.0.11.3.9'] and hl7:templateId[@root = '2.16.840.1.113883.10.20.1.28'] and hl7:templateId[@root = '1.3.6.1.4.1.19376.1.5.3.1.4.5']]/hl7:entryRelationship[hl7:act[hl7:templateId[@root = '1.2.40.0.34.6.0.11.3.11'] and hl7:templateId[@root = '2.16.840.1.113883.10.20.1.40'] and hl7:templateId[@root = '1.3.6.1.4.1.19376.1.5.3.1.4.2']]]/hl7:act[hl7:templateId[@root = '1.2.40.0.34.6.0.11.3.11'] and hl7:templateId[@root = '2.16.840.1.113883.10.20.1.40'] and hl7:templateId[@root = '1.3.6.1.4.1.19376.1.5.3.1.4.2']]/hl7:participant[@typeCode][hl7:participantRole]/hl7:participantRole/hl7:addr/*[not(@xsi:nil = 'true')][not(self::hl7:streetAddressLine | self::hl7:streetName | self::hl7:houseNumber | self::hl7:postalCode[not(@nullFlavor)] | self::hl7:city[not(@nullFlavor)] | self::hl7:state | self::hl7:country[not(@nullFlavor)] | self::hl7:additionalLocator)]" id="d467288e12-true-d467548e0">
        <assert role="error" see="http://art-decor.org/art-decor/decor-templates--elgaimpf-?id=1.2.40.0.34.6.0.11.3.9" test="not(.)">(eimpf_entry_ImpfrelevanteErkrankungProblemEntry)/d467288e12-true-d467548e0: '<value-of select="name(..)"/>' ist als geschlossen definiert und dieses Element '<name/>' ist nicht erlaubt oder nicht mit diesem Inhalt erlaubt. Dies kann templateId, code oder id betreffen. Erwartet:  hl7:streetAddressLine | hl7:streetName | hl7:houseNumber | hl7:postalCode[not(@nullFlavor)] | hl7:city[not(@nullFlavor)] | hl7:state | hl7:country[not(@nullFlavor)] | hl7:additionalLocator (rule-reference: d467288e12-true-d467548e0)</assert>
    </rule>

   <!-- Checking undefined contents for template/element @isClosed="true". Match context that we did not already match -->
    <rule context="*[hl7:observation[hl7:templateId[@root = '1.2.40.0.34.6.0.11.3.9'] and hl7:templateId[@root = '2.16.840.1.113883.10.20.1.28'] and hl7:templateId[@root = '1.3.6.1.4.1.19376.1.5.3.1.4.5']]]/hl7:observation[hl7:templateId[@root = '1.2.40.0.34.6.0.11.3.9'] and hl7:templateId[@root = '2.16.840.1.113883.10.20.1.28'] and hl7:templateId[@root = '1.3.6.1.4.1.19376.1.5.3.1.4.5']]/hl7:entryRelationship[hl7:act[hl7:templateId[@root = '1.2.40.0.34.6.0.11.3.11'] and hl7:templateId[@root = '2.16.840.1.113883.10.20.1.40'] and hl7:templateId[@root = '1.3.6.1.4.1.19376.1.5.3.1.4.2']]]/hl7:act[hl7:templateId[@root = '1.2.40.0.34.6.0.11.3.11'] and hl7:templateId[@root = '2.16.840.1.113883.10.20.1.40'] and hl7:templateId[@root = '1.3.6.1.4.1.19376.1.5.3.1.4.2']]/hl7:participant[@typeCode][hl7:participantRole]/hl7:participantRole/hl7:playingDevice/*[not(@xsi:nil = 'true')][not(self::hl7:code[@codeSystem = doc('include/voc-2.16.840.1.113883.1.11.16040-DYNAMIC.xml')//valueSet[1]/completeCodeSystem/@codeSystem or concat(@code, @codeSystem) = doc('include/voc-2.16.840.1.113883.1.11.16040-DYNAMIC.xml')//valueSet[1]/conceptList/concept/concat(@code, @codeSystem) or @nullFlavor] | self::hl7:manufacturerModelName | self::hl7:softwareName)]" id="d467288e38-true-d467616e0">
        <assert role="error" see="http://art-decor.org/art-decor/decor-templates--elgaimpf-?id=1.2.40.0.34.6.0.11.3.9" test="not(.)">(eimpf_entry_ImpfrelevanteErkrankungProblemEntry)/d467288e38-true-d467616e0: '<value-of select="name(..)"/>' ist als geschlossen definiert und dieses Element '<name/>' ist nicht erlaubt oder nicht mit diesem Inhalt erlaubt. Dies kann templateId, code oder id betreffen. Erwartet:  hl7:code[@codeSystem = doc('include/voc-2.16.840.1.113883.1.11.16040-DYNAMIC.xml')//valueSet[1]/completeCodeSystem/@codeSystem or concat(@code, @codeSystem) = doc('include/voc-2.16.840.1.113883.1.11.16040-DYNAMIC.xml')//valueSet[1]/conceptList/concept/concat(@code, @codeSystem) or @nullFlavor] | hl7:manufacturerModelName | hl7:softwareName (rule-reference: d467288e38-true-d467616e0)</assert>
    </rule>

   <!-- Checking undefined contents for template/element @isClosed="true". Match context that we did not already match -->
    <rule context="*[hl7:observation[hl7:templateId[@root = '1.2.40.0.34.6.0.11.3.9'] and hl7:templateId[@root = '2.16.840.1.113883.10.20.1.28'] and hl7:templateId[@root = '1.3.6.1.4.1.19376.1.5.3.1.4.5']]]/hl7:observation[hl7:templateId[@root = '1.2.40.0.34.6.0.11.3.9'] and hl7:templateId[@root = '2.16.840.1.113883.10.20.1.28'] and hl7:templateId[@root = '1.3.6.1.4.1.19376.1.5.3.1.4.5']]/hl7:entryRelationship[hl7:act[hl7:templateId[@root = '1.2.40.0.34.6.0.11.3.11'] and hl7:templateId[@root = '2.16.840.1.113883.10.20.1.40'] and hl7:templateId[@root = '1.3.6.1.4.1.19376.1.5.3.1.4.2']]]/hl7:act[hl7:templateId[@root = '1.2.40.0.34.6.0.11.3.11'] and hl7:templateId[@root = '2.16.840.1.113883.10.20.1.40'] and hl7:templateId[@root = '1.3.6.1.4.1.19376.1.5.3.1.4.2']]/hl7:participant[@typeCode][hl7:participantRole]/hl7:participantRole/hl7:playingEntity/*[not(@xsi:nil = 'true')][not(self::hl7:code[@codeSystem = doc('include/voc-2.16.840.1.113883.1.11.16040-DYNAMIC.xml')//valueSet[1]/completeCodeSystem/@codeSystem or concat(@code, @codeSystem) = doc('include/voc-2.16.840.1.113883.1.11.16040-DYNAMIC.xml')//valueSet[1]/conceptList/concept/concat(@code, @codeSystem) or @nullFlavor] | self::hl7:quantity | self::hl7:name | self::sdtc:birthTime | self::hl7:desc)]" id="d467288e39-true-d467673e0">
        <assert role="error" see="http://art-decor.org/art-decor/decor-templates--elgaimpf-?id=1.2.40.0.34.6.0.11.3.9" test="not(.)">(eimpf_entry_ImpfrelevanteErkrankungProblemEntry)/d467288e39-true-d467673e0: '<value-of select="name(..)"/>' ist als geschlossen definiert und dieses Element '<name/>' ist nicht erlaubt oder nicht mit diesem Inhalt erlaubt. Dies kann templateId, code oder id betreffen. Erwartet:  hl7:code[@codeSystem = doc('include/voc-2.16.840.1.113883.1.11.16040-DYNAMIC.xml')//valueSet[1]/completeCodeSystem/@codeSystem or concat(@code, @codeSystem) = doc('include/voc-2.16.840.1.113883.1.11.16040-DYNAMIC.xml')//valueSet[1]/conceptList/concept/concat(@code, @codeSystem) or @nullFlavor] | hl7:quantity | hl7:name | sdtc:birthTime | hl7:desc (rule-reference: d467288e39-true-d467673e0)</assert>
    </rule>

   <!-- Checking undefined contents for template/element @isClosed="true". Match context that we did not already match -->
    <rule context="*[hl7:observation[hl7:templateId[@root = '1.2.40.0.34.6.0.11.3.9'] and hl7:templateId[@root = '2.16.840.1.113883.10.20.1.28'] and hl7:templateId[@root = '1.3.6.1.4.1.19376.1.5.3.1.4.5']]]/hl7:observation[hl7:templateId[@root = '1.2.40.0.34.6.0.11.3.9'] and hl7:templateId[@root = '2.16.840.1.113883.10.20.1.28'] and hl7:templateId[@root = '1.3.6.1.4.1.19376.1.5.3.1.4.5']]/hl7:entryRelationship[hl7:act[hl7:templateId[@root = '1.2.40.0.34.6.0.11.3.11'] and hl7:templateId[@root = '2.16.840.1.113883.10.20.1.40'] and hl7:templateId[@root = '1.3.6.1.4.1.19376.1.5.3.1.4.2']]]/hl7:act[hl7:templateId[@root = '1.2.40.0.34.6.0.11.3.11'] and hl7:templateId[@root = '2.16.840.1.113883.10.20.1.40'] and hl7:templateId[@root = '1.3.6.1.4.1.19376.1.5.3.1.4.2']]/hl7:participant[@typeCode][hl7:participantRole]/hl7:participantRole/hl7:scopingEntity/*[not(@xsi:nil = 'true')][not(self::hl7:id | self::hl7:code[@codeSystem = doc('include/voc-2.16.840.1.113883.1.11.16040-DYNAMIC.xml')//valueSet[1]/completeCodeSystem/@codeSystem or concat(@code, @codeSystem) = doc('include/voc-2.16.840.1.113883.1.11.16040-DYNAMIC.xml')//valueSet[1]/conceptList/concept/concat(@code, @codeSystem) or @nullFlavor] | self::hl7:desc)]" id="d467288e40-true-d467725e0">
        <assert role="error" see="http://art-decor.org/art-decor/decor-templates--elgaimpf-?id=1.2.40.0.34.6.0.11.3.9" test="not(.)">(eimpf_entry_ImpfrelevanteErkrankungProblemEntry)/d467288e40-true-d467725e0: '<value-of select="name(..)"/>' ist als geschlossen definiert und dieses Element '<name/>' ist nicht erlaubt oder nicht mit diesem Inhalt erlaubt. Dies kann templateId, code oder id betreffen. Erwartet:  hl7:id | hl7:code[@codeSystem = doc('include/voc-2.16.840.1.113883.1.11.16040-DYNAMIC.xml')//valueSet[1]/completeCodeSystem/@codeSystem or concat(@code, @codeSystem) = doc('include/voc-2.16.840.1.113883.1.11.16040-DYNAMIC.xml')//valueSet[1]/conceptList/concept/concat(@code, @codeSystem) or @nullFlavor] | hl7:desc (rule-reference: d467288e40-true-d467725e0)</assert>
    </rule>
</pattern>