<?xml version="1.0" encoding="UTF-8"?>
<!--
Template derived pattern
===========================================
ID: 1.2.40.0.34.6.0.11.3.15
Name: Antikörper-Bestimmung Data Processing Entry
Description: 
-->
<pattern xmlns="http://purl.oclc.org/dsdl/schematron" id="template-1.2.40.0.34.6.0.11.3.15-2019-08-05T140453">
    <title>Antikörper-Bestimmung Data Processing Entry</title>
   <!--
Template derived rules for ID: 1.2.40.0.34.6.0.11.3.15
Context: *[hl7:templateId[@root = '1.2.40.0.34.6.0.11.3.15']]
Item: (eimpf_entry_AntikoerperBestimmungDataProcessing)
-->
    <rule context="*[hl7:templateId[@root = '1.2.40.0.34.6.0.11.3.15']]" id="d245561e4266-false-d413567e0">
        <assert role="error" see="http://art-decor.org/art-decor/decor-templates--elgaimpf-?id=1.2.40.0.34.6.0.11.3.15" test="count(hl7:templateId[@root = '1.2.40.0.34.6.0.11.3.15']) &gt;= 1">(eimpf_entry_AntikoerperBestimmungDataProcessing): Element hl7:templateId[@root = '1.2.40.0.34.6.0.11.3.15'] ist mandatory [min 1x].</assert>
        <assert role="error" see="http://art-decor.org/art-decor/decor-templates--elgaimpf-?id=1.2.40.0.34.6.0.11.3.15" test="count(hl7:templateId[@root = '1.2.40.0.34.6.0.11.3.15']) &lt;= 1">(eimpf_entry_AntikoerperBestimmungDataProcessing): Element hl7:templateId[@root = '1.2.40.0.34.6.0.11.3.15'] kommt zu häufig vor [max 1x].</assert>
        <assert role="error" see="http://art-decor.org/art-decor/decor-templates--elgaimpf-?id=1.2.40.0.34.6.0.11.3.15" test="count(hl7:templateId[@root='1.3.6.1.4.1.19376.1.3.1'][not(@nullFlavor)]) &gt;= 1">(eimpf_entry_AntikoerperBestimmungDataProcessing): Element hl7:templateId[@root='1.3.6.1.4.1.19376.1.3.1'][not(@nullFlavor)] ist mandatory [min 1x].</assert>
        <assert role="error" see="http://art-decor.org/art-decor/decor-templates--elgaimpf-?id=1.2.40.0.34.6.0.11.3.15" test="count(hl7:templateId[@root='1.3.6.1.4.1.19376.1.3.1'][not(@nullFlavor)]) &lt;= 1">(eimpf_entry_AntikoerperBestimmungDataProcessing): Element hl7:templateId[@root='1.3.6.1.4.1.19376.1.3.1'][not(@nullFlavor)] kommt zu häufig vor [max 1x].</assert>
        <assert role="error" see="http://art-decor.org/art-decor/decor-templates--elgaimpf-?id=1.2.40.0.34.6.0.11.3.15" test="count(hl7:act[hl7:code[(@code = '26436-6' and @codeSystem = '2.16.840.1.113883.6.1')]]) &gt;= 1">(eimpf_entry_AntikoerperBestimmungDataProcessing): Element hl7:act[hl7:code[(@code = '26436-6' and @codeSystem = '2.16.840.1.113883.6.1')]] ist mandatory [min 1x].</assert>
        <assert role="error" see="http://art-decor.org/art-decor/decor-templates--elgaimpf-?id=1.2.40.0.34.6.0.11.3.15" test="count(hl7:act[hl7:code[(@code = '26436-6' and @codeSystem = '2.16.840.1.113883.6.1')]]) &lt;= 1">(eimpf_entry_AntikoerperBestimmungDataProcessing): Element hl7:act[hl7:code[(@code = '26436-6' and @codeSystem = '2.16.840.1.113883.6.1')]] kommt zu häufig vor [max 1x].</assert>
    </rule>
   <!--
Template derived rules for ID: 1.2.40.0.34.6.0.11.3.15
Context: *[hl7:templateId[@root = '1.2.40.0.34.6.0.11.3.15']]/hl7:templateId[@root = '1.2.40.0.34.6.0.11.3.15']
Item: (eimpf_entry_AntikoerperBestimmungDataProcessing)
-->
    <rule context="*[hl7:templateId[@root = '1.2.40.0.34.6.0.11.3.15']]/hl7:templateId[@root = '1.2.40.0.34.6.0.11.3.15']" id="d245561e4288-false-d413661e0">
        <extends rule="II"/>
        <assert role="error" see="http://art-decor.org/art-decor/decor-templates--elgaimpf-?id=1.2.40.0.34.6.0.11.3.15" test="(local-name-from-QName(resolve-QName(@xsi:type,.))='II' and namespace-uri-from-QName(resolve-QName(@xsi:type,.))='urn:hl7-org:v3') or not(@xsi:type)">(eimpf_entry_AntikoerperBestimmungDataProcessing): Wenn eine @xsi:type Instruktion anwesend ist MUSS diese den Wert "{urn:hl7-org:v3}:II" haben. Gefunden "{<value-of select="namespace-uri-from-QName(resolve-QName(@xsi:type,.))"/>}:<value-of select="local-name-from-QName(resolve-QName(@xsi:type,.))"/>"</assert>
        <assert role="error" see="http://art-decor.org/art-decor/decor-templates--elgaimpf-?id=1.2.40.0.34.6.0.11.3.15" test="string(@root) = ('1.2.40.0.34.6.0.11.3.15')">(eimpf_entry_AntikoerperBestimmungDataProcessing): Der Wert von root MUSS '1.2.40.0.34.6.0.11.3.15' sein. Gefunden: "<value-of select="@root"/>"</assert>
    </rule>
   <!--
Template derived rules for ID: 1.2.40.0.34.6.0.11.3.15
Context: *[hl7:templateId[@root = '1.2.40.0.34.6.0.11.3.15']]/hl7:templateId[@root='1.3.6.1.4.1.19376.1.3.1'][not(@nullFlavor)]
Item: (eimpf_entry_AntikoerperBestimmungDataProcessing)
-->
    <rule context="*[hl7:templateId[@root = '1.2.40.0.34.6.0.11.3.15']]/hl7:templateId[@root='1.3.6.1.4.1.19376.1.3.1'][not(@nullFlavor)]" id="d245561e4293-false-d413672e0">
        <extends rule="II"/>
        <assert role="error" see="http://art-decor.org/art-decor/decor-templates--elgaimpf-?id=1.2.40.0.34.6.0.11.3.15" test="(local-name-from-QName(resolve-QName(@xsi:type,.))='II' and namespace-uri-from-QName(resolve-QName(@xsi:type,.))='urn:hl7-org:v3') or not(@xsi:type)">(eimpf_entry_AntikoerperBestimmungDataProcessing): Wenn eine @xsi:type Instruktion anwesend ist MUSS diese den Wert "{urn:hl7-org:v3}:II" haben. Gefunden "{<value-of select="namespace-uri-from-QName(resolve-QName(@xsi:type,.))"/>}:<value-of select="local-name-from-QName(resolve-QName(@xsi:type,.))"/>"</assert>
        <assert role="error" see="http://art-decor.org/art-decor/decor-templates--elgaimpf-?id=1.2.40.0.34.6.0.11.3.15" test="string(@root) = ('1.3.6.1.4.1.19376.1.3.1')">(eimpf_entry_AntikoerperBestimmungDataProcessing): Der Wert von root MUSS '1.3.6.1.4.1.19376.1.3.1' sein. Gefunden: "<value-of select="@root"/>"</assert>
    </rule>
   <!--
Template derived rules for ID: 1.2.40.0.34.6.0.11.3.15
Context: *[hl7:templateId[@root = '1.2.40.0.34.6.0.11.3.15']]/hl7:act[hl7:code[(@code = '26436-6' and @codeSystem = '2.16.840.1.113883.6.1')]]
Item: (eimpf_entry_AntikoerperBestimmungDataProcessing)
-->
    <rule context="*[hl7:templateId[@root = '1.2.40.0.34.6.0.11.3.15']]/hl7:act[hl7:code[(@code = '26436-6' and @codeSystem = '2.16.840.1.113883.6.1')]]" id="d245561e4297-false-d413750e0">
        <assert role="error" see="http://art-decor.org/art-decor/decor-templates--elgaimpf-?id=1.2.40.0.34.6.0.11.3.15" test="string(@classCode) = ('ACT')">(eimpf_entry_AntikoerperBestimmungDataProcessing): Der Wert von classCode MUSS 'ACT' sein. Gefunden: "<value-of select="@classCode"/>"</assert>
        <assert role="error" see="http://art-decor.org/art-decor/decor-templates--elgaimpf-?id=1.2.40.0.34.6.0.11.3.15" test="string(@moodCode) = ('EVN')">(eimpf_entry_AntikoerperBestimmungDataProcessing): Der Wert von moodCode MUSS 'EVN' sein. Gefunden: "<value-of select="@moodCode"/>"</assert>
        <assert role="error" see="http://art-decor.org/art-decor/decor-templates--elgaimpf-?id=1.2.40.0.34.6.0.11.3.15" test="not(/hl7:ClinicalDocument/hl7:templateId[@root = '1.2.40.0.34.6.0.11.0.4']) or hl7:author">(eimpf_entry_AntikoerperBestimmungDataProcessing): Das Element author MUSS vorhanden sein.</assert>
        <assert role="error" see="http://art-decor.org/art-decor/decor-templates--elgaimpf-?id=1.2.40.0.34.6.0.11.3.15" test="not(/hl7:ClinicalDocument/hl7:templateId[@root = '1.2.40.0.34.6.0.11.0.4']) or hl7:reference">(eimpf_entry_AntikoerperBestimmungDataProcessing): Das Element reference MUSS vorhanden sein.</assert>
        <assert role="error" see="http://art-decor.org/art-decor/decor-templates--elgaimpf-?id=1.2.40.0.34.6.0.11.3.15" test="count(hl7:code[(@code = '26436-6' and @codeSystem = '2.16.840.1.113883.6.1')]) &gt;= 1">(eimpf_entry_AntikoerperBestimmungDataProcessing): Element hl7:code[(@code = '26436-6' and @codeSystem = '2.16.840.1.113883.6.1')] ist mandatory [min 1x].</assert>
        <assert role="error" see="http://art-decor.org/art-decor/decor-templates--elgaimpf-?id=1.2.40.0.34.6.0.11.3.15" test="count(hl7:code[(@code = '26436-6' and @codeSystem = '2.16.840.1.113883.6.1')]) &lt;= 1">(eimpf_entry_AntikoerperBestimmungDataProcessing): Element hl7:code[(@code = '26436-6' and @codeSystem = '2.16.840.1.113883.6.1')] kommt zu häufig vor [max 1x].</assert>
        <assert role="error" see="http://art-decor.org/art-decor/decor-templates--elgaimpf-?id=1.2.40.0.34.6.0.11.3.15" test="count(hl7:statusCode[@code = 'completed']) &gt;= 1">(eimpf_entry_AntikoerperBestimmungDataProcessing): Element hl7:statusCode[@code = 'completed'] ist mandatory [min 1x].</assert>
        <assert role="error" see="http://art-decor.org/art-decor/decor-templates--elgaimpf-?id=1.2.40.0.34.6.0.11.3.15" test="count(hl7:statusCode[@code = 'completed']) &lt;= 1">(eimpf_entry_AntikoerperBestimmungDataProcessing): Element hl7:statusCode[@code = 'completed'] kommt zu häufig vor [max 1x].</assert>
        <assert role="error" see="http://art-decor.org/art-decor/decor-templates--elgaimpf-?id=1.2.40.0.34.6.0.11.3.15" test="count(hl7:author[hl7:assignedAuthor]) &lt;= 1">(eimpf_entry_AntikoerperBestimmungDataProcessing): Element hl7:author[hl7:assignedAuthor] kommt zu häufig vor [max 1x].</assert>
        <assert role="error" see="http://art-decor.org/art-decor/decor-templates--elgaimpf-?id=1.2.40.0.34.6.0.11.3.15" test="count(hl7:entryRelationship[hl7:organizer[hl7:templateId[@root = '1.2.40.0.34.6.0.11.3.18'] and hl7:templateId[@root = '1.3.6.1.4.1.19376.1.3.1.4']]]) &gt;= 1">(eimpf_entry_AntikoerperBestimmungDataProcessing): Element hl7:entryRelationship[hl7:organizer[hl7:templateId[@root = '1.2.40.0.34.6.0.11.3.18'] and hl7:templateId[@root = '1.3.6.1.4.1.19376.1.3.1.4']]] ist mandatory [min 1x].</assert>
        <assert role="error" see="http://art-decor.org/art-decor/decor-templates--elgaimpf-?id=1.2.40.0.34.6.0.11.3.15" test="count(hl7:reference[hl7:externalDocument[hl7:templateId[@root = '1.2.40.0.34.6.0.11.3.14']]]) &lt;= 1">(eimpf_entry_AntikoerperBestimmungDataProcessing): Element hl7:reference[hl7:externalDocument[hl7:templateId[@root = '1.2.40.0.34.6.0.11.3.14']]] kommt zu häufig vor [max 1x].</assert>
    </rule>
   <!--
Template derived rules for ID: 1.2.40.0.34.6.0.11.3.15
Context: *[hl7:templateId[@root = '1.2.40.0.34.6.0.11.3.15']]/hl7:act[hl7:code[(@code = '26436-6' and @codeSystem = '2.16.840.1.113883.6.1')]]/hl7:code[(@code = '26436-6' and @codeSystem = '2.16.840.1.113883.6.1')]
Item: (eimpf_entry_AntikoerperBestimmungDataProcessing)
-->
    <rule context="*[hl7:templateId[@root = '1.2.40.0.34.6.0.11.3.15']]/hl7:act[hl7:code[(@code = '26436-6' and @codeSystem = '2.16.840.1.113883.6.1')]]/hl7:code[(@code = '26436-6' and @codeSystem = '2.16.840.1.113883.6.1')]" id="d245561e4300-false-d413868e0">
        <extends rule="CE"/>
        <assert role="error" see="http://art-decor.org/art-decor/decor-templates--elgaimpf-?id=1.2.40.0.34.6.0.11.3.15" test="(local-name-from-QName(resolve-QName(@xsi:type,.))='CE' and namespace-uri-from-QName(resolve-QName(@xsi:type,.))='urn:hl7-org:v3') or not(@xsi:type)">(eimpf_entry_AntikoerperBestimmungDataProcessing): Wenn eine @xsi:type Instruktion anwesend ist MUSS diese den Wert "{urn:hl7-org:v3}:CE" haben. Gefunden "{<value-of select="namespace-uri-from-QName(resolve-QName(@xsi:type,.))"/>}:<value-of select="local-name-from-QName(resolve-QName(@xsi:type,.))"/>"</assert>
        <assert role="error" see="http://art-decor.org/art-decor/decor-templates--elgaimpf-?id=1.2.40.0.34.6.0.11.3.15" test="@displayName">(eimpf_entry_AntikoerperBestimmungDataProcessing): Attribut @displayName MUSS vorkommen.</assert>
        <assert role="error" see="http://art-decor.org/art-decor/decor-templates--elgaimpf-?id=1.2.40.0.34.6.0.11.3.15" test="not(@displayName) or string-length(@displayName)&gt;0">(eimpf_entry_AntikoerperBestimmungDataProcessing): Attribute @displayName MUSS vom Datentyp 'st' sein  - '<value-of select="@displayName"/>'</assert>
        <assert role="error" see="http://art-decor.org/art-decor/decor-templates--elgaimpf-?id=1.2.40.0.34.6.0.11.3.15" test="string(@code) = ('26436-6')">(eimpf_entry_AntikoerperBestimmungDataProcessing): Der Wert von code MUSS '26436-6' sein. Gefunden: "<value-of select="@code"/>"</assert>
        <assert role="error" see="http://art-decor.org/art-decor/decor-templates--elgaimpf-?id=1.2.40.0.34.6.0.11.3.15" test="string(@codeSystem) = ('2.16.840.1.113883.6.1')">(eimpf_entry_AntikoerperBestimmungDataProcessing): Der Wert von codeSystem MUSS '2.16.840.1.113883.6.1' sein. Gefunden: "<value-of select="@codeSystem"/>"</assert>
        <assert role="error" see="http://art-decor.org/art-decor/decor-templates--elgaimpf-?id=1.2.40.0.34.6.0.11.3.15" test="string(@codeSystemName) = ('LOINC')">(eimpf_entry_AntikoerperBestimmungDataProcessing): Der Wert von codeSystemName MUSS 'LOINC' sein. Gefunden: "<value-of select="@codeSystemName"/>"</assert>
        <assert role="error" see="http://art-decor.org/art-decor/decor-templates--elgaimpf-?id=1.2.40.0.34.6.0.11.3.15" test="not(@codeSystemName) or string-length(@codeSystemName)&gt;0">(eimpf_entry_AntikoerperBestimmungDataProcessing): Attribute @codeSystemName MUSS vom Datentyp 'st' sein  - '<value-of select="@codeSystemName"/>'</assert>
    </rule>
   <!--
Template derived rules for ID: 1.2.40.0.34.6.0.11.3.15
Context: *[hl7:templateId[@root = '1.2.40.0.34.6.0.11.3.15']]/hl7:act[hl7:code[(@code = '26436-6' and @codeSystem = '2.16.840.1.113883.6.1')]]/hl7:statusCode[@code = 'completed']
Item: (eimpf_entry_AntikoerperBestimmungDataProcessing)
-->
    <rule context="*[hl7:templateId[@root = '1.2.40.0.34.6.0.11.3.15']]/hl7:act[hl7:code[(@code = '26436-6' and @codeSystem = '2.16.840.1.113883.6.1')]]/hl7:statusCode[@code = 'completed']" id="d245561e4308-false-d413898e0">
        <extends rule="CS"/>
        <assert role="error" see="http://art-decor.org/art-decor/decor-templates--elgaimpf-?id=1.2.40.0.34.6.0.11.3.15" test="(local-name-from-QName(resolve-QName(@xsi:type,.))='CS' and namespace-uri-from-QName(resolve-QName(@xsi:type,.))='urn:hl7-org:v3') or not(@xsi:type)">(eimpf_entry_AntikoerperBestimmungDataProcessing): Wenn eine @xsi:type Instruktion anwesend ist MUSS diese den Wert "{urn:hl7-org:v3}:CS" haben. Gefunden "{<value-of select="namespace-uri-from-QName(resolve-QName(@xsi:type,.))"/>}:<value-of select="local-name-from-QName(resolve-QName(@xsi:type,.))"/>"</assert>
        <assert role="error" see="http://art-decor.org/art-decor/decor-templates--elgaimpf-?id=1.2.40.0.34.6.0.11.3.15" test="@nullFlavor or (@code='completed')">(eimpf_entry_AntikoerperBestimmungDataProcessing): Der Elementinhalt MUSS einer von 'code 'completed'' sein.</assert>
    </rule>

   <!--
Template derived rules for ID: 1.2.40.0.34.6.0.11.3.15
Context: *[hl7:templateId[@root = '1.2.40.0.34.6.0.11.3.15']]/hl7:act[hl7:code[(@code = '26436-6' and @codeSystem = '2.16.840.1.113883.6.1')]]/hl7:author[hl7:assignedAuthor]
Item: (eimpf_entry_AntikoerperBestimmungDataProcessing)
-->

<!--
Template derived rules for ID: 1.2.40.0.34.6.0.11.9.8
Context: *[hl7:templateId[@root = '1.2.40.0.34.6.0.11.3.15']]/hl7:act[hl7:code[(@code = '26436-6' and @codeSystem = '2.16.840.1.113883.6.1')]]/hl7:author[hl7:assignedAuthor]
Item: (atcdabbr_other_AuthorBody_eImpfpass)
-->
    <rule context="*[hl7:templateId[@root = '1.2.40.0.34.6.0.11.3.15']]/hl7:act[hl7:code[(@code = '26436-6' and @codeSystem = '2.16.840.1.113883.6.1')]]/hl7:author[hl7:assignedAuthor]">
        <assert role="error" see="http://art-decor.org/art-decor/decor-templates--elgaimpf-?id=1.2.40.0.34.6.0.11.9.8" test="string(@typeCode) = ('AUT') or not(@typeCode)">(atcdabbr_other_AuthorBody_eImpfpass): Der Wert von typeCode MUSS 'AUT' sein. Gefunden: "<value-of select="@typeCode"/>"</assert>
        <assert role="error" see="http://art-decor.org/art-decor/decor-templates--elgaimpf-?id=1.2.40.0.34.6.0.11.9.8" test="string(@contextControlCode) = ('OP') or not(@contextControlCode)">(atcdabbr_other_AuthorBody_eImpfpass): Der Wert von contextControlCode MUSS 'OP' sein. Gefunden: "<value-of select="@contextControlCode"/>"</assert>
        <assert role="error" see="http://art-decor.org/art-decor/decor-templates--elgaimpf-?id=1.2.40.0.34.6.0.11.9.8" test="not(/hl7:ClinicalDocument/hl7:templateId[@root = '1.2.40.0.34.6.0.11.0.2'] and not( ancestor::*/hl7:participant/hl7:templateId[@root = '1.2.40.0.34.6.0.11.9.14'])) or hl7:time[not(@nullFlavor)]">(atcdabbr_other_AuthorBody_eImpfpass): time/@nullFlavor ist NICHT ERLAUBT.</assert>
        <let name="elmcount" value="count(hl7:time[not(@nullFlavor)] | hl7:time[@nullFlavor='UNK'])"/>
        <assert role="error" see="http://art-decor.org/art-decor/decor-templates--elgaimpf-?id=1.2.40.0.34.6.0.11.9.8" test="$elmcount &gt;= 1">(atcdabbr_other_AuthorBody_eImpfpass): Auswahl (hl7:time[not(@nullFlavor)]  oder  hl7:time[@nullFlavor='UNK']) enthält nicht genügend Elemente [min 1x]</assert>
        <assert role="error" see="http://art-decor.org/art-decor/decor-templates--elgaimpf-?id=1.2.40.0.34.6.0.11.9.8" test="$elmcount &lt;= 1">(atcdabbr_other_AuthorBody_eImpfpass): Auswahl (hl7:time[not(@nullFlavor)]  oder  hl7:time[@nullFlavor='UNK']) enthält zu viele Elemente [max 1x]</assert>
        <assert role="error" see="http://art-decor.org/art-decor/decor-templates--elgaimpf-?id=1.2.40.0.34.6.0.11.9.8" test="count(hl7:time[not(@nullFlavor)]) &lt;= 1">(atcdabbr_other_AuthorBody_eImpfpass): Element hl7:time[not(@nullFlavor)] kommt zu häufig vor [max 1x].</assert>
        <assert role="error" see="http://art-decor.org/art-decor/decor-templates--elgaimpf-?id=1.2.40.0.34.6.0.11.9.8" test="count(hl7:time[@nullFlavor='UNK']) &lt;= 1">(atcdabbr_other_AuthorBody_eImpfpass): Element hl7:time[@nullFlavor='UNK'] kommt zu häufig vor [max 1x].</assert>
        <assert role="error" see="http://art-decor.org/art-decor/decor-templates--elgaimpf-?id=1.2.40.0.34.6.0.11.9.8" test="count(hl7:assignedAuthor) &gt;= 1">(atcdabbr_other_AuthorBody_eImpfpass): Element hl7:assignedAuthor ist required [min 1x].</assert>
        <assert role="error" see="http://art-decor.org/art-decor/decor-templates--elgaimpf-?id=1.2.40.0.34.6.0.11.9.8" test="count(hl7:assignedAuthor) &lt;= 1">(atcdabbr_other_AuthorBody_eImpfpass): Element hl7:assignedAuthor kommt zu häufig vor [max 1x].</assert>
    </rule>

   <!--
Template derived rules for ID: 1.2.40.0.34.6.0.11.9.8
Context: *[hl7:templateId[@root = '1.2.40.0.34.6.0.11.3.15']]/hl7:act[hl7:code[(@code = '26436-6' and @codeSystem = '2.16.840.1.113883.6.1')]]/hl7:author[hl7:assignedAuthor]/hl7:time[not(@nullFlavor)]
Item: (atcdabbr_other_AuthorBody_eImpfpass)
-->
    <rule context="*[hl7:templateId[@root = '1.2.40.0.34.6.0.11.3.15']]/hl7:act[hl7:code[(@code = '26436-6' and @codeSystem = '2.16.840.1.113883.6.1')]]/hl7:author[hl7:assignedAuthor]/hl7:time[not(@nullFlavor)]">
        <extends rule="TS.AT.TZ"/>
        <assert role="error" see="http://art-decor.org/art-decor/decor-templates--elgaimpf-?id=1.2.40.0.34.6.0.11.9.8" test="(local-name-from-QName(resolve-QName(@xsi:type,.))='TS' and namespace-uri-from-QName(resolve-QName(@xsi:type,.))='urn:hl7-org:v3') or not(@xsi:type)">(atcdabbr_other_AuthorBody_eImpfpass): Wenn eine @xsi:type Instruktion anwesend ist MUSS diese den Wert "{urn:hl7-org:v3}:TS" haben. Gefunden "{<value-of select="namespace-uri-from-QName(resolve-QName(@xsi:type,.))"/>}:<value-of select="local-name-from-QName(resolve-QName(@xsi:type,.))"/>"</assert>
        <assert role="error" see="http://art-decor.org/art-decor/decor-templates--elgaimpf-?id=1.2.40.0.34.6.0.11.9.8" test="not(*)">(atcdabbr_other_AuthorBody_eImpfpass): <value-of select="local-name()"/> with datatype TS.AT.TZ, SHOULD NOT have child elements.</assert>
    </rule>

   <!--
Template derived rules for ID: 1.2.40.0.34.6.0.11.9.8
Context: *[hl7:templateId[@root = '1.2.40.0.34.6.0.11.3.15']]/hl7:act[hl7:code[(@code = '26436-6' and @codeSystem = '2.16.840.1.113883.6.1')]]/hl7:author[hl7:assignedAuthor]/hl7:time[@nullFlavor='UNK']
Item: (atcdabbr_other_AuthorBody_eImpfpass)
-->
    <rule context="*[hl7:templateId[@root = '1.2.40.0.34.6.0.11.3.15']]/hl7:act[hl7:code[(@code = '26436-6' and @codeSystem = '2.16.840.1.113883.6.1')]]/hl7:author[hl7:assignedAuthor]/hl7:time[@nullFlavor='UNK']">
        <extends rule="TS.AT.TZ"/>
        <assert role="error" see="http://art-decor.org/art-decor/decor-templates--elgaimpf-?id=1.2.40.0.34.6.0.11.9.8" test="(local-name-from-QName(resolve-QName(@xsi:type,.))='TS' and namespace-uri-from-QName(resolve-QName(@xsi:type,.))='urn:hl7-org:v3') or not(@xsi:type)">(atcdabbr_other_AuthorBody_eImpfpass): Wenn eine @xsi:type Instruktion anwesend ist MUSS diese den Wert "{urn:hl7-org:v3}:TS" haben. Gefunden "{<value-of select="namespace-uri-from-QName(resolve-QName(@xsi:type,.))"/>}:<value-of select="local-name-from-QName(resolve-QName(@xsi:type,.))"/>"</assert>
        <assert role="error" see="http://art-decor.org/art-decor/decor-templates--elgaimpf-?id=1.2.40.0.34.6.0.11.9.8" test="not(*)">(atcdabbr_other_AuthorBody_eImpfpass): <value-of select="local-name()"/> with datatype TS.AT.TZ, SHOULD NOT have child elements.</assert>
        <assert role="error" see="http://art-decor.org/art-decor/decor-templates--elgaimpf-?id=1.2.40.0.34.6.0.11.9.8" test="string(@nullFlavor) = ('UNK')">(atcdabbr_other_AuthorBody_eImpfpass): Der Wert von nullFlavor MUSS 'UNK' sein. Gefunden: "<value-of select="@nullFlavor"/>"</assert>
    </rule>

   <!--
Template derived rules for ID: 1.2.40.0.34.6.0.11.9.8
Context: *[hl7:templateId[@root = '1.2.40.0.34.6.0.11.3.15']]/hl7:act[hl7:code[(@code = '26436-6' and @codeSystem = '2.16.840.1.113883.6.1')]]/hl7:author[hl7:assignedAuthor]/hl7:assignedAuthor
Item: (atcdabbr_other_AuthorBody_eImpfpass)
-->
    <rule context="*[hl7:templateId[@root = '1.2.40.0.34.6.0.11.3.15']]/hl7:act[hl7:code[(@code = '26436-6' and @codeSystem = '2.16.840.1.113883.6.1')]]/hl7:author[hl7:assignedAuthor]/hl7:assignedAuthor">
        <assert role="error" see="http://art-decor.org/art-decor/decor-templates--elgaimpf-?id=1.2.40.0.34.6.0.11.9.8" test="string(@classCode) = ('ASSIGNED') or not(@classCode)">(atcdabbr_other_AuthorBody_eImpfpass): Der Wert von classCode MUSS 'ASSIGNED' sein. Gefunden: "<value-of select="@classCode"/>"</assert>
        <assert role="error" see="http://art-decor.org/art-decor/decor-templates--elgaimpf-?id=1.2.40.0.34.6.0.11.9.8" test="not(/hl7:ClinicalDocument/hl7:templateId[@root = '1.2.40.0.34.6.0.11.0.2'] and not( ancestor::*/hl7:participant/hl7:templateId[@root = '1.2.40.0.34.6.0.11.9.14'])) or hl7:id[not(@nullFlavor)]">(atcdabbr_other_AuthorBody_eImpfpass): id/@nullFlavor ist NICHT ERLAUBT.</assert>
        <assert role="error" see="http://art-decor.org/art-decor/decor-templates--elgaimpf-?id=1.2.40.0.34.6.0.11.9.8" test="not(/hl7:ClinicalDocument/hl7:templateId[@root = '1.2.40.0.34.6.0.11.0.2'] and not( ancestor::*/hl7:participant/hl7:templateId[@root = '1.2.40.0.34.6.0.11.9.14'])) or hl7:representedOrganization">(atcdabbr_other_AuthorBody_eImpfpass): Das Element representedOrganization MUSS strukturiert sein.</assert>
        <let name="elmcount" value="count(hl7:id[not(@nullFlavor)] | hl7:id[@nullFlavor='UNK'])"/>
        <assert role="error" see="http://art-decor.org/art-decor/decor-templates--elgaimpf-?id=1.2.40.0.34.6.0.11.9.8" test="$elmcount &gt;= 1">(atcdabbr_other_AuthorBody_eImpfpass): Auswahl (hl7:id[not(@nullFlavor)]  oder  hl7:id[@nullFlavor='UNK']) enthält nicht genügend Elemente [min 1x]</assert>
        <assert role="error" see="http://art-decor.org/art-decor/decor-templates--elgaimpf-?id=1.2.40.0.34.6.0.11.9.8" test="count(hl7:id[@nullFlavor='UNK']) &lt;= 1">(atcdabbr_other_AuthorBody_eImpfpass): Element hl7:id[@nullFlavor='UNK'] kommt zu häufig vor [max 1x].</assert>
        <assert role="error" see="http://art-decor.org/art-decor/decor-templates--elgaimpf-?id=1.2.40.0.34.6.0.11.9.8" test="count(hl7:code[not(@nullFlavor)]) &lt;= 1">(atcdabbr_other_AuthorBody_eImpfpass): Element hl7:code[not(@nullFlavor)] kommt zu häufig vor [max 1x].</assert>
        <assert role="error" see="http://art-decor.org/art-decor/decor-templates--elgaimpf-?id=1.2.40.0.34.6.0.11.9.8" test="count(hl7:addr[not(@nullFlavor)]) &lt;= 1">(atcdabbr_other_AuthorBody_eImpfpass): Element hl7:addr[not(@nullFlavor)] kommt zu häufig vor [max 1x].</assert>
        <let name="elmcount" value="count(hl7:assignedPerson | hl7:assignedAuthoringDevice)"/>
        <assert role="error" see="http://art-decor.org/art-decor/decor-templates--elgaimpf-?id=1.2.40.0.34.6.0.11.9.8" test="$elmcount &gt;= 1">(atcdabbr_other_AuthorBody_eImpfpass): Auswahl (hl7:assignedPerson  oder  hl7:assignedAuthoringDevice) enthält nicht genügend Elemente [min 1x]</assert>
        <assert role="error" see="http://art-decor.org/art-decor/decor-templates--elgaimpf-?id=1.2.40.0.34.6.0.11.9.8" test="$elmcount &lt;= 1">(atcdabbr_other_AuthorBody_eImpfpass): Auswahl (hl7:assignedPerson  oder  hl7:assignedAuthoringDevice) enthält zu viele Elemente [max 1x]</assert>
        <assert role="error" see="http://art-decor.org/art-decor/decor-templates--elgaimpf-?id=1.2.40.0.34.6.0.11.9.8" test="count(hl7:assignedPerson) &lt;= 1">(atcdabbr_other_AuthorBody_eImpfpass): Element hl7:assignedPerson kommt zu häufig vor [max 1x].</assert>
        <assert role="error" see="http://art-decor.org/art-decor/decor-templates--elgaimpf-?id=1.2.40.0.34.6.0.11.9.8" test="count(hl7:assignedAuthoringDevice) &lt;= 1">(atcdabbr_other_AuthorBody_eImpfpass): Element hl7:assignedAuthoringDevice kommt zu häufig vor [max 1x].</assert>
        <assert role="error" see="http://art-decor.org/art-decor/decor-templates--elgaimpf-?id=1.2.40.0.34.6.0.11.9.8" test="count(hl7:representedOrganization) &lt;= 1">(atcdabbr_other_AuthorBody_eImpfpass): Element hl7:representedOrganization kommt zu häufig vor [max 1x].</assert>
    </rule>

   <!--
Template derived rules for ID: 1.2.40.0.34.6.0.11.9.8
Context: *[hl7:templateId[@root = '1.2.40.0.34.6.0.11.3.15']]/hl7:act[hl7:code[(@code = '26436-6' and @codeSystem = '2.16.840.1.113883.6.1')]]/hl7:author[hl7:assignedAuthor]/hl7:assignedAuthor/hl7:id[not(@nullFlavor)]
Item: (atcdabbr_other_AuthorBody_eImpfpass)
-->
    <rule context="*[hl7:templateId[@root = '1.2.40.0.34.6.0.11.3.15']]/hl7:act[hl7:code[(@code = '26436-6' and @codeSystem = '2.16.840.1.113883.6.1')]]/hl7:author[hl7:assignedAuthor]/hl7:assignedAuthor/hl7:id[not(@nullFlavor)]">
        <extends rule="II"/>
        <assert role="error" see="http://art-decor.org/art-decor/decor-templates--elgaimpf-?id=1.2.40.0.34.6.0.11.9.8" test="(local-name-from-QName(resolve-QName(@xsi:type,.))='II' and namespace-uri-from-QName(resolve-QName(@xsi:type,.))='urn:hl7-org:v3') or not(@xsi:type)">(atcdabbr_other_AuthorBody_eImpfpass): Wenn eine @xsi:type Instruktion anwesend ist MUSS diese den Wert "{urn:hl7-org:v3}:II" haben. Gefunden "{<value-of select="namespace-uri-from-QName(resolve-QName(@xsi:type,.))"/>}:<value-of select="local-name-from-QName(resolve-QName(@xsi:type,.))"/>"</assert>
    </rule>

   <!--
Template derived rules for ID: 1.2.40.0.34.6.0.11.9.8
Context: *[hl7:templateId[@root = '1.2.40.0.34.6.0.11.3.15']]/hl7:act[hl7:code[(@code = '26436-6' and @codeSystem = '2.16.840.1.113883.6.1')]]/hl7:author[hl7:assignedAuthor]/hl7:assignedAuthor/hl7:id[@nullFlavor='UNK']
Item: (atcdabbr_other_AuthorBody_eImpfpass)
-->
    <rule context="*[hl7:templateId[@root = '1.2.40.0.34.6.0.11.3.15']]/hl7:act[hl7:code[(@code = '26436-6' and @codeSystem = '2.16.840.1.113883.6.1')]]/hl7:author[hl7:assignedAuthor]/hl7:assignedAuthor/hl7:id[@nullFlavor='UNK']">
        <extends rule="II"/>
        <assert role="error" see="http://art-decor.org/art-decor/decor-templates--elgaimpf-?id=1.2.40.0.34.6.0.11.9.8" test="(local-name-from-QName(resolve-QName(@xsi:type,.))='II' and namespace-uri-from-QName(resolve-QName(@xsi:type,.))='urn:hl7-org:v3') or not(@xsi:type)">(atcdabbr_other_AuthorBody_eImpfpass): Wenn eine @xsi:type Instruktion anwesend ist MUSS diese den Wert "{urn:hl7-org:v3}:II" haben. Gefunden "{<value-of select="namespace-uri-from-QName(resolve-QName(@xsi:type,.))"/>}:<value-of select="local-name-from-QName(resolve-QName(@xsi:type,.))"/>"</assert>
        <assert role="error" see="http://art-decor.org/art-decor/decor-templates--elgaimpf-?id=1.2.40.0.34.6.0.11.9.8" test="string(@nullFlavor) = ('UNK')">(atcdabbr_other_AuthorBody_eImpfpass): Der Wert von nullFlavor MUSS 'UNK' sein. Gefunden: "<value-of select="@nullFlavor"/>"</assert>
    </rule>

   <!--
Template derived rules for ID: 1.2.40.0.34.6.0.11.9.8
Context: *[hl7:templateId[@root = '1.2.40.0.34.6.0.11.3.15']]/hl7:act[hl7:code[(@code = '26436-6' and @codeSystem = '2.16.840.1.113883.6.1')]]/hl7:author[hl7:assignedAuthor]/hl7:assignedAuthor/hl7:code[not(@nullFlavor)]
Item: (atcdabbr_other_AuthorBody_eImpfpass)
-->
    <rule context="*[hl7:templateId[@root = '1.2.40.0.34.6.0.11.3.15']]/hl7:act[hl7:code[(@code = '26436-6' and @codeSystem = '2.16.840.1.113883.6.1')]]/hl7:author[hl7:assignedAuthor]/hl7:assignedAuthor/hl7:code[not(@nullFlavor)]">
        <extends rule="CE"/>
        <assert role="error" see="http://art-decor.org/art-decor/decor-templates--elgaimpf-?id=1.2.40.0.34.6.0.11.9.8" test="(local-name-from-QName(resolve-QName(@xsi:type,.))='CE' and namespace-uri-from-QName(resolve-QName(@xsi:type,.))='urn:hl7-org:v3') or not(@xsi:type)">(atcdabbr_other_AuthorBody_eImpfpass): Wenn eine @xsi:type Instruktion anwesend ist MUSS diese den Wert "{urn:hl7-org:v3}:CE" haben. Gefunden "{<value-of select="namespace-uri-from-QName(resolve-QName(@xsi:type,.))"/>}:<value-of select="local-name-from-QName(resolve-QName(@xsi:type,.))"/>"</assert>
        <let name="theCode" value="@code"/>
        <let name="theCodeSystem" value="@codeSystem"/>
        <assert role="error" see="http://art-decor.org/art-decor/decor-templates--elgaimpf-?id=1.2.40.0.34.6.0.11.9.8" test="@nullFlavor or exists(doc('include/voc-1.2.40.0.34.10.6-DYNAMIC.xml')//valueSet[1][conceptList/concept[@code = $theCode][@codeSystem = $theCodeSystem]])">(atcdabbr_other_AuthorBody_eImpfpass): Der Elementinhalt MUSS einer von '1.2.40.0.34.10.6 ELGA_AuthorSpeciality (DYNAMIC)' sein.</assert>
    </rule>

   <!--
Template derived rules for ID: 1.2.40.0.34.6.0.11.9.8
Context: *[hl7:templateId[@root = '1.2.40.0.34.6.0.11.3.15']]/hl7:act[hl7:code[(@code = '26436-6' and @codeSystem = '2.16.840.1.113883.6.1')]]/hl7:author[hl7:assignedAuthor]/hl7:assignedAuthor/hl7:addr[not(@nullFlavor)]
Item: (atcdabbr_other_AuthorBody_eImpfpass)
-->

<!--
Template derived rules for ID: 1.2.40.0.34.6.0.11.9.25
Context: *[hl7:templateId[@root = '1.2.40.0.34.6.0.11.3.15']]/hl7:act[hl7:code[(@code = '26436-6' and @codeSystem = '2.16.840.1.113883.6.1')]]/hl7:author[hl7:assignedAuthor]/hl7:assignedAuthor/hl7:addr[not(@nullFlavor)]
Item: (atcdabbr_other_AddressCompilation)
-->
    <rule context="*[hl7:templateId[@root = '1.2.40.0.34.6.0.11.3.15']]/hl7:act[hl7:code[(@code = '26436-6' and @codeSystem = '2.16.840.1.113883.6.1')]]/hl7:author[hl7:assignedAuthor]/hl7:assignedAuthor/hl7:addr[not(@nullFlavor)]">
        <assert role="error" see="http://art-decor.org/art-decor/decor-templates--elgaimpf-?id=1.2.40.0.34.6.0.11.9.25" test="not(@use) or (string-length(@use) &gt; 0 and not(matches(@use,'\s')))">(atcdabbr_other_AddressCompilation): Attribute @use MUSS vom Datentyp 'cs' sein  - '<value-of select="@use"/>'</assert>
        <assert role="error" see="http://art-decor.org/art-decor/decor-templates--elgaimpf-?id=1.2.40.0.34.6.0.11.9.25" test="not(hl7:streetAddressLine and (hl7:streetName or hl7:houseNumber)) or ((hl7:streetAddressLine or (hl7:streetName and hl7:houseNumber)) and not((hl7:streetAddressLine and hl7:streetName and hl7:houseNumber) or (hl7:streetAddressLine and (hl7:streetName or hl7:houseNumber))))">(atcdabbr_other_AddressCompilation): Es muss entweder streetAddressLine oder streetName UND houseNumber angegeben werden.</assert>
        <assert role="error" see="http://art-decor.org/art-decor/decor-templates--elgaimpf-?id=1.2.40.0.34.6.0.11.9.25" test="count(hl7:streetAddressLine) &lt;= 1">(atcdabbr_other_AddressCompilation): Element hl7:streetAddressLine kommt zu häufig vor [max 1x].</assert>
        <assert role="error" see="http://art-decor.org/art-decor/decor-templates--elgaimpf-?id=1.2.40.0.34.6.0.11.9.25" test="count(hl7:streetName) &lt;= 1">(atcdabbr_other_AddressCompilation): Element hl7:streetName kommt zu häufig vor [max 1x].</assert>
        <assert role="error" see="http://art-decor.org/art-decor/decor-templates--elgaimpf-?id=1.2.40.0.34.6.0.11.9.25" test="count(hl7:houseNumber) &lt;= 1">(atcdabbr_other_AddressCompilation): Element hl7:houseNumber kommt zu häufig vor [max 1x].</assert>
        <assert role="error" see="http://art-decor.org/art-decor/decor-templates--elgaimpf-?id=1.2.40.0.34.6.0.11.9.25" test="count(hl7:postalCode[not(@nullFlavor)]) &gt;= 1">(atcdabbr_other_AddressCompilation): Element hl7:postalCode[not(@nullFlavor)] ist mandatory [min 1x].</assert>
        <assert role="error" see="http://art-decor.org/art-decor/decor-templates--elgaimpf-?id=1.2.40.0.34.6.0.11.9.25" test="count(hl7:postalCode[not(@nullFlavor)]) &lt;= 1">(atcdabbr_other_AddressCompilation): Element hl7:postalCode[not(@nullFlavor)] kommt zu häufig vor [max 1x].</assert>
        <assert role="error" see="http://art-decor.org/art-decor/decor-templates--elgaimpf-?id=1.2.40.0.34.6.0.11.9.25" test="count(hl7:city[not(@nullFlavor)]) &gt;= 1">(atcdabbr_other_AddressCompilation): Element hl7:city[not(@nullFlavor)] ist mandatory [min 1x].</assert>
        <assert role="error" see="http://art-decor.org/art-decor/decor-templates--elgaimpf-?id=1.2.40.0.34.6.0.11.9.25" test="count(hl7:city[not(@nullFlavor)]) &lt;= 1">(atcdabbr_other_AddressCompilation): Element hl7:city[not(@nullFlavor)] kommt zu häufig vor [max 1x].</assert>
        <assert role="error" see="http://art-decor.org/art-decor/decor-templates--elgaimpf-?id=1.2.40.0.34.6.0.11.9.25" test="count(hl7:state) &lt;= 1">(atcdabbr_other_AddressCompilation): Element hl7:state kommt zu häufig vor [max 1x].</assert>
        <assert role="error" see="http://art-decor.org/art-decor/decor-templates--elgaimpf-?id=1.2.40.0.34.6.0.11.9.25" test="count(hl7:country[not(@nullFlavor)]) &gt;= 1">(atcdabbr_other_AddressCompilation): Element hl7:country[not(@nullFlavor)] ist mandatory [min 1x].</assert>
        <assert role="error" see="http://art-decor.org/art-decor/decor-templates--elgaimpf-?id=1.2.40.0.34.6.0.11.9.25" test="count(hl7:country[not(@nullFlavor)]) &lt;= 1">(atcdabbr_other_AddressCompilation): Element hl7:country[not(@nullFlavor)] kommt zu häufig vor [max 1x].</assert>
        <assert role="error" see="http://art-decor.org/art-decor/decor-templates--elgaimpf-?id=1.2.40.0.34.6.0.11.9.25" test="count(hl7:additionalLocator) &lt;= 1">(atcdabbr_other_AddressCompilation): Element hl7:additionalLocator kommt zu häufig vor [max 1x].</assert>
    </rule>

   <!--
Template derived rules for ID: 1.2.40.0.34.6.0.11.9.25
Context: *[hl7:templateId[@root = '1.2.40.0.34.6.0.11.3.15']]/hl7:act[hl7:code[(@code = '26436-6' and @codeSystem = '2.16.840.1.113883.6.1')]]/hl7:author[hl7:assignedAuthor]/hl7:assignedAuthor/hl7:addr[not(@nullFlavor)]/hl7:streetAddressLine
Item: (atcdabbr_other_AddressCompilation)
-->
    <rule context="*[hl7:templateId[@root = '1.2.40.0.34.6.0.11.3.15']]/hl7:act[hl7:code[(@code = '26436-6' and @codeSystem = '2.16.840.1.113883.6.1')]]/hl7:author[hl7:assignedAuthor]/hl7:assignedAuthor/hl7:addr[not(@nullFlavor)]/hl7:streetAddressLine">
        <extends rule="ADXP"/>
        <assert role="error" see="http://art-decor.org/art-decor/decor-templates--elgaimpf-?id=1.2.40.0.34.6.0.11.9.25" test="(local-name-from-QName(resolve-QName(@xsi:type,.))='ADXP' and namespace-uri-from-QName(resolve-QName(@xsi:type,.))='urn:hl7-org:v3') or not(@xsi:type)">(atcdabbr_other_AddressCompilation): Wenn eine @xsi:type Instruktion anwesend ist MUSS diese den Wert "{urn:hl7-org:v3}:ADXP" haben. Gefunden "{<value-of select="namespace-uri-from-QName(resolve-QName(@xsi:type,.))"/>}:<value-of select="local-name-from-QName(resolve-QName(@xsi:type,.))"/>"</assert>
    </rule>

   <!--
Template derived rules for ID: 1.2.40.0.34.6.0.11.9.25
Context: *[hl7:templateId[@root = '1.2.40.0.34.6.0.11.3.15']]/hl7:act[hl7:code[(@code = '26436-6' and @codeSystem = '2.16.840.1.113883.6.1')]]/hl7:author[hl7:assignedAuthor]/hl7:assignedAuthor/hl7:addr[not(@nullFlavor)]/hl7:streetName
Item: (atcdabbr_other_AddressCompilation)
-->
    <rule context="*[hl7:templateId[@root = '1.2.40.0.34.6.0.11.3.15']]/hl7:act[hl7:code[(@code = '26436-6' and @codeSystem = '2.16.840.1.113883.6.1')]]/hl7:author[hl7:assignedAuthor]/hl7:assignedAuthor/hl7:addr[not(@nullFlavor)]/hl7:streetName">
        <extends rule="ADXP"/>
        <assert role="error" see="http://art-decor.org/art-decor/decor-templates--elgaimpf-?id=1.2.40.0.34.6.0.11.9.25" test="(local-name-from-QName(resolve-QName(@xsi:type,.))='ADXP' and namespace-uri-from-QName(resolve-QName(@xsi:type,.))='urn:hl7-org:v3') or not(@xsi:type)">(atcdabbr_other_AddressCompilation): Wenn eine @xsi:type Instruktion anwesend ist MUSS diese den Wert "{urn:hl7-org:v3}:ADXP" haben. Gefunden "{<value-of select="namespace-uri-from-QName(resolve-QName(@xsi:type,.))"/>}:<value-of select="local-name-from-QName(resolve-QName(@xsi:type,.))"/>"</assert>
    </rule>

   <!--
Template derived rules for ID: 1.2.40.0.34.6.0.11.9.25
Context: *[hl7:templateId[@root = '1.2.40.0.34.6.0.11.3.15']]/hl7:act[hl7:code[(@code = '26436-6' and @codeSystem = '2.16.840.1.113883.6.1')]]/hl7:author[hl7:assignedAuthor]/hl7:assignedAuthor/hl7:addr[not(@nullFlavor)]/hl7:houseNumber
Item: (atcdabbr_other_AddressCompilation)
-->
    <rule context="*[hl7:templateId[@root = '1.2.40.0.34.6.0.11.3.15']]/hl7:act[hl7:code[(@code = '26436-6' and @codeSystem = '2.16.840.1.113883.6.1')]]/hl7:author[hl7:assignedAuthor]/hl7:assignedAuthor/hl7:addr[not(@nullFlavor)]/hl7:houseNumber">
        <extends rule="ADXP"/>
        <assert role="error" see="http://art-decor.org/art-decor/decor-templates--elgaimpf-?id=1.2.40.0.34.6.0.11.9.25" test="(local-name-from-QName(resolve-QName(@xsi:type,.))='ADXP' and namespace-uri-from-QName(resolve-QName(@xsi:type,.))='urn:hl7-org:v3') or not(@xsi:type)">(atcdabbr_other_AddressCompilation): Wenn eine @xsi:type Instruktion anwesend ist MUSS diese den Wert "{urn:hl7-org:v3}:ADXP" haben. Gefunden "{<value-of select="namespace-uri-from-QName(resolve-QName(@xsi:type,.))"/>}:<value-of select="local-name-from-QName(resolve-QName(@xsi:type,.))"/>"</assert>
    </rule>

   <!--
Template derived rules for ID: 1.2.40.0.34.6.0.11.9.25
Context: *[hl7:templateId[@root = '1.2.40.0.34.6.0.11.3.15']]/hl7:act[hl7:code[(@code = '26436-6' and @codeSystem = '2.16.840.1.113883.6.1')]]/hl7:author[hl7:assignedAuthor]/hl7:assignedAuthor/hl7:addr[not(@nullFlavor)]/hl7:postalCode[not(@nullFlavor)]
Item: (atcdabbr_other_AddressCompilation)
-->
    <rule context="*[hl7:templateId[@root = '1.2.40.0.34.6.0.11.3.15']]/hl7:act[hl7:code[(@code = '26436-6' and @codeSystem = '2.16.840.1.113883.6.1')]]/hl7:author[hl7:assignedAuthor]/hl7:assignedAuthor/hl7:addr[not(@nullFlavor)]/hl7:postalCode[not(@nullFlavor)]">
        <extends rule="ADXP"/>
        <assert role="error" see="http://art-decor.org/art-decor/decor-templates--elgaimpf-?id=1.2.40.0.34.6.0.11.9.25" test="(local-name-from-QName(resolve-QName(@xsi:type,.))='ADXP' and namespace-uri-from-QName(resolve-QName(@xsi:type,.))='urn:hl7-org:v3') or not(@xsi:type)">(atcdabbr_other_AddressCompilation): Wenn eine @xsi:type Instruktion anwesend ist MUSS diese den Wert "{urn:hl7-org:v3}:ADXP" haben. Gefunden "{<value-of select="namespace-uri-from-QName(resolve-QName(@xsi:type,.))"/>}:<value-of select="local-name-from-QName(resolve-QName(@xsi:type,.))"/>"</assert>
    </rule>

   <!--
Template derived rules for ID: 1.2.40.0.34.6.0.11.9.25
Context: *[hl7:templateId[@root = '1.2.40.0.34.6.0.11.3.15']]/hl7:act[hl7:code[(@code = '26436-6' and @codeSystem = '2.16.840.1.113883.6.1')]]/hl7:author[hl7:assignedAuthor]/hl7:assignedAuthor/hl7:addr[not(@nullFlavor)]/hl7:city[not(@nullFlavor)]
Item: (atcdabbr_other_AddressCompilation)
-->
    <rule context="*[hl7:templateId[@root = '1.2.40.0.34.6.0.11.3.15']]/hl7:act[hl7:code[(@code = '26436-6' and @codeSystem = '2.16.840.1.113883.6.1')]]/hl7:author[hl7:assignedAuthor]/hl7:assignedAuthor/hl7:addr[not(@nullFlavor)]/hl7:city[not(@nullFlavor)]">
        <extends rule="ADXP"/>
        <assert role="error" see="http://art-decor.org/art-decor/decor-templates--elgaimpf-?id=1.2.40.0.34.6.0.11.9.25" test="(local-name-from-QName(resolve-QName(@xsi:type,.))='ADXP' and namespace-uri-from-QName(resolve-QName(@xsi:type,.))='urn:hl7-org:v3') or not(@xsi:type)">(atcdabbr_other_AddressCompilation): Wenn eine @xsi:type Instruktion anwesend ist MUSS diese den Wert "{urn:hl7-org:v3}:ADXP" haben. Gefunden "{<value-of select="namespace-uri-from-QName(resolve-QName(@xsi:type,.))"/>}:<value-of select="local-name-from-QName(resolve-QName(@xsi:type,.))"/>"</assert>
    </rule>

   <!--
Template derived rules for ID: 1.2.40.0.34.6.0.11.9.25
Context: *[hl7:templateId[@root = '1.2.40.0.34.6.0.11.3.15']]/hl7:act[hl7:code[(@code = '26436-6' and @codeSystem = '2.16.840.1.113883.6.1')]]/hl7:author[hl7:assignedAuthor]/hl7:assignedAuthor/hl7:addr[not(@nullFlavor)]/hl7:state
Item: (atcdabbr_other_AddressCompilation)
-->
    <rule context="*[hl7:templateId[@root = '1.2.40.0.34.6.0.11.3.15']]/hl7:act[hl7:code[(@code = '26436-6' and @codeSystem = '2.16.840.1.113883.6.1')]]/hl7:author[hl7:assignedAuthor]/hl7:assignedAuthor/hl7:addr[not(@nullFlavor)]/hl7:state">
        <extends rule="ADXP"/>
        <assert role="error" see="http://art-decor.org/art-decor/decor-templates--elgaimpf-?id=1.2.40.0.34.6.0.11.9.25" test="(local-name-from-QName(resolve-QName(@xsi:type,.))='ADXP' and namespace-uri-from-QName(resolve-QName(@xsi:type,.))='urn:hl7-org:v3') or not(@xsi:type)">(atcdabbr_other_AddressCompilation): Wenn eine @xsi:type Instruktion anwesend ist MUSS diese den Wert "{urn:hl7-org:v3}:ADXP" haben. Gefunden "{<value-of select="namespace-uri-from-QName(resolve-QName(@xsi:type,.))"/>}:<value-of select="local-name-from-QName(resolve-QName(@xsi:type,.))"/>"</assert>
    </rule>

   <!--
Template derived rules for ID: 1.2.40.0.34.6.0.11.9.25
Context: *[hl7:templateId[@root = '1.2.40.0.34.6.0.11.3.15']]/hl7:act[hl7:code[(@code = '26436-6' and @codeSystem = '2.16.840.1.113883.6.1')]]/hl7:author[hl7:assignedAuthor]/hl7:assignedAuthor/hl7:addr[not(@nullFlavor)]/hl7:country[not(@nullFlavor)]
Item: (atcdabbr_other_AddressCompilation)
-->
    <rule context="*[hl7:templateId[@root = '1.2.40.0.34.6.0.11.3.15']]/hl7:act[hl7:code[(@code = '26436-6' and @codeSystem = '2.16.840.1.113883.6.1')]]/hl7:author[hl7:assignedAuthor]/hl7:assignedAuthor/hl7:addr[not(@nullFlavor)]/hl7:country[not(@nullFlavor)]">
        <extends rule="ADXP"/>
        <assert role="error" see="http://art-decor.org/art-decor/decor-templates--elgaimpf-?id=1.2.40.0.34.6.0.11.9.25" test="(local-name-from-QName(resolve-QName(@xsi:type,.))='ADXP' and namespace-uri-from-QName(resolve-QName(@xsi:type,.))='urn:hl7-org:v3') or not(@xsi:type)">(atcdabbr_other_AddressCompilation): Wenn eine @xsi:type Instruktion anwesend ist MUSS diese den Wert "{urn:hl7-org:v3}:ADXP" haben. Gefunden "{<value-of select="namespace-uri-from-QName(resolve-QName(@xsi:type,.))"/>}:<value-of select="local-name-from-QName(resolve-QName(@xsi:type,.))"/>"</assert>
        <assert role="info" see="http://art-decor.org/art-decor/decor-templates--elgaimpf-?id=1.2.40.0.34.6.0.11.9.25" test="string-length(text()) = 3">(atcdabbr_other_AddressCompilation): Es wird EMPFOHLEN, den Staat im ISO 3 Ländercode anzugeben.</assert>
    </rule>

   <!--
Template derived rules for ID: 1.2.40.0.34.6.0.11.9.25
Context: *[hl7:templateId[@root = '1.2.40.0.34.6.0.11.3.15']]/hl7:act[hl7:code[(@code = '26436-6' and @codeSystem = '2.16.840.1.113883.6.1')]]/hl7:author[hl7:assignedAuthor]/hl7:assignedAuthor/hl7:addr[not(@nullFlavor)]/hl7:additionalLocator
Item: (atcdabbr_other_AddressCompilation)
-->
    <rule context="*[hl7:templateId[@root = '1.2.40.0.34.6.0.11.3.15']]/hl7:act[hl7:code[(@code = '26436-6' and @codeSystem = '2.16.840.1.113883.6.1')]]/hl7:author[hl7:assignedAuthor]/hl7:assignedAuthor/hl7:addr[not(@nullFlavor)]/hl7:additionalLocator">
        <extends rule="ADXP"/>
        <assert role="error" see="http://art-decor.org/art-decor/decor-templates--elgaimpf-?id=1.2.40.0.34.6.0.11.9.25" test="(local-name-from-QName(resolve-QName(@xsi:type,.))='ADXP' and namespace-uri-from-QName(resolve-QName(@xsi:type,.))='urn:hl7-org:v3') or not(@xsi:type)">(atcdabbr_other_AddressCompilation): Wenn eine @xsi:type Instruktion anwesend ist MUSS diese den Wert "{urn:hl7-org:v3}:ADXP" haben. Gefunden "{<value-of select="namespace-uri-from-QName(resolve-QName(@xsi:type,.))"/>}:<value-of select="local-name-from-QName(resolve-QName(@xsi:type,.))"/>"</assert>
    </rule>

   <!--
Template derived rules for ID: 1.2.40.0.34.6.0.11.9.8
Context: *[hl7:templateId[@root = '1.2.40.0.34.6.0.11.3.15']]/hl7:act[hl7:code[(@code = '26436-6' and @codeSystem = '2.16.840.1.113883.6.1')]]/hl7:author[hl7:assignedAuthor]/hl7:assignedAuthor/hl7:telecom[not(@nullFlavor)]
Item: (atcdabbr_other_AuthorBody_eImpfpass)
-->
    <rule context="*[hl7:templateId[@root = '1.2.40.0.34.6.0.11.3.15']]/hl7:act[hl7:code[(@code = '26436-6' and @codeSystem = '2.16.840.1.113883.6.1')]]/hl7:author[hl7:assignedAuthor]/hl7:assignedAuthor/hl7:telecom[not(@nullFlavor)]">
        <extends rule="TEL.AT"/>
        <assert role="error" see="http://art-decor.org/art-decor/decor-templates--elgaimpf-?id=1.2.40.0.34.6.0.11.9.8" test="(local-name-from-QName(resolve-QName(@xsi:type,.))='TEL' and namespace-uri-from-QName(resolve-QName(@xsi:type,.))='urn:hl7-org:v3') or not(@xsi:type)">(atcdabbr_other_AuthorBody_eImpfpass): Wenn eine @xsi:type Instruktion anwesend ist MUSS diese den Wert "{urn:hl7-org:v3}:TEL" haben. Gefunden "{<value-of select="namespace-uri-from-QName(resolve-QName(@xsi:type,.))"/>}:<value-of select="local-name-from-QName(resolve-QName(@xsi:type,.))"/>"</assert>
        <assert role="error" see="http://art-decor.org/art-decor/decor-templates--elgaimpf-?id=1.2.40.0.34.6.0.11.9.8" test="@value">(atcdabbr_other_AuthorBody_eImpfpass): Attribut @value MUSS vorkommen.</assert>
        <assert role="error" see="http://art-decor.org/art-decor/decor-templates--elgaimpf-?id=1.2.40.0.34.6.0.11.9.8" test="not(@value) or string-length(@value)&gt;0">(atcdabbr_other_AuthorBody_eImpfpass): Attribute @value MUSS vom Datentyp 'st' sein  - '<value-of select="@value"/>'</assert>
        <assert role="error" see="http://art-decor.org/art-decor/decor-templates--elgaimpf-?id=1.2.40.0.34.6.0.11.9.8" test="not(@use) or string-length(@use) &gt; 0">(atcdabbr_other_AuthorBody_eImpfpass): Attribute @use MUSS vom Datentyp 'set_cs' sein  - '<value-of select="@use"/>'</assert>
    </rule>

   <!--
Template derived rules for ID: 1.2.40.0.34.6.0.11.9.8
Context: *[hl7:templateId[@root = '1.2.40.0.34.6.0.11.3.15']]/hl7:act[hl7:code[(@code = '26436-6' and @codeSystem = '2.16.840.1.113883.6.1')]]/hl7:author[hl7:assignedAuthor]/hl7:assignedAuthor/hl7:assignedPerson
Item: (atcdabbr_other_AuthorBody_eImpfpass)
-->
    <rule context="*[hl7:templateId[@root = '1.2.40.0.34.6.0.11.3.15']]/hl7:act[hl7:code[(@code = '26436-6' and @codeSystem = '2.16.840.1.113883.6.1')]]/hl7:author[hl7:assignedAuthor]/hl7:assignedAuthor/hl7:assignedPerson">
        <assert role="error" see="http://art-decor.org/art-decor/decor-templates--elgaimpf-?id=1.2.40.0.34.6.0.11.9.8" test="string(@classCode) = ('PSN') or not(@classCode)">(atcdabbr_other_AuthorBody_eImpfpass): Der Wert von classCode MUSS 'PSN' sein. Gefunden: "<value-of select="@classCode"/>"</assert>
        <assert role="error" see="http://art-decor.org/art-decor/decor-templates--elgaimpf-?id=1.2.40.0.34.6.0.11.9.8" test="string(@determinerCode) = ('INSTANCE') or not(@determinerCode)">(atcdabbr_other_AuthorBody_eImpfpass): Der Wert von determinerCode MUSS 'INSTANCE' sein. Gefunden: "<value-of select="@determinerCode"/>"</assert>
        <let name="elmcount" value="count(hl7:name[not(@nullFlavor)] | hl7:name[@nullFlavor='UNK'] | hl7:name[@nullFlavor='MSK'])"/>
        <assert role="error" see="http://art-decor.org/art-decor/decor-templates--elgaimpf-?id=1.2.40.0.34.6.0.11.9.8" test="$elmcount &gt;= 1">(atcdabbr_other_AuthorBody_eImpfpass): Auswahl (hl7:name[not(@nullFlavor)]  oder  hl7:name[@nullFlavor='UNK']  oder  hl7:name[@nullFlavor='MSK']) enthält nicht genügend Elemente [min 1x]</assert>
        <assert role="error" see="http://art-decor.org/art-decor/decor-templates--elgaimpf-?id=1.2.40.0.34.6.0.11.9.8" test="$elmcount &lt;= 1">(atcdabbr_other_AuthorBody_eImpfpass): Auswahl (hl7:name[not(@nullFlavor)]  oder  hl7:name[@nullFlavor='UNK']  oder  hl7:name[@nullFlavor='MSK']) enthält zu viele Elemente [max 1x]</assert>
        <assert role="error" see="http://art-decor.org/art-decor/decor-templates--elgaimpf-?id=1.2.40.0.34.6.0.11.9.8" test="count(hl7:name[not(@nullFlavor)]) &lt;= 1">(atcdabbr_other_AuthorBody_eImpfpass): Element hl7:name[not(@nullFlavor)] kommt zu häufig vor [max 1x].</assert>
        <assert role="error" see="http://art-decor.org/art-decor/decor-templates--elgaimpf-?id=1.2.40.0.34.6.0.11.9.8" test="count(hl7:name[@nullFlavor='UNK']) &lt;= 1">(atcdabbr_other_AuthorBody_eImpfpass): Element hl7:name[@nullFlavor='UNK'] kommt zu häufig vor [max 1x].</assert>
        <assert role="error" see="http://art-decor.org/art-decor/decor-templates--elgaimpf-?id=1.2.40.0.34.6.0.11.9.8" test="count(hl7:name[@nullFlavor='MSK']) &lt;= 1">(atcdabbr_other_AuthorBody_eImpfpass): Element hl7:name[@nullFlavor='MSK'] kommt zu häufig vor [max 1x].</assert>
    </rule>

   <!--
Template derived rules for ID: 1.2.40.0.34.6.0.11.9.6
Context: *[hl7:templateId[@root = '1.2.40.0.34.6.0.11.3.15']]/hl7:act[hl7:code[(@code = '26436-6' and @codeSystem = '2.16.840.1.113883.6.1')]]/hl7:author[hl7:assignedAuthor]/hl7:assignedAuthor/hl7:assignedPerson
Item: (atcdabbr_other_PersonNameCompilationG2)
-->

<!--
Template derived rules for ID: 1.2.40.0.34.6.0.11.9.6
Context: *[hl7:templateId[@root = '1.2.40.0.34.6.0.11.3.15']]/hl7:act[hl7:code[(@code = '26436-6' and @codeSystem = '2.16.840.1.113883.6.1')]]/hl7:author[hl7:assignedAuthor]/hl7:assignedAuthor/hl7:assignedPerson/hl7:name[not(@nullFlavor)]
Item: (atcdabbr_other_PersonNameCompilationG2)
-->
    <rule context="*[hl7:templateId[@root = '1.2.40.0.34.6.0.11.3.15']]/hl7:act[hl7:code[(@code = '26436-6' and @codeSystem = '2.16.840.1.113883.6.1')]]/hl7:author[hl7:assignedAuthor]/hl7:assignedAuthor/hl7:assignedPerson/hl7:name[not(@nullFlavor)]">
        <extends rule="PN"/>
        <assert role="error" see="http://art-decor.org/art-decor/decor-templates--elgaimpf-?id=1.2.40.0.34.6.0.11.9.6" test="(local-name-from-QName(resolve-QName(@xsi:type,.))='PN' and namespace-uri-from-QName(resolve-QName(@xsi:type,.))='urn:hl7-org:v3') or not(@xsi:type)">(atcdabbr_other_PersonNameCompilationG2): Wenn eine @xsi:type Instruktion anwesend ist MUSS diese den Wert "{urn:hl7-org:v3}:PN" haben. Gefunden "{<value-of select="namespace-uri-from-QName(resolve-QName(@xsi:type,.))"/>}:<value-of select="local-name-from-QName(resolve-QName(@xsi:type,.))"/>"</assert>
        <assert role="error" see="http://art-decor.org/art-decor/decor-templates--elgaimpf-?id=1.2.40.0.34.6.0.11.9.6" test="not(@use) or (string-length(@use) &gt; 0 and not(matches(@use,'\s')))">(atcdabbr_other_PersonNameCompilationG2): Attribute @use MUSS vom Datentyp 'cs' sein  - '<value-of select="@use"/>'</assert>
        <assert role="error" see="http://art-decor.org/art-decor/decor-templates--elgaimpf-?id=1.2.40.0.34.6.0.11.9.6" test="count(hl7:family[not(@nullFlavor)]) &gt;= 1">(atcdabbr_other_PersonNameCompilationG2): Element hl7:family[not(@nullFlavor)] ist mandatory [min 1x].</assert>
        <assert role="error" see="http://art-decor.org/art-decor/decor-templates--elgaimpf-?id=1.2.40.0.34.6.0.11.9.6" test="count(hl7:given[not(@nullFlavor)]) &gt;= 1">(atcdabbr_other_PersonNameCompilationG2): Element hl7:given[not(@nullFlavor)] ist mandatory [min 1x].</assert>
    </rule>

   <!--
Template derived rules for ID: 1.2.40.0.34.6.0.11.9.6
Context: *[hl7:templateId[@root = '1.2.40.0.34.6.0.11.3.15']]/hl7:act[hl7:code[(@code = '26436-6' and @codeSystem = '2.16.840.1.113883.6.1')]]/hl7:author[hl7:assignedAuthor]/hl7:assignedAuthor/hl7:assignedPerson/hl7:name[not(@nullFlavor)]/hl7:prefix
Item: (atcdabbr_other_PersonNameCompilationG2)
-->
    <rule context="*[hl7:templateId[@root = '1.2.40.0.34.6.0.11.3.15']]/hl7:act[hl7:code[(@code = '26436-6' and @codeSystem = '2.16.840.1.113883.6.1')]]/hl7:author[hl7:assignedAuthor]/hl7:assignedAuthor/hl7:assignedPerson/hl7:name[not(@nullFlavor)]/hl7:prefix">
        <extends rule="ENXP"/>
        <assert role="error" see="http://art-decor.org/art-decor/decor-templates--elgaimpf-?id=1.2.40.0.34.6.0.11.9.6" test="(local-name-from-QName(resolve-QName(@xsi:type,.))='ENXP' and namespace-uri-from-QName(resolve-QName(@xsi:type,.))='urn:hl7-org:v3') or not(@xsi:type)">(atcdabbr_other_PersonNameCompilationG2): Wenn eine @xsi:type Instruktion anwesend ist MUSS diese den Wert "{urn:hl7-org:v3}:ENXP" haben. Gefunden "{<value-of select="namespace-uri-from-QName(resolve-QName(@xsi:type,.))"/>}:<value-of select="local-name-from-QName(resolve-QName(@xsi:type,.))"/>"</assert>
        <let name="theAttValue" value="distinct-values(tokenize(normalize-space(@qualifier),'\s'))"/>
        <assert role="error" see="http://art-decor.org/art-decor/decor-templates--elgaimpf-?id=1.2.40.0.34.6.0.11.9.6" test="not(@qualifier) or empty($theAttValue[not(. = (doc('include/voc-1.2.40.0.34.6.0.10.8-DYNAMIC.xml')/*/valueSet/conceptList/concept/@code))])">(atcdabbr_other_PersonNameCompilationG2): Der Wert von qualifier MUSS gewählt werden aus Value Set '1.2.40.0.34.6.0.10.8' ELGA_EntityNamePartQualifier_VS (DYNAMIC).</assert>
    </rule>

   <!--
Template derived rules for ID: 1.2.40.0.34.6.0.11.9.6
Context: *[hl7:templateId[@root = '1.2.40.0.34.6.0.11.3.15']]/hl7:act[hl7:code[(@code = '26436-6' and @codeSystem = '2.16.840.1.113883.6.1')]]/hl7:author[hl7:assignedAuthor]/hl7:assignedAuthor/hl7:assignedPerson/hl7:name[not(@nullFlavor)]/hl7:family[not(@nullFlavor)]
Item: (atcdabbr_other_PersonNameCompilationG2)
-->
    <rule context="*[hl7:templateId[@root = '1.2.40.0.34.6.0.11.3.15']]/hl7:act[hl7:code[(@code = '26436-6' and @codeSystem = '2.16.840.1.113883.6.1')]]/hl7:author[hl7:assignedAuthor]/hl7:assignedAuthor/hl7:assignedPerson/hl7:name[not(@nullFlavor)]/hl7:family[not(@nullFlavor)]">
        <extends rule="ENXP"/>
        <assert role="error" see="http://art-decor.org/art-decor/decor-templates--elgaimpf-?id=1.2.40.0.34.6.0.11.9.6" test="(local-name-from-QName(resolve-QName(@xsi:type,.))='ENXP' and namespace-uri-from-QName(resolve-QName(@xsi:type,.))='urn:hl7-org:v3') or not(@xsi:type)">(atcdabbr_other_PersonNameCompilationG2): Wenn eine @xsi:type Instruktion anwesend ist MUSS diese den Wert "{urn:hl7-org:v3}:ENXP" haben. Gefunden "{<value-of select="namespace-uri-from-QName(resolve-QName(@xsi:type,.))"/>}:<value-of select="local-name-from-QName(resolve-QName(@xsi:type,.))"/>"</assert>
        <let name="theAttValue" value="distinct-values(tokenize(normalize-space(@qualifier),'\s'))"/>
        <assert role="error" see="http://art-decor.org/art-decor/decor-templates--elgaimpf-?id=1.2.40.0.34.6.0.11.9.6" test="not(@qualifier) or empty($theAttValue[not(. = (doc('include/voc-1.2.40.0.34.6.0.10.8-DYNAMIC.xml')/*/valueSet/conceptList/concept/@code))])">(atcdabbr_other_PersonNameCompilationG2): Der Wert von qualifier MUSS gewählt werden aus Value Set '1.2.40.0.34.6.0.10.8' ELGA_EntityNamePartQualifier_VS (DYNAMIC).</assert>
    </rule>

   <!--
Template derived rules for ID: 1.2.40.0.34.6.0.11.9.6
Context: *[hl7:templateId[@root = '1.2.40.0.34.6.0.11.3.15']]/hl7:act[hl7:code[(@code = '26436-6' and @codeSystem = '2.16.840.1.113883.6.1')]]/hl7:author[hl7:assignedAuthor]/hl7:assignedAuthor/hl7:assignedPerson/hl7:name[not(@nullFlavor)]/hl7:given[not(@nullFlavor)]
Item: (atcdabbr_other_PersonNameCompilationG2)
-->
    <rule context="*[hl7:templateId[@root = '1.2.40.0.34.6.0.11.3.15']]/hl7:act[hl7:code[(@code = '26436-6' and @codeSystem = '2.16.840.1.113883.6.1')]]/hl7:author[hl7:assignedAuthor]/hl7:assignedAuthor/hl7:assignedPerson/hl7:name[not(@nullFlavor)]/hl7:given[not(@nullFlavor)]">
        <extends rule="ENXP"/>
        <assert role="error" see="http://art-decor.org/art-decor/decor-templates--elgaimpf-?id=1.2.40.0.34.6.0.11.9.6" test="(local-name-from-QName(resolve-QName(@xsi:type,.))='ENXP' and namespace-uri-from-QName(resolve-QName(@xsi:type,.))='urn:hl7-org:v3') or not(@xsi:type)">(atcdabbr_other_PersonNameCompilationG2): Wenn eine @xsi:type Instruktion anwesend ist MUSS diese den Wert "{urn:hl7-org:v3}:ENXP" haben. Gefunden "{<value-of select="namespace-uri-from-QName(resolve-QName(@xsi:type,.))"/>}:<value-of select="local-name-from-QName(resolve-QName(@xsi:type,.))"/>"</assert>
        <let name="theAttValue" value="distinct-values(tokenize(normalize-space(@qualifier),'\s'))"/>
        <assert role="error" see="http://art-decor.org/art-decor/decor-templates--elgaimpf-?id=1.2.40.0.34.6.0.11.9.6" test="not(@qualifier) or empty($theAttValue[not(. = (doc('include/voc-1.2.40.0.34.6.0.10.8-DYNAMIC.xml')/*/valueSet/conceptList/concept/@code))])">(atcdabbr_other_PersonNameCompilationG2): Der Wert von qualifier MUSS gewählt werden aus Value Set '1.2.40.0.34.6.0.10.8' ELGA_EntityNamePartQualifier_VS (DYNAMIC).</assert>
    </rule>

   <!--
Template derived rules for ID: 1.2.40.0.34.6.0.11.9.6
Context: *[hl7:templateId[@root = '1.2.40.0.34.6.0.11.3.15']]/hl7:act[hl7:code[(@code = '26436-6' and @codeSystem = '2.16.840.1.113883.6.1')]]/hl7:author[hl7:assignedAuthor]/hl7:assignedAuthor/hl7:assignedPerson/hl7:name[not(@nullFlavor)]/hl7:suffix
Item: (atcdabbr_other_PersonNameCompilationG2)
-->
    <rule context="*[hl7:templateId[@root = '1.2.40.0.34.6.0.11.3.15']]/hl7:act[hl7:code[(@code = '26436-6' and @codeSystem = '2.16.840.1.113883.6.1')]]/hl7:author[hl7:assignedAuthor]/hl7:assignedAuthor/hl7:assignedPerson/hl7:name[not(@nullFlavor)]/hl7:suffix">
        <extends rule="ENXP"/>
        <assert role="error" see="http://art-decor.org/art-decor/decor-templates--elgaimpf-?id=1.2.40.0.34.6.0.11.9.6" test="(local-name-from-QName(resolve-QName(@xsi:type,.))='ENXP' and namespace-uri-from-QName(resolve-QName(@xsi:type,.))='urn:hl7-org:v3') or not(@xsi:type)">(atcdabbr_other_PersonNameCompilationG2): Wenn eine @xsi:type Instruktion anwesend ist MUSS diese den Wert "{urn:hl7-org:v3}:ENXP" haben. Gefunden "{<value-of select="namespace-uri-from-QName(resolve-QName(@xsi:type,.))"/>}:<value-of select="local-name-from-QName(resolve-QName(@xsi:type,.))"/>"</assert>
        <let name="theAttValue" value="distinct-values(tokenize(normalize-space(@qualifier),'\s'))"/>
        <assert role="error" see="http://art-decor.org/art-decor/decor-templates--elgaimpf-?id=1.2.40.0.34.6.0.11.9.6" test="not(@qualifier) or empty($theAttValue[not(. = (doc('include/voc-1.2.40.0.34.6.0.10.8-DYNAMIC.xml')/*/valueSet/conceptList/concept/@code))])">(atcdabbr_other_PersonNameCompilationG2): Der Wert von qualifier MUSS gewählt werden aus Value Set '1.2.40.0.34.6.0.10.8' ELGA_EntityNamePartQualifier_VS (DYNAMIC).</assert>
    </rule>

   <!--
Template derived rules for ID: 1.2.40.0.34.6.0.11.9.6
Context: *[hl7:templateId[@root = '1.2.40.0.34.6.0.11.3.15']]/hl7:act[hl7:code[(@code = '26436-6' and @codeSystem = '2.16.840.1.113883.6.1')]]/hl7:author[hl7:assignedAuthor]/hl7:assignedAuthor/hl7:assignedPerson/hl7:name[@nullFlavor='UNK']
Item: (atcdabbr_other_PersonNameCompilationG2)
-->
    <rule context="*[hl7:templateId[@root = '1.2.40.0.34.6.0.11.3.15']]/hl7:act[hl7:code[(@code = '26436-6' and @codeSystem = '2.16.840.1.113883.6.1')]]/hl7:author[hl7:assignedAuthor]/hl7:assignedAuthor/hl7:assignedPerson/hl7:name[@nullFlavor='UNK']">
        <extends rule="PN"/>
        <assert role="error" see="http://art-decor.org/art-decor/decor-templates--elgaimpf-?id=1.2.40.0.34.6.0.11.9.6" test="(local-name-from-QName(resolve-QName(@xsi:type,.))='PN' and namespace-uri-from-QName(resolve-QName(@xsi:type,.))='urn:hl7-org:v3') or not(@xsi:type)">(atcdabbr_other_PersonNameCompilationG2): Wenn eine @xsi:type Instruktion anwesend ist MUSS diese den Wert "{urn:hl7-org:v3}:PN" haben. Gefunden "{<value-of select="namespace-uri-from-QName(resolve-QName(@xsi:type,.))"/>}:<value-of select="local-name-from-QName(resolve-QName(@xsi:type,.))"/>"</assert>
        <assert role="error" see="http://art-decor.org/art-decor/decor-templates--elgaimpf-?id=1.2.40.0.34.6.0.11.9.6" test="string(@nullFlavor) = ('UNK')">(atcdabbr_other_PersonNameCompilationG2): Der Wert von nullFlavor MUSS 'UNK' sein. Gefunden: "<value-of select="@nullFlavor"/>"</assert>
    </rule>

   <!--
Template derived rules for ID: 1.2.40.0.34.6.0.11.9.6
Context: *[hl7:templateId[@root = '1.2.40.0.34.6.0.11.3.15']]/hl7:act[hl7:code[(@code = '26436-6' and @codeSystem = '2.16.840.1.113883.6.1')]]/hl7:author[hl7:assignedAuthor]/hl7:assignedAuthor/hl7:assignedPerson/hl7:name[@nullFlavor='MSK']
Item: (atcdabbr_other_PersonNameCompilationG2)
-->
    <rule context="*[hl7:templateId[@root = '1.2.40.0.34.6.0.11.3.15']]/hl7:act[hl7:code[(@code = '26436-6' and @codeSystem = '2.16.840.1.113883.6.1')]]/hl7:author[hl7:assignedAuthor]/hl7:assignedAuthor/hl7:assignedPerson/hl7:name[@nullFlavor='MSK']">
        <extends rule="PN"/>
        <assert role="error" see="http://art-decor.org/art-decor/decor-templates--elgaimpf-?id=1.2.40.0.34.6.0.11.9.6" test="(local-name-from-QName(resolve-QName(@xsi:type,.))='PN' and namespace-uri-from-QName(resolve-QName(@xsi:type,.))='urn:hl7-org:v3') or not(@xsi:type)">(atcdabbr_other_PersonNameCompilationG2): Wenn eine @xsi:type Instruktion anwesend ist MUSS diese den Wert "{urn:hl7-org:v3}:PN" haben. Gefunden "{<value-of select="namespace-uri-from-QName(resolve-QName(@xsi:type,.))"/>}:<value-of select="local-name-from-QName(resolve-QName(@xsi:type,.))"/>"</assert>
        <assert role="error" see="http://art-decor.org/art-decor/decor-templates--elgaimpf-?id=1.2.40.0.34.6.0.11.9.6" test="string(@nullFlavor) = ('MSK')">(atcdabbr_other_PersonNameCompilationG2): Der Wert von nullFlavor MUSS 'MSK' sein. Gefunden: "<value-of select="@nullFlavor"/>"</assert>
    </rule>

   <!--
Template derived rules for ID: 1.2.40.0.34.6.0.11.9.8
Context: *[hl7:templateId[@root = '1.2.40.0.34.6.0.11.3.15']]/hl7:act[hl7:code[(@code = '26436-6' and @codeSystem = '2.16.840.1.113883.6.1')]]/hl7:author[hl7:assignedAuthor]/hl7:assignedAuthor/hl7:assignedAuthoringDevice
Item: (atcdabbr_other_AuthorBody_eImpfpass)
-->

<!--
Template derived rules for ID: 1.2.40.0.34.6.0.11.9.18
Context: *[hl7:templateId[@root = '1.2.40.0.34.6.0.11.3.15']]/hl7:act[hl7:code[(@code = '26436-6' and @codeSystem = '2.16.840.1.113883.6.1')]]/hl7:author[hl7:assignedAuthor]/hl7:assignedAuthor/hl7:assignedAuthoringDevice
Item: (atcdabbr_other_DeviceCompilation)
-->
    <rule context="*[hl7:templateId[@root = '1.2.40.0.34.6.0.11.3.15']]/hl7:act[hl7:code[(@code = '26436-6' and @codeSystem = '2.16.840.1.113883.6.1')]]/hl7:author[hl7:assignedAuthor]/hl7:assignedAuthor/hl7:assignedAuthoringDevice">
        <assert role="error" see="http://art-decor.org/art-decor/decor-templates--elgaimpf-?id=1.2.40.0.34.6.0.11.9.18" test="string(@classCode) = ('DEV') or not(@classCode)">(atcdabbr_other_DeviceCompilation): Der Wert von classCode MUSS 'DEV' sein. Gefunden: "<value-of select="@classCode"/>"</assert>
        <assert role="error" see="http://art-decor.org/art-decor/decor-templates--elgaimpf-?id=1.2.40.0.34.6.0.11.9.18" test="string(@determinerCode) = ('INSTANCE') or not(@determinerCode)">(atcdabbr_other_DeviceCompilation): Der Wert von determinerCode MUSS 'INSTANCE' sein. Gefunden: "<value-of select="@determinerCode"/>"</assert>
        <assert role="error" see="http://art-decor.org/art-decor/decor-templates--elgaimpf-?id=1.2.40.0.34.6.0.11.9.18" test="count(hl7:manufacturerModelName[not(@nullFlavor)]) &gt;= 1">(atcdabbr_other_DeviceCompilation): Element hl7:manufacturerModelName[not(@nullFlavor)] ist mandatory [min 1x].</assert>
        <assert role="error" see="http://art-decor.org/art-decor/decor-templates--elgaimpf-?id=1.2.40.0.34.6.0.11.9.18" test="count(hl7:manufacturerModelName[not(@nullFlavor)]) &lt;= 1">(atcdabbr_other_DeviceCompilation): Element hl7:manufacturerModelName[not(@nullFlavor)] kommt zu häufig vor [max 1x].</assert>
        <assert role="error" see="http://art-decor.org/art-decor/decor-templates--elgaimpf-?id=1.2.40.0.34.6.0.11.9.18" test="count(hl7:softwareName[not(@nullFlavor)]) &gt;= 1">(atcdabbr_other_DeviceCompilation): Element hl7:softwareName[not(@nullFlavor)] ist mandatory [min 1x].</assert>
        <assert role="error" see="http://art-decor.org/art-decor/decor-templates--elgaimpf-?id=1.2.40.0.34.6.0.11.9.18" test="count(hl7:softwareName[not(@nullFlavor)]) &lt;= 1">(atcdabbr_other_DeviceCompilation): Element hl7:softwareName[not(@nullFlavor)] kommt zu häufig vor [max 1x].</assert>
    </rule>

   <!--
Template derived rules for ID: 1.2.40.0.34.6.0.11.9.18
Context: *[hl7:templateId[@root = '1.2.40.0.34.6.0.11.3.15']]/hl7:act[hl7:code[(@code = '26436-6' and @codeSystem = '2.16.840.1.113883.6.1')]]/hl7:author[hl7:assignedAuthor]/hl7:assignedAuthor/hl7:assignedAuthoringDevice/hl7:manufacturerModelName[not(@nullFlavor)]
Item: (atcdabbr_other_DeviceCompilation)
-->
    <rule context="*[hl7:templateId[@root = '1.2.40.0.34.6.0.11.3.15']]/hl7:act[hl7:code[(@code = '26436-6' and @codeSystem = '2.16.840.1.113883.6.1')]]/hl7:author[hl7:assignedAuthor]/hl7:assignedAuthor/hl7:assignedAuthoringDevice/hl7:manufacturerModelName[not(@nullFlavor)]">
        <extends rule="SC"/>
        <assert role="error" see="http://art-decor.org/art-decor/decor-templates--elgaimpf-?id=1.2.40.0.34.6.0.11.9.18" test="(local-name-from-QName(resolve-QName(@xsi:type,.))='SC' and namespace-uri-from-QName(resolve-QName(@xsi:type,.))='urn:hl7-org:v3') or not(@xsi:type)">(atcdabbr_other_DeviceCompilation): Wenn eine @xsi:type Instruktion anwesend ist MUSS diese den Wert "{urn:hl7-org:v3}:SC" haben. Gefunden "{<value-of select="namespace-uri-from-QName(resolve-QName(@xsi:type,.))"/>}:<value-of select="local-name-from-QName(resolve-QName(@xsi:type,.))"/>"</assert>
    </rule>

   <!--
Template derived rules for ID: 1.2.40.0.34.6.0.11.9.18
Context: *[hl7:templateId[@root = '1.2.40.0.34.6.0.11.3.15']]/hl7:act[hl7:code[(@code = '26436-6' and @codeSystem = '2.16.840.1.113883.6.1')]]/hl7:author[hl7:assignedAuthor]/hl7:assignedAuthor/hl7:assignedAuthoringDevice/hl7:softwareName[not(@nullFlavor)]
Item: (atcdabbr_other_DeviceCompilation)
-->
    <rule context="*[hl7:templateId[@root = '1.2.40.0.34.6.0.11.3.15']]/hl7:act[hl7:code[(@code = '26436-6' and @codeSystem = '2.16.840.1.113883.6.1')]]/hl7:author[hl7:assignedAuthor]/hl7:assignedAuthor/hl7:assignedAuthoringDevice/hl7:softwareName[not(@nullFlavor)]">
        <extends rule="SC"/>
        <assert role="error" see="http://art-decor.org/art-decor/decor-templates--elgaimpf-?id=1.2.40.0.34.6.0.11.9.18" test="(local-name-from-QName(resolve-QName(@xsi:type,.))='SC' and namespace-uri-from-QName(resolve-QName(@xsi:type,.))='urn:hl7-org:v3') or not(@xsi:type)">(atcdabbr_other_DeviceCompilation): Wenn eine @xsi:type Instruktion anwesend ist MUSS diese den Wert "{urn:hl7-org:v3}:SC" haben. Gefunden "{<value-of select="namespace-uri-from-QName(resolve-QName(@xsi:type,.))"/>}:<value-of select="local-name-from-QName(resolve-QName(@xsi:type,.))"/>"</assert>
    </rule>

   <!--
Template derived rules for ID: 1.2.40.0.34.6.0.11.9.8
Context: *[hl7:templateId[@root = '1.2.40.0.34.6.0.11.3.15']]/hl7:act[hl7:code[(@code = '26436-6' and @codeSystem = '2.16.840.1.113883.6.1')]]/hl7:author[hl7:assignedAuthor]/hl7:assignedAuthor/hl7:representedOrganization
Item: (atcdabbr_other_AuthorBody_eImpfpass)
-->
    <rule context="*[hl7:templateId[@root = '1.2.40.0.34.6.0.11.3.15']]/hl7:act[hl7:code[(@code = '26436-6' and @codeSystem = '2.16.840.1.113883.6.1')]]/hl7:author[hl7:assignedAuthor]/hl7:assignedAuthor/hl7:representedOrganization">
        <extends rule="d414675e0-false-d414691e0"/>
    </rule>

   <!--
Template derived rules for ID: 1.2.40.0.34.6.0.11.9.5
Context: *[hl7:templateId[@root = '1.2.40.0.34.6.0.11.3.15']]/hl7:act[hl7:code[(@code = '26436-6' and @codeSystem = '2.16.840.1.113883.6.1')]]/hl7:author[hl7:assignedAuthor]/hl7:assignedAuthor/hl7:representedOrganization
Item: (atcdabbr_other_OrganizationCompilationWithIdName)
-->
    <rule id="d414675e0-false-d414691e0" abstract="true">
        <assert role="error" see="http://art-decor.org/art-decor/decor-templates--elgaimpf-?id=1.2.40.0.34.6.0.11.9.5" test="string(@classCode) = ('ORG') or not(@classCode)">(atcdabbr_other_OrganizationCompilationWithIdName): Der Wert von classCode MUSS 'ORG' sein. Gefunden: "<value-of select="@classCode"/>"</assert>
        <assert role="error" see="http://art-decor.org/art-decor/decor-templates--elgaimpf-?id=1.2.40.0.34.6.0.11.9.5" test="string(@determinerCode) = ('INSTANCE') or not(@determinerCode)">(atcdabbr_other_OrganizationCompilationWithIdName): Der Wert von determinerCode MUSS 'INSTANCE' sein. Gefunden: "<value-of select="@determinerCode"/>"</assert>
        <assert role="error" see="http://art-decor.org/art-decor/decor-templates--elgaimpf-?id=1.2.40.0.34.6.0.11.9.5" test="count(hl7:telecom)&lt;2 or (count(hl7:telecom) = count(hl7:telecom[@use]))">(atcdabbr_other_OrganizationCompilationWithIdName): Das Attribut telecom/@use MUSS bei allen telecom Elementen strukturiert sein.</assert>
        <assert role="error" see="http://art-decor.org/art-decor/decor-templates--elgaimpf-?id=1.2.40.0.34.6.0.11.9.5" test="count(hl7:id[not(@nullFlavor)]) &gt;= 1">(atcdabbr_other_OrganizationCompilationWithIdName): Element hl7:id[not(@nullFlavor)] ist mandatory [min 1x].</assert>
        <assert role="error" see="http://art-decor.org/art-decor/decor-templates--elgaimpf-?id=1.2.40.0.34.6.0.11.9.5" test="count(hl7:name[not(@nullFlavor)]) &gt;= 1">(atcdabbr_other_OrganizationCompilationWithIdName): Element hl7:name[not(@nullFlavor)] ist mandatory [min 1x].</assert>
        <assert role="error" see="http://art-decor.org/art-decor/decor-templates--elgaimpf-?id=1.2.40.0.34.6.0.11.9.5" test="count(hl7:name[not(@nullFlavor)]) &lt;= 1">(atcdabbr_other_OrganizationCompilationWithIdName): Element hl7:name[not(@nullFlavor)] kommt zu häufig vor [max 1x].</assert>
        <assert role="error" see="http://art-decor.org/art-decor/decor-templates--elgaimpf-?id=1.2.40.0.34.6.0.11.9.5" test="count(hl7:addr[not(@nullFlavor)]) &lt;= 1">(atcdabbr_other_OrganizationCompilationWithIdName): Element hl7:addr[not(@nullFlavor)] kommt zu häufig vor [max 1x].</assert>
    </rule>

   <!--
Template derived rules for ID: 1.2.40.0.34.6.0.11.9.5
Context: *[hl7:templateId[@root = '1.2.40.0.34.6.0.11.3.15']]/hl7:act[hl7:code[(@code = '26436-6' and @codeSystem = '2.16.840.1.113883.6.1')]]/hl7:author[hl7:assignedAuthor]/hl7:assignedAuthor/hl7:representedOrganization/hl7:id[not(@nullFlavor)]
Item: (atcdabbr_other_OrganizationCompilationWithIdName)
-->
    <rule context="*[hl7:templateId[@root = '1.2.40.0.34.6.0.11.3.15']]/hl7:act[hl7:code[(@code = '26436-6' and @codeSystem = '2.16.840.1.113883.6.1')]]/hl7:author[hl7:assignedAuthor]/hl7:assignedAuthor/hl7:representedOrganization/hl7:id[not(@nullFlavor)]">
        <extends rule="II"/>
        <assert role="error" see="http://art-decor.org/art-decor/decor-templates--elgaimpf-?id=1.2.40.0.34.6.0.11.9.5" test="(local-name-from-QName(resolve-QName(@xsi:type,.))='II' and namespace-uri-from-QName(resolve-QName(@xsi:type,.))='urn:hl7-org:v3') or not(@xsi:type)">(atcdabbr_other_OrganizationCompilationWithIdName): Wenn eine @xsi:type Instruktion anwesend ist MUSS diese den Wert "{urn:hl7-org:v3}:II" haben. Gefunden "{<value-of select="namespace-uri-from-QName(resolve-QName(@xsi:type,.))"/>}:<value-of select="local-name-from-QName(resolve-QName(@xsi:type,.))"/>"</assert>
    </rule>

   <!--
Template derived rules for ID: 1.2.40.0.34.6.0.11.9.5
Context: *[hl7:templateId[@root = '1.2.40.0.34.6.0.11.3.15']]/hl7:act[hl7:code[(@code = '26436-6' and @codeSystem = '2.16.840.1.113883.6.1')]]/hl7:author[hl7:assignedAuthor]/hl7:assignedAuthor/hl7:representedOrganization/hl7:name[not(@nullFlavor)]
Item: (atcdabbr_other_OrganizationCompilationWithIdName)
-->
    <rule context="*[hl7:templateId[@root = '1.2.40.0.34.6.0.11.3.15']]/hl7:act[hl7:code[(@code = '26436-6' and @codeSystem = '2.16.840.1.113883.6.1')]]/hl7:author[hl7:assignedAuthor]/hl7:assignedAuthor/hl7:representedOrganization/hl7:name[not(@nullFlavor)]">
        <extends rule="ON"/>
        <assert role="error" see="http://art-decor.org/art-decor/decor-templates--elgaimpf-?id=1.2.40.0.34.6.0.11.9.5" test="(local-name-from-QName(resolve-QName(@xsi:type,.))='ON' and namespace-uri-from-QName(resolve-QName(@xsi:type,.))='urn:hl7-org:v3') or not(@xsi:type)">(atcdabbr_other_OrganizationCompilationWithIdName): Wenn eine @xsi:type Instruktion anwesend ist MUSS diese den Wert "{urn:hl7-org:v3}:ON" haben. Gefunden "{<value-of select="namespace-uri-from-QName(resolve-QName(@xsi:type,.))"/>}:<value-of select="local-name-from-QName(resolve-QName(@xsi:type,.))"/>"</assert>
    </rule>

   <!--
Template derived rules for ID: 1.2.40.0.34.6.0.11.9.5
Context: *[hl7:templateId[@root = '1.2.40.0.34.6.0.11.3.15']]/hl7:act[hl7:code[(@code = '26436-6' and @codeSystem = '2.16.840.1.113883.6.1')]]/hl7:author[hl7:assignedAuthor]/hl7:assignedAuthor/hl7:representedOrganization/hl7:telecom[not(@nullFlavor)]
Item: (atcdabbr_other_OrganizationCompilationWithIdName)
-->
    <rule context="*[hl7:templateId[@root = '1.2.40.0.34.6.0.11.3.15']]/hl7:act[hl7:code[(@code = '26436-6' and @codeSystem = '2.16.840.1.113883.6.1')]]/hl7:author[hl7:assignedAuthor]/hl7:assignedAuthor/hl7:representedOrganization/hl7:telecom[not(@nullFlavor)]">
        <extends rule="TEL.AT"/>
        <assert role="error" see="http://art-decor.org/art-decor/decor-templates--elgaimpf-?id=1.2.40.0.34.6.0.11.9.5" test="(local-name-from-QName(resolve-QName(@xsi:type,.))='TEL' and namespace-uri-from-QName(resolve-QName(@xsi:type,.))='urn:hl7-org:v3') or not(@xsi:type)">(atcdabbr_other_OrganizationCompilationWithIdName): Wenn eine @xsi:type Instruktion anwesend ist MUSS diese den Wert "{urn:hl7-org:v3}:TEL" haben. Gefunden "{<value-of select="namespace-uri-from-QName(resolve-QName(@xsi:type,.))"/>}:<value-of select="local-name-from-QName(resolve-QName(@xsi:type,.))"/>"</assert>
        <assert role="error" see="http://art-decor.org/art-decor/decor-templates--elgaimpf-?id=1.2.40.0.34.6.0.11.9.5" test="@value">(atcdabbr_other_OrganizationCompilationWithIdName): Attribut @value MUSS vorkommen.</assert>
        <assert role="error" see="http://art-decor.org/art-decor/decor-templates--elgaimpf-?id=1.2.40.0.34.6.0.11.9.5" test="not(@value) or string-length(@value)&gt;0">(atcdabbr_other_OrganizationCompilationWithIdName): Attribute @value MUSS vom Datentyp 'st' sein  - '<value-of select="@value"/>'</assert>
        <assert role="error" see="http://art-decor.org/art-decor/decor-templates--elgaimpf-?id=1.2.40.0.34.6.0.11.9.5" test="not(@use) or string-length(@use) &gt; 0">(atcdabbr_other_OrganizationCompilationWithIdName): Attribute @use MUSS vom Datentyp 'set_cs' sein  - '<value-of select="@use"/>'</assert>
    </rule>

   <!--
Template derived rules for ID: 1.2.40.0.34.6.0.11.9.5
Context: *[hl7:templateId[@root = '1.2.40.0.34.6.0.11.3.15']]/hl7:act[hl7:code[(@code = '26436-6' and @codeSystem = '2.16.840.1.113883.6.1')]]/hl7:author[hl7:assignedAuthor]/hl7:assignedAuthor/hl7:representedOrganization/hl7:addr[not(@nullFlavor)]
Item: (atcdabbr_other_OrganizationCompilationWithIdName)
-->

<!--
Template derived rules for ID: 1.2.40.0.34.6.0.11.9.25
Context: *[hl7:templateId[@root = '1.2.40.0.34.6.0.11.3.15']]/hl7:act[hl7:code[(@code = '26436-6' and @codeSystem = '2.16.840.1.113883.6.1')]]/hl7:author[hl7:assignedAuthor]/hl7:assignedAuthor/hl7:representedOrganization/hl7:addr[not(@nullFlavor)]
Item: (atcdabbr_other_AddressCompilation)
-->
    <rule context="*[hl7:templateId[@root = '1.2.40.0.34.6.0.11.3.15']]/hl7:act[hl7:code[(@code = '26436-6' and @codeSystem = '2.16.840.1.113883.6.1')]]/hl7:author[hl7:assignedAuthor]/hl7:assignedAuthor/hl7:representedOrganization/hl7:addr[not(@nullFlavor)]">
        <assert role="error" see="http://art-decor.org/art-decor/decor-templates--elgaimpf-?id=1.2.40.0.34.6.0.11.9.25" test="not(@use) or (string-length(@use) &gt; 0 and not(matches(@use,'\s')))">(atcdabbr_other_AddressCompilation): Attribute @use MUSS vom Datentyp 'cs' sein  - '<value-of select="@use"/>'</assert>
        <assert role="error" see="http://art-decor.org/art-decor/decor-templates--elgaimpf-?id=1.2.40.0.34.6.0.11.9.25" test="not(hl7:streetAddressLine and (hl7:streetName or hl7:houseNumber)) or ((hl7:streetAddressLine or (hl7:streetName and hl7:houseNumber)) and not((hl7:streetAddressLine and hl7:streetName and hl7:houseNumber) or (hl7:streetAddressLine and (hl7:streetName or hl7:houseNumber))))">(atcdabbr_other_AddressCompilation): Es muss entweder streetAddressLine oder streetName UND houseNumber angegeben werden.</assert>
        <assert role="error" see="http://art-decor.org/art-decor/decor-templates--elgaimpf-?id=1.2.40.0.34.6.0.11.9.25" test="count(hl7:streetAddressLine) &lt;= 1">(atcdabbr_other_AddressCompilation): Element hl7:streetAddressLine kommt zu häufig vor [max 1x].</assert>
        <assert role="error" see="http://art-decor.org/art-decor/decor-templates--elgaimpf-?id=1.2.40.0.34.6.0.11.9.25" test="count(hl7:streetName) &lt;= 1">(atcdabbr_other_AddressCompilation): Element hl7:streetName kommt zu häufig vor [max 1x].</assert>
        <assert role="error" see="http://art-decor.org/art-decor/decor-templates--elgaimpf-?id=1.2.40.0.34.6.0.11.9.25" test="count(hl7:houseNumber) &lt;= 1">(atcdabbr_other_AddressCompilation): Element hl7:houseNumber kommt zu häufig vor [max 1x].</assert>
        <assert role="error" see="http://art-decor.org/art-decor/decor-templates--elgaimpf-?id=1.2.40.0.34.6.0.11.9.25" test="count(hl7:postalCode[not(@nullFlavor)]) &gt;= 1">(atcdabbr_other_AddressCompilation): Element hl7:postalCode[not(@nullFlavor)] ist mandatory [min 1x].</assert>
        <assert role="error" see="http://art-decor.org/art-decor/decor-templates--elgaimpf-?id=1.2.40.0.34.6.0.11.9.25" test="count(hl7:postalCode[not(@nullFlavor)]) &lt;= 1">(atcdabbr_other_AddressCompilation): Element hl7:postalCode[not(@nullFlavor)] kommt zu häufig vor [max 1x].</assert>
        <assert role="error" see="http://art-decor.org/art-decor/decor-templates--elgaimpf-?id=1.2.40.0.34.6.0.11.9.25" test="count(hl7:city[not(@nullFlavor)]) &gt;= 1">(atcdabbr_other_AddressCompilation): Element hl7:city[not(@nullFlavor)] ist mandatory [min 1x].</assert>
        <assert role="error" see="http://art-decor.org/art-decor/decor-templates--elgaimpf-?id=1.2.40.0.34.6.0.11.9.25" test="count(hl7:city[not(@nullFlavor)]) &lt;= 1">(atcdabbr_other_AddressCompilation): Element hl7:city[not(@nullFlavor)] kommt zu häufig vor [max 1x].</assert>
        <assert role="error" see="http://art-decor.org/art-decor/decor-templates--elgaimpf-?id=1.2.40.0.34.6.0.11.9.25" test="count(hl7:state) &lt;= 1">(atcdabbr_other_AddressCompilation): Element hl7:state kommt zu häufig vor [max 1x].</assert>
        <assert role="error" see="http://art-decor.org/art-decor/decor-templates--elgaimpf-?id=1.2.40.0.34.6.0.11.9.25" test="count(hl7:country[not(@nullFlavor)]) &gt;= 1">(atcdabbr_other_AddressCompilation): Element hl7:country[not(@nullFlavor)] ist mandatory [min 1x].</assert>
        <assert role="error" see="http://art-decor.org/art-decor/decor-templates--elgaimpf-?id=1.2.40.0.34.6.0.11.9.25" test="count(hl7:country[not(@nullFlavor)]) &lt;= 1">(atcdabbr_other_AddressCompilation): Element hl7:country[not(@nullFlavor)] kommt zu häufig vor [max 1x].</assert>
        <assert role="error" see="http://art-decor.org/art-decor/decor-templates--elgaimpf-?id=1.2.40.0.34.6.0.11.9.25" test="count(hl7:additionalLocator) &lt;= 1">(atcdabbr_other_AddressCompilation): Element hl7:additionalLocator kommt zu häufig vor [max 1x].</assert>
    </rule>

   <!--
Template derived rules for ID: 1.2.40.0.34.6.0.11.9.25
Context: *[hl7:templateId[@root = '1.2.40.0.34.6.0.11.3.15']]/hl7:act[hl7:code[(@code = '26436-6' and @codeSystem = '2.16.840.1.113883.6.1')]]/hl7:author[hl7:assignedAuthor]/hl7:assignedAuthor/hl7:representedOrganization/hl7:addr[not(@nullFlavor)]/hl7:streetAddressLine
Item: (atcdabbr_other_AddressCompilation)
-->
    <rule context="*[hl7:templateId[@root = '1.2.40.0.34.6.0.11.3.15']]/hl7:act[hl7:code[(@code = '26436-6' and @codeSystem = '2.16.840.1.113883.6.1')]]/hl7:author[hl7:assignedAuthor]/hl7:assignedAuthor/hl7:representedOrganization/hl7:addr[not(@nullFlavor)]/hl7:streetAddressLine">
        <extends rule="ADXP"/>
        <assert role="error" see="http://art-decor.org/art-decor/decor-templates--elgaimpf-?id=1.2.40.0.34.6.0.11.9.25" test="(local-name-from-QName(resolve-QName(@xsi:type,.))='ADXP' and namespace-uri-from-QName(resolve-QName(@xsi:type,.))='urn:hl7-org:v3') or not(@xsi:type)">(atcdabbr_other_AddressCompilation): Wenn eine @xsi:type Instruktion anwesend ist MUSS diese den Wert "{urn:hl7-org:v3}:ADXP" haben. Gefunden "{<value-of select="namespace-uri-from-QName(resolve-QName(@xsi:type,.))"/>}:<value-of select="local-name-from-QName(resolve-QName(@xsi:type,.))"/>"</assert>
    </rule>

   <!--
Template derived rules for ID: 1.2.40.0.34.6.0.11.9.25
Context: *[hl7:templateId[@root = '1.2.40.0.34.6.0.11.3.15']]/hl7:act[hl7:code[(@code = '26436-6' and @codeSystem = '2.16.840.1.113883.6.1')]]/hl7:author[hl7:assignedAuthor]/hl7:assignedAuthor/hl7:representedOrganization/hl7:addr[not(@nullFlavor)]/hl7:streetName
Item: (atcdabbr_other_AddressCompilation)
-->
    <rule context="*[hl7:templateId[@root = '1.2.40.0.34.6.0.11.3.15']]/hl7:act[hl7:code[(@code = '26436-6' and @codeSystem = '2.16.840.1.113883.6.1')]]/hl7:author[hl7:assignedAuthor]/hl7:assignedAuthor/hl7:representedOrganization/hl7:addr[not(@nullFlavor)]/hl7:streetName">
        <extends rule="ADXP"/>
        <assert role="error" see="http://art-decor.org/art-decor/decor-templates--elgaimpf-?id=1.2.40.0.34.6.0.11.9.25" test="(local-name-from-QName(resolve-QName(@xsi:type,.))='ADXP' and namespace-uri-from-QName(resolve-QName(@xsi:type,.))='urn:hl7-org:v3') or not(@xsi:type)">(atcdabbr_other_AddressCompilation): Wenn eine @xsi:type Instruktion anwesend ist MUSS diese den Wert "{urn:hl7-org:v3}:ADXP" haben. Gefunden "{<value-of select="namespace-uri-from-QName(resolve-QName(@xsi:type,.))"/>}:<value-of select="local-name-from-QName(resolve-QName(@xsi:type,.))"/>"</assert>
    </rule>

   <!--
Template derived rules for ID: 1.2.40.0.34.6.0.11.9.25
Context: *[hl7:templateId[@root = '1.2.40.0.34.6.0.11.3.15']]/hl7:act[hl7:code[(@code = '26436-6' and @codeSystem = '2.16.840.1.113883.6.1')]]/hl7:author[hl7:assignedAuthor]/hl7:assignedAuthor/hl7:representedOrganization/hl7:addr[not(@nullFlavor)]/hl7:houseNumber
Item: (atcdabbr_other_AddressCompilation)
-->
    <rule context="*[hl7:templateId[@root = '1.2.40.0.34.6.0.11.3.15']]/hl7:act[hl7:code[(@code = '26436-6' and @codeSystem = '2.16.840.1.113883.6.1')]]/hl7:author[hl7:assignedAuthor]/hl7:assignedAuthor/hl7:representedOrganization/hl7:addr[not(@nullFlavor)]/hl7:houseNumber">
        <extends rule="ADXP"/>
        <assert role="error" see="http://art-decor.org/art-decor/decor-templates--elgaimpf-?id=1.2.40.0.34.6.0.11.9.25" test="(local-name-from-QName(resolve-QName(@xsi:type,.))='ADXP' and namespace-uri-from-QName(resolve-QName(@xsi:type,.))='urn:hl7-org:v3') or not(@xsi:type)">(atcdabbr_other_AddressCompilation): Wenn eine @xsi:type Instruktion anwesend ist MUSS diese den Wert "{urn:hl7-org:v3}:ADXP" haben. Gefunden "{<value-of select="namespace-uri-from-QName(resolve-QName(@xsi:type,.))"/>}:<value-of select="local-name-from-QName(resolve-QName(@xsi:type,.))"/>"</assert>
    </rule>

   <!--
Template derived rules for ID: 1.2.40.0.34.6.0.11.9.25
Context: *[hl7:templateId[@root = '1.2.40.0.34.6.0.11.3.15']]/hl7:act[hl7:code[(@code = '26436-6' and @codeSystem = '2.16.840.1.113883.6.1')]]/hl7:author[hl7:assignedAuthor]/hl7:assignedAuthor/hl7:representedOrganization/hl7:addr[not(@nullFlavor)]/hl7:postalCode[not(@nullFlavor)]
Item: (atcdabbr_other_AddressCompilation)
-->
    <rule context="*[hl7:templateId[@root = '1.2.40.0.34.6.0.11.3.15']]/hl7:act[hl7:code[(@code = '26436-6' and @codeSystem = '2.16.840.1.113883.6.1')]]/hl7:author[hl7:assignedAuthor]/hl7:assignedAuthor/hl7:representedOrganization/hl7:addr[not(@nullFlavor)]/hl7:postalCode[not(@nullFlavor)]">
        <extends rule="ADXP"/>
        <assert role="error" see="http://art-decor.org/art-decor/decor-templates--elgaimpf-?id=1.2.40.0.34.6.0.11.9.25" test="(local-name-from-QName(resolve-QName(@xsi:type,.))='ADXP' and namespace-uri-from-QName(resolve-QName(@xsi:type,.))='urn:hl7-org:v3') or not(@xsi:type)">(atcdabbr_other_AddressCompilation): Wenn eine @xsi:type Instruktion anwesend ist MUSS diese den Wert "{urn:hl7-org:v3}:ADXP" haben. Gefunden "{<value-of select="namespace-uri-from-QName(resolve-QName(@xsi:type,.))"/>}:<value-of select="local-name-from-QName(resolve-QName(@xsi:type,.))"/>"</assert>
    </rule>

   <!--
Template derived rules for ID: 1.2.40.0.34.6.0.11.9.25
Context: *[hl7:templateId[@root = '1.2.40.0.34.6.0.11.3.15']]/hl7:act[hl7:code[(@code = '26436-6' and @codeSystem = '2.16.840.1.113883.6.1')]]/hl7:author[hl7:assignedAuthor]/hl7:assignedAuthor/hl7:representedOrganization/hl7:addr[not(@nullFlavor)]/hl7:city[not(@nullFlavor)]
Item: (atcdabbr_other_AddressCompilation)
-->
    <rule context="*[hl7:templateId[@root = '1.2.40.0.34.6.0.11.3.15']]/hl7:act[hl7:code[(@code = '26436-6' and @codeSystem = '2.16.840.1.113883.6.1')]]/hl7:author[hl7:assignedAuthor]/hl7:assignedAuthor/hl7:representedOrganization/hl7:addr[not(@nullFlavor)]/hl7:city[not(@nullFlavor)]">
        <extends rule="ADXP"/>
        <assert role="error" see="http://art-decor.org/art-decor/decor-templates--elgaimpf-?id=1.2.40.0.34.6.0.11.9.25" test="(local-name-from-QName(resolve-QName(@xsi:type,.))='ADXP' and namespace-uri-from-QName(resolve-QName(@xsi:type,.))='urn:hl7-org:v3') or not(@xsi:type)">(atcdabbr_other_AddressCompilation): Wenn eine @xsi:type Instruktion anwesend ist MUSS diese den Wert "{urn:hl7-org:v3}:ADXP" haben. Gefunden "{<value-of select="namespace-uri-from-QName(resolve-QName(@xsi:type,.))"/>}:<value-of select="local-name-from-QName(resolve-QName(@xsi:type,.))"/>"</assert>
    </rule>

   <!--
Template derived rules for ID: 1.2.40.0.34.6.0.11.9.25
Context: *[hl7:templateId[@root = '1.2.40.0.34.6.0.11.3.15']]/hl7:act[hl7:code[(@code = '26436-6' and @codeSystem = '2.16.840.1.113883.6.1')]]/hl7:author[hl7:assignedAuthor]/hl7:assignedAuthor/hl7:representedOrganization/hl7:addr[not(@nullFlavor)]/hl7:state
Item: (atcdabbr_other_AddressCompilation)
-->
    <rule context="*[hl7:templateId[@root = '1.2.40.0.34.6.0.11.3.15']]/hl7:act[hl7:code[(@code = '26436-6' and @codeSystem = '2.16.840.1.113883.6.1')]]/hl7:author[hl7:assignedAuthor]/hl7:assignedAuthor/hl7:representedOrganization/hl7:addr[not(@nullFlavor)]/hl7:state">
        <extends rule="ADXP"/>
        <assert role="error" see="http://art-decor.org/art-decor/decor-templates--elgaimpf-?id=1.2.40.0.34.6.0.11.9.25" test="(local-name-from-QName(resolve-QName(@xsi:type,.))='ADXP' and namespace-uri-from-QName(resolve-QName(@xsi:type,.))='urn:hl7-org:v3') or not(@xsi:type)">(atcdabbr_other_AddressCompilation): Wenn eine @xsi:type Instruktion anwesend ist MUSS diese den Wert "{urn:hl7-org:v3}:ADXP" haben. Gefunden "{<value-of select="namespace-uri-from-QName(resolve-QName(@xsi:type,.))"/>}:<value-of select="local-name-from-QName(resolve-QName(@xsi:type,.))"/>"</assert>
    </rule>

   <!--
Template derived rules for ID: 1.2.40.0.34.6.0.11.9.25
Context: *[hl7:templateId[@root = '1.2.40.0.34.6.0.11.3.15']]/hl7:act[hl7:code[(@code = '26436-6' and @codeSystem = '2.16.840.1.113883.6.1')]]/hl7:author[hl7:assignedAuthor]/hl7:assignedAuthor/hl7:representedOrganization/hl7:addr[not(@nullFlavor)]/hl7:country[not(@nullFlavor)]
Item: (atcdabbr_other_AddressCompilation)
-->
    <rule context="*[hl7:templateId[@root = '1.2.40.0.34.6.0.11.3.15']]/hl7:act[hl7:code[(@code = '26436-6' and @codeSystem = '2.16.840.1.113883.6.1')]]/hl7:author[hl7:assignedAuthor]/hl7:assignedAuthor/hl7:representedOrganization/hl7:addr[not(@nullFlavor)]/hl7:country[not(@nullFlavor)]">
        <extends rule="ADXP"/>
        <assert role="error" see="http://art-decor.org/art-decor/decor-templates--elgaimpf-?id=1.2.40.0.34.6.0.11.9.25" test="(local-name-from-QName(resolve-QName(@xsi:type,.))='ADXP' and namespace-uri-from-QName(resolve-QName(@xsi:type,.))='urn:hl7-org:v3') or not(@xsi:type)">(atcdabbr_other_AddressCompilation): Wenn eine @xsi:type Instruktion anwesend ist MUSS diese den Wert "{urn:hl7-org:v3}:ADXP" haben. Gefunden "{<value-of select="namespace-uri-from-QName(resolve-QName(@xsi:type,.))"/>}:<value-of select="local-name-from-QName(resolve-QName(@xsi:type,.))"/>"</assert>
        <assert role="info" see="http://art-decor.org/art-decor/decor-templates--elgaimpf-?id=1.2.40.0.34.6.0.11.9.25" test="string-length(text()) = 3">(atcdabbr_other_AddressCompilation): Es wird EMPFOHLEN, den Staat im ISO 3 Ländercode anzugeben.</assert>
    </rule>

   <!--
Template derived rules for ID: 1.2.40.0.34.6.0.11.9.25
Context: *[hl7:templateId[@root = '1.2.40.0.34.6.0.11.3.15']]/hl7:act[hl7:code[(@code = '26436-6' and @codeSystem = '2.16.840.1.113883.6.1')]]/hl7:author[hl7:assignedAuthor]/hl7:assignedAuthor/hl7:representedOrganization/hl7:addr[not(@nullFlavor)]/hl7:additionalLocator
Item: (atcdabbr_other_AddressCompilation)
-->
    <rule context="*[hl7:templateId[@root = '1.2.40.0.34.6.0.11.3.15']]/hl7:act[hl7:code[(@code = '26436-6' and @codeSystem = '2.16.840.1.113883.6.1')]]/hl7:author[hl7:assignedAuthor]/hl7:assignedAuthor/hl7:representedOrganization/hl7:addr[not(@nullFlavor)]/hl7:additionalLocator">
        <extends rule="ADXP"/>
        <assert role="error" see="http://art-decor.org/art-decor/decor-templates--elgaimpf-?id=1.2.40.0.34.6.0.11.9.25" test="(local-name-from-QName(resolve-QName(@xsi:type,.))='ADXP' and namespace-uri-from-QName(resolve-QName(@xsi:type,.))='urn:hl7-org:v3') or not(@xsi:type)">(atcdabbr_other_AddressCompilation): Wenn eine @xsi:type Instruktion anwesend ist MUSS diese den Wert "{urn:hl7-org:v3}:ADXP" haben. Gefunden "{<value-of select="namespace-uri-from-QName(resolve-QName(@xsi:type,.))"/>}:<value-of select="local-name-from-QName(resolve-QName(@xsi:type,.))"/>"</assert>
    </rule>

   <!--
Template derived rules for ID: 1.2.40.0.34.6.0.11.3.15
Context: *[hl7:templateId[@root = '1.2.40.0.34.6.0.11.3.15']]/hl7:act[hl7:code[(@code = '26436-6' and @codeSystem = '2.16.840.1.113883.6.1')]]/hl7:entryRelationship[hl7:organizer[hl7:templateId[@root = '1.2.40.0.34.6.0.11.3.18'] and hl7:templateId[@root = '1.3.6.1.4.1.19376.1.3.1.4']]]
Item: (eimpf_entry_AntikoerperBestimmungDataProcessing)
-->
    <rule context="*[hl7:templateId[@root = '1.2.40.0.34.6.0.11.3.15']]/hl7:act[hl7:code[(@code = '26436-6' and @codeSystem = '2.16.840.1.113883.6.1')]]/hl7:entryRelationship[hl7:organizer[hl7:templateId[@root = '1.2.40.0.34.6.0.11.3.18'] and hl7:templateId[@root = '1.3.6.1.4.1.19376.1.3.1.4']]]">
        <assert role="error" see="http://art-decor.org/art-decor/decor-templates--elgaimpf-?id=1.2.40.0.34.6.0.11.3.15" test="string(@typeCode) = ('COMP')">(eimpf_entry_AntikoerperBestimmungDataProcessing): Der Wert von typeCode MUSS 'COMP' sein. Gefunden: "<value-of select="@typeCode"/>"</assert>
        <assert role="error" see="http://art-decor.org/art-decor/decor-templates--elgaimpf-?id=1.2.40.0.34.6.0.11.3.15" test="string(@contextConductionInd) = ('true') or not(@contextConductionInd)">(eimpf_entry_AntikoerperBestimmungDataProcessing): Der Wert von contextConductionInd MUSS 'true' sein. Gefunden: "<value-of select="@contextConductionInd"/>"</assert>
    </rule>

   <!--
Template derived rules for ID: 1.2.40.0.34.6.0.11.3.15
Context: *[hl7:templateId[@root = '1.2.40.0.34.6.0.11.3.15']]/hl7:act[hl7:code[(@code = '26436-6' and @codeSystem = '2.16.840.1.113883.6.1')]]/hl7:reference[hl7:externalDocument[hl7:templateId[@root = '1.2.40.0.34.6.0.11.3.14']]]
Item: (eimpf_entry_AntikoerperBestimmungDataProcessing)
-->
    <rule context="*[hl7:templateId[@root = '1.2.40.0.34.6.0.11.3.15']]/hl7:act[hl7:code[(@code = '26436-6' and @codeSystem = '2.16.840.1.113883.6.1')]]/hl7:reference[hl7:externalDocument[hl7:templateId[@root = '1.2.40.0.34.6.0.11.3.14']]]">
        <assert role="error" see="http://art-decor.org/art-decor/decor-templates--elgaimpf-?id=1.2.40.0.34.6.0.11.3.15" test="string(@typeCode) = ('REFR')">(eimpf_entry_AntikoerperBestimmungDataProcessing): Der Wert von typeCode MUSS 'REFR' sein. Gefunden: "<value-of select="@typeCode"/>"</assert>
    </rule>
</pattern>