<?xml version="1.0" encoding="UTF-8"?>
<!--
Template derived pattern
===========================================
ID: 1.2.40.0.34.6.0.11.3.11
Name: Comment Entry
Description: Die Codierung von Anmerkungen und Kommentaren erfolgt in jedem Fall gem. IHE als sogenannter „Annotation-Act“. Die Codierung erfolgt als act-Element, welches mittels entsprechender Beziehung (entryRelationship oder component) an das übergeordnete Element gebunden wird. Die Elemente templateId und code sind fix vorbelegt. Das einzige veränderbare Element ist der text-Block. Dieser SOLL eine Referenz auf ein Element innerhalb der Level 2 Codierung enthalten.
-->
<pattern xmlns="http://purl.oclc.org/dsdl/schematron" id="template-1.2.40.0.34.6.0.11.3.11-2019-02-07T131044-closed">
    <title>Comment Entry</title>

   <!-- Checking undefined contents for template/element @isClosed="true". Match context that we did not already match -->
    <rule context="*[hl7:act[hl7:templateId[@root = '1.2.40.0.34.6.0.11.3.11'] and hl7:templateId[@root = '2.16.840.1.113883.10.20.1.40'] and hl7:templateId[@root = '1.3.6.1.4.1.19376.1.5.3.1.4.2']]]/*[not(@xsi:nil = 'true')][not(self::hl7:act[hl7:templateId[@root = '1.2.40.0.34.6.0.11.3.11'] and hl7:templateId[@root = '2.16.840.1.113883.10.20.1.40'] and hl7:templateId[@root = '1.3.6.1.4.1.19376.1.5.3.1.4.2']])]" id="d245561e4130-true-d410321e0">
        <assert role="error" see="http://art-decor.org/art-decor/decor-templates--elgaimpf-?id=1.2.40.0.34.6.0.11.3.11" test="not(.)">(atcdabrr_entry_Comment)/d245561e4130-true-d410321e0: '<value-of select="name(..)"/>' ist als geschlossen definiert und dieses Element '<name/>' ist nicht erlaubt oder nicht mit diesem Inhalt erlaubt. Dies kann templateId, code oder id betreffen. Erwartet:  hl7:act[hl7:templateId[@root = '1.2.40.0.34.6.0.11.3.11'] and hl7:templateId[@root = '2.16.840.1.113883.10.20.1.40'] and hl7:templateId[@root = '1.3.6.1.4.1.19376.1.5.3.1.4.2']] (rule-reference: d245561e4130-true-d410321e0)</assert>
    </rule>

   <!-- Checking undefined contents for template/element @isClosed="true". Match context that we did not already match -->
    <rule context="*[hl7:act[hl7:templateId[@root = '1.2.40.0.34.6.0.11.3.11'] and hl7:templateId[@root = '2.16.840.1.113883.10.20.1.40'] and hl7:templateId[@root = '1.3.6.1.4.1.19376.1.5.3.1.4.2']]]/hl7:act[hl7:templateId[@root = '1.2.40.0.34.6.0.11.3.11'] and hl7:templateId[@root = '2.16.840.1.113883.10.20.1.40'] and hl7:templateId[@root = '1.3.6.1.4.1.19376.1.5.3.1.4.2']]/*[not(@xsi:nil = 'true')][not(self::hl7:templateId[@root = '1.2.40.0.34.6.0.11.3.11'] | self::hl7:templateId[@root = '2.16.840.1.113883.10.20.1.40'] | self::hl7:templateId[@root = '1.3.6.1.4.1.19376.1.5.3.1.4.2'] | self::hl7:id[not(@nullFlavor)] | self::hl7:code[(@code = '48767-8' and @codeSystem = '2.16.840.1.113883.6.1')] | self::hl7:text | self::hl7:statusCode[@code = 'completed'] | self::hl7:performer[hl7:templateId[@root = '1.2.40.0.34.6.0.11.9.17']] | self::hl7:author[hl7:assignedAuthor] | self::hl7:informant | self::hl7:participant[@typeCode][hl7:participantRole])]" id="d245561e4156-true-d410855e0">
        <assert role="error" see="http://art-decor.org/art-decor/decor-templates--elgaimpf-?id=1.2.40.0.34.6.0.11.3.11" test="not(.)">(atcdabrr_entry_Comment)/d245561e4156-true-d410855e0: '<value-of select="name(..)"/>' ist als geschlossen definiert und dieses Element '<name/>' ist nicht erlaubt oder nicht mit diesem Inhalt erlaubt. Dies kann templateId, code oder id betreffen. Erwartet:  hl7:templateId[@root = '1.2.40.0.34.6.0.11.3.11'] | hl7:templateId[@root = '2.16.840.1.113883.10.20.1.40'] | hl7:templateId[@root = '1.3.6.1.4.1.19376.1.5.3.1.4.2'] | hl7:id[not(@nullFlavor)] | hl7:code[(@code = '48767-8' and @codeSystem = '2.16.840.1.113883.6.1')] | hl7:text | hl7:statusCode[@code = 'completed'] | hl7:performer[hl7:templateId[@root = '1.2.40.0.34.6.0.11.9.17']] | hl7:author[hl7:assignedAuthor] | hl7:informant | hl7:participant[@typeCode][hl7:participantRole] (rule-reference: d245561e4156-true-d410855e0)</assert>
    </rule>

   <!-- Checking undefined contents for template/element @isClosed="true". Match context that we did not already match -->
    <rule context="*[hl7:act[hl7:templateId[@root = '1.2.40.0.34.6.0.11.3.11'] and hl7:templateId[@root = '2.16.840.1.113883.10.20.1.40'] and hl7:templateId[@root = '1.3.6.1.4.1.19376.1.5.3.1.4.2']]]/hl7:act[hl7:templateId[@root = '1.2.40.0.34.6.0.11.3.11'] and hl7:templateId[@root = '2.16.840.1.113883.10.20.1.40'] and hl7:templateId[@root = '1.3.6.1.4.1.19376.1.5.3.1.4.2']]/hl7:text/*[not(@xsi:nil = 'true')][not(self::hl7:reference[not(@nullFlavor)])]" id="d410881e37-true-d410892e0">
        <assert role="error" see="http://art-decor.org/art-decor/decor-templates--elgaimpf-?id=1.2.40.0.34.6.0.11.9.1" test="not(.)">(atcdabrr_other_NarrativeTextReference)/d410881e37-true-d410892e0: '<value-of select="name(..)"/>' ist als geschlossen definiert und dieses Element '<name/>' ist nicht erlaubt oder nicht mit diesem Inhalt erlaubt. Dies kann templateId, code oder id betreffen. Erwartet:  hl7:reference[not(@nullFlavor)] (rule-reference: d410881e37-true-d410892e0)</assert>
    </rule>

   <!-- Checking undefined contents for template/element @isClosed="true". Match context that we did not already match -->
    <rule context="*[hl7:act[hl7:templateId[@root = '1.2.40.0.34.6.0.11.3.11'] and hl7:templateId[@root = '2.16.840.1.113883.10.20.1.40'] and hl7:templateId[@root = '1.3.6.1.4.1.19376.1.5.3.1.4.2']]]/hl7:act[hl7:templateId[@root = '1.2.40.0.34.6.0.11.3.11'] and hl7:templateId[@root = '2.16.840.1.113883.10.20.1.40'] and hl7:templateId[@root = '1.3.6.1.4.1.19376.1.5.3.1.4.2']]/hl7:performer[hl7:templateId[@root = '1.2.40.0.34.6.0.11.9.17']]/*[not(@xsi:nil = 'true')][not(self::hl7:templateId[@root = '1.2.40.0.34.6.0.11.9.17'] | self::hl7:time | self::hl7:assignedEntity[not(@nullFlavor)])]" id="d245561e4192-true-d411050e0">
        <assert role="error" see="http://art-decor.org/art-decor/decor-templates--elgaimpf-?id=1.2.40.0.34.6.0.11.3.11" test="not(.)">(atcdabrr_entry_Comment)/d245561e4192-true-d411050e0: '<value-of select="name(..)"/>' ist als geschlossen definiert und dieses Element '<name/>' ist nicht erlaubt oder nicht mit diesem Inhalt erlaubt. Dies kann templateId, code oder id betreffen. Erwartet:  hl7:templateId[@root = '1.2.40.0.34.6.0.11.9.17'] | hl7:time | hl7:assignedEntity[not(@nullFlavor)] (rule-reference: d245561e4192-true-d411050e0)</assert>
    </rule>

   <!-- Checking undefined contents for template/element @isClosed="true". Match context that we did not already match -->
    <rule context="*[hl7:act[hl7:templateId[@root = '1.2.40.0.34.6.0.11.3.11'] and hl7:templateId[@root = '2.16.840.1.113883.10.20.1.40'] and hl7:templateId[@root = '1.3.6.1.4.1.19376.1.5.3.1.4.2']]]/hl7:act[hl7:templateId[@root = '1.2.40.0.34.6.0.11.3.11'] and hl7:templateId[@root = '2.16.840.1.113883.10.20.1.40'] and hl7:templateId[@root = '1.3.6.1.4.1.19376.1.5.3.1.4.2']]/hl7:performer[hl7:templateId[@root = '1.2.40.0.34.6.0.11.9.17']]/hl7:assignedEntity[not(@nullFlavor)]/*[not(@xsi:nil = 'true')][not(self::hl7:id[not(@nullFlavor)] | self::hl7:id[@nullFlavor='NI'] | self::hl7:id[@nullFlavor='UNK'] | self::hl7:code | self::hl7:addr | self::hl7:telecom | self::hl7:assignedPerson | self::hl7:assignedPerson | self::hl7:representedOrganization)]" id="d410906e8-true-d411156e0">
        <assert role="error" see="http://art-decor.org/art-decor/decor-templates--elgaimpf-?id=1.2.40.0.34.6.0.11.3.11" test="not(.)">(atcdabrr_entry_Comment)/d410906e8-true-d411156e0: '<value-of select="name(..)"/>' ist als geschlossen definiert und dieses Element '<name/>' ist nicht erlaubt oder nicht mit diesem Inhalt erlaubt. Dies kann templateId, code oder id betreffen. Erwartet:  hl7:id[not(@nullFlavor)] | hl7:id[@nullFlavor='NI'] | hl7:id[@nullFlavor='UNK'] | hl7:code | hl7:addr | hl7:telecom | hl7:assignedPerson | hl7:assignedPerson | hl7:representedOrganization (rule-reference: d410906e8-true-d411156e0)</assert>
    </rule>

   <!-- Checking undefined contents for template/element @isClosed="true". Match context that we did not already match -->
    <rule context="*[hl7:act[hl7:templateId[@root = '1.2.40.0.34.6.0.11.3.11'] and hl7:templateId[@root = '2.16.840.1.113883.10.20.1.40'] and hl7:templateId[@root = '1.3.6.1.4.1.19376.1.5.3.1.4.2']]]/hl7:act[hl7:templateId[@root = '1.2.40.0.34.6.0.11.3.11'] and hl7:templateId[@root = '2.16.840.1.113883.10.20.1.40'] and hl7:templateId[@root = '1.3.6.1.4.1.19376.1.5.3.1.4.2']]/hl7:performer[hl7:templateId[@root = '1.2.40.0.34.6.0.11.9.17']]/hl7:assignedEntity[not(@nullFlavor)]/hl7:addr/*[not(@xsi:nil = 'true')][not(self::hl7:streetAddressLine | self::hl7:streetName | self::hl7:houseNumber | self::hl7:postalCode | self::hl7:city | self::hl7:state | self::hl7:country | self::hl7:additionalLocator)]" id="d411160e47-true-d411223e0">
        <assert role="error" see="http://art-decor.org/art-decor/decor-templates--elgaimpf-?id=1.2.40.0.34.6.0.11.3.11" test="not(.)">(atcdabrr_entry_Comment)/d411160e47-true-d411223e0: '<value-of select="name(..)"/>' ist als geschlossen definiert und dieses Element '<name/>' ist nicht erlaubt oder nicht mit diesem Inhalt erlaubt. Dies kann templateId, code oder id betreffen. Erwartet:  hl7:streetAddressLine | hl7:streetName | hl7:houseNumber | hl7:postalCode | hl7:city | hl7:state | hl7:country | hl7:additionalLocator (rule-reference: d411160e47-true-d411223e0)</assert>
    </rule>

   <!-- Checking undefined contents for template/element @isClosed="true". Match context that we did not already match -->
    <rule context="*[hl7:act[hl7:templateId[@root = '1.2.40.0.34.6.0.11.3.11'] and hl7:templateId[@root = '2.16.840.1.113883.10.20.1.40'] and hl7:templateId[@root = '1.3.6.1.4.1.19376.1.5.3.1.4.2']]]/hl7:act[hl7:templateId[@root = '1.2.40.0.34.6.0.11.3.11'] and hl7:templateId[@root = '2.16.840.1.113883.10.20.1.40'] and hl7:templateId[@root = '1.3.6.1.4.1.19376.1.5.3.1.4.2']]/hl7:performer[hl7:templateId[@root = '1.2.40.0.34.6.0.11.9.17']]/hl7:assignedEntity[not(@nullFlavor)]/hl7:assignedPerson/*[not(@xsi:nil = 'true')][not(self::hl7:name[not(@nullFlavor)])]" id="d411160e87-true-d411288e0">
        <assert role="error" see="http://art-decor.org/art-decor/decor-templates--elgaimpf-?id=1.2.40.0.34.6.0.11.9.16" test="not(.)">( atcdabbr_other_AssignedEntityBody)/d411160e87-true-d411288e0: '<value-of select="name(..)"/>' ist als geschlossen definiert und dieses Element '<name/>' ist nicht erlaubt oder nicht mit diesem Inhalt erlaubt. Dies kann templateId, code oder id betreffen. Erwartet:  hl7:name[not(@nullFlavor)] (rule-reference: d411160e87-true-d411288e0)</assert>
    </rule>

   <!-- Checking undefined contents for template/element @isClosed="true". Match context that we did not already match -->
    <rule context="*[hl7:act[hl7:templateId[@root = '1.2.40.0.34.6.0.11.3.11'] and hl7:templateId[@root = '2.16.840.1.113883.10.20.1.40'] and hl7:templateId[@root = '1.3.6.1.4.1.19376.1.5.3.1.4.2']]]/hl7:act[hl7:templateId[@root = '1.2.40.0.34.6.0.11.3.11'] and hl7:templateId[@root = '2.16.840.1.113883.10.20.1.40'] and hl7:templateId[@root = '1.3.6.1.4.1.19376.1.5.3.1.4.2']]/hl7:performer[hl7:templateId[@root = '1.2.40.0.34.6.0.11.9.17']]/hl7:assignedEntity[not(@nullFlavor)]/hl7:assignedPerson/*[not(@xsi:nil = 'true')][not(self::hl7:name[not(@nullFlavor)])]" id="d411160e94-true-d411308e0">
        <assert role="error" see="http://art-decor.org/art-decor/decor-templates--elgaimpf-?id=1.2.40.0.34.6.0.11.9.16" test="not(.)">( atcdabbr_other_AssignedEntityBody)/d411160e94-true-d411308e0: '<value-of select="name(..)"/>' ist als geschlossen definiert und dieses Element '<name/>' ist nicht erlaubt oder nicht mit diesem Inhalt erlaubt. Dies kann templateId, code oder id betreffen. Erwartet:  hl7:name[not(@nullFlavor)] (rule-reference: d411160e94-true-d411308e0)</assert>
    </rule>

   <!-- Checking undefined contents for template/element @isClosed="true". Match context that we did not already match -->
    <rule context="*[hl7:act[hl7:templateId[@root = '1.2.40.0.34.6.0.11.3.11'] and hl7:templateId[@root = '2.16.840.1.113883.10.20.1.40'] and hl7:templateId[@root = '1.3.6.1.4.1.19376.1.5.3.1.4.2']]]/hl7:act[hl7:templateId[@root = '1.2.40.0.34.6.0.11.3.11'] and hl7:templateId[@root = '2.16.840.1.113883.10.20.1.40'] and hl7:templateId[@root = '1.3.6.1.4.1.19376.1.5.3.1.4.2']]/hl7:performer[hl7:templateId[@root = '1.2.40.0.34.6.0.11.9.17']]/hl7:assignedEntity[not(@nullFlavor)]/hl7:assignedPerson/hl7:name[not(@nullFlavor)]/*[not(@xsi:nil = 'true')][not(self::hl7:prefix | self::hl7:family[not(@nullFlavor)] | self::hl7:given[not(@nullFlavor)] | self::hl7:suffix)]" id="d411297e10-true-d411336e0">
        <assert role="error" see="http://art-decor.org/art-decor/decor-templates--elgaimpf-?id=1.2.40.0.34.6.0.11.9.16" test="not(.)">( atcdabbr_other_AssignedEntityBody)/d411297e10-true-d411336e0: '<value-of select="name(..)"/>' ist als geschlossen definiert und dieses Element '<name/>' ist nicht erlaubt oder nicht mit diesem Inhalt erlaubt. Dies kann templateId, code oder id betreffen. Erwartet:  hl7:prefix | hl7:family[not(@nullFlavor)] | hl7:given[not(@nullFlavor)] | hl7:suffix (rule-reference: d411297e10-true-d411336e0)</assert>
    </rule>

   <!-- Checking undefined contents for template/element @isClosed="true". Match context that we did not already match -->
    <rule context="*[hl7:act[hl7:templateId[@root = '1.2.40.0.34.6.0.11.3.11'] and hl7:templateId[@root = '2.16.840.1.113883.10.20.1.40'] and hl7:templateId[@root = '1.3.6.1.4.1.19376.1.5.3.1.4.2']]]/hl7:act[hl7:templateId[@root = '1.2.40.0.34.6.0.11.3.11'] and hl7:templateId[@root = '2.16.840.1.113883.10.20.1.40'] and hl7:templateId[@root = '1.3.6.1.4.1.19376.1.5.3.1.4.2']]/hl7:performer[hl7:templateId[@root = '1.2.40.0.34.6.0.11.9.17']]/hl7:assignedEntity[not(@nullFlavor)]/hl7:representedOrganization/*[not(@xsi:nil = 'true')][not(self::hl7:id[not(@nullFlavor)] | self::hl7:name[not(@nullFlavor)] | self::hl7:telecom[not(@nullFlavor)] | self::hl7:addr[not(@nullFlavor)])]" id="d411160e102-true-d411382e0">
        <assert role="error" see="http://art-decor.org/art-decor/decor-templates--elgaimpf-?id=1.2.40.0.34.6.0.11.3.11" test="not(.)">(atcdabrr_entry_Comment)/d411160e102-true-d411382e0: '<value-of select="name(..)"/>' ist als geschlossen definiert und dieses Element '<name/>' ist nicht erlaubt oder nicht mit diesem Inhalt erlaubt. Dies kann templateId, code oder id betreffen. Erwartet:  hl7:id[not(@nullFlavor)] | hl7:name[not(@nullFlavor)] | hl7:telecom[not(@nullFlavor)] | hl7:addr[not(@nullFlavor)] (rule-reference: d411160e102-true-d411382e0)</assert>
    </rule>

   <!-- Checking undefined contents for template/element @isClosed="true". Match context that we did not already match -->
    <rule context="*[hl7:act[hl7:templateId[@root = '1.2.40.0.34.6.0.11.3.11'] and hl7:templateId[@root = '2.16.840.1.113883.10.20.1.40'] and hl7:templateId[@root = '1.3.6.1.4.1.19376.1.5.3.1.4.2']]]/hl7:act[hl7:templateId[@root = '1.2.40.0.34.6.0.11.3.11'] and hl7:templateId[@root = '2.16.840.1.113883.10.20.1.40'] and hl7:templateId[@root = '1.3.6.1.4.1.19376.1.5.3.1.4.2']]/hl7:performer[hl7:templateId[@root = '1.2.40.0.34.6.0.11.9.17']]/hl7:assignedEntity[not(@nullFlavor)]/hl7:representedOrganization/hl7:addr[not(@nullFlavor)]/*[not(@xsi:nil = 'true')][not(self::hl7:streetAddressLine | self::hl7:streetName | self::hl7:houseNumber | self::hl7:postalCode | self::hl7:city | self::hl7:state | self::hl7:country | self::hl7:additionalLocator)]" id="d411357e36-true-d411439e0">
        <assert role="error" see="http://art-decor.org/art-decor/decor-templates--elgaimpf-?id=1.2.40.0.34.6.0.11.3.11" test="not(.)">(atcdabrr_entry_Comment)/d411357e36-true-d411439e0: '<value-of select="name(..)"/>' ist als geschlossen definiert und dieses Element '<name/>' ist nicht erlaubt oder nicht mit diesem Inhalt erlaubt. Dies kann templateId, code oder id betreffen. Erwartet:  hl7:streetAddressLine | hl7:streetName | hl7:houseNumber | hl7:postalCode | hl7:city | hl7:state | hl7:country | hl7:additionalLocator (rule-reference: d411357e36-true-d411439e0)</assert>
    </rule>

   <!-- Checking undefined contents for template/element @isClosed="true". Match context that we did not already match -->
    <rule context="*[hl7:act[hl7:templateId[@root = '1.2.40.0.34.6.0.11.3.11'] and hl7:templateId[@root = '2.16.840.1.113883.10.20.1.40'] and hl7:templateId[@root = '1.3.6.1.4.1.19376.1.5.3.1.4.2']]]/hl7:act[hl7:templateId[@root = '1.2.40.0.34.6.0.11.3.11'] and hl7:templateId[@root = '2.16.840.1.113883.10.20.1.40'] and hl7:templateId[@root = '1.3.6.1.4.1.19376.1.5.3.1.4.2']]/hl7:author[hl7:assignedAuthor]/*[not(@xsi:nil = 'true')][not(self::hl7:functionCode | self::hl7:time[not(@nullFlavor)] | self::hl7:time[@nullFlavor='UNK'] | self::hl7:assignedAuthor)]" id="d245561e4194-true-d411600e0">
        <assert role="error" see="http://art-decor.org/art-decor/decor-templates--elgaimpf-?id=1.2.40.0.34.6.0.11.3.11" test="not(.)">(atcdabrr_entry_Comment)/d245561e4194-true-d411600e0: '<value-of select="name(..)"/>' ist als geschlossen definiert und dieses Element '<name/>' ist nicht erlaubt oder nicht mit diesem Inhalt erlaubt. Dies kann templateId, code oder id betreffen. Erwartet:  hl7:functionCode | hl7:time[not(@nullFlavor)] | hl7:time[@nullFlavor='UNK'] | hl7:assignedAuthor (rule-reference: d245561e4194-true-d411600e0)</assert>
    </rule>

   <!-- Checking undefined contents for template/element @isClosed="true". Match context that we did not already match -->
    <rule context="*[hl7:act[hl7:templateId[@root = '1.2.40.0.34.6.0.11.3.11'] and hl7:templateId[@root = '2.16.840.1.113883.10.20.1.40'] and hl7:templateId[@root = '1.3.6.1.4.1.19376.1.5.3.1.4.2']]]/hl7:act[hl7:templateId[@root = '1.2.40.0.34.6.0.11.3.11'] and hl7:templateId[@root = '2.16.840.1.113883.10.20.1.40'] and hl7:templateId[@root = '1.3.6.1.4.1.19376.1.5.3.1.4.2']]/hl7:author[hl7:assignedAuthor]/hl7:assignedAuthor/*[not(@xsi:nil = 'true')][not(self::hl7:id[not(@nullFlavor)] | self::hl7:id[@nullFlavor='UNK'] | self::hl7:code[not(@nullFlavor)] | self::hl7:addr[not(@nullFlavor)] | self::hl7:telecom[not(@nullFlavor)] | self::hl7:assignedPerson | self::hl7:assignedAuthoringDevice | self::hl7:representedOrganization)]" id="d411476e26-true-d411707e0">
        <assert role="error" see="http://art-decor.org/art-decor/decor-templates--elgaimpf-?id=1.2.40.0.34.6.0.11.3.11" test="not(.)">(atcdabrr_entry_Comment)/d411476e26-true-d411707e0: '<value-of select="name(..)"/>' ist als geschlossen definiert und dieses Element '<name/>' ist nicht erlaubt oder nicht mit diesem Inhalt erlaubt. Dies kann templateId, code oder id betreffen. Erwartet:  hl7:id[not(@nullFlavor)] | hl7:id[@nullFlavor='UNK'] | hl7:code[not(@nullFlavor)] | hl7:addr[not(@nullFlavor)] | hl7:telecom[not(@nullFlavor)] | hl7:assignedPerson | hl7:assignedAuthoringDevice | hl7:representedOrganization (rule-reference: d411476e26-true-d411707e0)</assert>
    </rule>

   <!-- Checking undefined contents for template/element @isClosed="true". Match context that we did not already match -->
    <rule context="*[hl7:act[hl7:templateId[@root = '1.2.40.0.34.6.0.11.3.11'] and hl7:templateId[@root = '2.16.840.1.113883.10.20.1.40'] and hl7:templateId[@root = '1.3.6.1.4.1.19376.1.5.3.1.4.2']]]/hl7:act[hl7:templateId[@root = '1.2.40.0.34.6.0.11.3.11'] and hl7:templateId[@root = '2.16.840.1.113883.10.20.1.40'] and hl7:templateId[@root = '1.3.6.1.4.1.19376.1.5.3.1.4.2']]/hl7:author[hl7:assignedAuthor]/hl7:assignedAuthor/hl7:addr[not(@nullFlavor)]/*[not(@xsi:nil = 'true')][not(self::hl7:streetAddressLine | self::hl7:streetName | self::hl7:houseNumber | self::hl7:postalCode[not(@nullFlavor)] | self::hl7:city[not(@nullFlavor)] | self::hl7:state | self::hl7:country[not(@nullFlavor)] | self::hl7:additionalLocator)]" id="d411476e34-true-d411762e0">
        <assert role="error" see="http://art-decor.org/art-decor/decor-templates--elgaimpf-?id=1.2.40.0.34.6.0.11.3.11" test="not(.)">(atcdabrr_entry_Comment)/d411476e34-true-d411762e0: '<value-of select="name(..)"/>' ist als geschlossen definiert und dieses Element '<name/>' ist nicht erlaubt oder nicht mit diesem Inhalt erlaubt. Dies kann templateId, code oder id betreffen. Erwartet:  hl7:streetAddressLine | hl7:streetName | hl7:houseNumber | hl7:postalCode[not(@nullFlavor)] | hl7:city[not(@nullFlavor)] | hl7:state | hl7:country[not(@nullFlavor)] | hl7:additionalLocator (rule-reference: d411476e34-true-d411762e0)</assert>
    </rule>

   <!-- Checking undefined contents for template/element @isClosed="true". Match context that we did not already match -->
    <rule context="*[hl7:act[hl7:templateId[@root = '1.2.40.0.34.6.0.11.3.11'] and hl7:templateId[@root = '2.16.840.1.113883.10.20.1.40'] and hl7:templateId[@root = '1.3.6.1.4.1.19376.1.5.3.1.4.2']]]/hl7:act[hl7:templateId[@root = '1.2.40.0.34.6.0.11.3.11'] and hl7:templateId[@root = '2.16.840.1.113883.10.20.1.40'] and hl7:templateId[@root = '1.3.6.1.4.1.19376.1.5.3.1.4.2']]/hl7:author[hl7:assignedAuthor]/hl7:assignedAuthor/hl7:assignedPerson/*[not(@xsi:nil = 'true')][not(self::hl7:name[not(@nullFlavor)] | self::hl7:name[@nullFlavor='UNK'] | self::hl7:name[@nullFlavor='MSK'])]" id="d411476e56-true-d411809e0">
        <assert role="error" see="http://art-decor.org/art-decor/decor-templates--elgaimpf-?id=1.2.40.0.34.6.0.11.3.11" test="not(.)">(atcdabrr_entry_Comment)/d411476e56-true-d411809e0: '<value-of select="name(..)"/>' ist als geschlossen definiert und dieses Element '<name/>' ist nicht erlaubt oder nicht mit diesem Inhalt erlaubt. Dies kann templateId, code oder id betreffen. Erwartet:  hl7:name[not(@nullFlavor)] | hl7:name[@nullFlavor='UNK'] | hl7:name[@nullFlavor='MSK'] (rule-reference: d411476e56-true-d411809e0)</assert>
    </rule>

   <!-- Checking undefined contents for template/element @isClosed="true". Match context that we did not already match -->
    <rule context="*[hl7:act[hl7:templateId[@root = '1.2.40.0.34.6.0.11.3.11'] and hl7:templateId[@root = '2.16.840.1.113883.10.20.1.40'] and hl7:templateId[@root = '1.3.6.1.4.1.19376.1.5.3.1.4.2']]]/hl7:act[hl7:templateId[@root = '1.2.40.0.34.6.0.11.3.11'] and hl7:templateId[@root = '2.16.840.1.113883.10.20.1.40'] and hl7:templateId[@root = '1.3.6.1.4.1.19376.1.5.3.1.4.2']]/hl7:author[hl7:assignedAuthor]/hl7:assignedAuthor/hl7:assignedPerson/hl7:name[not(@nullFlavor)]/*[not(@xsi:nil = 'true')][not(self::hl7:prefix | self::hl7:family[not(@nullFlavor)] | self::hl7:given[not(@nullFlavor)] | self::hl7:suffix)]" id="d411813e62-true-d411841e0">
        <assert role="error" see="http://art-decor.org/art-decor/decor-templates--elgaimpf-?id=1.2.40.0.34.6.0.11.9.6" test="not(.)">(atcdabbr_other_PersonNameCompilationG2)/d411813e62-true-d411841e0: '<value-of select="name(..)"/>' ist als geschlossen definiert und dieses Element '<name/>' ist nicht erlaubt oder nicht mit diesem Inhalt erlaubt. Dies kann templateId, code oder id betreffen. Erwartet:  hl7:prefix | hl7:family[not(@nullFlavor)] | hl7:given[not(@nullFlavor)] | hl7:suffix (rule-reference: d411813e62-true-d411841e0)</assert>
    </rule>

   <!-- Checking undefined contents for template/element @isClosed="true". Match context that we did not already match -->
    <rule context="*[hl7:act[hl7:templateId[@root = '1.2.40.0.34.6.0.11.3.11'] and hl7:templateId[@root = '2.16.840.1.113883.10.20.1.40'] and hl7:templateId[@root = '1.3.6.1.4.1.19376.1.5.3.1.4.2']]]/hl7:act[hl7:templateId[@root = '1.2.40.0.34.6.0.11.3.11'] and hl7:templateId[@root = '2.16.840.1.113883.10.20.1.40'] and hl7:templateId[@root = '1.3.6.1.4.1.19376.1.5.3.1.4.2']]/hl7:author[hl7:assignedAuthor]/hl7:assignedAuthor/hl7:assignedAuthoringDevice/*[not(@xsi:nil = 'true')][not(self::hl7:manufacturerModelName[not(@nullFlavor)] | self::hl7:softwareName[not(@nullFlavor)])]" id="d411476e67-true-d411882e0">
        <assert role="error" see="http://art-decor.org/art-decor/decor-templates--elgaimpf-?id=1.2.40.0.34.6.0.11.3.11" test="not(.)">(atcdabrr_entry_Comment)/d411476e67-true-d411882e0: '<value-of select="name(..)"/>' ist als geschlossen definiert und dieses Element '<name/>' ist nicht erlaubt oder nicht mit diesem Inhalt erlaubt. Dies kann templateId, code oder id betreffen. Erwartet:  hl7:manufacturerModelName[not(@nullFlavor)] | hl7:softwareName[not(@nullFlavor)] (rule-reference: d411476e67-true-d411882e0)</assert>
    </rule>

   <!-- Checking undefined contents for template/element @isClosed="true". Match context that we did not already match -->
    <rule context="*[hl7:act[hl7:templateId[@root = '1.2.40.0.34.6.0.11.3.11'] and hl7:templateId[@root = '2.16.840.1.113883.10.20.1.40'] and hl7:templateId[@root = '1.3.6.1.4.1.19376.1.5.3.1.4.2']]]/hl7:act[hl7:templateId[@root = '1.2.40.0.34.6.0.11.3.11'] and hl7:templateId[@root = '2.16.840.1.113883.10.20.1.40'] and hl7:templateId[@root = '1.3.6.1.4.1.19376.1.5.3.1.4.2']]/hl7:author[hl7:assignedAuthor]/hl7:assignedAuthor/hl7:representedOrganization/*[not(@xsi:nil = 'true')][not(self::hl7:id[not(@nullFlavor)] | self::hl7:name[not(@nullFlavor)] | self::hl7:telecom[not(@nullFlavor)] | self::hl7:addr[not(@nullFlavor)])]" id="d411476e74-true-d411924e0">
        <assert role="error" see="http://art-decor.org/art-decor/decor-templates--elgaimpf-?id=1.2.40.0.34.6.0.11.3.11" test="not(.)">(atcdabrr_entry_Comment)/d411476e74-true-d411924e0: '<value-of select="name(..)"/>' ist als geschlossen definiert und dieses Element '<name/>' ist nicht erlaubt oder nicht mit diesem Inhalt erlaubt. Dies kann templateId, code oder id betreffen. Erwartet:  hl7:id[not(@nullFlavor)] | hl7:name[not(@nullFlavor)] | hl7:telecom[not(@nullFlavor)] | hl7:addr[not(@nullFlavor)] (rule-reference: d411476e74-true-d411924e0)</assert>
    </rule>

   <!-- Checking undefined contents for template/element @isClosed="true". Match context that we did not already match -->
    <rule context="*[hl7:act[hl7:templateId[@root = '1.2.40.0.34.6.0.11.3.11'] and hl7:templateId[@root = '2.16.840.1.113883.10.20.1.40'] and hl7:templateId[@root = '1.3.6.1.4.1.19376.1.5.3.1.4.2']]]/hl7:act[hl7:templateId[@root = '1.2.40.0.34.6.0.11.3.11'] and hl7:templateId[@root = '2.16.840.1.113883.10.20.1.40'] and hl7:templateId[@root = '1.3.6.1.4.1.19376.1.5.3.1.4.2']]/hl7:author[hl7:assignedAuthor]/hl7:assignedAuthor/hl7:representedOrganization/hl7:addr[not(@nullFlavor)]/*[not(@xsi:nil = 'true')][not(self::hl7:streetAddressLine | self::hl7:streetName | self::hl7:houseNumber | self::hl7:postalCode[not(@nullFlavor)] | self::hl7:city[not(@nullFlavor)] | self::hl7:state | self::hl7:country[not(@nullFlavor)] | self::hl7:additionalLocator)]" id="d411895e43-true-d411983e0">
        <assert role="error" see="http://art-decor.org/art-decor/decor-templates--elgaimpf-?id=1.2.40.0.34.6.0.11.3.11" test="not(.)">(atcdabrr_entry_Comment)/d411895e43-true-d411983e0: '<value-of select="name(..)"/>' ist als geschlossen definiert und dieses Element '<name/>' ist nicht erlaubt oder nicht mit diesem Inhalt erlaubt. Dies kann templateId, code oder id betreffen. Erwartet:  hl7:streetAddressLine | hl7:streetName | hl7:houseNumber | hl7:postalCode[not(@nullFlavor)] | hl7:city[not(@nullFlavor)] | hl7:state | hl7:country[not(@nullFlavor)] | hl7:additionalLocator (rule-reference: d411895e43-true-d411983e0)</assert>
    </rule>

   <!-- Checking undefined contents for template/element @isClosed="true". Match context that we did not already match -->
    <rule context="*[hl7:act[hl7:templateId[@root = '1.2.40.0.34.6.0.11.3.11'] and hl7:templateId[@root = '2.16.840.1.113883.10.20.1.40'] and hl7:templateId[@root = '1.3.6.1.4.1.19376.1.5.3.1.4.2']]]/hl7:act[hl7:templateId[@root = '1.2.40.0.34.6.0.11.3.11'] and hl7:templateId[@root = '2.16.840.1.113883.10.20.1.40'] and hl7:templateId[@root = '1.3.6.1.4.1.19376.1.5.3.1.4.2']]/hl7:informant/*[not(@xsi:nil = 'true')][not(self::hl7:assignedEntity | self::hl7:relatedEntity)]" id="d245561e4197-true-d412146e0">
        <assert role="error" see="http://art-decor.org/art-decor/decor-templates--elgaimpf-?id=1.2.40.0.34.6.0.11.3.11" test="not(.)">(atcdabrr_entry_Comment)/d245561e4197-true-d412146e0: '<value-of select="name(..)"/>' ist als geschlossen definiert und dieses Element '<name/>' ist nicht erlaubt oder nicht mit diesem Inhalt erlaubt. Dies kann templateId, code oder id betreffen. Erwartet:  hl7:assignedEntity | hl7:relatedEntity (rule-reference: d245561e4197-true-d412146e0)</assert>
    </rule>

   <!-- Checking undefined contents for template/element @isClosed="true". Match context that we did not already match -->
    <rule context="*[hl7:act[hl7:templateId[@root = '1.2.40.0.34.6.0.11.3.11'] and hl7:templateId[@root = '2.16.840.1.113883.10.20.1.40'] and hl7:templateId[@root = '1.3.6.1.4.1.19376.1.5.3.1.4.2']]]/hl7:act[hl7:templateId[@root = '1.2.40.0.34.6.0.11.3.11'] and hl7:templateId[@root = '2.16.840.1.113883.10.20.1.40'] and hl7:templateId[@root = '1.3.6.1.4.1.19376.1.5.3.1.4.2']]/hl7:informant/hl7:assignedEntity/*[not(@xsi:nil = 'true')][not(self::hl7:id[not(@nullFlavor)] | self::hl7:id[@nullFlavor='NI'] | self::hl7:id[@nullFlavor='UNK'] | self::hl7:code | self::hl7:addr | self::hl7:telecom | self::hl7:assignedPerson | self::hl7:assignedPerson | self::hl7:representedOrganization)]" id="d412020e6-true-d412280e0">
        <assert role="error" see="http://art-decor.org/art-decor/decor-templates--elgaimpf-?id=1.2.40.0.34.6.0.11.3.11" test="not(.)">(atcdabrr_entry_Comment)/d412020e6-true-d412280e0: '<value-of select="name(..)"/>' ist als geschlossen definiert und dieses Element '<name/>' ist nicht erlaubt oder nicht mit diesem Inhalt erlaubt. Dies kann templateId, code oder id betreffen. Erwartet:  hl7:id[not(@nullFlavor)] | hl7:id[@nullFlavor='NI'] | hl7:id[@nullFlavor='UNK'] | hl7:code | hl7:addr | hl7:telecom | hl7:assignedPerson | hl7:assignedPerson | hl7:representedOrganization (rule-reference: d412020e6-true-d412280e0)</assert>
    </rule>

   <!-- Checking undefined contents for template/element @isClosed="true". Match context that we did not already match -->
    <rule context="*[hl7:act[hl7:templateId[@root = '1.2.40.0.34.6.0.11.3.11'] and hl7:templateId[@root = '2.16.840.1.113883.10.20.1.40'] and hl7:templateId[@root = '1.3.6.1.4.1.19376.1.5.3.1.4.2']]]/hl7:act[hl7:templateId[@root = '1.2.40.0.34.6.0.11.3.11'] and hl7:templateId[@root = '2.16.840.1.113883.10.20.1.40'] and hl7:templateId[@root = '1.3.6.1.4.1.19376.1.5.3.1.4.2']]/hl7:informant/hl7:assignedEntity/hl7:addr/*[not(@xsi:nil = 'true')][not(self::hl7:streetAddressLine | self::hl7:streetName | self::hl7:houseNumber | self::hl7:postalCode | self::hl7:city | self::hl7:state | self::hl7:country | self::hl7:additionalLocator)]" id="d412151e26-true-d412341e0">
        <assert role="error" see="http://art-decor.org/art-decor/decor-templates--elgaimpf-?id=1.2.40.0.34.6.0.11.3.11" test="not(.)">(atcdabrr_entry_Comment)/d412151e26-true-d412341e0: '<value-of select="name(..)"/>' ist als geschlossen definiert und dieses Element '<name/>' ist nicht erlaubt oder nicht mit diesem Inhalt erlaubt. Dies kann templateId, code oder id betreffen. Erwartet:  hl7:streetAddressLine | hl7:streetName | hl7:houseNumber | hl7:postalCode | hl7:city | hl7:state | hl7:country | hl7:additionalLocator (rule-reference: d412151e26-true-d412341e0)</assert>
    </rule>

   <!-- Checking undefined contents for template/element @isClosed="true". Match context that we did not already match -->
    <rule context="*[hl7:act[hl7:templateId[@root = '1.2.40.0.34.6.0.11.3.11'] and hl7:templateId[@root = '2.16.840.1.113883.10.20.1.40'] and hl7:templateId[@root = '1.3.6.1.4.1.19376.1.5.3.1.4.2']]]/hl7:act[hl7:templateId[@root = '1.2.40.0.34.6.0.11.3.11'] and hl7:templateId[@root = '2.16.840.1.113883.10.20.1.40'] and hl7:templateId[@root = '1.3.6.1.4.1.19376.1.5.3.1.4.2']]/hl7:informant/hl7:assignedEntity/hl7:assignedPerson/*[not(@xsi:nil = 'true')][not(self::hl7:name[not(@nullFlavor)])]" id="d412151e66-true-d412393e0">
        <assert role="error" see="http://art-decor.org/art-decor/decor-templates--elgaimpf-?id=1.2.40.0.34.6.0.11.3.11" test="not(.)">(atcdabrr_entry_Comment)/d412151e66-true-d412393e0: '<value-of select="name(..)"/>' ist als geschlossen definiert und dieses Element '<name/>' ist nicht erlaubt oder nicht mit diesem Inhalt erlaubt. Dies kann templateId, code oder id betreffen. Erwartet:  hl7:name[not(@nullFlavor)] (rule-reference: d412151e66-true-d412393e0)</assert>
    </rule>

   <!-- Checking undefined contents for template/element @isClosed="true". Match context that we did not already match -->
    <rule context="*[hl7:act[hl7:templateId[@root = '1.2.40.0.34.6.0.11.3.11'] and hl7:templateId[@root = '2.16.840.1.113883.10.20.1.40'] and hl7:templateId[@root = '1.3.6.1.4.1.19376.1.5.3.1.4.2']]]/hl7:act[hl7:templateId[@root = '1.2.40.0.34.6.0.11.3.11'] and hl7:templateId[@root = '2.16.840.1.113883.10.20.1.40'] and hl7:templateId[@root = '1.3.6.1.4.1.19376.1.5.3.1.4.2']]/hl7:informant/hl7:assignedEntity/hl7:assignedPerson/*[not(@xsi:nil = 'true')][not(self::hl7:name[not(@nullFlavor)])]" id="d412151e73-true-d412413e0">
        <assert role="error" see="http://art-decor.org/art-decor/decor-templates--elgaimpf-?id=1.2.40.0.34.6.0.11.3.11" test="not(.)">(atcdabrr_entry_Comment)/d412151e73-true-d412413e0: '<value-of select="name(..)"/>' ist als geschlossen definiert und dieses Element '<name/>' ist nicht erlaubt oder nicht mit diesem Inhalt erlaubt. Dies kann templateId, code oder id betreffen. Erwartet:  hl7:name[not(@nullFlavor)] (rule-reference: d412151e73-true-d412413e0)</assert>
    </rule>

   <!-- Checking undefined contents for template/element @isClosed="true". Match context that we did not already match -->
    <rule context="*[hl7:act[hl7:templateId[@root = '1.2.40.0.34.6.0.11.3.11'] and hl7:templateId[@root = '2.16.840.1.113883.10.20.1.40'] and hl7:templateId[@root = '1.3.6.1.4.1.19376.1.5.3.1.4.2']]]/hl7:act[hl7:templateId[@root = '1.2.40.0.34.6.0.11.3.11'] and hl7:templateId[@root = '2.16.840.1.113883.10.20.1.40'] and hl7:templateId[@root = '1.3.6.1.4.1.19376.1.5.3.1.4.2']]/hl7:informant/hl7:assignedEntity/hl7:assignedPerson/hl7:name[not(@nullFlavor)]/*[not(@xsi:nil = 'true')][not(self::hl7:prefix | self::hl7:family[not(@nullFlavor)] | self::hl7:given[not(@nullFlavor)] | self::hl7:suffix)]" id="d412402e10-true-d412441e0">
        <assert role="error" see="http://art-decor.org/art-decor/decor-templates--elgaimpf-?id=1.2.40.0.34.6.0.11.3.11" test="not(.)">(atcdabrr_entry_Comment)/d412402e10-true-d412441e0: '<value-of select="name(..)"/>' ist als geschlossen definiert und dieses Element '<name/>' ist nicht erlaubt oder nicht mit diesem Inhalt erlaubt. Dies kann templateId, code oder id betreffen. Erwartet:  hl7:prefix | hl7:family[not(@nullFlavor)] | hl7:given[not(@nullFlavor)] | hl7:suffix (rule-reference: d412402e10-true-d412441e0)</assert>
    </rule>

   <!-- Checking undefined contents for template/element @isClosed="true". Match context that we did not already match -->
    <rule context="*[hl7:act[hl7:templateId[@root = '1.2.40.0.34.6.0.11.3.11'] and hl7:templateId[@root = '2.16.840.1.113883.10.20.1.40'] and hl7:templateId[@root = '1.3.6.1.4.1.19376.1.5.3.1.4.2']]]/hl7:act[hl7:templateId[@root = '1.2.40.0.34.6.0.11.3.11'] and hl7:templateId[@root = '2.16.840.1.113883.10.20.1.40'] and hl7:templateId[@root = '1.3.6.1.4.1.19376.1.5.3.1.4.2']]/hl7:informant/hl7:assignedEntity/hl7:representedOrganization/*[not(@xsi:nil = 'true')][not(self::hl7:id[not(@nullFlavor)] | self::hl7:name[not(@nullFlavor)] | self::hl7:telecom[not(@nullFlavor)] | self::hl7:addr[not(@nullFlavor)])]" id="d412151e81-true-d412487e0">
        <assert role="error" see="http://art-decor.org/art-decor/decor-templates--elgaimpf-?id=1.2.40.0.34.6.0.11.3.11" test="not(.)">(atcdabrr_entry_Comment)/d412151e81-true-d412487e0: '<value-of select="name(..)"/>' ist als geschlossen definiert und dieses Element '<name/>' ist nicht erlaubt oder nicht mit diesem Inhalt erlaubt. Dies kann templateId, code oder id betreffen. Erwartet:  hl7:id[not(@nullFlavor)] | hl7:name[not(@nullFlavor)] | hl7:telecom[not(@nullFlavor)] | hl7:addr[not(@nullFlavor)] (rule-reference: d412151e81-true-d412487e0)</assert>
    </rule>

   <!-- Checking undefined contents for template/element @isClosed="true". Match context that we did not already match -->
    <rule context="*[hl7:act[hl7:templateId[@root = '1.2.40.0.34.6.0.11.3.11'] and hl7:templateId[@root = '2.16.840.1.113883.10.20.1.40'] and hl7:templateId[@root = '1.3.6.1.4.1.19376.1.5.3.1.4.2']]]/hl7:act[hl7:templateId[@root = '1.2.40.0.34.6.0.11.3.11'] and hl7:templateId[@root = '2.16.840.1.113883.10.20.1.40'] and hl7:templateId[@root = '1.3.6.1.4.1.19376.1.5.3.1.4.2']]/hl7:informant/hl7:assignedEntity/hl7:representedOrganization/hl7:addr[not(@nullFlavor)]/*[not(@xsi:nil = 'true')][not(self::hl7:streetAddressLine | self::hl7:streetName | self::hl7:houseNumber | self::hl7:postalCode | self::hl7:city | self::hl7:state | self::hl7:country | self::hl7:additionalLocator)]" id="d412462e36-true-d412544e0">
        <assert role="error" see="http://art-decor.org/art-decor/decor-templates--elgaimpf-?id=1.2.40.0.34.6.0.11.3.11" test="not(.)">(atcdabrr_entry_Comment)/d412462e36-true-d412544e0: '<value-of select="name(..)"/>' ist als geschlossen definiert und dieses Element '<name/>' ist nicht erlaubt oder nicht mit diesem Inhalt erlaubt. Dies kann templateId, code oder id betreffen. Erwartet:  hl7:streetAddressLine | hl7:streetName | hl7:houseNumber | hl7:postalCode | hl7:city | hl7:state | hl7:country | hl7:additionalLocator (rule-reference: d412462e36-true-d412544e0)</assert>
    </rule>

   <!-- Checking undefined contents for template/element @isClosed="true". Match context that we did not already match -->
    <rule context="*[hl7:act[hl7:templateId[@root = '1.2.40.0.34.6.0.11.3.11'] and hl7:templateId[@root = '2.16.840.1.113883.10.20.1.40'] and hl7:templateId[@root = '1.3.6.1.4.1.19376.1.5.3.1.4.2']]]/hl7:act[hl7:templateId[@root = '1.2.40.0.34.6.0.11.3.11'] and hl7:templateId[@root = '2.16.840.1.113883.10.20.1.40'] and hl7:templateId[@root = '1.3.6.1.4.1.19376.1.5.3.1.4.2']]/hl7:informant/hl7:relatedEntity/*[not(@xsi:nil = 'true')][not(self::hl7:code[not(@nullFlavor)] | self::hl7:addr[not(@nullFlavor)] | self::hl7:telecom[not(@nullFlavor)] | self::hl7:relatedPerson)]" id="d412020e7-true-d412612e0">
        <assert role="error" see="http://art-decor.org/art-decor/decor-templates--elgaimpf-?id=1.2.40.0.34.6.0.11.3.11" test="not(.)">(atcdabrr_entry_Comment)/d412020e7-true-d412612e0: '<value-of select="name(..)"/>' ist als geschlossen definiert und dieses Element '<name/>' ist nicht erlaubt oder nicht mit diesem Inhalt erlaubt. Dies kann templateId, code oder id betreffen. Erwartet:  hl7:code[not(@nullFlavor)] | hl7:addr[not(@nullFlavor)] | hl7:telecom[not(@nullFlavor)] | hl7:relatedPerson (rule-reference: d412020e7-true-d412612e0)</assert>
    </rule>

   <!-- Checking undefined contents for template/element @isClosed="true". Match context that we did not already match -->
    <rule context="*[hl7:act[hl7:templateId[@root = '1.2.40.0.34.6.0.11.3.11'] and hl7:templateId[@root = '2.16.840.1.113883.10.20.1.40'] and hl7:templateId[@root = '1.3.6.1.4.1.19376.1.5.3.1.4.2']]]/hl7:act[hl7:templateId[@root = '1.2.40.0.34.6.0.11.3.11'] and hl7:templateId[@root = '2.16.840.1.113883.10.20.1.40'] and hl7:templateId[@root = '1.3.6.1.4.1.19376.1.5.3.1.4.2']]/hl7:informant/hl7:relatedEntity/hl7:addr[not(@nullFlavor)]/*[not(@xsi:nil = 'true')][not(self::hl7:streetAddressLine | self::hl7:streetName | self::hl7:houseNumber | self::hl7:postalCode | self::hl7:city | self::hl7:state | self::hl7:country | self::hl7:additionalLocator)]" id="d412020e10-true-d412663e0">
        <assert role="error" see="http://art-decor.org/art-decor/decor-templates--elgaimpf-?id=1.2.40.0.34.6.0.11.3.11" test="not(.)">(atcdabrr_entry_Comment)/d412020e10-true-d412663e0: '<value-of select="name(..)"/>' ist als geschlossen definiert und dieses Element '<name/>' ist nicht erlaubt oder nicht mit diesem Inhalt erlaubt. Dies kann templateId, code oder id betreffen. Erwartet:  hl7:streetAddressLine | hl7:streetName | hl7:houseNumber | hl7:postalCode | hl7:city | hl7:state | hl7:country | hl7:additionalLocator (rule-reference: d412020e10-true-d412663e0)</assert>
    </rule>

   <!-- Checking undefined contents for template/element @isClosed="true". Match context that we did not already match -->
    <rule context="*[hl7:act[hl7:templateId[@root = '1.2.40.0.34.6.0.11.3.11'] and hl7:templateId[@root = '2.16.840.1.113883.10.20.1.40'] and hl7:templateId[@root = '1.3.6.1.4.1.19376.1.5.3.1.4.2']]]/hl7:act[hl7:templateId[@root = '1.2.40.0.34.6.0.11.3.11'] and hl7:templateId[@root = '2.16.840.1.113883.10.20.1.40'] and hl7:templateId[@root = '1.3.6.1.4.1.19376.1.5.3.1.4.2']]/hl7:informant/hl7:relatedEntity/hl7:relatedPerson/*[not(@xsi:nil = 'true')][not(self::hl7:name[not(@nullFlavor)] | self::hl7:name[@nullFlavor='UNK'] | self::hl7:name[@nullFlavor='MSK'])]" id="d412020e12-true-d412708e0">
        <assert role="error" see="http://art-decor.org/art-decor/decor-templates--elgaimpf-?id=1.2.40.0.34.6.0.11.3.11" test="not(.)">(atcdabrr_entry_Comment)/d412020e12-true-d412708e0: '<value-of select="name(..)"/>' ist als geschlossen definiert und dieses Element '<name/>' ist nicht erlaubt oder nicht mit diesem Inhalt erlaubt. Dies kann templateId, code oder id betreffen. Erwartet:  hl7:name[not(@nullFlavor)] | hl7:name[@nullFlavor='UNK'] | hl7:name[@nullFlavor='MSK'] (rule-reference: d412020e12-true-d412708e0)</assert>
    </rule>

   <!-- Checking undefined contents for template/element @isClosed="true". Match context that we did not already match -->
    <rule context="*[hl7:act[hl7:templateId[@root = '1.2.40.0.34.6.0.11.3.11'] and hl7:templateId[@root = '2.16.840.1.113883.10.20.1.40'] and hl7:templateId[@root = '1.3.6.1.4.1.19376.1.5.3.1.4.2']]]/hl7:act[hl7:templateId[@root = '1.2.40.0.34.6.0.11.3.11'] and hl7:templateId[@root = '2.16.840.1.113883.10.20.1.40'] and hl7:templateId[@root = '1.3.6.1.4.1.19376.1.5.3.1.4.2']]/hl7:informant/hl7:relatedEntity/hl7:relatedPerson/hl7:name[not(@nullFlavor)]/*[not(@xsi:nil = 'true')][not(self::hl7:prefix | self::hl7:family[not(@nullFlavor)] | self::hl7:given[not(@nullFlavor)] | self::hl7:suffix)]" id="d412702e7-true-d412734e0">
        <assert role="error" see="http://art-decor.org/art-decor/decor-templates--elgaimpf-?id=1.2.40.0.34.6.0.11.3.11" test="not(.)">(atcdabrr_entry_Comment)/d412702e7-true-d412734e0: '<value-of select="name(..)"/>' ist als geschlossen definiert und dieses Element '<name/>' ist nicht erlaubt oder nicht mit diesem Inhalt erlaubt. Dies kann templateId, code oder id betreffen. Erwartet:  hl7:prefix | hl7:family[not(@nullFlavor)] | hl7:given[not(@nullFlavor)] | hl7:suffix (rule-reference: d412702e7-true-d412734e0)</assert>
    </rule>

   <!-- Checking undefined contents for template/element @isClosed="true". Match context that we did not already match -->
    <rule context="*[hl7:act[hl7:templateId[@root = '1.2.40.0.34.6.0.11.3.11'] and hl7:templateId[@root = '2.16.840.1.113883.10.20.1.40'] and hl7:templateId[@root = '1.3.6.1.4.1.19376.1.5.3.1.4.2']]]/hl7:act[hl7:templateId[@root = '1.2.40.0.34.6.0.11.3.11'] and hl7:templateId[@root = '2.16.840.1.113883.10.20.1.40'] and hl7:templateId[@root = '1.3.6.1.4.1.19376.1.5.3.1.4.2']]/hl7:participant[@typeCode][hl7:participantRole]/*[not(@xsi:nil = 'true')][not(self::hl7:time | self::hl7:awarenessCode[concat(@code, @codeSystem) = doc('include/voc-2.16.840.1.113883.1.11.10310-DYNAMIC.xml')//valueSet[1]/conceptList/concept/concat(@code, @codeSystem) or @nullFlavor] | self::hl7:participantRole)]" id="d245561e4200-true-d412855e0">
        <assert role="error" see="http://art-decor.org/art-decor/decor-templates--elgaimpf-?id=1.2.40.0.34.6.0.11.3.11" test="not(.)">(atcdabrr_entry_Comment)/d245561e4200-true-d412855e0: '<value-of select="name(..)"/>' ist als geschlossen definiert und dieses Element '<name/>' ist nicht erlaubt oder nicht mit diesem Inhalt erlaubt. Dies kann templateId, code oder id betreffen. Erwartet:  hl7:time | hl7:awarenessCode[concat(@code, @codeSystem) = doc('include/voc-2.16.840.1.113883.1.11.10310-DYNAMIC.xml')//valueSet[1]/conceptList/concept/concat(@code, @codeSystem) or @nullFlavor] | hl7:participantRole (rule-reference: d245561e4200-true-d412855e0)</assert>
    </rule>

   <!-- Checking undefined contents for template/element @isClosed="true". Match context that we did not already match -->
    <rule context="*[hl7:act[hl7:templateId[@root = '1.2.40.0.34.6.0.11.3.11'] and hl7:templateId[@root = '2.16.840.1.113883.10.20.1.40'] and hl7:templateId[@root = '1.3.6.1.4.1.19376.1.5.3.1.4.2']]]/hl7:act[hl7:templateId[@root = '1.2.40.0.34.6.0.11.3.11'] and hl7:templateId[@root = '2.16.840.1.113883.10.20.1.40'] and hl7:templateId[@root = '1.3.6.1.4.1.19376.1.5.3.1.4.2']]/hl7:participant[@typeCode][hl7:participantRole]/hl7:participantRole/*[not(@xsi:nil = 'true')][not(self::hl7:id | self::hl7:code | self::hl7:addr | self::hl7:telecom | self::hl7:playingDevice | self::hl7:playingEntity | self::hl7:scopingEntity)]" id="d412759e7-true-d412960e0">
        <assert role="error" see="http://art-decor.org/art-decor/decor-templates--elgaimpf-?id=1.2.40.0.34.6.0.11.3.11" test="not(.)">(atcdabrr_entry_Comment)/d412759e7-true-d412960e0: '<value-of select="name(..)"/>' ist als geschlossen definiert und dieses Element '<name/>' ist nicht erlaubt oder nicht mit diesem Inhalt erlaubt. Dies kann templateId, code oder id betreffen. Erwartet:  hl7:id | hl7:code | hl7:addr | hl7:telecom | hl7:playingDevice | hl7:playingEntity | hl7:scopingEntity (rule-reference: d412759e7-true-d412960e0)</assert>
    </rule>

   <!-- Checking undefined contents for template/element @isClosed="true". Match context that we did not already match -->
    <rule context="*[hl7:act[hl7:templateId[@root = '1.2.40.0.34.6.0.11.3.11'] and hl7:templateId[@root = '2.16.840.1.113883.10.20.1.40'] and hl7:templateId[@root = '1.3.6.1.4.1.19376.1.5.3.1.4.2']]]/hl7:act[hl7:templateId[@root = '1.2.40.0.34.6.0.11.3.11'] and hl7:templateId[@root = '2.16.840.1.113883.10.20.1.40'] and hl7:templateId[@root = '1.3.6.1.4.1.19376.1.5.3.1.4.2']]/hl7:participant[@typeCode][hl7:participantRole]/hl7:participantRole/hl7:addr/*[not(@xsi:nil = 'true')][not(self::hl7:streetAddressLine | self::hl7:streetName | self::hl7:houseNumber | self::hl7:postalCode[not(@nullFlavor)] | self::hl7:city[not(@nullFlavor)] | self::hl7:state | self::hl7:country[not(@nullFlavor)] | self::hl7:additionalLocator)]" id="d412759e12-true-d413019e0">
        <assert role="error" see="http://art-decor.org/art-decor/decor-templates--elgaimpf-?id=1.2.40.0.34.6.0.11.3.11" test="not(.)">(atcdabrr_entry_Comment)/d412759e12-true-d413019e0: '<value-of select="name(..)"/>' ist als geschlossen definiert und dieses Element '<name/>' ist nicht erlaubt oder nicht mit diesem Inhalt erlaubt. Dies kann templateId, code oder id betreffen. Erwartet:  hl7:streetAddressLine | hl7:streetName | hl7:houseNumber | hl7:postalCode[not(@nullFlavor)] | hl7:city[not(@nullFlavor)] | hl7:state | hl7:country[not(@nullFlavor)] | hl7:additionalLocator (rule-reference: d412759e12-true-d413019e0)</assert>
    </rule>

   <!-- Checking undefined contents for template/element @isClosed="true". Match context that we did not already match -->
    <rule context="*[hl7:act[hl7:templateId[@root = '1.2.40.0.34.6.0.11.3.11'] and hl7:templateId[@root = '2.16.840.1.113883.10.20.1.40'] and hl7:templateId[@root = '1.3.6.1.4.1.19376.1.5.3.1.4.2']]]/hl7:act[hl7:templateId[@root = '1.2.40.0.34.6.0.11.3.11'] and hl7:templateId[@root = '2.16.840.1.113883.10.20.1.40'] and hl7:templateId[@root = '1.3.6.1.4.1.19376.1.5.3.1.4.2']]/hl7:participant[@typeCode][hl7:participantRole]/hl7:participantRole/hl7:playingDevice/*[not(@xsi:nil = 'true')][not(self::hl7:code[@codeSystem = doc('include/voc-2.16.840.1.113883.1.11.16040-DYNAMIC.xml')//valueSet[1]/completeCodeSystem/@codeSystem or concat(@code, @codeSystem) = doc('include/voc-2.16.840.1.113883.1.11.16040-DYNAMIC.xml')//valueSet[1]/conceptList/concept/concat(@code, @codeSystem) or @nullFlavor] | self::hl7:manufacturerModelName | self::hl7:softwareName)]" id="d412759e38-true-d413087e0">
        <assert role="error" see="http://art-decor.org/art-decor/decor-templates--elgaimpf-?id=1.2.40.0.34.6.0.11.3.11" test="not(.)">(atcdabrr_entry_Comment)/d412759e38-true-d413087e0: '<value-of select="name(..)"/>' ist als geschlossen definiert und dieses Element '<name/>' ist nicht erlaubt oder nicht mit diesem Inhalt erlaubt. Dies kann templateId, code oder id betreffen. Erwartet:  hl7:code[@codeSystem = doc('include/voc-2.16.840.1.113883.1.11.16040-DYNAMIC.xml')//valueSet[1]/completeCodeSystem/@codeSystem or concat(@code, @codeSystem) = doc('include/voc-2.16.840.1.113883.1.11.16040-DYNAMIC.xml')//valueSet[1]/conceptList/concept/concat(@code, @codeSystem) or @nullFlavor] | hl7:manufacturerModelName | hl7:softwareName (rule-reference: d412759e38-true-d413087e0)</assert>
    </rule>

   <!-- Checking undefined contents for template/element @isClosed="true". Match context that we did not already match -->
    <rule context="*[hl7:act[hl7:templateId[@root = '1.2.40.0.34.6.0.11.3.11'] and hl7:templateId[@root = '2.16.840.1.113883.10.20.1.40'] and hl7:templateId[@root = '1.3.6.1.4.1.19376.1.5.3.1.4.2']]]/hl7:act[hl7:templateId[@root = '1.2.40.0.34.6.0.11.3.11'] and hl7:templateId[@root = '2.16.840.1.113883.10.20.1.40'] and hl7:templateId[@root = '1.3.6.1.4.1.19376.1.5.3.1.4.2']]/hl7:participant[@typeCode][hl7:participantRole]/hl7:participantRole/hl7:playingEntity/*[not(@xsi:nil = 'true')][not(self::hl7:code[@codeSystem = doc('include/voc-2.16.840.1.113883.1.11.16040-DYNAMIC.xml')//valueSet[1]/completeCodeSystem/@codeSystem or concat(@code, @codeSystem) = doc('include/voc-2.16.840.1.113883.1.11.16040-DYNAMIC.xml')//valueSet[1]/conceptList/concept/concat(@code, @codeSystem) or @nullFlavor] | self::hl7:quantity | self::hl7:name | self::sdtc:birthTime | self::hl7:desc)]" id="d412759e39-true-d413144e0">
        <assert role="error" see="http://art-decor.org/art-decor/decor-templates--elgaimpf-?id=1.2.40.0.34.6.0.11.3.11" test="not(.)">(atcdabrr_entry_Comment)/d412759e39-true-d413144e0: '<value-of select="name(..)"/>' ist als geschlossen definiert und dieses Element '<name/>' ist nicht erlaubt oder nicht mit diesem Inhalt erlaubt. Dies kann templateId, code oder id betreffen. Erwartet:  hl7:code[@codeSystem = doc('include/voc-2.16.840.1.113883.1.11.16040-DYNAMIC.xml')//valueSet[1]/completeCodeSystem/@codeSystem or concat(@code, @codeSystem) = doc('include/voc-2.16.840.1.113883.1.11.16040-DYNAMIC.xml')//valueSet[1]/conceptList/concept/concat(@code, @codeSystem) or @nullFlavor] | hl7:quantity | hl7:name | sdtc:birthTime | hl7:desc (rule-reference: d412759e39-true-d413144e0)</assert>
    </rule>

   <!-- Checking undefined contents for template/element @isClosed="true". Match context that we did not already match -->
    <rule context="*[hl7:act[hl7:templateId[@root = '1.2.40.0.34.6.0.11.3.11'] and hl7:templateId[@root = '2.16.840.1.113883.10.20.1.40'] and hl7:templateId[@root = '1.3.6.1.4.1.19376.1.5.3.1.4.2']]]/hl7:act[hl7:templateId[@root = '1.2.40.0.34.6.0.11.3.11'] and hl7:templateId[@root = '2.16.840.1.113883.10.20.1.40'] and hl7:templateId[@root = '1.3.6.1.4.1.19376.1.5.3.1.4.2']]/hl7:participant[@typeCode][hl7:participantRole]/hl7:participantRole/hl7:scopingEntity/*[not(@xsi:nil = 'true')][not(self::hl7:id | self::hl7:code[@codeSystem = doc('include/voc-2.16.840.1.113883.1.11.16040-DYNAMIC.xml')//valueSet[1]/completeCodeSystem/@codeSystem or concat(@code, @codeSystem) = doc('include/voc-2.16.840.1.113883.1.11.16040-DYNAMIC.xml')//valueSet[1]/conceptList/concept/concat(@code, @codeSystem) or @nullFlavor] | self::hl7:desc)]" id="d412759e40-true-d413196e0">
        <assert role="error" see="http://art-decor.org/art-decor/decor-templates--elgaimpf-?id=1.2.40.0.34.6.0.11.3.11" test="not(.)">(atcdabrr_entry_Comment)/d412759e40-true-d413196e0: '<value-of select="name(..)"/>' ist als geschlossen definiert und dieses Element '<name/>' ist nicht erlaubt oder nicht mit diesem Inhalt erlaubt. Dies kann templateId, code oder id betreffen. Erwartet:  hl7:id | hl7:code[@codeSystem = doc('include/voc-2.16.840.1.113883.1.11.16040-DYNAMIC.xml')//valueSet[1]/completeCodeSystem/@codeSystem or concat(@code, @codeSystem) = doc('include/voc-2.16.840.1.113883.1.11.16040-DYNAMIC.xml')//valueSet[1]/conceptList/concept/concat(@code, @codeSystem) or @nullFlavor] | hl7:desc (rule-reference: d412759e40-true-d413196e0)</assert>
    </rule>
</pattern>