<?xml version="1.0" encoding="UTF-8"?>
<!--
Template derived pattern
===========================================
ID: 1.2.40.0.34.6.0.11.3.28
Name: Immunization Entry Impfung nicht angegeben
Description: Dokumentiert, dass keine Impfung verabreicht wurde. Dieses Entry wird weder im Stylesheet angzeigt  noch in der zentralen e-Impfpass-Anwengung gespeichert  - ist aber für IHE PCC-Konformität notwendig.
-->
<pattern xmlns="http://purl.oclc.org/dsdl/schematron" id="template-1.2.40.0.34.6.0.11.3.28-2019-08-13T125909-closed">
    <title>Immunization Entry Impfung nicht angegeben</title>

   <!-- Checking undefined contents for template/element @isClosed="true". Match context that we did not already match -->
    <rule context="*[hl7:substanceAdministration[hl7:templateId[@root='1.2.40.0.34.6.0.11.3.28']]]/*[not(@xsi:nil = 'true')][not(self::hl7:substanceAdministration[hl7:templateId[@root='1.2.40.0.34.6.0.11.3.28']])]" id="d245561e5033-true-d446337e0">
        <assert role="error" see="http://art-decor.org/art-decor/decor-templates--elgaimpf-?id=1.2.40.0.34.6.0.11.3.28" test="not(.)">(atcdabbr_entry_ImmunizationImpfungNichtAngegeben)/d245561e5033-true-d446337e0: '<value-of select="name(..)"/>' ist als geschlossen definiert und dieses Element '<name/>' ist nicht erlaubt oder nicht mit diesem Inhalt erlaubt. Dies kann templateId, code oder id betreffen. Erwartet:  hl7:substanceAdministration[hl7:templateId[@root='1.2.40.0.34.6.0.11.3.28']] (rule-reference: d245561e5033-true-d446337e0)</assert>
    </rule>

   <!-- Checking undefined contents for template/element @isClosed="true". Match context that we did not already match -->
    <rule context="*[hl7:substanceAdministration[hl7:templateId[@root='1.2.40.0.34.6.0.11.3.28']]]/hl7:substanceAdministration[hl7:templateId[@root='1.2.40.0.34.6.0.11.3.28']]/*[not(@xsi:nil = 'true')][not(self::hl7:templateId[@root='1.2.40.0.34.6.0.11.3.28'][not(@nullFlavor)] | self::hl7:templateId[@root='2.16.840.1.113883.10.20.1.24'][not(@nullFlavor)] | self::hl7:templateId[@root='1.3.6.1.4.1.19376.1.5.3.1.4.12'][not(@nullFlavor)] | self::hl7:id[not(@nullFlavor)] | self::hl7:code[(@code = '90351000119108' and @codeSystem = '2.16.840.1.113883.6.96')] | self::hl7:text | self::hl7:statusCode[@code = 'completed'] | self::hl7:effectiveTime[@nullFlavor = 'UNK'] | self::hl7:routeCode[@nullFlavor = 'NA'] | self::hl7:approachSiteCode[@nullFlavor = 'NA'] | self::hl7:consumable[hl7:manufacturedProduct[hl7:templateId[@root = '1.2.40.0.34.6.0.11.9.31'] and hl7:templateId[@root = '2.16.840.1.113883.10.20.1.53'] and hl7:templateId[@root = '1.3.6.1.4.1.19376.1.5.3.1.4.7.2']]])]" id="d245561e5061-true-d446409e0">
        <assert role="error" see="http://art-decor.org/art-decor/decor-templates--elgaimpf-?id=1.2.40.0.34.6.0.11.3.28" test="not(.)">(atcdabbr_entry_ImmunizationImpfungNichtAngegeben)/d245561e5061-true-d446409e0: '<value-of select="name(..)"/>' ist als geschlossen definiert und dieses Element '<name/>' ist nicht erlaubt oder nicht mit diesem Inhalt erlaubt. Dies kann templateId, code oder id betreffen. Erwartet:  hl7:templateId[@root='1.2.40.0.34.6.0.11.3.28'][not(@nullFlavor)] | hl7:templateId[@root='2.16.840.1.113883.10.20.1.24'][not(@nullFlavor)] | hl7:templateId[@root='1.3.6.1.4.1.19376.1.5.3.1.4.12'][not(@nullFlavor)] | hl7:id[not(@nullFlavor)] | hl7:code[(@code = '90351000119108' and @codeSystem = '2.16.840.1.113883.6.96')] | hl7:text | hl7:statusCode[@code = 'completed'] | hl7:effectiveTime[@nullFlavor = 'UNK'] | hl7:routeCode[@nullFlavor = 'NA'] | hl7:approachSiteCode[@nullFlavor = 'NA'] | hl7:consumable[hl7:manufacturedProduct[hl7:templateId[@root = '1.2.40.0.34.6.0.11.9.31'] and hl7:templateId[@root = '2.16.840.1.113883.10.20.1.53'] and hl7:templateId[@root = '1.3.6.1.4.1.19376.1.5.3.1.4.7.2']]] (rule-reference: d245561e5061-true-d446409e0)</assert>
    </rule>

   <!-- Checking undefined contents for template/element @isClosed="true". Match context that we did not already match -->
    <rule context="*[hl7:substanceAdministration[hl7:templateId[@root='1.2.40.0.34.6.0.11.3.28']]]/hl7:substanceAdministration[hl7:templateId[@root='1.2.40.0.34.6.0.11.3.28']]/hl7:text/*[not(@xsi:nil = 'true')][not(self::hl7:reference[not(@nullFlavor)])]" id="d446428e37-true-d446439e0">
        <assert role="error" see="http://art-decor.org/art-decor/decor-templates--elgaimpf-?id=1.2.40.0.34.6.0.11.9.1" test="not(.)">(atcdabrr_other_NarrativeTextReference)/d446428e37-true-d446439e0: '<value-of select="name(..)"/>' ist als geschlossen definiert und dieses Element '<name/>' ist nicht erlaubt oder nicht mit diesem Inhalt erlaubt. Dies kann templateId, code oder id betreffen. Erwartet:  hl7:reference[not(@nullFlavor)] (rule-reference: d446428e37-true-d446439e0)</assert>
    </rule>

   <!-- Checking undefined contents for template/element @isClosed="true". Match context that we did not already match -->
    <rule context="*[hl7:substanceAdministration[hl7:templateId[@root='1.2.40.0.34.6.0.11.3.28']]]/hl7:substanceAdministration[hl7:templateId[@root='1.2.40.0.34.6.0.11.3.28']]/hl7:consumable[hl7:manufacturedProduct[hl7:templateId[@root = '1.2.40.0.34.6.0.11.9.31'] and hl7:templateId[@root = '2.16.840.1.113883.10.20.1.53'] and hl7:templateId[@root = '1.3.6.1.4.1.19376.1.5.3.1.4.7.2']]]/*[not(@xsi:nil = 'true')][not(self::hl7:manufacturedProduct[hl7:templateId[@root = '1.2.40.0.34.6.0.11.9.31'] and hl7:templateId[@root = '2.16.840.1.113883.10.20.1.53'] and hl7:templateId[@root = '1.3.6.1.4.1.19376.1.5.3.1.4.7.2']])]" id="d245561e5127-true-d446485e0">
        <assert role="error" see="http://art-decor.org/art-decor/decor-templates--elgaimpf-?id=1.2.40.0.34.6.0.11.3.28" test="not(.)">(atcdabbr_entry_ImmunizationImpfungNichtAngegeben)/d245561e5127-true-d446485e0: '<value-of select="name(..)"/>' ist als geschlossen definiert und dieses Element '<name/>' ist nicht erlaubt oder nicht mit diesem Inhalt erlaubt. Dies kann templateId, code oder id betreffen. Erwartet:  hl7:manufacturedProduct[hl7:templateId[@root = '1.2.40.0.34.6.0.11.9.31'] and hl7:templateId[@root = '2.16.840.1.113883.10.20.1.53'] and hl7:templateId[@root = '1.3.6.1.4.1.19376.1.5.3.1.4.7.2']] (rule-reference: d245561e5127-true-d446485e0)</assert>
    </rule>

   <!-- Checking undefined contents for template/element @isClosed="true". Match context that we did not already match -->
    <rule context="*[hl7:substanceAdministration[hl7:templateId[@root='1.2.40.0.34.6.0.11.3.28']]]/hl7:substanceAdministration[hl7:templateId[@root='1.2.40.0.34.6.0.11.3.28']]/hl7:consumable[hl7:manufacturedProduct[hl7:templateId[@root = '1.2.40.0.34.6.0.11.9.31'] and hl7:templateId[@root = '2.16.840.1.113883.10.20.1.53'] and hl7:templateId[@root = '1.3.6.1.4.1.19376.1.5.3.1.4.7.2']]]/hl7:manufacturedProduct[hl7:templateId[@root = '1.2.40.0.34.6.0.11.9.31'] and hl7:templateId[@root = '2.16.840.1.113883.10.20.1.53'] and hl7:templateId[@root = '1.3.6.1.4.1.19376.1.5.3.1.4.7.2']]/*[not(@xsi:nil = 'true')][not(self::hl7:templateId[@root = '1.2.40.0.34.6.0.11.9.31'] | self::hl7:templateId[@root = '2.16.840.1.113883.10.20.1.53'] | self::hl7:templateId[@root = '1.3.6.1.4.1.19376.1.5.3.1.4.7.2'] | self::hl7:manufacturedMaterial[not(@nullFlavor)][hl7:code[@nullFlavor = 'NA']])]" id="d446465e3-true-d446522e0">
        <assert role="error" see="http://art-decor.org/art-decor/decor-templates--elgaimpf-?id=1.2.40.0.34.6.0.11.3.28" test="not(.)">(atcdabbr_entry_ImmunizationImpfungNichtAngegeben)/d446465e3-true-d446522e0: '<value-of select="name(..)"/>' ist als geschlossen definiert und dieses Element '<name/>' ist nicht erlaubt oder nicht mit diesem Inhalt erlaubt. Dies kann templateId, code oder id betreffen. Erwartet:  hl7:templateId[@root = '1.2.40.0.34.6.0.11.9.31'] | hl7:templateId[@root = '2.16.840.1.113883.10.20.1.53'] | hl7:templateId[@root = '1.3.6.1.4.1.19376.1.5.3.1.4.7.2'] | hl7:manufacturedMaterial[not(@nullFlavor)][hl7:code[@nullFlavor = 'NA']] (rule-reference: d446465e3-true-d446522e0)</assert>
    </rule>

   <!-- Checking undefined contents for template/element @isClosed="true". Match context that we did not already match -->
    <rule context="*[hl7:substanceAdministration[hl7:templateId[@root='1.2.40.0.34.6.0.11.3.28']]]/hl7:substanceAdministration[hl7:templateId[@root='1.2.40.0.34.6.0.11.3.28']]/hl7:consumable[hl7:manufacturedProduct[hl7:templateId[@root = '1.2.40.0.34.6.0.11.9.31'] and hl7:templateId[@root = '2.16.840.1.113883.10.20.1.53'] and hl7:templateId[@root = '1.3.6.1.4.1.19376.1.5.3.1.4.7.2']]]/hl7:manufacturedProduct[hl7:templateId[@root = '1.2.40.0.34.6.0.11.9.31'] and hl7:templateId[@root = '2.16.840.1.113883.10.20.1.53'] and hl7:templateId[@root = '1.3.6.1.4.1.19376.1.5.3.1.4.7.2']]/hl7:manufacturedMaterial[not(@nullFlavor)][hl7:code[@nullFlavor = 'NA']]/*[not(@xsi:nil = 'true')][not(self::hl7:code[@nullFlavor = 'NA'])]" id="d446465e31-true-d446550e0">
        <assert role="error" see="http://art-decor.org/art-decor/decor-templates--elgaimpf-?id=1.2.40.0.34.6.0.11.3.28" test="not(.)">(atcdabbr_entry_ImmunizationImpfungNichtAngegeben)/d446465e31-true-d446550e0: '<value-of select="name(..)"/>' ist als geschlossen definiert und dieses Element '<name/>' ist nicht erlaubt oder nicht mit diesem Inhalt erlaubt. Dies kann templateId, code oder id betreffen. Erwartet:  hl7:code[@nullFlavor = 'NA'] (rule-reference: d446465e31-true-d446550e0)</assert>
    </rule>
</pattern>