<?xml version="1.0" encoding="UTF-8"?>
<!--
Template derived pattern
===========================================
ID: 1.3.6.1.4.1.19376.1.3.1.6
Name: Laborergebnisse (Laboratory Observation)
Description: 
-->
<pattern xmlns="http://purl.oclc.org/dsdl/schematron" id="template-1.3.6.1.4.1.19376.1.3.1.6-2020-06-15T085028">
    <title>Laborergebnisse (Laboratory Observation)</title>
   <!--
Template derived rules for ID: 1.3.6.1.4.1.19376.1.3.1.6
Context: *[hl7:observation[hl7:templateId[@root = '1.3.6.1.4.1.19376.1.3.1.6']]]
Item: (LaboratoryObservation)
-->

<!--
Template derived rules for ID: 1.3.6.1.4.1.19376.1.3.1.6
Context: *[hl7:observation[hl7:templateId[@root = '1.3.6.1.4.1.19376.1.3.1.6']]]/hl7:observation[hl7:templateId[@root = '1.3.6.1.4.1.19376.1.3.1.6']]
Item: (LaboratoryObservation)
-->
    <rule context="*[hl7:observation[hl7:templateId[@root = '1.3.6.1.4.1.19376.1.3.1.6']]]/hl7:observation[hl7:templateId[@root = '1.3.6.1.4.1.19376.1.3.1.6']]" id="d245561e8606-false-d490138e0">
        <assert role="error" see="http://art-decor.org/art-decor/decor-templates--elgaimpf-?id=1.3.6.1.4.1.19376.1.3.1.6" test="string(@classCode) = ('OBS')">(LaboratoryObservation): Der Wert von classCode MUSS 'OBS' sein. Gefunden: "<value-of select="@classCode"/>"</assert>
        <assert role="error" see="http://art-decor.org/art-decor/decor-templates--elgaimpf-?id=1.3.6.1.4.1.19376.1.3.1.6" test="string(@moodCode) = ('EVN')">(LaboratoryObservation): Der Wert von moodCode MUSS 'EVN' sein. Gefunden: "<value-of select="@moodCode"/>"</assert>
        <assert role="error" see="http://art-decor.org/art-decor/decor-templates--elgaimpf-?id=1.3.6.1.4.1.19376.1.3.1.6" test="not(hl7:value/@nullFlavor)">(LaboratoryObservation): Die Verwendung von value/@nullFlavor ist nicht erlaubt</assert>
        <assert role="error" see="http://art-decor.org/art-decor/decor-templates--elgaimpf-?id=1.3.6.1.4.1.19376.1.3.1.6" test="not(hl7:referenceRange) or hl7:interpretationCode">(LaboratoryObservation): Wenn zu einem Laborergebnis Referenzwerte mit observation/referenceRange angeführt werden MUSS auch eine Befundinterpretation in observation/interpretationCode erfolgen.</assert>
        <assert role="error" see="http://art-decor.org/art-decor/decor-templates--elgaimpf-?id=1.3.6.1.4.1.19376.1.3.1.6" test="count(hl7:templateId[@root = '1.3.6.1.4.1.19376.1.3.1.6']) &gt;= 1">(LaboratoryObservation): Element hl7:templateId[@root = '1.3.6.1.4.1.19376.1.3.1.6'] ist required [min 1x].</assert>
        <assert role="error" see="http://art-decor.org/art-decor/decor-templates--elgaimpf-?id=1.3.6.1.4.1.19376.1.3.1.6" test="count(hl7:templateId[@root = '1.3.6.1.4.1.19376.1.3.1.6']) &lt;= 1">(LaboratoryObservation): Element hl7:templateId[@root = '1.3.6.1.4.1.19376.1.3.1.6'] kommt zu häufig vor [max 1x].</assert>
        <assert role="error" see="http://art-decor.org/art-decor/decor-templates--elgaimpf-?id=1.3.6.1.4.1.19376.1.3.1.6" test="count(hl7:id) &lt;= 1">(LaboratoryObservation): Element hl7:id kommt zu häufig vor [max 1x].</assert>
        <assert role="error" see="http://art-decor.org/art-decor/decor-templates--elgaimpf-?id=1.3.6.1.4.1.19376.1.3.1.6" test="count(hl7:code[concat(@code, @codeSystem) = doc('include/voc-1.2.40.0.34.10.44-DYNAMIC.xml')//valueSet[1]/conceptList/concept/concat(@code, @codeSystem) or @nullFlavor = doc('include/voc-1.2.40.0.34.10.44-DYNAMIC.xml')//valueSet[1]/conceptList/exception/@code]) &gt;= 1">(LaboratoryObservation): Element hl7:code[concat(@code, @codeSystem) = doc('include/voc-1.2.40.0.34.10.44-DYNAMIC.xml')//valueSet[1]/conceptList/concept/concat(@code, @codeSystem) or @nullFlavor = doc('include/voc-1.2.40.0.34.10.44-DYNAMIC.xml')//valueSet[1]/conceptList/exception/@code] ist required [min 1x].</assert>
        <assert role="error" see="http://art-decor.org/art-decor/decor-templates--elgaimpf-?id=1.3.6.1.4.1.19376.1.3.1.6" test="count(hl7:code[concat(@code, @codeSystem) = doc('include/voc-1.2.40.0.34.10.44-DYNAMIC.xml')//valueSet[1]/conceptList/concept/concat(@code, @codeSystem) or @nullFlavor = doc('include/voc-1.2.40.0.34.10.44-DYNAMIC.xml')//valueSet[1]/conceptList/exception/@code]) &lt;= 1">(LaboratoryObservation): Element hl7:code[concat(@code, @codeSystem) = doc('include/voc-1.2.40.0.34.10.44-DYNAMIC.xml')//valueSet[1]/conceptList/concept/concat(@code, @codeSystem) or @nullFlavor = doc('include/voc-1.2.40.0.34.10.44-DYNAMIC.xml')//valueSet[1]/conceptList/exception/@code] kommt zu häufig vor [max 1x].</assert>
        <assert role="error" see="http://art-decor.org/art-decor/decor-templates--elgaimpf-?id=1.3.6.1.4.1.19376.1.3.1.6" test="count(hl7:text) &lt;= 1">(LaboratoryObservation): Element hl7:text kommt zu häufig vor [max 1x].</assert>
        <assert role="error" see="http://art-decor.org/art-decor/decor-templates--elgaimpf-?id=1.3.6.1.4.1.19376.1.3.1.6" test="count(hl7:statusCode[@code = 'completed' or @code = 'aborted']) &gt;= 1">(LaboratoryObservation): Element hl7:statusCode[@code = 'completed' or @code = 'aborted'] ist mandatory [min 1x].</assert>
        <assert role="error" see="http://art-decor.org/art-decor/decor-templates--elgaimpf-?id=1.3.6.1.4.1.19376.1.3.1.6" test="count(hl7:statusCode[@code = 'completed' or @code = 'aborted']) &lt;= 1">(LaboratoryObservation): Element hl7:statusCode[@code = 'completed' or @code = 'aborted'] kommt zu häufig vor [max 1x].</assert>
        <assert role="error" see="http://art-decor.org/art-decor/decor-templates--elgaimpf-?id=1.3.6.1.4.1.19376.1.3.1.6" test="count(hl7:effectiveTime) &gt;= 1">(LaboratoryObservation): Element hl7:effectiveTime ist required [min 1x].</assert>
        <assert role="error" see="http://art-decor.org/art-decor/decor-templates--elgaimpf-?id=1.3.6.1.4.1.19376.1.3.1.6" test="count(hl7:effectiveTime) &lt;= 1">(LaboratoryObservation): Element hl7:effectiveTime kommt zu häufig vor [max 1x].</assert>
        <let name="elmcount" value="count(hl7:value[@xsi:type='PQ'] | hl7:value[@xsi:type='IVL_PQ'] | hl7:value[@xsi:type='INT'] | hl7:value[@xsi:type='IVL_INT'] | hl7:value[@xsi:type='BL'] | hl7:value[@xsi:type='ST'] | hl7:value[@xsi:type='CV'] | hl7:value[@xsi:type='TS'] | hl7:value[@xsi:type='CD'] | hl7:value[@xsi:type='RTO'] | hl7:value[@xsi:type='RTO_QTY_QTY'] | hl7:value[@xsi:type='RTO_PQ_PQ'])"/>
        <assert role="error" see="http://art-decor.org/art-decor/decor-templates--elgaimpf-?id=1.3.6.1.4.1.19376.1.3.1.6" test="$elmcount &lt;= 1">(LaboratoryObservation): Auswahl (hl7:value[@xsi:type='PQ']  oder  hl7:value[@xsi:type='IVL_PQ']  oder  hl7:value[@xsi:type='INT']  oder  hl7:value[@xsi:type='IVL_INT']  oder  hl7:value[@xsi:type='BL']  oder  hl7:value[@xsi:type='ST']  oder  hl7:value[@xsi:type='CV']  oder  hl7:value[@xsi:type='TS']  oder  hl7:value[@xsi:type='CD']  oder  hl7:value[@xsi:type='RTO']  oder  hl7:value[@xsi:type='RTO_QTY_QTY']  oder  hl7:value[@xsi:type='RTO_PQ_PQ']) enthält zu viele Elemente [max 1x]</assert>
        <assert role="error" see="http://art-decor.org/art-decor/decor-templates--elgaimpf-?id=1.3.6.1.4.1.19376.1.3.1.6" test="count(hl7:participant[hl7:templateId[@root = '1.3.6.1.4.1.19376.1.3.3.1.5']]) &lt;= 1">(LaboratoryObservation): Element hl7:participant[hl7:templateId[@root = '1.3.6.1.4.1.19376.1.3.3.1.5']] kommt zu häufig vor [max 1x].</assert>
    </rule>
   <!--
Template derived rules for ID: 1.3.6.1.4.1.19376.1.3.1.6
Context: *[hl7:observation[hl7:templateId[@root = '1.3.6.1.4.1.19376.1.3.1.6']]]/hl7:observation[hl7:templateId[@root = '1.3.6.1.4.1.19376.1.3.1.6']]/hl7:templateId[@root = '1.3.6.1.4.1.19376.1.3.1.6']
Item: (LaboratoryObservation)
-->
    <rule context="*[hl7:observation[hl7:templateId[@root = '1.3.6.1.4.1.19376.1.3.1.6']]]/hl7:observation[hl7:templateId[@root = '1.3.6.1.4.1.19376.1.3.1.6']]/hl7:templateId[@root = '1.3.6.1.4.1.19376.1.3.1.6']" id="d245561e8609-false-d490251e0">
        <extends rule="II"/>
        <assert role="error" see="http://art-decor.org/art-decor/decor-templates--elgaimpf-?id=1.3.6.1.4.1.19376.1.3.1.6" test="(local-name-from-QName(resolve-QName(@xsi:type,.))='II' and namespace-uri-from-QName(resolve-QName(@xsi:type,.))='urn:hl7-org:v3') or not(@xsi:type)">(LaboratoryObservation): Wenn eine @xsi:type Instruktion anwesend ist MUSS diese den Wert "{urn:hl7-org:v3}:II" haben. Gefunden "{<value-of select="namespace-uri-from-QName(resolve-QName(@xsi:type,.))"/>}:<value-of select="local-name-from-QName(resolve-QName(@xsi:type,.))"/>"</assert>
        <assert role="error" see="http://art-decor.org/art-decor/decor-templates--elgaimpf-?id=1.3.6.1.4.1.19376.1.3.1.6" test="string(@root) = ('1.3.6.1.4.1.19376.1.3.1.6')">(LaboratoryObservation): Der Wert von root MUSS '1.3.6.1.4.1.19376.1.3.1.6' sein. Gefunden: "<value-of select="@root"/>"</assert>
    </rule>
   <!--
Template derived rules for ID: 1.3.6.1.4.1.19376.1.3.1.6
Context: *[hl7:observation[hl7:templateId[@root = '1.3.6.1.4.1.19376.1.3.1.6']]]/hl7:observation[hl7:templateId[@root = '1.3.6.1.4.1.19376.1.3.1.6']]/hl7:id
Item: (LaboratoryObservation)
-->
    <rule context="*[hl7:observation[hl7:templateId[@root = '1.3.6.1.4.1.19376.1.3.1.6']]]/hl7:observation[hl7:templateId[@root = '1.3.6.1.4.1.19376.1.3.1.6']]/hl7:id" id="d245561e8611-false-d490264e0">
        <extends rule="II"/>
        <assert role="error" see="http://art-decor.org/art-decor/decor-templates--elgaimpf-?id=1.3.6.1.4.1.19376.1.3.1.6" test="(local-name-from-QName(resolve-QName(@xsi:type,.))='II' and namespace-uri-from-QName(resolve-QName(@xsi:type,.))='urn:hl7-org:v3') or not(@xsi:type)">(LaboratoryObservation): Wenn eine @xsi:type Instruktion anwesend ist MUSS diese den Wert "{urn:hl7-org:v3}:II" haben. Gefunden "{<value-of select="namespace-uri-from-QName(resolve-QName(@xsi:type,.))"/>}:<value-of select="local-name-from-QName(resolve-QName(@xsi:type,.))"/>"</assert>
    </rule>
   <!--
Template derived rules for ID: 1.3.6.1.4.1.19376.1.3.1.6
Context: *[hl7:observation[hl7:templateId[@root = '1.3.6.1.4.1.19376.1.3.1.6']]]/hl7:observation[hl7:templateId[@root = '1.3.6.1.4.1.19376.1.3.1.6']]/hl7:code[concat(@code, @codeSystem) = doc('include/voc-1.2.40.0.34.10.44-DYNAMIC.xml')//valueSet[1]/conceptList/concept/concat(@code, @codeSystem) or @nullFlavor = doc('include/voc-1.2.40.0.34.10.44-DYNAMIC.xml')//valueSet[1]/conceptList/exception/@code]
Item: (LaboratoryObservation)
-->
    <rule context="*[hl7:observation[hl7:templateId[@root = '1.3.6.1.4.1.19376.1.3.1.6']]]/hl7:observation[hl7:templateId[@root = '1.3.6.1.4.1.19376.1.3.1.6']]/hl7:code[concat(@code, @codeSystem) = doc('include/voc-1.2.40.0.34.10.44-DYNAMIC.xml')//valueSet[1]/conceptList/concept/concat(@code, @codeSystem) or @nullFlavor = doc('include/voc-1.2.40.0.34.10.44-DYNAMIC.xml')//valueSet[1]/conceptList/exception/@code]" id="d245561e8616-false-d490276e0">
        <extends rule="CE"/>
        <assert role="error" see="http://art-decor.org/art-decor/decor-templates--elgaimpf-?id=1.3.6.1.4.1.19376.1.3.1.6" test="(local-name-from-QName(resolve-QName(@xsi:type,.))='CE' and namespace-uri-from-QName(resolve-QName(@xsi:type,.))='urn:hl7-org:v3') or not(@xsi:type)">(LaboratoryObservation): Wenn eine @xsi:type Instruktion anwesend ist MUSS diese den Wert "{urn:hl7-org:v3}:CE" haben. Gefunden "{<value-of select="namespace-uri-from-QName(resolve-QName(@xsi:type,.))"/>}:<value-of select="local-name-from-QName(resolve-QName(@xsi:type,.))"/>"</assert>
        <let name="theCode" value="@code"/>
        <let name="theCodeSystem" value="@codeSystem"/>
        <assert role="error" see="http://art-decor.org/art-decor/decor-templates--elgaimpf-?id=1.3.6.1.4.1.19376.1.3.1.6" test="@nullFlavor or exists(doc('include/voc-1.2.40.0.34.10.44-DYNAMIC.xml')//valueSet[1][conceptList/concept[@code = $theCode][@codeSystem = $theCodeSystem]])">(LaboratoryObservation): Der Elementinhalt MUSS einer von '1.2.40.0.34.10.44 ELGA_Laborparameter (DYNAMIC)' sein.</assert>
        <let name="theNullFlavor" value="@nullFlavor"/>
        <let name="validNullFlavorsFound" value="exists(doc('include/voc-1.2.40.0.34.10.44-DYNAMIC.xml')//valueSet[1]/conceptList/exception[@code = $theNullFlavor][@codeSystem = '2.16.840.1.113883.5.1008'])"/>
        <assert role="error" see="http://art-decor.org/art-decor/decor-templates--elgaimpf-?id=1.3.6.1.4.1.19376.1.3.1.6" test="not(@nullFlavor) or $validNullFlavorsFound">(LaboratoryObservation): Der fehlende Wert '<value-of select="@nullFlavor"/>' für @code MUSS gewählt werden aus dem Set gültiger null flavors für dieses Attribut oder denen assoziiert mit Value Set 1.2.40.0.34.10.44 ELGA_Laborparameter (DYNAMIC).</assert>
        <assert role="error" see="http://art-decor.org/art-decor/decor-templates--elgaimpf-?id=1.3.6.1.4.1.19376.1.3.1.6" test="not(@nullFlavor) or not(@nullFlavor='OTH') or hl7:translation">(LaboratoryObservation): Wenn code/@nullFlavor=OTH dann MUSS entweder code/translation anwesend sein.</assert>
    </rule>
   <!--
Template derived rules for ID: 1.3.6.1.4.1.19376.1.3.1.6
Context: *[hl7:observation[hl7:templateId[@root = '1.3.6.1.4.1.19376.1.3.1.6']]]/hl7:observation[hl7:templateId[@root = '1.3.6.1.4.1.19376.1.3.1.6']]/hl7:text
Item: (LaboratoryObservation)
-->
    <rule context="*[hl7:observation[hl7:templateId[@root = '1.3.6.1.4.1.19376.1.3.1.6']]]/hl7:observation[hl7:templateId[@root = '1.3.6.1.4.1.19376.1.3.1.6']]/hl7:text" id="d245561e8624-false-d490297e0">
        <extends rule="ED"/>
        <assert role="error" see="http://art-decor.org/art-decor/decor-templates--elgaimpf-?id=1.3.6.1.4.1.19376.1.3.1.6" test="(local-name-from-QName(resolve-QName(@xsi:type,.))='ED' and namespace-uri-from-QName(resolve-QName(@xsi:type,.))='urn:hl7-org:v3') or not(@xsi:type)">(LaboratoryObservation): Wenn eine @xsi:type Instruktion anwesend ist MUSS diese den Wert "{urn:hl7-org:v3}:ED" haben. Gefunden "{<value-of select="namespace-uri-from-QName(resolve-QName(@xsi:type,.))"/>}:<value-of select="local-name-from-QName(resolve-QName(@xsi:type,.))"/>"</assert>
    </rule>
   <!--
Template derived rules for ID: 1.3.6.1.4.1.19376.1.3.1.6
Context: *[hl7:observation[hl7:templateId[@root = '1.3.6.1.4.1.19376.1.3.1.6']]]/hl7:observation[hl7:templateId[@root = '1.3.6.1.4.1.19376.1.3.1.6']]/hl7:statusCode[@code = 'completed' or @code = 'aborted']
Item: (LaboratoryObservation)
-->
    <rule context="*[hl7:observation[hl7:templateId[@root = '1.3.6.1.4.1.19376.1.3.1.6']]]/hl7:observation[hl7:templateId[@root = '1.3.6.1.4.1.19376.1.3.1.6']]/hl7:statusCode[@code = 'completed' or @code = 'aborted']" id="d245561e8629-false-d490307e0">
        <extends rule="CS"/>
        <assert role="error" see="http://art-decor.org/art-decor/decor-templates--elgaimpf-?id=1.3.6.1.4.1.19376.1.3.1.6" test="(local-name-from-QName(resolve-QName(@xsi:type,.))='CS' and namespace-uri-from-QName(resolve-QName(@xsi:type,.))='urn:hl7-org:v3') or not(@xsi:type)">(LaboratoryObservation): Wenn eine @xsi:type Instruktion anwesend ist MUSS diese den Wert "{urn:hl7-org:v3}:CS" haben. Gefunden "{<value-of select="namespace-uri-from-QName(resolve-QName(@xsi:type,.))"/>}:<value-of select="local-name-from-QName(resolve-QName(@xsi:type,.))"/>"</assert>
        <assert role="error" see="http://art-decor.org/art-decor/decor-templates--elgaimpf-?id=1.3.6.1.4.1.19376.1.3.1.6" test="@nullFlavor or (@code='completed') or (@code='aborted')">(LaboratoryObservation): Der Elementinhalt MUSS einer von 'code 'completed' oder code 'aborted'' sein.</assert>
    </rule>
   <!--
Template derived rules for ID: 1.3.6.1.4.1.19376.1.3.1.6
Context: *[hl7:observation[hl7:templateId[@root = '1.3.6.1.4.1.19376.1.3.1.6']]]/hl7:observation[hl7:templateId[@root = '1.3.6.1.4.1.19376.1.3.1.6']]/hl7:effectiveTime
Item: (LaboratoryObservation)
-->
    <rule context="*[hl7:observation[hl7:templateId[@root = '1.3.6.1.4.1.19376.1.3.1.6']]]/hl7:observation[hl7:templateId[@root = '1.3.6.1.4.1.19376.1.3.1.6']]/hl7:effectiveTime" id="d245561e8666-false-d490324e0">
        <extends rule="IVL_TS"/>
        <assert role="error" see="http://art-decor.org/art-decor/decor-templates--elgaimpf-?id=1.3.6.1.4.1.19376.1.3.1.6" test="(local-name-from-QName(resolve-QName(@xsi:type,.))='IVL_TS' and namespace-uri-from-QName(resolve-QName(@xsi:type,.))='urn:hl7-org:v3') or not(@xsi:type)">(LaboratoryObservation): Wenn eine @xsi:type Instruktion anwesend ist MUSS diese den Wert "{urn:hl7-org:v3}:IVL_TS" haben. Gefunden "{<value-of select="namespace-uri-from-QName(resolve-QName(@xsi:type,.))"/>}:<value-of select="local-name-from-QName(resolve-QName(@xsi:type,.))"/>"</assert>
    </rule>
   <!--
Template derived rules for ID: 1.3.6.1.4.1.19376.1.3.1.6
Context: *[hl7:observation[hl7:templateId[@root = '1.3.6.1.4.1.19376.1.3.1.6']]]/hl7:observation[hl7:templateId[@root = '1.3.6.1.4.1.19376.1.3.1.6']]/hl7:value[@xsi:type='PQ']
Item: (LaboratoryObservation)
-->
    <rule context="*[hl7:observation[hl7:templateId[@root = '1.3.6.1.4.1.19376.1.3.1.6']]]/hl7:observation[hl7:templateId[@root = '1.3.6.1.4.1.19376.1.3.1.6']]/hl7:value[@xsi:type='PQ']" id="d245561e8683-false-d490331e0">
        <extends rule="PQ"/>
        <assert role="error" see="http://art-decor.org/art-decor/decor-templates--elgaimpf-?id=1.3.6.1.4.1.19376.1.3.1.6" test="(local-name-from-QName(resolve-QName(@xsi:type,.))='PQ' and namespace-uri-from-QName(resolve-QName(@xsi:type,.))='urn:hl7-org:v3') or not(@xsi:type)">(LaboratoryObservation): Wenn eine @xsi:type Instruktion anwesend ist MUSS diese den Wert "{urn:hl7-org:v3}:PQ" haben. Gefunden "{<value-of select="namespace-uri-from-QName(resolve-QName(@xsi:type,.))"/>}:<value-of select="local-name-from-QName(resolve-QName(@xsi:type,.))"/>"</assert>
        <assert role="error" see="http://art-decor.org/art-decor/decor-templates--elgaimpf-?id=1.3.6.1.4.1.19376.1.3.1.6" test="not(@value) or matches(@value, '^[-+]?\d*\.?[0-9]+([eE][-+]?\d+)?$')">(LaboratoryObservation): @value ist keine gültige PQ Zahl <value-of select="@value"/>
        </assert>
        <let name="theUnit" value="@unit"/>
        <let name="UCUMtest" value="doc('include/voc-UCUM.xml')/*/ucum[@unit=$theUnit]/@message"/>
        <assert role="warning" see="http://art-decor.org/art-decor/decor-templates--elgaimpf-?id=1.3.6.1.4.1.19376.1.3.1.6" test="$UCUMtest='OK' or string-length($UCUMtest)=0">(LaboratoryObservation): value/@unit (PQ) MUSS eine gültige UCUM-Einheit sein (<value-of select="$UCUMtest"/>).</assert>
        <assert role="error" see="http://art-decor.org/art-decor/decor-templates--elgaimpf-?id=1.3.6.1.4.1.19376.1.3.1.6" test="count(hl7:translation) &lt;= 1">(LaboratoryObservation): Element hl7:translation kommt zu häufig vor [max 1x].</assert>
    </rule>
   <!--
Template derived rules for ID: 1.3.6.1.4.1.19376.1.3.1.6
Context: *[hl7:observation[hl7:templateId[@root = '1.3.6.1.4.1.19376.1.3.1.6']]]/hl7:observation[hl7:templateId[@root = '1.3.6.1.4.1.19376.1.3.1.6']]/hl7:value[@xsi:type='PQ']/hl7:translation
Item: (LaboratoryObservation)
-->
    <rule context="*[hl7:observation[hl7:templateId[@root = '1.3.6.1.4.1.19376.1.3.1.6']]]/hl7:observation[hl7:templateId[@root = '1.3.6.1.4.1.19376.1.3.1.6']]/hl7:value[@xsi:type='PQ']/hl7:translation" id="d245561e8697-false-d490351e0">
        <extends rule="PQR"/>
        <assert role="error" see="http://art-decor.org/art-decor/decor-templates--elgaimpf-?id=1.3.6.1.4.1.19376.1.3.1.6" test="(local-name-from-QName(resolve-QName(@xsi:type,.))='PQR' and namespace-uri-from-QName(resolve-QName(@xsi:type,.))='urn:hl7-org:v3') or not(@xsi:type)">(LaboratoryObservation): Wenn eine @xsi:type Instruktion anwesend ist MUSS diese den Wert "{urn:hl7-org:v3}:PQR" haben. Gefunden "{<value-of select="namespace-uri-from-QName(resolve-QName(@xsi:type,.))"/>}:<value-of select="local-name-from-QName(resolve-QName(@xsi:type,.))"/>"</assert>
    </rule>
   <!--
Template derived rules for ID: 1.3.6.1.4.1.19376.1.3.1.6
Context: *[hl7:observation[hl7:templateId[@root = '1.3.6.1.4.1.19376.1.3.1.6']]]/hl7:observation[hl7:templateId[@root = '1.3.6.1.4.1.19376.1.3.1.6']]/hl7:value[@xsi:type='IVL_PQ']
Item: (LaboratoryObservation)
-->
    <rule context="*[hl7:observation[hl7:templateId[@root = '1.3.6.1.4.1.19376.1.3.1.6']]]/hl7:observation[hl7:templateId[@root = '1.3.6.1.4.1.19376.1.3.1.6']]/hl7:value[@xsi:type='IVL_PQ']" id="d245561e8700-false-d490358e0">
        <extends rule="IVL_PQ"/>
        <assert role="error" see="http://art-decor.org/art-decor/decor-templates--elgaimpf-?id=1.3.6.1.4.1.19376.1.3.1.6" test="(local-name-from-QName(resolve-QName(@xsi:type,.))='IVL_PQ' and namespace-uri-from-QName(resolve-QName(@xsi:type,.))='urn:hl7-org:v3') or not(@xsi:type)">(LaboratoryObservation): Wenn eine @xsi:type Instruktion anwesend ist MUSS diese den Wert "{urn:hl7-org:v3}:IVL_PQ" haben. Gefunden "{<value-of select="namespace-uri-from-QName(resolve-QName(@xsi:type,.))"/>}:<value-of select="local-name-from-QName(resolve-QName(@xsi:type,.))"/>"</assert>
        <assert role="error" see="http://art-decor.org/art-decor/decor-templates--elgaimpf-?id=1.3.6.1.4.1.19376.1.3.1.6" test="not(hl7:low/@value) or matches(string(hl7:low/@value), '^[-+]?\d*\.?[0-9]+([eE][-+]?\d+)?$')">(LaboratoryObservation): value/low @value ist keine gültige PQ Zahl<value-of select="hl7:low/@value"/>
        </assert>
        <assert role="error" see="http://art-decor.org/art-decor/decor-templates--elgaimpf-?id=1.3.6.1.4.1.19376.1.3.1.6" test="not(hl7:high/@value) or matches(string(hl7:high/@value), '^[-+]?\d*\.?[0-9]+([eE][-+]?\d+)?$')">(LaboratoryObservation): value/high @value ist keine gültige PQ Zahl<value-of select="hl7:high/@value"/>
        </assert>
        <assert role="error" see="http://art-decor.org/art-decor/decor-templates--elgaimpf-?id=1.3.6.1.4.1.19376.1.3.1.6" test="not(hl7:center/@value) or matches(string(hl7:center/@value), '^[-+]?\d*\.?[0-9]+([eE][-+]?\d+)?$')">(LaboratoryObservation): value/center @value ist keine gültige PQ Zahl<value-of select="hl7:center/@value"/>
        </assert>
    </rule>
   <!--
Template derived rules for ID: 1.3.6.1.4.1.19376.1.3.1.6
Context: *[hl7:observation[hl7:templateId[@root = '1.3.6.1.4.1.19376.1.3.1.6']]]/hl7:observation[hl7:templateId[@root = '1.3.6.1.4.1.19376.1.3.1.6']]/hl7:value[@xsi:type='INT']
Item: (LaboratoryObservation)
-->
    <rule context="*[hl7:observation[hl7:templateId[@root = '1.3.6.1.4.1.19376.1.3.1.6']]]/hl7:observation[hl7:templateId[@root = '1.3.6.1.4.1.19376.1.3.1.6']]/hl7:value[@xsi:type='INT']" id="d245561e8701-false-d490372e0">
        <extends rule="INT"/>
        <assert role="error" see="http://art-decor.org/art-decor/decor-templates--elgaimpf-?id=1.3.6.1.4.1.19376.1.3.1.6" test="(local-name-from-QName(resolve-QName(@xsi:type,.))='INT' and namespace-uri-from-QName(resolve-QName(@xsi:type,.))='urn:hl7-org:v3') or not(@xsi:type)">(LaboratoryObservation): Wenn eine @xsi:type Instruktion anwesend ist MUSS diese den Wert "{urn:hl7-org:v3}:INT" haben. Gefunden "{<value-of select="namespace-uri-from-QName(resolve-QName(@xsi:type,.))"/>}:<value-of select="local-name-from-QName(resolve-QName(@xsi:type,.))"/>"</assert>
        <assert role="error" see="http://art-decor.org/art-decor/decor-templates--elgaimpf-?id=1.3.6.1.4.1.19376.1.3.1.6" test="not(@value) or matches(@value, '^-?[1-9]\d*$|^+?\d*$')">(LaboratoryObservation): @value ist keine gültige INT Zahl <value-of select="@value"/>
        </assert>
    </rule>
   <!--
Template derived rules for ID: 1.3.6.1.4.1.19376.1.3.1.6
Context: *[hl7:observation[hl7:templateId[@root = '1.3.6.1.4.1.19376.1.3.1.6']]]/hl7:observation[hl7:templateId[@root = '1.3.6.1.4.1.19376.1.3.1.6']]/hl7:value[@xsi:type='IVL_INT']
Item: (LaboratoryObservation)
-->
    <rule context="*[hl7:observation[hl7:templateId[@root = '1.3.6.1.4.1.19376.1.3.1.6']]]/hl7:observation[hl7:templateId[@root = '1.3.6.1.4.1.19376.1.3.1.6']]/hl7:value[@xsi:type='IVL_INT']" id="d245561e8702-false-d490382e0">
        <extends rule="IVL_INT"/>
        <assert role="error" see="http://art-decor.org/art-decor/decor-templates--elgaimpf-?id=1.3.6.1.4.1.19376.1.3.1.6" test="(local-name-from-QName(resolve-QName(@xsi:type,.))='IVL_INT' and namespace-uri-from-QName(resolve-QName(@xsi:type,.))='urn:hl7-org:v3') or not(@xsi:type)">(LaboratoryObservation): Wenn eine @xsi:type Instruktion anwesend ist MUSS diese den Wert "{urn:hl7-org:v3}:IVL_INT" haben. Gefunden "{<value-of select="namespace-uri-from-QName(resolve-QName(@xsi:type,.))"/>}:<value-of select="local-name-from-QName(resolve-QName(@xsi:type,.))"/>"</assert>
    </rule>
   <!--
Template derived rules for ID: 1.3.6.1.4.1.19376.1.3.1.6
Context: *[hl7:observation[hl7:templateId[@root = '1.3.6.1.4.1.19376.1.3.1.6']]]/hl7:observation[hl7:templateId[@root = '1.3.6.1.4.1.19376.1.3.1.6']]/hl7:value[@xsi:type='BL']
Item: (LaboratoryObservation)
-->
    <rule context="*[hl7:observation[hl7:templateId[@root = '1.3.6.1.4.1.19376.1.3.1.6']]]/hl7:observation[hl7:templateId[@root = '1.3.6.1.4.1.19376.1.3.1.6']]/hl7:value[@xsi:type='BL']" id="d245561e8703-false-d490389e0">
        <extends rule="BL"/>
        <assert role="error" see="http://art-decor.org/art-decor/decor-templates--elgaimpf-?id=1.3.6.1.4.1.19376.1.3.1.6" test="(local-name-from-QName(resolve-QName(@xsi:type,.))='BL' and namespace-uri-from-QName(resolve-QName(@xsi:type,.))='urn:hl7-org:v3') or not(@xsi:type)">(LaboratoryObservation): Wenn eine @xsi:type Instruktion anwesend ist MUSS diese den Wert "{urn:hl7-org:v3}:BL" haben. Gefunden "{<value-of select="namespace-uri-from-QName(resolve-QName(@xsi:type,.))"/>}:<value-of select="local-name-from-QName(resolve-QName(@xsi:type,.))"/>"</assert>
    </rule>
   <!--
Template derived rules for ID: 1.3.6.1.4.1.19376.1.3.1.6
Context: *[hl7:observation[hl7:templateId[@root = '1.3.6.1.4.1.19376.1.3.1.6']]]/hl7:observation[hl7:templateId[@root = '1.3.6.1.4.1.19376.1.3.1.6']]/hl7:value[@xsi:type='ST']
Item: (LaboratoryObservation)
-->
    <rule context="*[hl7:observation[hl7:templateId[@root = '1.3.6.1.4.1.19376.1.3.1.6']]]/hl7:observation[hl7:templateId[@root = '1.3.6.1.4.1.19376.1.3.1.6']]/hl7:value[@xsi:type='ST']" id="d245561e8704-false-d490396e0">
        <extends rule="ST"/>
        <assert role="error" see="http://art-decor.org/art-decor/decor-templates--elgaimpf-?id=1.3.6.1.4.1.19376.1.3.1.6" test="(local-name-from-QName(resolve-QName(@xsi:type,.))='ST' and namespace-uri-from-QName(resolve-QName(@xsi:type,.))='urn:hl7-org:v3') or not(@xsi:type)">(LaboratoryObservation): Wenn eine @xsi:type Instruktion anwesend ist MUSS diese den Wert "{urn:hl7-org:v3}:ST" haben. Gefunden "{<value-of select="namespace-uri-from-QName(resolve-QName(@xsi:type,.))"/>}:<value-of select="local-name-from-QName(resolve-QName(@xsi:type,.))"/>"</assert>
    </rule>
   <!--
Template derived rules for ID: 1.3.6.1.4.1.19376.1.3.1.6
Context: *[hl7:observation[hl7:templateId[@root = '1.3.6.1.4.1.19376.1.3.1.6']]]/hl7:observation[hl7:templateId[@root = '1.3.6.1.4.1.19376.1.3.1.6']]/hl7:value[@xsi:type='CV']
Item: (LaboratoryObservation)
-->
    <rule context="*[hl7:observation[hl7:templateId[@root = '1.3.6.1.4.1.19376.1.3.1.6']]]/hl7:observation[hl7:templateId[@root = '1.3.6.1.4.1.19376.1.3.1.6']]/hl7:value[@xsi:type='CV']" id="d245561e8705-false-d490403e0">
        <extends rule="CV"/>
        <assert role="error" see="http://art-decor.org/art-decor/decor-templates--elgaimpf-?id=1.3.6.1.4.1.19376.1.3.1.6" test="(local-name-from-QName(resolve-QName(@xsi:type,.))='CV' and namespace-uri-from-QName(resolve-QName(@xsi:type,.))='urn:hl7-org:v3') or not(@xsi:type)">(LaboratoryObservation): Wenn eine @xsi:type Instruktion anwesend ist MUSS diese den Wert "{urn:hl7-org:v3}:CV" haben. Gefunden "{<value-of select="namespace-uri-from-QName(resolve-QName(@xsi:type,.))"/>}:<value-of select="local-name-from-QName(resolve-QName(@xsi:type,.))"/>"</assert>
    </rule>
   <!--
Template derived rules for ID: 1.3.6.1.4.1.19376.1.3.1.6
Context: *[hl7:observation[hl7:templateId[@root = '1.3.6.1.4.1.19376.1.3.1.6']]]/hl7:observation[hl7:templateId[@root = '1.3.6.1.4.1.19376.1.3.1.6']]/hl7:value[@xsi:type='TS']
Item: (LaboratoryObservation)
-->
    <rule context="*[hl7:observation[hl7:templateId[@root = '1.3.6.1.4.1.19376.1.3.1.6']]]/hl7:observation[hl7:templateId[@root = '1.3.6.1.4.1.19376.1.3.1.6']]/hl7:value[@xsi:type='TS']" id="d245561e8706-false-d490410e0">
        <extends rule="TS"/>
        <assert role="error" see="http://art-decor.org/art-decor/decor-templates--elgaimpf-?id=1.3.6.1.4.1.19376.1.3.1.6" test="(local-name-from-QName(resolve-QName(@xsi:type,.))='TS' and namespace-uri-from-QName(resolve-QName(@xsi:type,.))='urn:hl7-org:v3') or not(@xsi:type)">(LaboratoryObservation): Wenn eine @xsi:type Instruktion anwesend ist MUSS diese den Wert "{urn:hl7-org:v3}:TS" haben. Gefunden "{<value-of select="namespace-uri-from-QName(resolve-QName(@xsi:type,.))"/>}:<value-of select="local-name-from-QName(resolve-QName(@xsi:type,.))"/>"</assert>
        <assert role="error" see="http://art-decor.org/art-decor/decor-templates--elgaimpf-?id=1.3.6.1.4.1.19376.1.3.1.6" test="not(*)">(LaboratoryObservation): <value-of select="local-name()"/> with datatype TS, SHOULD NOT have child elements.</assert>
    </rule>
   <!--
Template derived rules for ID: 1.3.6.1.4.1.19376.1.3.1.6
Context: *[hl7:observation[hl7:templateId[@root = '1.3.6.1.4.1.19376.1.3.1.6']]]/hl7:observation[hl7:templateId[@root = '1.3.6.1.4.1.19376.1.3.1.6']]/hl7:value[@xsi:type='CD']
Item: (LaboratoryObservation)
-->
    <rule context="*[hl7:observation[hl7:templateId[@root = '1.3.6.1.4.1.19376.1.3.1.6']]]/hl7:observation[hl7:templateId[@root = '1.3.6.1.4.1.19376.1.3.1.6']]/hl7:value[@xsi:type='CD']" id="d245561e8707-false-d490420e0">
        <extends rule="CD"/>
        <assert role="error" see="http://art-decor.org/art-decor/decor-templates--elgaimpf-?id=1.3.6.1.4.1.19376.1.3.1.6" test="(local-name-from-QName(resolve-QName(@xsi:type,.))='CD' and namespace-uri-from-QName(resolve-QName(@xsi:type,.))='urn:hl7-org:v3') or not(@xsi:type)">(LaboratoryObservation): Wenn eine @xsi:type Instruktion anwesend ist MUSS diese den Wert "{urn:hl7-org:v3}:CD" haben. Gefunden "{<value-of select="namespace-uri-from-QName(resolve-QName(@xsi:type,.))"/>}:<value-of select="local-name-from-QName(resolve-QName(@xsi:type,.))"/>"</assert>
    </rule>
   <!--
Template derived rules for ID: 1.3.6.1.4.1.19376.1.3.1.6
Context: *[hl7:observation[hl7:templateId[@root = '1.3.6.1.4.1.19376.1.3.1.6']]]/hl7:observation[hl7:templateId[@root = '1.3.6.1.4.1.19376.1.3.1.6']]/hl7:value[@xsi:type='RTO']
Item: (LaboratoryObservation)
-->
    <rule context="*[hl7:observation[hl7:templateId[@root = '1.3.6.1.4.1.19376.1.3.1.6']]]/hl7:observation[hl7:templateId[@root = '1.3.6.1.4.1.19376.1.3.1.6']]/hl7:value[@xsi:type='RTO']" id="d245561e8708-false-d490427e0">
        <extends rule="RTO"/>
        <assert role="error" see="http://art-decor.org/art-decor/decor-templates--elgaimpf-?id=1.3.6.1.4.1.19376.1.3.1.6" test="(local-name-from-QName(resolve-QName(@xsi:type,.))='RTO' and namespace-uri-from-QName(resolve-QName(@xsi:type,.))='urn:hl7-org:v3') or not(@xsi:type)">(LaboratoryObservation): Wenn eine @xsi:type Instruktion anwesend ist MUSS diese den Wert "{urn:hl7-org:v3}:RTO" haben. Gefunden "{<value-of select="namespace-uri-from-QName(resolve-QName(@xsi:type,.))"/>}:<value-of select="local-name-from-QName(resolve-QName(@xsi:type,.))"/>"</assert>
    </rule>
   <!--
Template derived rules for ID: 1.3.6.1.4.1.19376.1.3.1.6
Context: *[hl7:observation[hl7:templateId[@root = '1.3.6.1.4.1.19376.1.3.1.6']]]/hl7:observation[hl7:templateId[@root = '1.3.6.1.4.1.19376.1.3.1.6']]/hl7:value[@xsi:type='RTO_QTY_QTY']
Item: (LaboratoryObservation)
-->
    <rule context="*[hl7:observation[hl7:templateId[@root = '1.3.6.1.4.1.19376.1.3.1.6']]]/hl7:observation[hl7:templateId[@root = '1.3.6.1.4.1.19376.1.3.1.6']]/hl7:value[@xsi:type='RTO_QTY_QTY']" id="d245561e8710-false-d490434e0">
        <extends rule="RTO_QTY_QTY"/>
        <assert role="error" see="http://art-decor.org/art-decor/decor-templates--elgaimpf-?id=1.3.6.1.4.1.19376.1.3.1.6" test="(local-name-from-QName(resolve-QName(@xsi:type,.))='RTO_QTY_QTY' and namespace-uri-from-QName(resolve-QName(@xsi:type,.))='urn:hl7-org:v3') or not(@xsi:type)">(LaboratoryObservation): Wenn eine @xsi:type Instruktion anwesend ist MUSS diese den Wert "{urn:hl7-org:v3}:RTO_QTY_QTY" haben. Gefunden "{<value-of select="namespace-uri-from-QName(resolve-QName(@xsi:type,.))"/>}:<value-of select="local-name-from-QName(resolve-QName(@xsi:type,.))"/>"</assert>
    </rule>
   <!--
Template derived rules for ID: 1.3.6.1.4.1.19376.1.3.1.6
Context: *[hl7:observation[hl7:templateId[@root = '1.3.6.1.4.1.19376.1.3.1.6']]]/hl7:observation[hl7:templateId[@root = '1.3.6.1.4.1.19376.1.3.1.6']]/hl7:value[@xsi:type='RTO_PQ_PQ']
Item: (LaboratoryObservation)
-->
    <rule context="*[hl7:observation[hl7:templateId[@root = '1.3.6.1.4.1.19376.1.3.1.6']]]/hl7:observation[hl7:templateId[@root = '1.3.6.1.4.1.19376.1.3.1.6']]/hl7:value[@xsi:type='RTO_PQ_PQ']" id="d245561e8711-false-d490441e0">
        <extends rule="RTO_PQ_PQ"/>
        <assert role="error" see="http://art-decor.org/art-decor/decor-templates--elgaimpf-?id=1.3.6.1.4.1.19376.1.3.1.6" test="(local-name-from-QName(resolve-QName(@xsi:type,.))='RTO_PQ_PQ' and namespace-uri-from-QName(resolve-QName(@xsi:type,.))='urn:hl7-org:v3') or not(@xsi:type)">(LaboratoryObservation): Wenn eine @xsi:type Instruktion anwesend ist MUSS diese den Wert "{urn:hl7-org:v3}:RTO_PQ_PQ" haben. Gefunden "{<value-of select="namespace-uri-from-QName(resolve-QName(@xsi:type,.))"/>}:<value-of select="local-name-from-QName(resolve-QName(@xsi:type,.))"/>"</assert>
    </rule>
   <!--
Template derived rules for ID: 1.3.6.1.4.1.19376.1.3.1.6
Context: *[hl7:observation[hl7:templateId[@root = '1.3.6.1.4.1.19376.1.3.1.6']]]/hl7:observation[hl7:templateId[@root = '1.3.6.1.4.1.19376.1.3.1.6']]/hl7:interpretationCode[concat(@code, @codeSystem) = doc('include/voc-1.2.40.0.34.10.13-DYNAMIC.xml')//valueSet[1]/conceptList/concept/concat(@code, @codeSystem) or @nullFlavor]
Item: (LaboratoryObservation)
-->
    <rule context="*[hl7:observation[hl7:templateId[@root = '1.3.6.1.4.1.19376.1.3.1.6']]]/hl7:observation[hl7:templateId[@root = '1.3.6.1.4.1.19376.1.3.1.6']]/hl7:interpretationCode[concat(@code, @codeSystem) = doc('include/voc-1.2.40.0.34.10.13-DYNAMIC.xml')//valueSet[1]/conceptList/concept/concat(@code, @codeSystem) or @nullFlavor]" id="d245561e8714-false-d490453e0">
        <extends rule="CE"/>
        <assert role="error" see="http://art-decor.org/art-decor/decor-templates--elgaimpf-?id=1.3.6.1.4.1.19376.1.3.1.6" test="(local-name-from-QName(resolve-QName(@xsi:type,.))='CE' and namespace-uri-from-QName(resolve-QName(@xsi:type,.))='urn:hl7-org:v3') or not(@xsi:type)">(LaboratoryObservation): Wenn eine @xsi:type Instruktion anwesend ist MUSS diese den Wert "{urn:hl7-org:v3}:CE" haben. Gefunden "{<value-of select="namespace-uri-from-QName(resolve-QName(@xsi:type,.))"/>}:<value-of select="local-name-from-QName(resolve-QName(@xsi:type,.))"/>"</assert>
        <let name="theCode" value="@code"/>
        <let name="theCodeSystem" value="@codeSystem"/>
        <assert role="error" see="http://art-decor.org/art-decor/decor-templates--elgaimpf-?id=1.3.6.1.4.1.19376.1.3.1.6" test="@nullFlavor or exists(doc('include/voc-1.2.40.0.34.10.13-DYNAMIC.xml')//valueSet[1][conceptList/concept[@code = $theCode][@codeSystem = $theCodeSystem]])">(LaboratoryObservation): Der Elementinhalt MUSS einer von '1.2.40.0.34.10.13 ELGA_ObservationInterpretation (DYNAMIC)' sein.</assert>
    </rule>

   <!--
Template derived rules for ID: 1.3.6.1.4.1.19376.1.3.1.6
Context: *[hl7:observation[hl7:templateId[@root = '1.3.6.1.4.1.19376.1.3.1.6']]]/hl7:observation[hl7:templateId[@root = '1.3.6.1.4.1.19376.1.3.1.6']]/hl7:entryRelationship[hl7:act[hl7:templateId[@root = '1.2.40.0.34.11.4.3.2'] and hl7:templateId[@root = '2.16.840.1.113883.10.20.1.40'] and hl7:templateId[@root = '1.3.6.1.4.1.19376.1.5.3.1.4.2']]]
Item: (LaboratoryObservation)
-->
    <rule context="*[hl7:observation[hl7:templateId[@root = '1.3.6.1.4.1.19376.1.3.1.6']]]/hl7:observation[hl7:templateId[@root = '1.3.6.1.4.1.19376.1.3.1.6']]/hl7:entryRelationship[hl7:act[hl7:templateId[@root = '1.2.40.0.34.11.4.3.2'] and hl7:templateId[@root = '2.16.840.1.113883.10.20.1.40'] and hl7:templateId[@root = '1.3.6.1.4.1.19376.1.5.3.1.4.2']]]">
        <assert role="error" see="http://art-decor.org/art-decor/decor-templates--elgaimpf-?id=1.3.6.1.4.1.19376.1.3.1.6" test="string(@typeCode) = ('COMP')">(LaboratoryObservation): Der Wert von typeCode MUSS 'COMP' sein. Gefunden: "<value-of select="@typeCode"/>"</assert>
    </rule>
   <!--
Template derived rules for ID: 1.3.6.1.4.1.19376.1.3.1.6
Context: *[hl7:observation[hl7:templateId[@root = '1.3.6.1.4.1.19376.1.3.1.6']]]/hl7:observation[hl7:templateId[@root = '1.3.6.1.4.1.19376.1.3.1.6']]/hl7:participant[hl7:templateId[@root = '1.3.6.1.4.1.19376.1.3.3.1.5']]
Item: (LaboratoryObservation)
-->
    <rule context="*[hl7:observation[hl7:templateId[@root = '1.3.6.1.4.1.19376.1.3.1.6']]]/hl7:observation[hl7:templateId[@root = '1.3.6.1.4.1.19376.1.3.1.6']]/hl7:participant[hl7:templateId[@root = '1.3.6.1.4.1.19376.1.3.3.1.5']]" id="d245561e8725-false-d490492e0">
        <assert role="error" see="http://art-decor.org/art-decor/decor-templates--elgaimpf-?id=1.3.6.1.4.1.19376.1.3.1.6" test="string(@typeCode) = ('AUTHEN')">(LaboratoryObservation): Der Wert von typeCode MUSS 'AUTHEN' sein. Gefunden: "<value-of select="@typeCode"/>"</assert>
        <assert role="error" see="http://art-decor.org/art-decor/decor-templates--elgaimpf-?id=1.3.6.1.4.1.19376.1.3.1.6" test="count(hl7:templateId[@root = '1.3.6.1.4.1.19376.1.3.3.1.5']) &gt;= 1">(LaboratoryObservation): Element hl7:templateId[@root = '1.3.6.1.4.1.19376.1.3.3.1.5'] ist required [min 1x].</assert>
        <assert role="error" see="http://art-decor.org/art-decor/decor-templates--elgaimpf-?id=1.3.6.1.4.1.19376.1.3.1.6" test="count(hl7:templateId[@root = '1.3.6.1.4.1.19376.1.3.3.1.5']) &lt;= 1">(LaboratoryObservation): Element hl7:templateId[@root = '1.3.6.1.4.1.19376.1.3.3.1.5'] kommt zu häufig vor [max 1x].</assert>
        <assert role="error" see="http://art-decor.org/art-decor/decor-templates--elgaimpf-?id=1.3.6.1.4.1.19376.1.3.1.6" test="count(hl7:time) &gt;= 1">(LaboratoryObservation): Element hl7:time ist required [min 1x].</assert>
        <assert role="error" see="http://art-decor.org/art-decor/decor-templates--elgaimpf-?id=1.3.6.1.4.1.19376.1.3.1.6" test="count(hl7:time) &lt;= 1">(LaboratoryObservation): Element hl7:time kommt zu häufig vor [max 1x].</assert>
    </rule>
   <!--
Template derived rules for ID: 1.3.6.1.4.1.19376.1.3.1.6
Context: *[hl7:observation[hl7:templateId[@root = '1.3.6.1.4.1.19376.1.3.1.6']]]/hl7:observation[hl7:templateId[@root = '1.3.6.1.4.1.19376.1.3.1.6']]/hl7:participant[hl7:templateId[@root = '1.3.6.1.4.1.19376.1.3.3.1.5']]/hl7:templateId[@root = '1.3.6.1.4.1.19376.1.3.3.1.5']
Item: (LaboratoryObservation)
-->
    <rule context="*[hl7:observation[hl7:templateId[@root = '1.3.6.1.4.1.19376.1.3.1.6']]]/hl7:observation[hl7:templateId[@root = '1.3.6.1.4.1.19376.1.3.1.6']]/hl7:participant[hl7:templateId[@root = '1.3.6.1.4.1.19376.1.3.3.1.5']]/hl7:templateId[@root = '1.3.6.1.4.1.19376.1.3.3.1.5']" id="d245561e8731-false-d490524e0">
        <extends rule="II"/>
        <assert role="error" see="http://art-decor.org/art-decor/decor-templates--elgaimpf-?id=1.3.6.1.4.1.19376.1.3.1.6" test="(local-name-from-QName(resolve-QName(@xsi:type,.))='II' and namespace-uri-from-QName(resolve-QName(@xsi:type,.))='urn:hl7-org:v3') or not(@xsi:type)">(LaboratoryObservation): Wenn eine @xsi:type Instruktion anwesend ist MUSS diese den Wert "{urn:hl7-org:v3}:II" haben. Gefunden "{<value-of select="namespace-uri-from-QName(resolve-QName(@xsi:type,.))"/>}:<value-of select="local-name-from-QName(resolve-QName(@xsi:type,.))"/>"</assert>
        <assert role="error" see="http://art-decor.org/art-decor/decor-templates--elgaimpf-?id=1.3.6.1.4.1.19376.1.3.1.6" test="string(@root) = ('1.3.6.1.4.1.19376.1.3.3.1.5')">(LaboratoryObservation): Der Wert von root MUSS '1.3.6.1.4.1.19376.1.3.3.1.5' sein. Gefunden: "<value-of select="@root"/>"</assert>
    </rule>
   <!--
Template derived rules for ID: 1.3.6.1.4.1.19376.1.3.1.6
Context: *[hl7:observation[hl7:templateId[@root = '1.3.6.1.4.1.19376.1.3.1.6']]]/hl7:observation[hl7:templateId[@root = '1.3.6.1.4.1.19376.1.3.1.6']]/hl7:participant[hl7:templateId[@root = '1.3.6.1.4.1.19376.1.3.3.1.5']]/hl7:time
Item: (LaboratoryObservation)
-->
    <rule context="*[hl7:observation[hl7:templateId[@root = '1.3.6.1.4.1.19376.1.3.1.6']]]/hl7:observation[hl7:templateId[@root = '1.3.6.1.4.1.19376.1.3.1.6']]/hl7:participant[hl7:templateId[@root = '1.3.6.1.4.1.19376.1.3.3.1.5']]/hl7:time" id="d245561e8733-false-d490537e0">
        <extends rule="IVL_TS"/>
        <assert role="error" see="http://art-decor.org/art-decor/decor-templates--elgaimpf-?id=1.3.6.1.4.1.19376.1.3.1.6" test="(local-name-from-QName(resolve-QName(@xsi:type,.))='IVL_TS' and namespace-uri-from-QName(resolve-QName(@xsi:type,.))='urn:hl7-org:v3') or not(@xsi:type)">(LaboratoryObservation): Wenn eine @xsi:type Instruktion anwesend ist MUSS diese den Wert "{urn:hl7-org:v3}:IVL_TS" haben. Gefunden "{<value-of select="namespace-uri-from-QName(resolve-QName(@xsi:type,.))"/>}:<value-of select="local-name-from-QName(resolve-QName(@xsi:type,.))"/>"</assert>
    </rule>
   <!--
Template derived rules for ID: 1.3.6.1.4.1.19376.1.3.1.6
Context: *[hl7:observation[hl7:templateId[@root = '1.3.6.1.4.1.19376.1.3.1.6']]]/hl7:observation[hl7:templateId[@root = '1.3.6.1.4.1.19376.1.3.1.6']]/hl7:participant[hl7:templateId[@root = '1.3.6.1.4.1.19376.1.3.3.1.5']]/hl7:participantRole[hl7:playingEntity]
Item: (LaboratoryObservation)
-->
    <rule context="*[hl7:observation[hl7:templateId[@root = '1.3.6.1.4.1.19376.1.3.1.6']]]/hl7:observation[hl7:templateId[@root = '1.3.6.1.4.1.19376.1.3.1.6']]/hl7:participant[hl7:templateId[@root = '1.3.6.1.4.1.19376.1.3.3.1.5']]/hl7:participantRole[hl7:playingEntity]" id="d245561e8734-false-d490546e0">
        <assert role="error" see="http://art-decor.org/art-decor/decor-templates--elgaimpf-?id=1.3.6.1.4.1.19376.1.3.1.6" test="count(hl7:id[not(@nullFlavor)]) &gt;= 1">(LaboratoryObservation): Element hl7:id[not(@nullFlavor)] ist mandatory [min 1x].</assert>
        <assert role="error" see="http://art-decor.org/art-decor/decor-templates--elgaimpf-?id=1.3.6.1.4.1.19376.1.3.1.6" test="count(hl7:id[not(@nullFlavor)]) &lt;= 1">(LaboratoryObservation): Element hl7:id[not(@nullFlavor)] kommt zu häufig vor [max 1x].</assert>
        <assert role="error" see="http://art-decor.org/art-decor/decor-templates--elgaimpf-?id=1.3.6.1.4.1.19376.1.3.1.6" test="count(hl7:addr) &gt;= 1">(LaboratoryObservation): Element hl7:addr ist required [min 1x].</assert>
        <assert role="error" see="http://art-decor.org/art-decor/decor-templates--elgaimpf-?id=1.3.6.1.4.1.19376.1.3.1.6" test="count(hl7:addr) &lt;= 1">(LaboratoryObservation): Element hl7:addr kommt zu häufig vor [max 1x].</assert>
        <assert role="error" see="http://art-decor.org/art-decor/decor-templates--elgaimpf-?id=1.3.6.1.4.1.19376.1.3.1.6" test="count(hl7:telecom) &gt;= 1">(LaboratoryObservation): Element hl7:telecom ist required [min 1x].</assert>
        <assert role="error" see="http://art-decor.org/art-decor/decor-templates--elgaimpf-?id=1.3.6.1.4.1.19376.1.3.1.6" test="count(hl7:playingEntity[not(@nullFlavor)]) &gt;= 1">(LaboratoryObservation): Element hl7:playingEntity[not(@nullFlavor)] ist mandatory [min 1x].</assert>
        <assert role="error" see="http://art-decor.org/art-decor/decor-templates--elgaimpf-?id=1.3.6.1.4.1.19376.1.3.1.6" test="count(hl7:playingEntity[not(@nullFlavor)]) &lt;= 1">(LaboratoryObservation): Element hl7:playingEntity[not(@nullFlavor)] kommt zu häufig vor [max 1x].</assert>
    </rule>
   <!--
Template derived rules for ID: 1.3.6.1.4.1.19376.1.3.1.6
Context: *[hl7:observation[hl7:templateId[@root = '1.3.6.1.4.1.19376.1.3.1.6']]]/hl7:observation[hl7:templateId[@root = '1.3.6.1.4.1.19376.1.3.1.6']]/hl7:participant[hl7:templateId[@root = '1.3.6.1.4.1.19376.1.3.3.1.5']]/hl7:participantRole[hl7:playingEntity]/hl7:id[not(@nullFlavor)]
Item: (LaboratoryObservation)
-->
    <rule context="*[hl7:observation[hl7:templateId[@root = '1.3.6.1.4.1.19376.1.3.1.6']]]/hl7:observation[hl7:templateId[@root = '1.3.6.1.4.1.19376.1.3.1.6']]/hl7:participant[hl7:templateId[@root = '1.3.6.1.4.1.19376.1.3.3.1.5']]/hl7:participantRole[hl7:playingEntity]/hl7:id[not(@nullFlavor)]" id="d245561e8735-false-d490583e0">
        <extends rule="II"/>
        <assert role="error" see="http://art-decor.org/art-decor/decor-templates--elgaimpf-?id=1.3.6.1.4.1.19376.1.3.1.6" test="(local-name-from-QName(resolve-QName(@xsi:type,.))='II' and namespace-uri-from-QName(resolve-QName(@xsi:type,.))='urn:hl7-org:v3') or not(@xsi:type)">(LaboratoryObservation): Wenn eine @xsi:type Instruktion anwesend ist MUSS diese den Wert "{urn:hl7-org:v3}:II" haben. Gefunden "{<value-of select="namespace-uri-from-QName(resolve-QName(@xsi:type,.))"/>}:<value-of select="local-name-from-QName(resolve-QName(@xsi:type,.))"/>"</assert>
    </rule>
   <!--
Template derived rules for ID: 1.3.6.1.4.1.19376.1.3.1.6
Context: *[hl7:observation[hl7:templateId[@root = '1.3.6.1.4.1.19376.1.3.1.6']]]/hl7:observation[hl7:templateId[@root = '1.3.6.1.4.1.19376.1.3.1.6']]/hl7:participant[hl7:templateId[@root = '1.3.6.1.4.1.19376.1.3.3.1.5']]/hl7:participantRole[hl7:playingEntity]/hl7:addr
Item: (LaboratoryObservation)
-->
    <rule context="*[hl7:observation[hl7:templateId[@root = '1.3.6.1.4.1.19376.1.3.1.6']]]/hl7:observation[hl7:templateId[@root = '1.3.6.1.4.1.19376.1.3.1.6']]/hl7:participant[hl7:templateId[@root = '1.3.6.1.4.1.19376.1.3.3.1.5']]/hl7:participantRole[hl7:playingEntity]/hl7:addr" id="d245561e8736-false-d490592e0">
        <extends rule="AD"/>
        <assert role="error" see="http://art-decor.org/art-decor/decor-templates--elgaimpf-?id=1.3.6.1.4.1.19376.1.3.1.6" test="(local-name-from-QName(resolve-QName(@xsi:type,.))='AD' and namespace-uri-from-QName(resolve-QName(@xsi:type,.))='urn:hl7-org:v3') or not(@xsi:type)">(LaboratoryObservation): Wenn eine @xsi:type Instruktion anwesend ist MUSS diese den Wert "{urn:hl7-org:v3}:AD" haben. Gefunden "{<value-of select="namespace-uri-from-QName(resolve-QName(@xsi:type,.))"/>}:<value-of select="local-name-from-QName(resolve-QName(@xsi:type,.))"/>"</assert>
    </rule>
   <!--
Template derived rules for ID: 1.3.6.1.4.1.19376.1.3.1.6
Context: *[hl7:observation[hl7:templateId[@root = '1.3.6.1.4.1.19376.1.3.1.6']]]/hl7:observation[hl7:templateId[@root = '1.3.6.1.4.1.19376.1.3.1.6']]/hl7:participant[hl7:templateId[@root = '1.3.6.1.4.1.19376.1.3.3.1.5']]/hl7:participantRole[hl7:playingEntity]/hl7:telecom
Item: (LaboratoryObservation)
-->
    <rule context="*[hl7:observation[hl7:templateId[@root = '1.3.6.1.4.1.19376.1.3.1.6']]]/hl7:observation[hl7:templateId[@root = '1.3.6.1.4.1.19376.1.3.1.6']]/hl7:participant[hl7:templateId[@root = '1.3.6.1.4.1.19376.1.3.3.1.5']]/hl7:participantRole[hl7:playingEntity]/hl7:telecom" id="d245561e8737-false-d490601e0">
        <extends rule="TEL.AT"/>
        <assert role="error" see="http://art-decor.org/art-decor/decor-templates--elgaimpf-?id=1.3.6.1.4.1.19376.1.3.1.6" test="(local-name-from-QName(resolve-QName(@xsi:type,.))='TEL' and namespace-uri-from-QName(resolve-QName(@xsi:type,.))='urn:hl7-org:v3') or not(@xsi:type)">(LaboratoryObservation): Wenn eine @xsi:type Instruktion anwesend ist MUSS diese den Wert "{urn:hl7-org:v3}:TEL" haben. Gefunden "{<value-of select="namespace-uri-from-QName(resolve-QName(@xsi:type,.))"/>}:<value-of select="local-name-from-QName(resolve-QName(@xsi:type,.))"/>"</assert>
    </rule>
   <!--
Template derived rules for ID: 1.3.6.1.4.1.19376.1.3.1.6
Context: *[hl7:observation[hl7:templateId[@root = '1.3.6.1.4.1.19376.1.3.1.6']]]/hl7:observation[hl7:templateId[@root = '1.3.6.1.4.1.19376.1.3.1.6']]/hl7:participant[hl7:templateId[@root = '1.3.6.1.4.1.19376.1.3.3.1.5']]/hl7:participantRole[hl7:playingEntity]/hl7:playingEntity[not(@nullFlavor)]
Item: (LaboratoryObservation)
-->
    <rule context="*[hl7:observation[hl7:templateId[@root = '1.3.6.1.4.1.19376.1.3.1.6']]]/hl7:observation[hl7:templateId[@root = '1.3.6.1.4.1.19376.1.3.1.6']]/hl7:participant[hl7:templateId[@root = '1.3.6.1.4.1.19376.1.3.3.1.5']]/hl7:participantRole[hl7:playingEntity]/hl7:playingEntity[not(@nullFlavor)]" id="d245561e8738-false-d490610e0">
        <assert role="error" see="http://art-decor.org/art-decor/decor-templates--elgaimpf-?id=1.3.6.1.4.1.19376.1.3.1.6" test="count(hl7:name[not(@nullFlavor)]) &gt;= 1">(LaboratoryObservation): Element hl7:name[not(@nullFlavor)] ist mandatory [min 1x].</assert>
        <assert role="error" see="http://art-decor.org/art-decor/decor-templates--elgaimpf-?id=1.3.6.1.4.1.19376.1.3.1.6" test="count(hl7:name[not(@nullFlavor)]) &lt;= 1">(LaboratoryObservation): Element hl7:name[not(@nullFlavor)] kommt zu häufig vor [max 1x].</assert>
    </rule>
   <!--
Template derived rules for ID: 1.3.6.1.4.1.19376.1.3.1.6
Context: *[hl7:observation[hl7:templateId[@root = '1.3.6.1.4.1.19376.1.3.1.6']]]/hl7:observation[hl7:templateId[@root = '1.3.6.1.4.1.19376.1.3.1.6']]/hl7:participant[hl7:templateId[@root = '1.3.6.1.4.1.19376.1.3.3.1.5']]/hl7:participantRole[hl7:playingEntity]/hl7:playingEntity[not(@nullFlavor)]/hl7:name[not(@nullFlavor)]
Item: (LaboratoryObservation)
-->
    <rule context="*[hl7:observation[hl7:templateId[@root = '1.3.6.1.4.1.19376.1.3.1.6']]]/hl7:observation[hl7:templateId[@root = '1.3.6.1.4.1.19376.1.3.1.6']]/hl7:participant[hl7:templateId[@root = '1.3.6.1.4.1.19376.1.3.3.1.5']]/hl7:participantRole[hl7:playingEntity]/hl7:playingEntity[not(@nullFlavor)]/hl7:name[not(@nullFlavor)]" id="d245561e8739-false-d490625e0">
        <extends rule="PN"/>
        <assert role="error" see="http://art-decor.org/art-decor/decor-templates--elgaimpf-?id=1.3.6.1.4.1.19376.1.3.1.6" test="(local-name-from-QName(resolve-QName(@xsi:type,.))='PN' and namespace-uri-from-QName(resolve-QName(@xsi:type,.))='urn:hl7-org:v3') or not(@xsi:type)">(LaboratoryObservation): Wenn eine @xsi:type Instruktion anwesend ist MUSS diese den Wert "{urn:hl7-org:v3}:PN" haben. Gefunden "{<value-of select="namespace-uri-from-QName(resolve-QName(@xsi:type,.))"/>}:<value-of select="local-name-from-QName(resolve-QName(@xsi:type,.))"/>"</assert>
    </rule>
   <!--
Template derived rules for ID: 1.3.6.1.4.1.19376.1.3.1.6
Context: *[hl7:observation[hl7:templateId[@root = '1.3.6.1.4.1.19376.1.3.1.6']]]/hl7:observation[hl7:templateId[@root = '1.3.6.1.4.1.19376.1.3.1.6']]/hl7:referenceRange[@typeCode = 'REFV'][hl7:observationRange[@classCode = 'OBS'][@moodCode = 'EVN.CRT']]
Item: (LaboratoryObservation)
-->
    <rule context="*[hl7:observation[hl7:templateId[@root = '1.3.6.1.4.1.19376.1.3.1.6']]]/hl7:observation[hl7:templateId[@root = '1.3.6.1.4.1.19376.1.3.1.6']]/hl7:referenceRange[@typeCode = 'REFV'][hl7:observationRange[@classCode = 'OBS'][@moodCode = 'EVN.CRT']]" id="d245561e8740-false-d490634e0">
        <assert role="error" see="http://art-decor.org/art-decor/decor-templates--elgaimpf-?id=1.3.6.1.4.1.19376.1.3.1.6" test="string(@typeCode) = ('REFV')">(LaboratoryObservation): Der Wert von typeCode MUSS 'REFV' sein. Gefunden: "<value-of select="@typeCode"/>"</assert>
        <assert role="error" see="http://art-decor.org/art-decor/decor-templates--elgaimpf-?id=1.3.6.1.4.1.19376.1.3.1.6" test="count(hl7:observationRange[hl7:interpretationCode[(@code = 'N' and @codeSystem = '2.16.840.1.113883.5.83')]]) &gt;= 1">(LaboratoryObservation): Element hl7:observationRange[hl7:interpretationCode[(@code = 'N' and @codeSystem = '2.16.840.1.113883.5.83')]] ist mandatory [min 1x].</assert>
        <assert role="error" see="http://art-decor.org/art-decor/decor-templates--elgaimpf-?id=1.3.6.1.4.1.19376.1.3.1.6" test="count(hl7:observationRange[hl7:interpretationCode[(@code = 'N' and @codeSystem = '2.16.840.1.113883.5.83')]]) &lt;= 1">(LaboratoryObservation): Element hl7:observationRange[hl7:interpretationCode[(@code = 'N' and @codeSystem = '2.16.840.1.113883.5.83')]] kommt zu häufig vor [max 1x].</assert>
    </rule>
   <!--
Template derived rules for ID: 1.3.6.1.4.1.19376.1.3.1.6
Context: *[hl7:observation[hl7:templateId[@root = '1.3.6.1.4.1.19376.1.3.1.6']]]/hl7:observation[hl7:templateId[@root = '1.3.6.1.4.1.19376.1.3.1.6']]/hl7:referenceRange[@typeCode = 'REFV'][hl7:observationRange[@classCode = 'OBS'][@moodCode = 'EVN.CRT']]/hl7:observationRange[hl7:interpretationCode[(@code = 'N' and @codeSystem = '2.16.840.1.113883.5.83')]]
Item: (LaboratoryObservation)
-->
    <rule context="*[hl7:observation[hl7:templateId[@root = '1.3.6.1.4.1.19376.1.3.1.6']]]/hl7:observation[hl7:templateId[@root = '1.3.6.1.4.1.19376.1.3.1.6']]/hl7:referenceRange[@typeCode = 'REFV'][hl7:observationRange[@classCode = 'OBS'][@moodCode = 'EVN.CRT']]/hl7:observationRange[hl7:interpretationCode[(@code = 'N' and @codeSystem = '2.16.840.1.113883.5.83')]]" id="d245561e8845-false-d490655e0">
        <assert role="error" see="http://art-decor.org/art-decor/decor-templates--elgaimpf-?id=1.3.6.1.4.1.19376.1.3.1.6" test="string(@classCode) = ('OBS')">(LaboratoryObservation): Der Wert von classCode MUSS 'OBS' sein. Gefunden: "<value-of select="@classCode"/>"</assert>
        <assert role="error" see="http://art-decor.org/art-decor/decor-templates--elgaimpf-?id=1.3.6.1.4.1.19376.1.3.1.6" test="string(@moodCode) = ('EVN.CRT')">(LaboratoryObservation): Der Wert von moodCode MUSS 'EVN.CRT' sein. Gefunden: "<value-of select="@moodCode"/>"</assert>
        <assert role="error" see="http://art-decor.org/art-decor/decor-templates--elgaimpf-?id=1.3.6.1.4.1.19376.1.3.1.6" test="count(hl7:text[not(@nullFlavor)]) &gt;= 1">(LaboratoryObservation): Element hl7:text[not(@nullFlavor)] ist mandatory [min 1x].</assert>
        <assert role="error" see="http://art-decor.org/art-decor/decor-templates--elgaimpf-?id=1.3.6.1.4.1.19376.1.3.1.6" test="count(hl7:text[not(@nullFlavor)]) &lt;= 1">(LaboratoryObservation): Element hl7:text[not(@nullFlavor)] kommt zu häufig vor [max 1x].</assert>
        <assert role="error" see="http://art-decor.org/art-decor/decor-templates--elgaimpf-?id=1.3.6.1.4.1.19376.1.3.1.6" test="count(hl7:value[(local-name-from-QName(resolve-QName(@xsi:type,.))='IVL_PQ' and namespace-uri-from-QName(resolve-QName(@xsi:type,.))='urn:hl7-org:v3')]) &lt;= 1">(LaboratoryObservation): Element hl7:value[(local-name-from-QName(resolve-QName(@xsi:type,.))='IVL_PQ' and namespace-uri-from-QName(resolve-QName(@xsi:type,.))='urn:hl7-org:v3')] kommt zu häufig vor [max 1x].</assert>
        <assert role="error" see="http://art-decor.org/art-decor/decor-templates--elgaimpf-?id=1.3.6.1.4.1.19376.1.3.1.6" test="count(hl7:interpretationCode[(@code = 'N' and @codeSystem = '2.16.840.1.113883.5.83')]) &gt;= 1">(LaboratoryObservation): Element hl7:interpretationCode[(@code = 'N' and @codeSystem = '2.16.840.1.113883.5.83')] ist mandatory [min 1x].</assert>
        <assert role="error" see="http://art-decor.org/art-decor/decor-templates--elgaimpf-?id=1.3.6.1.4.1.19376.1.3.1.6" test="count(hl7:interpretationCode[(@code = 'N' and @codeSystem = '2.16.840.1.113883.5.83')]) &lt;= 1">(LaboratoryObservation): Element hl7:interpretationCode[(@code = 'N' and @codeSystem = '2.16.840.1.113883.5.83')] kommt zu häufig vor [max 1x].</assert>
    </rule>
   <!--
Template derived rules for ID: 1.3.6.1.4.1.19376.1.3.1.6
Context: *[hl7:observation[hl7:templateId[@root = '1.3.6.1.4.1.19376.1.3.1.6']]]/hl7:observation[hl7:templateId[@root = '1.3.6.1.4.1.19376.1.3.1.6']]/hl7:referenceRange[@typeCode = 'REFV'][hl7:observationRange[@classCode = 'OBS'][@moodCode = 'EVN.CRT']]/hl7:observationRange[hl7:interpretationCode[(@code = 'N' and @codeSystem = '2.16.840.1.113883.5.83')]]/hl7:text[not(@nullFlavor)]
Item: (LaboratoryObservation)
-->
    <rule context="*[hl7:observation[hl7:templateId[@root = '1.3.6.1.4.1.19376.1.3.1.6']]]/hl7:observation[hl7:templateId[@root = '1.3.6.1.4.1.19376.1.3.1.6']]/hl7:referenceRange[@typeCode = 'REFV'][hl7:observationRange[@classCode = 'OBS'][@moodCode = 'EVN.CRT']]/hl7:observationRange[hl7:interpretationCode[(@code = 'N' and @codeSystem = '2.16.840.1.113883.5.83')]]/hl7:text[not(@nullFlavor)]" id="d245561e8848-false-d490693e0">
        <extends rule="ED"/>
        <assert role="error" see="http://art-decor.org/art-decor/decor-templates--elgaimpf-?id=1.3.6.1.4.1.19376.1.3.1.6" test="(local-name-from-QName(resolve-QName(@xsi:type,.))='ED' and namespace-uri-from-QName(resolve-QName(@xsi:type,.))='urn:hl7-org:v3') or not(@xsi:type)">(LaboratoryObservation): Wenn eine @xsi:type Instruktion anwesend ist MUSS diese den Wert "{urn:hl7-org:v3}:ED" haben. Gefunden "{<value-of select="namespace-uri-from-QName(resolve-QName(@xsi:type,.))"/>}:<value-of select="local-name-from-QName(resolve-QName(@xsi:type,.))"/>"</assert>
        <assert role="error" see="http://art-decor.org/art-decor/decor-templates--elgaimpf-?id=1.3.6.1.4.1.19376.1.3.1.6" test="count(hl7:reference[not(@nullFlavor)]) &gt;= 1">(LaboratoryObservation): Element hl7:reference[not(@nullFlavor)] ist mandatory [min 1x].</assert>
        <assert role="error" see="http://art-decor.org/art-decor/decor-templates--elgaimpf-?id=1.3.6.1.4.1.19376.1.3.1.6" test="count(hl7:reference[not(@nullFlavor)]) &lt;= 1">(LaboratoryObservation): Element hl7:reference[not(@nullFlavor)] kommt zu häufig vor [max 1x].</assert>
    </rule>
   <!--
Template derived rules for ID: 1.3.6.1.4.1.19376.1.3.1.6
Context: *[hl7:observation[hl7:templateId[@root = '1.3.6.1.4.1.19376.1.3.1.6']]]/hl7:observation[hl7:templateId[@root = '1.3.6.1.4.1.19376.1.3.1.6']]/hl7:referenceRange[@typeCode = 'REFV'][hl7:observationRange[@classCode = 'OBS'][@moodCode = 'EVN.CRT']]/hl7:observationRange[hl7:interpretationCode[(@code = 'N' and @codeSystem = '2.16.840.1.113883.5.83')]]/hl7:text[not(@nullFlavor)]/hl7:reference[not(@nullFlavor)]
Item: (LaboratoryObservation)
-->
    <rule context="*[hl7:observation[hl7:templateId[@root = '1.3.6.1.4.1.19376.1.3.1.6']]]/hl7:observation[hl7:templateId[@root = '1.3.6.1.4.1.19376.1.3.1.6']]/hl7:referenceRange[@typeCode = 'REFV'][hl7:observationRange[@classCode = 'OBS'][@moodCode = 'EVN.CRT']]/hl7:observationRange[hl7:interpretationCode[(@code = 'N' and @codeSystem = '2.16.840.1.113883.5.83')]]/hl7:text[not(@nullFlavor)]/hl7:reference[not(@nullFlavor)]" id="d245561e8849-false-d490711e0">
        <extends rule="TEL"/>
        <assert role="error" see="http://art-decor.org/art-decor/decor-templates--elgaimpf-?id=1.3.6.1.4.1.19376.1.3.1.6" test="(local-name-from-QName(resolve-QName(@xsi:type,.))='TEL' and namespace-uri-from-QName(resolve-QName(@xsi:type,.))='urn:hl7-org:v3') or not(@xsi:type)">(LaboratoryObservation): Wenn eine @xsi:type Instruktion anwesend ist MUSS diese den Wert "{urn:hl7-org:v3}:TEL" haben. Gefunden "{<value-of select="namespace-uri-from-QName(resolve-QName(@xsi:type,.))"/>}:<value-of select="local-name-from-QName(resolve-QName(@xsi:type,.))"/>"</assert>
    </rule>
   <!--
Template derived rules for ID: 1.3.6.1.4.1.19376.1.3.1.6
Context: *[hl7:observation[hl7:templateId[@root = '1.3.6.1.4.1.19376.1.3.1.6']]]/hl7:observation[hl7:templateId[@root = '1.3.6.1.4.1.19376.1.3.1.6']]/hl7:referenceRange[@typeCode = 'REFV'][hl7:observationRange[@classCode = 'OBS'][@moodCode = 'EVN.CRT']]/hl7:observationRange[hl7:interpretationCode[(@code = 'N' and @codeSystem = '2.16.840.1.113883.5.83')]]/hl7:value[(local-name-from-QName(resolve-QName(@xsi:type,.))='IVL_PQ' and namespace-uri-from-QName(resolve-QName(@xsi:type,.))='urn:hl7-org:v3')]
Item: (LaboratoryObservation)
-->
    <rule context="*[hl7:observation[hl7:templateId[@root = '1.3.6.1.4.1.19376.1.3.1.6']]]/hl7:observation[hl7:templateId[@root = '1.3.6.1.4.1.19376.1.3.1.6']]/hl7:referenceRange[@typeCode = 'REFV'][hl7:observationRange[@classCode = 'OBS'][@moodCode = 'EVN.CRT']]/hl7:observationRange[hl7:interpretationCode[(@code = 'N' and @codeSystem = '2.16.840.1.113883.5.83')]]/hl7:value[(local-name-from-QName(resolve-QName(@xsi:type,.))='IVL_PQ' and namespace-uri-from-QName(resolve-QName(@xsi:type,.))='urn:hl7-org:v3')]" id="d245561e8850-false-d490720e0">
        <extends rule="IVL_PQ"/>
        <assert role="error" see="http://art-decor.org/art-decor/decor-templates--elgaimpf-?id=1.3.6.1.4.1.19376.1.3.1.6" test="not(hl7:low/@value) or matches(string(hl7:low/@value), '^[-+]?\d*\.?[0-9]+([eE][-+]?\d+)?$')">(LaboratoryObservation): value/low @value ist keine gültige PQ Zahl<value-of select="hl7:low/@value"/>
        </assert>
        <assert role="error" see="http://art-decor.org/art-decor/decor-templates--elgaimpf-?id=1.3.6.1.4.1.19376.1.3.1.6" test="not(hl7:high/@value) or matches(string(hl7:high/@value), '^[-+]?\d*\.?[0-9]+([eE][-+]?\d+)?$')">(LaboratoryObservation): value/high @value ist keine gültige PQ Zahl<value-of select="hl7:high/@value"/>
        </assert>
        <assert role="error" see="http://art-decor.org/art-decor/decor-templates--elgaimpf-?id=1.3.6.1.4.1.19376.1.3.1.6" test="not(hl7:center/@value) or matches(string(hl7:center/@value), '^[-+]?\d*\.?[0-9]+([eE][-+]?\d+)?$')">(LaboratoryObservation): value/center @value ist keine gültige PQ Zahl<value-of select="hl7:center/@value"/>
        </assert>
        <let name="xsiLocalName" value="if (contains(@xsi:type, ':')) then substring-after(@xsi:type,':') else @xsi:type"/>
        <let name="xsiLocalNS" value="if (contains(@xsi:type, ':')) then namespace-uri-for-prefix(substring-before(@xsi:type,':'),.) else namespace-uri-for-prefix('',.)"/>
        <assert role="error" see="http://art-decor.org/art-decor/decor-templates--elgaimpf-?id=1.3.6.1.4.1.19376.1.3.1.6" test="@nullFlavor or ($xsiLocalName='IVL_PQ' and $xsiLocalNS='urn:hl7-org:v3')">(LaboratoryObservation): Wenn eine @xsi:type Instruktion anwesend ist MUSS diese den Wert "{urn:hl7-org:v3}:IVL_PQ" haben. Gefunden "{<value-of select="namespace-uri-from-QName(resolve-QName(@xsi:type,.))"/>}:<value-of select="local-name-from-QName(resolve-QName(@xsi:type,.))"/>"</assert>
        <let name="elmcount" value="count(hl7:low[not(@nullFlavor)] | hl7:low[@nullFlavor='NA'] | hl7:low[@nullFlavor='NINF'])"/>
        <assert role="error" see="http://art-decor.org/art-decor/decor-templates--elgaimpf-?id=1.3.6.1.4.1.19376.1.3.1.6" test="$elmcount &gt;= 1">(LaboratoryObservation): Auswahl (hl7:low[not(@nullFlavor)]  oder  hl7:low[@nullFlavor='NA']  oder  hl7:low[@nullFlavor='NINF']) enthält nicht genügend Elemente [min 1x]</assert>
        <assert role="error" see="http://art-decor.org/art-decor/decor-templates--elgaimpf-?id=1.3.6.1.4.1.19376.1.3.1.6" test="$elmcount &lt;= 1">(LaboratoryObservation): Auswahl (hl7:low[not(@nullFlavor)]  oder  hl7:low[@nullFlavor='NA']  oder  hl7:low[@nullFlavor='NINF']) enthält zu viele Elemente [max 1x]</assert>
        <assert role="error" see="http://art-decor.org/art-decor/decor-templates--elgaimpf-?id=1.3.6.1.4.1.19376.1.3.1.6" test="count(hl7:low[not(@nullFlavor)]) &lt;= 1">(LaboratoryObservation): Element hl7:low[not(@nullFlavor)] kommt zu häufig vor [max 1x].</assert>
        <assert role="error" see="http://art-decor.org/art-decor/decor-templates--elgaimpf-?id=1.3.6.1.4.1.19376.1.3.1.6" test="count(hl7:low[@nullFlavor='NA']) &lt;= 1">(LaboratoryObservation): Element hl7:low[@nullFlavor='NA'] kommt zu häufig vor [max 1x].</assert>
        <assert role="error" see="http://art-decor.org/art-decor/decor-templates--elgaimpf-?id=1.3.6.1.4.1.19376.1.3.1.6" test="count(hl7:low[@nullFlavor='NINF']) &lt;= 1">(LaboratoryObservation): Element hl7:low[@nullFlavor='NINF'] kommt zu häufig vor [max 1x].</assert>
        <let name="elmcount" value="count(hl7:high[not(@nullFlavor)] | hl7:high[@nullFlavor='NA'] | hl7:high[@nullFlavor='PINF'])"/>
        <assert role="error" see="http://art-decor.org/art-decor/decor-templates--elgaimpf-?id=1.3.6.1.4.1.19376.1.3.1.6" test="$elmcount &gt;= 1">(LaboratoryObservation): Auswahl (hl7:high[not(@nullFlavor)]  oder  hl7:high[@nullFlavor='NA']  oder  hl7:high[@nullFlavor='PINF']) enthält nicht genügend Elemente [min 1x]</assert>
        <assert role="error" see="http://art-decor.org/art-decor/decor-templates--elgaimpf-?id=1.3.6.1.4.1.19376.1.3.1.6" test="$elmcount &lt;= 1">(LaboratoryObservation): Auswahl (hl7:high[not(@nullFlavor)]  oder  hl7:high[@nullFlavor='NA']  oder  hl7:high[@nullFlavor='PINF']) enthält zu viele Elemente [max 1x]</assert>
        <assert role="error" see="http://art-decor.org/art-decor/decor-templates--elgaimpf-?id=1.3.6.1.4.1.19376.1.3.1.6" test="count(hl7:high[not(@nullFlavor)]) &lt;= 1">(LaboratoryObservation): Element hl7:high[not(@nullFlavor)] kommt zu häufig vor [max 1x].</assert>
        <assert role="error" see="http://art-decor.org/art-decor/decor-templates--elgaimpf-?id=1.3.6.1.4.1.19376.1.3.1.6" test="count(hl7:high[@nullFlavor='NA']) &lt;= 1">(LaboratoryObservation): Element hl7:high[@nullFlavor='NA'] kommt zu häufig vor [max 1x].</assert>
        <assert role="error" see="http://art-decor.org/art-decor/decor-templates--elgaimpf-?id=1.3.6.1.4.1.19376.1.3.1.6" test="count(hl7:high[@nullFlavor='PINF']) &lt;= 1">(LaboratoryObservation): Element hl7:high[@nullFlavor='PINF'] kommt zu häufig vor [max 1x].</assert>
    </rule>
   <!--
Template derived rules for ID: 1.3.6.1.4.1.19376.1.3.1.6
Context: *[hl7:observation[hl7:templateId[@root = '1.3.6.1.4.1.19376.1.3.1.6']]]/hl7:observation[hl7:templateId[@root = '1.3.6.1.4.1.19376.1.3.1.6']]/hl7:referenceRange[@typeCode = 'REFV'][hl7:observationRange[@classCode = 'OBS'][@moodCode = 'EVN.CRT']]/hl7:observationRange[hl7:interpretationCode[(@code = 'N' and @codeSystem = '2.16.840.1.113883.5.83')]]/hl7:value[(local-name-from-QName(resolve-QName(@xsi:type,.))='IVL_PQ' and namespace-uri-from-QName(resolve-QName(@xsi:type,.))='urn:hl7-org:v3')]/hl7:low[not(@nullFlavor)]
Item: (LaboratoryObservation)
-->
    <rule context="*[hl7:observation[hl7:templateId[@root = '1.3.6.1.4.1.19376.1.3.1.6']]]/hl7:observation[hl7:templateId[@root = '1.3.6.1.4.1.19376.1.3.1.6']]/hl7:referenceRange[@typeCode = 'REFV'][hl7:observationRange[@classCode = 'OBS'][@moodCode = 'EVN.CRT']]/hl7:observationRange[hl7:interpretationCode[(@code = 'N' and @codeSystem = '2.16.840.1.113883.5.83')]]/hl7:value[(local-name-from-QName(resolve-QName(@xsi:type,.))='IVL_PQ' and namespace-uri-from-QName(resolve-QName(@xsi:type,.))='urn:hl7-org:v3')]/hl7:low[not(@nullFlavor)]" id="d245561e8853-false-d490774e0">
        <extends rule="PQ"/>
        <assert role="error" see="http://art-decor.org/art-decor/decor-templates--elgaimpf-?id=1.3.6.1.4.1.19376.1.3.1.6" test="(local-name-from-QName(resolve-QName(@xsi:type,.))='PQ' and namespace-uri-from-QName(resolve-QName(@xsi:type,.))='urn:hl7-org:v3') or not(@xsi:type)">(LaboratoryObservation): Wenn eine @xsi:type Instruktion anwesend ist MUSS diese den Wert "{urn:hl7-org:v3}:PQ" haben. Gefunden "{<value-of select="namespace-uri-from-QName(resolve-QName(@xsi:type,.))"/>}:<value-of select="local-name-from-QName(resolve-QName(@xsi:type,.))"/>"</assert>
        <assert role="error" see="http://art-decor.org/art-decor/decor-templates--elgaimpf-?id=1.3.6.1.4.1.19376.1.3.1.6" test="not(@value) or matches(@value, '^[-+]?\d*\.?[0-9]+([eE][-+]?\d+)?$')">(LaboratoryObservation): @value ist keine gültige PQ Zahl <value-of select="@value"/>
        </assert>
        <let name="theUnit" value="@unit"/>
        <let name="UCUMtest" value="doc('include/voc-UCUM.xml')/*/ucum[@unit=$theUnit]/@message"/>
        <assert role="warning" see="http://art-decor.org/art-decor/decor-templates--elgaimpf-?id=1.3.6.1.4.1.19376.1.3.1.6" test="$UCUMtest='OK' or string-length($UCUMtest)=0">(LaboratoryObservation): value/@unit (PQ) MUSS eine gültige UCUM-Einheit sein (<value-of select="$UCUMtest"/>).</assert>
    </rule>
   <!--
Template derived rules for ID: 1.3.6.1.4.1.19376.1.3.1.6
Context: *[hl7:observation[hl7:templateId[@root = '1.3.6.1.4.1.19376.1.3.1.6']]]/hl7:observation[hl7:templateId[@root = '1.3.6.1.4.1.19376.1.3.1.6']]/hl7:referenceRange[@typeCode = 'REFV'][hl7:observationRange[@classCode = 'OBS'][@moodCode = 'EVN.CRT']]/hl7:observationRange[hl7:interpretationCode[(@code = 'N' and @codeSystem = '2.16.840.1.113883.5.83')]]/hl7:value[(local-name-from-QName(resolve-QName(@xsi:type,.))='IVL_PQ' and namespace-uri-from-QName(resolve-QName(@xsi:type,.))='urn:hl7-org:v3')]/hl7:low[@nullFlavor='NA']
Item: (LaboratoryObservation)
-->
    <rule context="*[hl7:observation[hl7:templateId[@root = '1.3.6.1.4.1.19376.1.3.1.6']]]/hl7:observation[hl7:templateId[@root = '1.3.6.1.4.1.19376.1.3.1.6']]/hl7:referenceRange[@typeCode = 'REFV'][hl7:observationRange[@classCode = 'OBS'][@moodCode = 'EVN.CRT']]/hl7:observationRange[hl7:interpretationCode[(@code = 'N' and @codeSystem = '2.16.840.1.113883.5.83')]]/hl7:value[(local-name-from-QName(resolve-QName(@xsi:type,.))='IVL_PQ' and namespace-uri-from-QName(resolve-QName(@xsi:type,.))='urn:hl7-org:v3')]/hl7:low[@nullFlavor='NA']" id="d245561e8854-false-d490786e0">
        <extends rule="PQ"/>
        <assert role="error" see="http://art-decor.org/art-decor/decor-templates--elgaimpf-?id=1.3.6.1.4.1.19376.1.3.1.6" test="(local-name-from-QName(resolve-QName(@xsi:type,.))='PQ' and namespace-uri-from-QName(resolve-QName(@xsi:type,.))='urn:hl7-org:v3') or not(@xsi:type)">(LaboratoryObservation): Wenn eine @xsi:type Instruktion anwesend ist MUSS diese den Wert "{urn:hl7-org:v3}:PQ" haben. Gefunden "{<value-of select="namespace-uri-from-QName(resolve-QName(@xsi:type,.))"/>}:<value-of select="local-name-from-QName(resolve-QName(@xsi:type,.))"/>"</assert>
        <assert role="error" see="http://art-decor.org/art-decor/decor-templates--elgaimpf-?id=1.3.6.1.4.1.19376.1.3.1.6" test="not(@value) or matches(@value, '^[-+]?\d*\.?[0-9]+([eE][-+]?\d+)?$')">(LaboratoryObservation): @value ist keine gültige PQ Zahl <value-of select="@value"/>
        </assert>
        <let name="theUnit" value="@unit"/>
        <let name="UCUMtest" value="doc('include/voc-UCUM.xml')/*/ucum[@unit=$theUnit]/@message"/>
        <assert role="warning" see="http://art-decor.org/art-decor/decor-templates--elgaimpf-?id=1.3.6.1.4.1.19376.1.3.1.6" test="$UCUMtest='OK' or string-length($UCUMtest)=0">(LaboratoryObservation): value/@unit (PQ) MUSS eine gültige UCUM-Einheit sein (<value-of select="$UCUMtest"/>).</assert>
        <assert role="error" see="http://art-decor.org/art-decor/decor-templates--elgaimpf-?id=1.3.6.1.4.1.19376.1.3.1.6" test="string(@nullFlavor) = ('NA')">(LaboratoryObservation): Der Wert von nullFlavor MUSS 'NA' sein. Gefunden: "<value-of select="@nullFlavor"/>"</assert>
    </rule>
   <!--
Template derived rules for ID: 1.3.6.1.4.1.19376.1.3.1.6
Context: *[hl7:observation[hl7:templateId[@root = '1.3.6.1.4.1.19376.1.3.1.6']]]/hl7:observation[hl7:templateId[@root = '1.3.6.1.4.1.19376.1.3.1.6']]/hl7:referenceRange[@typeCode = 'REFV'][hl7:observationRange[@classCode = 'OBS'][@moodCode = 'EVN.CRT']]/hl7:observationRange[hl7:interpretationCode[(@code = 'N' and @codeSystem = '2.16.840.1.113883.5.83')]]/hl7:value[(local-name-from-QName(resolve-QName(@xsi:type,.))='IVL_PQ' and namespace-uri-from-QName(resolve-QName(@xsi:type,.))='urn:hl7-org:v3')]/hl7:low[@nullFlavor='NINF']
Item: (LaboratoryObservation)
-->
    <rule context="*[hl7:observation[hl7:templateId[@root = '1.3.6.1.4.1.19376.1.3.1.6']]]/hl7:observation[hl7:templateId[@root = '1.3.6.1.4.1.19376.1.3.1.6']]/hl7:referenceRange[@typeCode = 'REFV'][hl7:observationRange[@classCode = 'OBS'][@moodCode = 'EVN.CRT']]/hl7:observationRange[hl7:interpretationCode[(@code = 'N' and @codeSystem = '2.16.840.1.113883.5.83')]]/hl7:value[(local-name-from-QName(resolve-QName(@xsi:type,.))='IVL_PQ' and namespace-uri-from-QName(resolve-QName(@xsi:type,.))='urn:hl7-org:v3')]/hl7:low[@nullFlavor='NINF']" id="d245561e8856-false-d490801e0">
        <extends rule="PQ"/>
        <assert role="error" see="http://art-decor.org/art-decor/decor-templates--elgaimpf-?id=1.3.6.1.4.1.19376.1.3.1.6" test="(local-name-from-QName(resolve-QName(@xsi:type,.))='PQ' and namespace-uri-from-QName(resolve-QName(@xsi:type,.))='urn:hl7-org:v3') or not(@xsi:type)">(LaboratoryObservation): Wenn eine @xsi:type Instruktion anwesend ist MUSS diese den Wert "{urn:hl7-org:v3}:PQ" haben. Gefunden "{<value-of select="namespace-uri-from-QName(resolve-QName(@xsi:type,.))"/>}:<value-of select="local-name-from-QName(resolve-QName(@xsi:type,.))"/>"</assert>
        <assert role="error" see="http://art-decor.org/art-decor/decor-templates--elgaimpf-?id=1.3.6.1.4.1.19376.1.3.1.6" test="not(@value) or matches(@value, '^[-+]?\d*\.?[0-9]+([eE][-+]?\d+)?$')">(LaboratoryObservation): @value ist keine gültige PQ Zahl <value-of select="@value"/>
        </assert>
        <let name="theUnit" value="@unit"/>
        <let name="UCUMtest" value="doc('include/voc-UCUM.xml')/*/ucum[@unit=$theUnit]/@message"/>
        <assert role="warning" see="http://art-decor.org/art-decor/decor-templates--elgaimpf-?id=1.3.6.1.4.1.19376.1.3.1.6" test="$UCUMtest='OK' or string-length($UCUMtest)=0">(LaboratoryObservation): value/@unit (PQ) MUSS eine gültige UCUM-Einheit sein (<value-of select="$UCUMtest"/>).</assert>
        <assert role="error" see="http://art-decor.org/art-decor/decor-templates--elgaimpf-?id=1.3.6.1.4.1.19376.1.3.1.6" test="string(@nullFlavor) = ('NINF')">(LaboratoryObservation): Der Wert von nullFlavor MUSS 'NINF' sein. Gefunden: "<value-of select="@nullFlavor"/>"</assert>
    </rule>
   <!--
Template derived rules for ID: 1.3.6.1.4.1.19376.1.3.1.6
Context: *[hl7:observation[hl7:templateId[@root = '1.3.6.1.4.1.19376.1.3.1.6']]]/hl7:observation[hl7:templateId[@root = '1.3.6.1.4.1.19376.1.3.1.6']]/hl7:referenceRange[@typeCode = 'REFV'][hl7:observationRange[@classCode = 'OBS'][@moodCode = 'EVN.CRT']]/hl7:observationRange[hl7:interpretationCode[(@code = 'N' and @codeSystem = '2.16.840.1.113883.5.83')]]/hl7:value[(local-name-from-QName(resolve-QName(@xsi:type,.))='IVL_PQ' and namespace-uri-from-QName(resolve-QName(@xsi:type,.))='urn:hl7-org:v3')]/hl7:high[not(@nullFlavor)]
Item: (LaboratoryObservation)
-->
    <rule context="*[hl7:observation[hl7:templateId[@root = '1.3.6.1.4.1.19376.1.3.1.6']]]/hl7:observation[hl7:templateId[@root = '1.3.6.1.4.1.19376.1.3.1.6']]/hl7:referenceRange[@typeCode = 'REFV'][hl7:observationRange[@classCode = 'OBS'][@moodCode = 'EVN.CRT']]/hl7:observationRange[hl7:interpretationCode[(@code = 'N' and @codeSystem = '2.16.840.1.113883.5.83')]]/hl7:value[(local-name-from-QName(resolve-QName(@xsi:type,.))='IVL_PQ' and namespace-uri-from-QName(resolve-QName(@xsi:type,.))='urn:hl7-org:v3')]/hl7:high[not(@nullFlavor)]" id="d245561e8859-false-d490816e0">
        <extends rule="PQ"/>
        <assert role="error" see="http://art-decor.org/art-decor/decor-templates--elgaimpf-?id=1.3.6.1.4.1.19376.1.3.1.6" test="(local-name-from-QName(resolve-QName(@xsi:type,.))='PQ' and namespace-uri-from-QName(resolve-QName(@xsi:type,.))='urn:hl7-org:v3') or not(@xsi:type)">(LaboratoryObservation): Wenn eine @xsi:type Instruktion anwesend ist MUSS diese den Wert "{urn:hl7-org:v3}:PQ" haben. Gefunden "{<value-of select="namespace-uri-from-QName(resolve-QName(@xsi:type,.))"/>}:<value-of select="local-name-from-QName(resolve-QName(@xsi:type,.))"/>"</assert>
        <assert role="error" see="http://art-decor.org/art-decor/decor-templates--elgaimpf-?id=1.3.6.1.4.1.19376.1.3.1.6" test="not(@value) or matches(@value, '^[-+]?\d*\.?[0-9]+([eE][-+]?\d+)?$')">(LaboratoryObservation): @value ist keine gültige PQ Zahl <value-of select="@value"/>
        </assert>
        <let name="theUnit" value="@unit"/>
        <let name="UCUMtest" value="doc('include/voc-UCUM.xml')/*/ucum[@unit=$theUnit]/@message"/>
        <assert role="warning" see="http://art-decor.org/art-decor/decor-templates--elgaimpf-?id=1.3.6.1.4.1.19376.1.3.1.6" test="$UCUMtest='OK' or string-length($UCUMtest)=0">(LaboratoryObservation): value/@unit (PQ) MUSS eine gültige UCUM-Einheit sein (<value-of select="$UCUMtest"/>).</assert>
    </rule>
   <!--
Template derived rules for ID: 1.3.6.1.4.1.19376.1.3.1.6
Context: *[hl7:observation[hl7:templateId[@root = '1.3.6.1.4.1.19376.1.3.1.6']]]/hl7:observation[hl7:templateId[@root = '1.3.6.1.4.1.19376.1.3.1.6']]/hl7:referenceRange[@typeCode = 'REFV'][hl7:observationRange[@classCode = 'OBS'][@moodCode = 'EVN.CRT']]/hl7:observationRange[hl7:interpretationCode[(@code = 'N' and @codeSystem = '2.16.840.1.113883.5.83')]]/hl7:value[(local-name-from-QName(resolve-QName(@xsi:type,.))='IVL_PQ' and namespace-uri-from-QName(resolve-QName(@xsi:type,.))='urn:hl7-org:v3')]/hl7:high[@nullFlavor='NA']
Item: (LaboratoryObservation)
-->
    <rule context="*[hl7:observation[hl7:templateId[@root = '1.3.6.1.4.1.19376.1.3.1.6']]]/hl7:observation[hl7:templateId[@root = '1.3.6.1.4.1.19376.1.3.1.6']]/hl7:referenceRange[@typeCode = 'REFV'][hl7:observationRange[@classCode = 'OBS'][@moodCode = 'EVN.CRT']]/hl7:observationRange[hl7:interpretationCode[(@code = 'N' and @codeSystem = '2.16.840.1.113883.5.83')]]/hl7:value[(local-name-from-QName(resolve-QName(@xsi:type,.))='IVL_PQ' and namespace-uri-from-QName(resolve-QName(@xsi:type,.))='urn:hl7-org:v3')]/hl7:high[@nullFlavor='NA']" id="d245561e8860-false-d490828e0">
        <extends rule="PQ"/>
        <assert role="error" see="http://art-decor.org/art-decor/decor-templates--elgaimpf-?id=1.3.6.1.4.1.19376.1.3.1.6" test="(local-name-from-QName(resolve-QName(@xsi:type,.))='PQ' and namespace-uri-from-QName(resolve-QName(@xsi:type,.))='urn:hl7-org:v3') or not(@xsi:type)">(LaboratoryObservation): Wenn eine @xsi:type Instruktion anwesend ist MUSS diese den Wert "{urn:hl7-org:v3}:PQ" haben. Gefunden "{<value-of select="namespace-uri-from-QName(resolve-QName(@xsi:type,.))"/>}:<value-of select="local-name-from-QName(resolve-QName(@xsi:type,.))"/>"</assert>
        <assert role="error" see="http://art-decor.org/art-decor/decor-templates--elgaimpf-?id=1.3.6.1.4.1.19376.1.3.1.6" test="not(@value) or matches(@value, '^[-+]?\d*\.?[0-9]+([eE][-+]?\d+)?$')">(LaboratoryObservation): @value ist keine gültige PQ Zahl <value-of select="@value"/>
        </assert>
        <let name="theUnit" value="@unit"/>
        <let name="UCUMtest" value="doc('include/voc-UCUM.xml')/*/ucum[@unit=$theUnit]/@message"/>
        <assert role="warning" see="http://art-decor.org/art-decor/decor-templates--elgaimpf-?id=1.3.6.1.4.1.19376.1.3.1.6" test="$UCUMtest='OK' or string-length($UCUMtest)=0">(LaboratoryObservation): value/@unit (PQ) MUSS eine gültige UCUM-Einheit sein (<value-of select="$UCUMtest"/>).</assert>
        <assert role="error" see="http://art-decor.org/art-decor/decor-templates--elgaimpf-?id=1.3.6.1.4.1.19376.1.3.1.6" test="string(@nullFlavor) = ('NA')">(LaboratoryObservation): Der Wert von nullFlavor MUSS 'NA' sein. Gefunden: "<value-of select="@nullFlavor"/>"</assert>
    </rule>
   <!--
Template derived rules for ID: 1.3.6.1.4.1.19376.1.3.1.6
Context: *[hl7:observation[hl7:templateId[@root = '1.3.6.1.4.1.19376.1.3.1.6']]]/hl7:observation[hl7:templateId[@root = '1.3.6.1.4.1.19376.1.3.1.6']]/hl7:referenceRange[@typeCode = 'REFV'][hl7:observationRange[@classCode = 'OBS'][@moodCode = 'EVN.CRT']]/hl7:observationRange[hl7:interpretationCode[(@code = 'N' and @codeSystem = '2.16.840.1.113883.5.83')]]/hl7:value[(local-name-from-QName(resolve-QName(@xsi:type,.))='IVL_PQ' and namespace-uri-from-QName(resolve-QName(@xsi:type,.))='urn:hl7-org:v3')]/hl7:high[@nullFlavor='PINF']
Item: (LaboratoryObservation)
-->
    <rule context="*[hl7:observation[hl7:templateId[@root = '1.3.6.1.4.1.19376.1.3.1.6']]]/hl7:observation[hl7:templateId[@root = '1.3.6.1.4.1.19376.1.3.1.6']]/hl7:referenceRange[@typeCode = 'REFV'][hl7:observationRange[@classCode = 'OBS'][@moodCode = 'EVN.CRT']]/hl7:observationRange[hl7:interpretationCode[(@code = 'N' and @codeSystem = '2.16.840.1.113883.5.83')]]/hl7:value[(local-name-from-QName(resolve-QName(@xsi:type,.))='IVL_PQ' and namespace-uri-from-QName(resolve-QName(@xsi:type,.))='urn:hl7-org:v3')]/hl7:high[@nullFlavor='PINF']" id="d245561e8862-false-d490843e0">
        <extends rule="PQ"/>
        <assert role="error" see="http://art-decor.org/art-decor/decor-templates--elgaimpf-?id=1.3.6.1.4.1.19376.1.3.1.6" test="(local-name-from-QName(resolve-QName(@xsi:type,.))='PQ' and namespace-uri-from-QName(resolve-QName(@xsi:type,.))='urn:hl7-org:v3') or not(@xsi:type)">(LaboratoryObservation): Wenn eine @xsi:type Instruktion anwesend ist MUSS diese den Wert "{urn:hl7-org:v3}:PQ" haben. Gefunden "{<value-of select="namespace-uri-from-QName(resolve-QName(@xsi:type,.))"/>}:<value-of select="local-name-from-QName(resolve-QName(@xsi:type,.))"/>"</assert>
        <assert role="error" see="http://art-decor.org/art-decor/decor-templates--elgaimpf-?id=1.3.6.1.4.1.19376.1.3.1.6" test="not(@value) or matches(@value, '^[-+]?\d*\.?[0-9]+([eE][-+]?\d+)?$')">(LaboratoryObservation): @value ist keine gültige PQ Zahl <value-of select="@value"/>
        </assert>
        <let name="theUnit" value="@unit"/>
        <let name="UCUMtest" value="doc('include/voc-UCUM.xml')/*/ucum[@unit=$theUnit]/@message"/>
        <assert role="warning" see="http://art-decor.org/art-decor/decor-templates--elgaimpf-?id=1.3.6.1.4.1.19376.1.3.1.6" test="$UCUMtest='OK' or string-length($UCUMtest)=0">(LaboratoryObservation): value/@unit (PQ) MUSS eine gültige UCUM-Einheit sein (<value-of select="$UCUMtest"/>).</assert>
        <assert role="error" see="http://art-decor.org/art-decor/decor-templates--elgaimpf-?id=1.3.6.1.4.1.19376.1.3.1.6" test="string(@nullFlavor) = ('PINF')">(LaboratoryObservation): Der Wert von nullFlavor MUSS 'PINF' sein. Gefunden: "<value-of select="@nullFlavor"/>"</assert>
    </rule>
   <!--
Template derived rules for ID: 1.3.6.1.4.1.19376.1.3.1.6
Context: *[hl7:observation[hl7:templateId[@root = '1.3.6.1.4.1.19376.1.3.1.6']]]/hl7:observation[hl7:templateId[@root = '1.3.6.1.4.1.19376.1.3.1.6']]/hl7:referenceRange[@typeCode = 'REFV'][hl7:observationRange[@classCode = 'OBS'][@moodCode = 'EVN.CRT']]/hl7:observationRange[hl7:interpretationCode[(@code = 'N' and @codeSystem = '2.16.840.1.113883.5.83')]]/hl7:interpretationCode[(@code = 'N' and @codeSystem = '2.16.840.1.113883.5.83')]
Item: (LaboratoryObservation)
-->
    <rule context="*[hl7:observation[hl7:templateId[@root = '1.3.6.1.4.1.19376.1.3.1.6']]]/hl7:observation[hl7:templateId[@root = '1.3.6.1.4.1.19376.1.3.1.6']]/hl7:referenceRange[@typeCode = 'REFV'][hl7:observationRange[@classCode = 'OBS'][@moodCode = 'EVN.CRT']]/hl7:observationRange[hl7:interpretationCode[(@code = 'N' and @codeSystem = '2.16.840.1.113883.5.83')]]/hl7:interpretationCode[(@code = 'N' and @codeSystem = '2.16.840.1.113883.5.83')]" id="d245561e8864-false-d490861e0">
        <extends rule="CE"/>
        <assert role="error" see="http://art-decor.org/art-decor/decor-templates--elgaimpf-?id=1.3.6.1.4.1.19376.1.3.1.6" test="(local-name-from-QName(resolve-QName(@xsi:type,.))='CE' and namespace-uri-from-QName(resolve-QName(@xsi:type,.))='urn:hl7-org:v3') or not(@xsi:type)">(LaboratoryObservation): Wenn eine @xsi:type Instruktion anwesend ist MUSS diese den Wert "{urn:hl7-org:v3}:CE" haben. Gefunden "{<value-of select="namespace-uri-from-QName(resolve-QName(@xsi:type,.))"/>}:<value-of select="local-name-from-QName(resolve-QName(@xsi:type,.))"/>"</assert>
        <assert role="error" see="http://art-decor.org/art-decor/decor-templates--elgaimpf-?id=1.3.6.1.4.1.19376.1.3.1.6" test="@nullFlavor or (@code='N' and @codeSystem='2.16.840.1.113883.5.83')">(LaboratoryObservation): Der Elementinhalt MUSS einer von 'code 'N' codeSystem '2.16.840.1.113883.5.83'' sein.</assert>
    </rule>

   <!--
Template derived rules for ID: 1.3.6.1.4.1.19376.1.3.1.6
Context: *[hl7:observation[hl7:templateId[@root = '1.3.6.1.4.1.19376.1.3.1.6']]]/hl7:observation[hl7:templateId[@root = '1.3.6.1.4.1.19376.1.3.1.6']]/hl7:performer[hl7:templateId[@root = '1.2.40.0.34.11.4.3.3']]
Item: (LaboratoryObservation)
-->
</pattern>